%!PS-Adobe-3.0 EPSF-3.0
%%Creator: (MATLAB, The Mathworks, Inc. Version 9.1.0.441655 \(R2016b\). Operating System: Windows 8)
%%Title: D:/Users/Administrator/Desktop/flight-control-system-paper/report/fig/aileron.eps
%%CreationDate: 2019-05-03T16:00:54
%%Pages: (atend)
%%BoundingBox: 0 0 445 316
%%LanguageLevel: 3
%%EndComments
%%BeginProlog
%%BeginResource: procset (Apache XML Graphics Std ProcSet) 1.2 0
%%Version: 1.2 0
%%Copyright: (Copyright 2001-2003,2010 The Apache Software Foundation. License terms: http://www.apache.org/licenses/LICENSE-2.0)
/bd{bind def}bind def
/ld{load def}bd
/GR/grestore ld
/M/moveto ld
/LJ/setlinejoin ld
/C/curveto ld
/f/fill ld
/LW/setlinewidth ld
/GC/setgray ld
/t/show ld
/N/newpath ld
/CT/concat ld
/cp/closepath ld
/S/stroke ld
/L/lineto ld
/CC/setcmykcolor ld
/A/ashow ld
/GS/gsave ld
/RC/setrgbcolor ld
/RM/rmoveto ld
/ML/setmiterlimit ld
/re {4 2 roll M
1 index 0 rlineto
0 exch rlineto
neg 0 rlineto
cp } bd
/_ctm matrix def
/_tm matrix def
/BT { _ctm currentmatrix pop matrix _tm copy pop 0 0 moveto } bd
/ET { _ctm setmatrix } bd
/iTm { _ctm setmatrix _tm concat } bd
/Tm { _tm astore pop iTm 0 0 moveto } bd
/ux 0.0 def
/uy 0.0 def
/F {
  /Tp exch def
  /Tf exch def
  Tf findfont Tp scalefont setfont
  /cf Tf def  /cs Tp def
} bd
/ULS {currentpoint /uy exch def /ux exch def} bd
/ULE {
  /Tcx currentpoint pop def
  gsave
  newpath
  cf findfont cs scalefont dup
  /FontMatrix get 0 get /Ts exch def /FontInfo get dup
  /UnderlinePosition get Ts mul /To exch def
  /UnderlineThickness get Ts mul /Tt exch def
  ux uy To add moveto  Tcx uy To add lineto
  Tt setlinewidth stroke
  grestore
} bd
/OLE {
  /Tcx currentpoint pop def
  gsave
  newpath
  cf findfont cs scalefont dup
  /FontMatrix get 0 get /Ts exch def /FontInfo get dup
  /UnderlinePosition get Ts mul /To exch def
  /UnderlineThickness get Ts mul /Tt exch def
  ux uy To add cs add moveto Tcx uy To add cs add lineto
  Tt setlinewidth stroke
  grestore
} bd
/SOE {
  /Tcx currentpoint pop def
  gsave
  newpath
  cf findfont cs scalefont dup
  /FontMatrix get 0 get /Ts exch def /FontInfo get dup
  /UnderlinePosition get Ts mul /To exch def
  /UnderlineThickness get Ts mul /Tt exch def
  ux uy To add cs 10 mul 26 idiv add moveto Tcx uy To add cs 10 mul 26 idiv add lineto
  Tt setlinewidth stroke
  grestore
} bd
/QT {
/Y22 exch store
/X22 exch store
/Y21 exch store
/X21 exch store
currentpoint
/Y21 load 2 mul add 3 div exch
/X21 load 2 mul add 3 div exch
/X21 load 2 mul /X22 load add 3 div
/Y21 load 2 mul /Y22 load add 3 div
/X22 load /Y22 load curveto
} bd
/SSPD {
dup length /d exch dict def
{
/v exch def
/k exch def
currentpagedevice k known {
/cpdv currentpagedevice k get def
v cpdv ne {
/upd false def
/nullv v type /nulltype eq def
/nullcpdv cpdv type /nulltype eq def
nullv nullcpdv or
{
/upd true def
} {
/sametype v type cpdv type eq def
sametype {
v type /arraytype eq {
/vlen v length def
/cpdvlen cpdv length def
vlen cpdvlen eq {
0 1 vlen 1 sub {
/i exch def
/obj v i get def
/cpdobj cpdv i get def
obj cpdobj ne {
/upd true def
exit
} if
} for
} {
/upd true def
} ifelse
} {
v type /dicttype eq {
v {
/dv exch def
/dk exch def
/cpddv cpdv dk get def
dv cpddv ne {
/upd true def
exit
} if
} forall
} {
/upd true def
} ifelse
} ifelse
} if
} ifelse
upd true eq {
d k v put
} if
} if
} if
} forall
d length 0 gt {
d setpagedevice
} if
} bd
/RE { % /NewFontName [NewEncodingArray] /FontName RE -
  findfont dup length dict begin
  {
    1 index /FID ne
    {def} {pop pop} ifelse
  } forall
  /Encoding exch def
  /FontName 1 index def
  currentdict definefont pop
  end
} bind def
%%EndResource
%%BeginResource: procset (Apache XML Graphics EPS ProcSet) 1.0 0
%%Version: 1.0 0
%%Copyright: (Copyright 2002-2003 The Apache Software Foundation. License terms: http://www.apache.org/licenses/LICENSE-2.0)
/BeginEPSF { %def
/b4_Inc_state save def         % Save state for cleanup
/dict_count countdictstack def % Count objects on dict stack
/op_count count 1 sub def      % Count objects on operand stack
userdict begin                 % Push userdict on dict stack
/showpage { } def              % Redefine showpage, { } = null proc
0 setgray 0 setlinecap         % Prepare graphics state
1 setlinewidth 0 setlinejoin
10 setmiterlimit [ ] 0 setdash newpath
/languagelevel where           % If level not equal to 1 then
{pop languagelevel             % set strokeadjust and
1 ne                           % overprint to their defaults.
{false setstrokeadjust false setoverprint
} if
} if
} bd
/EndEPSF { %def
count op_count sub {pop} repeat            % Clean up stacks
countdictstack dict_count sub {end} repeat
b4_Inc_state restore
} bd
%%EndResource
%FOPBeginFontDict
%%IncludeResource: font Courier-Bold
%%IncludeResource: font Helvetica
%%IncludeResource: font Courier-BoldOblique
%%IncludeResource: font Courier-Oblique
%%IncludeResource: font Times-Roman
%%IncludeResource: font Helvetica-BoldOblique
%%IncludeResource: font Helvetica-Bold
%%IncludeResource: font Helvetica-Oblique
%%IncludeResource: font Times-BoldItalic
%%IncludeResource: font Courier
%%IncludeResource: font Times-Italic
%%IncludeResource: font Times-Bold
%%IncludeResource: font Symbol
%%IncludeResource: font ZapfDingbats
%FOPEndFontDict
%%BeginResource: encoding WinAnsiEncoding
/WinAnsiEncoding [
/.notdef /.notdef /.notdef /.notdef /.notdef
/.notdef /.notdef /.notdef /.notdef /.notdef
/.notdef /.notdef /.notdef /.notdef /.notdef
/.notdef /.notdef /.notdef /.notdef /.notdef
/.notdef /.notdef /.notdef /.notdef /.notdef
/.notdef /.notdef /.notdef /.notdef /.notdef
/.notdef /.notdef /space /exclam /quotedbl
/numbersign /dollar /percent /ampersand /quotesingle
/parenleft /parenright /asterisk /plus /comma
/hyphen /period /slash /zero /one
/two /three /four /five /six
/seven /eight /nine /colon /semicolon
/less /equal /greater /question /at
/A /B /C /D /E
/F /G /H /I /J
/K /L /M /N /O
/P /Q /R /S /T
/U /V /W /X /Y
/Z /bracketleft /backslash /bracketright /asciicircum
/underscore /quoteleft /a /b /c
/d /e /f /g /h
/i /j /k /l /m
/n /o /p /q /r
/s /t /u /v /w
/x /y /z /braceleft /bar
/braceright /asciitilde /bullet /Euro /bullet
/quotesinglbase /florin /quotedblbase /ellipsis /dagger
/daggerdbl /circumflex /perthousand /Scaron /guilsinglleft
/OE /bullet /Zcaron /bullet /bullet
/quoteleft /quoteright /quotedblleft /quotedblright /bullet
/endash /emdash /asciitilde /trademark /scaron
/guilsinglright /oe /bullet /zcaron /Ydieresis
/space /exclamdown /cent /sterling /currency
/yen /brokenbar /section /dieresis /copyright
/ordfeminine /guillemotleft /logicalnot /sfthyphen /registered
/macron /degree /plusminus /twosuperior /threesuperior
/acute /mu /paragraph /middot /cedilla
/onesuperior /ordmasculine /guillemotright /onequarter /onehalf
/threequarters /questiondown /Agrave /Aacute /Acircumflex
/Atilde /Adieresis /Aring /AE /Ccedilla
/Egrave /Eacute /Ecircumflex /Edieresis /Igrave
/Iacute /Icircumflex /Idieresis /Eth /Ntilde
/Ograve /Oacute /Ocircumflex /Otilde /Odieresis
/multiply /Oslash /Ugrave /Uacute /Ucircumflex
/Udieresis /Yacute /Thorn /germandbls /agrave
/aacute /acircumflex /atilde /adieresis /aring
/ae /ccedilla /egrave /eacute /ecircumflex
/edieresis /igrave /iacute /icircumflex /idieresis
/eth /ntilde /ograve /oacute /ocircumflex
/otilde /odieresis /divide /oslash /ugrave
/uacute /ucircumflex /udieresis /yacute /thorn
/ydieresis
] def
%%EndResource
%FOPBeginFontReencode
/Courier-Bold findfont
dup length dict begin
  {1 index /FID ne {def} {pop pop} ifelse} forall
  /Encoding WinAnsiEncoding def
  currentdict
end
/Courier-Bold exch definefont pop
/Helvetica findfont
dup length dict begin
  {1 index /FID ne {def} {pop pop} ifelse} forall
  /Encoding WinAnsiEncoding def
  currentdict
end
/Helvetica exch definefont pop
/Courier-BoldOblique findfont
dup length dict begin
  {1 index /FID ne {def} {pop pop} ifelse} forall
  /Encoding WinAnsiEncoding def
  currentdict
end
/Courier-BoldOblique exch definefont pop
/Courier-Oblique findfont
dup length dict begin
  {1 index /FID ne {def} {pop pop} ifelse} forall
  /Encoding WinAnsiEncoding def
  currentdict
end
/Courier-Oblique exch definefont pop
/Times-Roman findfont
dup length dict begin
  {1 index /FID ne {def} {pop pop} ifelse} forall
  /Encoding WinAnsiEncoding def
  currentdict
end
/Times-Roman exch definefont pop
/Helvetica-BoldOblique findfont
dup length dict begin
  {1 index /FID ne {def} {pop pop} ifelse} forall
  /Encoding WinAnsiEncoding def
  currentdict
end
/Helvetica-BoldOblique exch definefont pop
/Helvetica-Bold findfont
dup length dict begin
  {1 index /FID ne {def} {pop pop} ifelse} forall
  /Encoding WinAnsiEncoding def
  currentdict
end
/Helvetica-Bold exch definefont pop
/Helvetica-Oblique findfont
dup length dict begin
  {1 index /FID ne {def} {pop pop} ifelse} forall
  /Encoding WinAnsiEncoding def
  currentdict
end
/Helvetica-Oblique exch definefont pop
/Times-BoldItalic findfont
dup length dict begin
  {1 index /FID ne {def} {pop pop} ifelse} forall
  /Encoding WinAnsiEncoding def
  currentdict
end
/Times-BoldItalic exch definefont pop
/Courier findfont
dup length dict begin
  {1 index /FID ne {def} {pop pop} ifelse} forall
  /Encoding WinAnsiEncoding def
  currentdict
end
/Courier exch definefont pop
/Times-Italic findfont
dup length dict begin
  {1 index /FID ne {def} {pop pop} ifelse} forall
  /Encoding WinAnsiEncoding def
  currentdict
end
/Times-Italic exch definefont pop
/Times-Bold findfont
dup length dict begin
  {1 index /FID ne {def} {pop pop} ifelse} forall
  /Encoding WinAnsiEncoding def
  currentdict
end
/Times-Bold exch definefont pop
%FOPEndFontReencode
%%EndProlog
%%Page: 1 1
%%PageBoundingBox: 0 0 445 316
%%BeginPageSetup
[1 0 0 -1 0 316] CT
%%EndPageSetup
GS
[0.6 0 0 0.6 0 0.40002] CT
1 GC
N
0 0 741 526 re
f
GR
GS
[0.6 0 0 0.6 0 0.40002] CT
1 GC
N
0 0 741 526 re
f
GR
GS
[0.6 0 0 0.6 0 0.40002] CT
1 GC
N
110 128 M
343 128 L
343 50 L
110 50 L
cp
f
GR
GS
[0.6 0 0 0.6 0 0.40002] CT
0.873 GC
1 LJ
0.833 LW
N
110 128 M
110 50 L
S
GR
GS
[0.6 0 0 0.6 0 0.40002] CT
0.873 GC
1 LJ
0.833 LW
N
168.25 128 M
168.25 50 L
S
GR
GS
[0.6 0 0 0.6 0 0.40002] CT
0.873 GC
1 LJ
0.833 LW
N
226.5 128 M
226.5 50 L
S
GR
GS
[0.6 0 0 0.6 0 0.40002] CT
0.873 GC
1 LJ
0.833 LW
N
284.75 128 M
284.75 50 L
S
GR
GS
[0.6 0 0 0.6 0 0.40002] CT
0.873 GC
1 LJ
0.833 LW
N
343 128 M
343 50 L
S
GR
GS
[0.6 0 0 0.6 0 0.40002] CT
0.873 GC
1 LJ
0.833 LW
N
343 128 M
110 128 L
S
GR
GS
[0.6 0 0 0.6 0 0.40002] CT
0.873 GC
1 LJ
0.833 LW
N
343 89 M
110 89 L
S
GR
GS
[0.6 0 0 0.6 0 0.40002] CT
0.873 GC
1 LJ
0.833 LW
N
343 50 M
110 50 L
S
GR
GS
[0.6 0 0 0.6 0 0.40002] CT
0.149 GC
2 setlinecap
1 LJ
0.833 LW
N
110 128 M
343 128 L
S
GR
GS
[0.6 0 0 0.6 0 0.40002] CT
0.149 GC
2 setlinecap
1 LJ
0.833 LW
N
110 50 M
343 50 L
S
GR
GS
[0.6 0 0 0.6 0 0.40002] CT
0.149 GC
2 setlinecap
1 LJ
0.833 LW
N
110 128 M
110 125.67 L
S
GR
GS
[0.6 0 0 0.6 0 0.40002] CT
0.149 GC
2 setlinecap
1 LJ
0.833 LW
N
168.25 128 M
168.25 125.67 L
S
GR
GS
[0.6 0 0 0.6 0 0.40002] CT
0.149 GC
2 setlinecap
1 LJ
0.833 LW
N
226.5 128 M
226.5 125.67 L
S
GR
GS
[0.6 0 0 0.6 0 0.40002] CT
0.149 GC
2 setlinecap
1 LJ
0.833 LW
N
284.75 128 M
284.75 125.67 L
S
GR
GS
[0.6 0 0 0.6 0 0.40002] CT
0.149 GC
2 setlinecap
1 LJ
0.833 LW
N
343 128 M
343 125.67 L
S
GR
GS
[0.6 0 0 0.6 0 0.40002] CT
0.149 GC
2 setlinecap
1 LJ
0.833 LW
N
110 50 M
110 52.33 L
S
GR
GS
[0.6 0 0 0.6 0 0.40002] CT
0.149 GC
2 setlinecap
1 LJ
0.833 LW
N
168.25 50 M
168.25 52.33 L
S
GR
GS
[0.6 0 0 0.6 0 0.40002] CT
0.149 GC
2 setlinecap
1 LJ
0.833 LW
N
226.5 50 M
226.5 52.33 L
S
GR
GS
[0.6 0 0 0.6 0 0.40002] CT
0.149 GC
2 setlinecap
1 LJ
0.833 LW
N
284.75 50 M
284.75 52.33 L
S
GR
GS
[0.6 0 0 0.6 0 0.40002] CT
0.149 GC
2 setlinecap
1 LJ
0.833 LW
N
343 50 M
343 52.33 L
S
GR
GS
[0.6 0 0 0.6 66 81.20002] CT
0.149 GC
/Helvetica 16.667 F
GS
[1 0 0 1 0 0] CT
-5 18 moveto 
1 -1 scale
(0) t 
GR
GR
GS
[0.6 0 0 0.6 100.95 81.20002] CT
0.149 GC
/Helvetica 16.667 F
GS
[1 0 0 1 0 0] CT
-14.5 18 moveto 
1 -1 scale
(100) t 
GR
GR
GS
[0.6 0 0 0.6 135.9 81.20002] CT
0.149 GC
/Helvetica 16.667 F
GS
[1 0 0 1 0 0] CT
-14.5 18 moveto 
1 -1 scale
(200) t 
GR
GR
GS
[0.6 0 0 0.6 170.85 81.20002] CT
0.149 GC
/Helvetica 16.667 F
GS
[1 0 0 1 0 0] CT
-14.5 18 moveto 
1 -1 scale
(300) t 
GR
GR
GS
[0.6 0 0 0.6 205.8 81.20002] CT
0.149 GC
/Helvetica 16.667 F
GS
[1 0 0 1 0 0] CT
-14.5 18 moveto 
1 -1 scale
(400) t 
GR
GR
GS
[0.6 0 0 0.6 135.90008 95.40002] CT
0.149 GC
/Helvetica 18.333 F
GS
[1 0 0 1 0 0] CT
-13 19 moveto 
1 -1 scale
(t\(s\)) t 
GR
GR
GS
[0.6 0 0 0.6 0 0.40002] CT
0.149 GC
2 setlinecap
1 LJ
0.833 LW
N
110 128 M
110 50 L
S
GR
GS
[0.6 0 0 0.6 0 0.40002] CT
0.149 GC
2 setlinecap
1 LJ
0.833 LW
N
343 128 M
343 50 L
S
GR
GS
[0.6 0 0 0.6 0 0.40002] CT
0.149 GC
2 setlinecap
1 LJ
0.833 LW
N
110 128 M
112.33 128 L
S
GR
GS
[0.6 0 0 0.6 0 0.40002] CT
0.149 GC
2 setlinecap
1 LJ
0.833 LW
N
110 89 M
112.33 89 L
S
GR
GS
[0.6 0 0 0.6 0 0.40002] CT
0.149 GC
2 setlinecap
1 LJ
0.833 LW
N
110 50 M
112.33 50 L
S
GR
GS
[0.6 0 0 0.6 0 0.40002] CT
0.149 GC
2 setlinecap
1 LJ
0.833 LW
N
343 128 M
340.67 128 L
S
GR
GS
[0.6 0 0 0.6 0 0.40002] CT
0.149 GC
2 setlinecap
1 LJ
0.833 LW
N
343 89 M
340.67 89 L
S
GR
GS
[0.6 0 0 0.6 0 0.40002] CT
0.149 GC
2 setlinecap
1 LJ
0.833 LW
N
343 50 M
340.67 50 L
S
GR
GS
[0.6 0 0 0.6 62 77.20002] CT
0.149 GC
/Helvetica 16.667 F
GS
[1 0 0 1 0 0] CT
-16 7 moveto 
1 -1 scale
(-4) t 
GR
GR
GS
[0.6 0 0 0.6 62 53.80002] CT
0.149 GC
/Helvetica 16.667 F
GS
[1 0 0 1 0 0] CT
-16 7 moveto 
1 -1 scale
(-2) t 
GR
GR
GS
[0.6 0 0 0.6 62 30.40002] CT
0.149 GC
/Helvetica 16.667 F
GS
[1 0 0 1 0 0] CT
-10 7 moveto 
1 -1 scale
(0) t 
GR
GR
GS
[0 -0.6 0.6 0 46.8 83.20002] CT
0.149 GC
/Helvetica 18.333 F
GS
[1 0 0 1 0 0] CT
0 0 moveto 
1 -1 scale
(Delta) t 
GR
GR
GS
[0 -0.6 0.6 0 46.8 57.40002] CT
0.149 GC
N
0.484 3.484 M
0.438 3.484 0.391 3.422 QT
0.344 3.359 0.344 3.313 QT
3.109 -7.813 L
3.344 -8.703 3.805 -9.547 QT
4.266 -10.391 4.953 -11.117 QT
5.641 -11.844 6.469 -12.266 QT
7.297 -12.688 8.234 -12.688 QT
8.891 -12.688 9.43 -12.398 QT
9.969 -12.109 10.281 -11.578 QT
10.594 -11.047 10.594 -10.375 QT
10.594 -9.734 10.352 -9.148 QT
10.109 -8.563 9.672 -8.055 QT
9.234 -7.547 8.734 -7.234 QT
9.016 -7.047 9.242 -6.766 QT
9.469 -6.484 9.609 -6.172 QT
9.75 -5.859 9.836 -5.477 QT
9.922 -5.094 9.922 -4.75 QT
9.922 -3.828 9.523 -2.938 QT
9.125 -2.047 8.445 -1.313 QT
7.766 -0.578 6.883 -0.156 QT
6 0.266 5.078 0.266 QT
4.063 0.266 3.258 -0.281 QT
2.453 -0.828 2.141 -1.781 QT
0.844 3.391 L
0.844 3.484 0.703 3.484 QT
0.484 3.484 L
cp
5.109 -0.219 M
5.922 -0.219 6.578 -0.75 QT
7.234 -1.281 7.664 -2.086 QT
8.094 -2.891 8.313 -3.789 QT
8.531 -4.688 8.531 -5.438 QT
8.531 -6.344 8 -6.875 QT
7.391 -6.641 6.797 -6.641 QT
5.375 -6.641 5.375 -7.125 QT
5.375 -7.766 7 -7.766 QT
7.578 -7.766 8.063 -7.578 QT
8.453 -7.875 8.773 -8.453 QT
9.094 -9.031 9.25 -9.664 QT
9.406 -10.297 9.406 -10.859 QT
9.406 -11.438 9.102 -11.828 QT
8.797 -12.219 8.188 -12.219 QT
7.094 -12.219 6.148 -11.547 QT
5.203 -10.875 4.555 -9.844 QT
3.906 -8.813 3.625 -7.703 QT
2.625 -3.734 L
2.531 -3.313 2.5 -2.797 QT
2.5 -1.672 3.242 -0.945 QT
3.984 -0.219 5.109 -0.219 QT
cp
5.922 -7.188 M
6.203 -7.109 6.828 -7.109 QT
7.125 -7.109 7.438 -7.219 QT
7.422 -7.234 7.359 -7.234 QT
7.172 -7.281 6.953 -7.281 QT
6.141 -7.281 5.922 -7.188 QT
cp
f
GR
GS
[0 -0.6 0.6 0 46.8 50.80002] CT
0.149 GC
/Helvetica 18.333 F
GS
[1 0 0 1 0 0] CT
0 0 moveto 
1 -1 scale
(\(deg\)) t 
GR
GR
GS
[0.6 0 0 0.6 0 0.40002] CT
0 0.447 0.741 RC
1 LJ
0.833 LW
N
110 50 M
112.33 51.308 L
114.66 54.753 L
116.99 57.946 L
119.32 60.964 L
121.65 63.81 L
123.98 66.495 L
126.31 69.028 L
128.64 71.418 L
130.97 73.672 L
133.3 75.798 L
135.63 77.804 L
137.96 79.696 L
140.29 81.481 L
142.62 83.165 L
144.95 84.753 L
147.28 86.252 L
149.61 87.665 L
151.94 88.999 L
154.27 90.257 L
156.6 91.443 L
158.93 92.563 L
161.26 93.619 L
163.59 94.615 L
165.92 95.554 L
168.25 96.441 L
170.58 97.277 L
172.91 98.066 L
175.24 98.81 L
177.57 99.512 L
179.9 100.174 L
182.23 100.799 L
184.56 101.388 L
186.89 101.944 L
189.22 102.468 L
191.55 102.963 L
193.88 103.43 L
196.21 103.87 L
198.54 104.285 L
200.87 104.677 L
203.2 105.046 L
205.53 105.395 L
207.86 105.724 L
210.19 106.034 L
212.52 106.327 L
214.85 106.603 L
217.18 106.863 L
219.51 107.109 L
221.84 107.341 L
224.17 107.559 L
226.5 107.765 L
228.83 107.96 L
231.16 108.143 L
233.49 108.317 L
235.82 108.48 L
238.15 108.634 L
240.48 108.779 L
242.81 108.916 L
245.14 109.046 L
247.47 109.168 L
249.8 109.283 L
252.13 109.391 L
254.46 109.494 L
256.79 109.59 L
259.12 109.681 L
261.45 109.767 L
263.78 109.849 L
266.11 109.925 L
268.44 109.997 L
270.77 110.065 L
273.1 110.129 L
275.43 110.19 L
277.76 110.247 L
280.09 110.301 L
282.42 110.352 L
284.75 110.4 L
287.08 110.445 L
289.41 110.488 L
291.74 110.528 L
294.07 110.566 L
296.4 110.602 L
298.73 110.636 L
301.06 110.668 L
303.39 110.698 L
305.72 110.726 L
308.05 110.753 L
310.38 110.778 L
312.71 110.802 L
315.04 110.825 L
317.37 110.846 L
319.7 110.866 L
322.03 110.885 L
324.36 110.902 L
326.69 110.919 L
329.02 110.935 L
331.35 110.95 L
333.68 110.964 L
336.01 110.977 L
338.34 110.99 L
340.67 111.002 L
343 111.013 L
S
GR
GS
[0.6 0 0 0.6 0 0.40002] CT
1 GC
N
436 128 M
669 128 L
669 50 L
436 50 L
cp
f
GR
GS
[0.6 0 0 0.6 0 0.40002] CT
0.873 GC
1 LJ
0.833 LW
N
436 128 M
436 50 L
S
GR
GS
[0.6 0 0 0.6 0 0.40002] CT
0.873 GC
1 LJ
0.833 LW
N
494.25 128 M
494.25 50 L
S
GR
GS
[0.6 0 0 0.6 0 0.40002] CT
0.873 GC
1 LJ
0.833 LW
N
552.5 128 M
552.5 50 L
S
GR
GS
[0.6 0 0 0.6 0 0.40002] CT
0.873 GC
1 LJ
0.833 LW
N
610.75 128 M
610.75 50 L
S
GR
GS
[0.6 0 0 0.6 0 0.40002] CT
0.873 GC
1 LJ
0.833 LW
N
669 128 M
669 50 L
S
GR
GS
[0.6 0 0 0.6 0 0.40002] CT
0.873 GC
1 LJ
0.833 LW
N
669 128 M
436 128 L
S
GR
GS
[0.6 0 0 0.6 0 0.40002] CT
0.873 GC
1 LJ
0.833 LW
N
669 89 M
436 89 L
S
GR
GS
[0.6 0 0 0.6 0 0.40002] CT
0.873 GC
1 LJ
0.833 LW
N
669 50 M
436 50 L
S
GR
GS
[0.6 0 0 0.6 0 0.40002] CT
0.149 GC
2 setlinecap
1 LJ
0.833 LW
N
436 128 M
669 128 L
S
GR
GS
[0.6 0 0 0.6 0 0.40002] CT
0.149 GC
2 setlinecap
1 LJ
0.833 LW
N
436 50 M
669 50 L
S
GR
GS
[0.6 0 0 0.6 0 0.40002] CT
0.149 GC
2 setlinecap
1 LJ
0.833 LW
N
436 128 M
436 125.67 L
S
GR
GS
[0.6 0 0 0.6 0 0.40002] CT
0.149 GC
2 setlinecap
1 LJ
0.833 LW
N
494.25 128 M
494.25 125.67 L
S
GR
GS
[0.6 0 0 0.6 0 0.40002] CT
0.149 GC
2 setlinecap
1 LJ
0.833 LW
N
552.5 128 M
552.5 125.67 L
S
GR
GS
[0.6 0 0 0.6 0 0.40002] CT
0.149 GC
2 setlinecap
1 LJ
0.833 LW
N
610.75 128 M
610.75 125.67 L
S
GR
GS
[0.6 0 0 0.6 0 0.40002] CT
0.149 GC
2 setlinecap
1 LJ
0.833 LW
N
669 128 M
669 125.67 L
S
GR
GS
[0.6 0 0 0.6 0 0.40002] CT
0.149 GC
2 setlinecap
1 LJ
0.833 LW
N
436 50 M
436 52.33 L
S
GR
GS
[0.6 0 0 0.6 0 0.40002] CT
0.149 GC
2 setlinecap
1 LJ
0.833 LW
N
494.25 50 M
494.25 52.33 L
S
GR
GS
[0.6 0 0 0.6 0 0.40002] CT
0.149 GC
2 setlinecap
1 LJ
0.833 LW
N
552.5 50 M
552.5 52.33 L
S
GR
GS
[0.6 0 0 0.6 0 0.40002] CT
0.149 GC
2 setlinecap
1 LJ
0.833 LW
N
610.75 50 M
610.75 52.33 L
S
GR
GS
[0.6 0 0 0.6 0 0.40002] CT
0.149 GC
2 setlinecap
1 LJ
0.833 LW
N
669 50 M
669 52.33 L
S
GR
GS
[0.6 0 0 0.6 261.6 81.20002] CT
0.149 GC
/Helvetica 16.667 F
GS
[1 0 0 1 0 0] CT
-5 18 moveto 
1 -1 scale
(0) t 
GR
GR
GS
[0.6 0 0 0.6 296.55 81.20002] CT
0.149 GC
/Helvetica 16.667 F
GS
[1 0 0 1 0 0] CT
-14.5 18 moveto 
1 -1 scale
(100) t 
GR
GR
GS
[0.6 0 0 0.6 331.5 81.20002] CT
0.149 GC
/Helvetica 16.667 F
GS
[1 0 0 1 0 0] CT
-14.5 18 moveto 
1 -1 scale
(200) t 
GR
GR
GS
[0.6 0 0 0.6 366.45001 81.20002] CT
0.149 GC
/Helvetica 16.667 F
GS
[1 0 0 1 0 0] CT
-14.5 18 moveto 
1 -1 scale
(300) t 
GR
GR
GS
[0.6 0 0 0.6 401.40001 81.20002] CT
0.149 GC
/Helvetica 16.667 F
GS
[1 0 0 1 0 0] CT
-14.5 18 moveto 
1 -1 scale
(400) t 
GR
GR
GS
[0.6 0 0 0.6 331.50008 95.40002] CT
0.149 GC
/Helvetica 18.333 F
GS
[1 0 0 1 0 0] CT
-13 19 moveto 
1 -1 scale
(t\(s\)) t 
GR
GR
GS
[0.6 0 0 0.6 0 0.40002] CT
0.149 GC
2 setlinecap
1 LJ
0.833 LW
N
436 128 M
436 50 L
S
GR
GS
[0.6 0 0 0.6 0 0.40002] CT
0.149 GC
2 setlinecap
1 LJ
0.833 LW
N
669 128 M
669 50 L
S
GR
GS
[0.6 0 0 0.6 0 0.40002] CT
0.149 GC
2 setlinecap
1 LJ
0.833 LW
N
436 128 M
438.33 128 L
S
GR
GS
[0.6 0 0 0.6 0 0.40002] CT
0.149 GC
2 setlinecap
1 LJ
0.833 LW
N
436 89 M
438.33 89 L
S
GR
GS
[0.6 0 0 0.6 0 0.40002] CT
0.149 GC
2 setlinecap
1 LJ
0.833 LW
N
436 50 M
438.33 50 L
S
GR
GS
[0.6 0 0 0.6 0 0.40002] CT
0.149 GC
2 setlinecap
1 LJ
0.833 LW
N
669 128 M
666.67 128 L
S
GR
GS
[0.6 0 0 0.6 0 0.40002] CT
0.149 GC
2 setlinecap
1 LJ
0.833 LW
N
669 89 M
666.67 89 L
S
GR
GS
[0.6 0 0 0.6 0 0.40002] CT
0.149 GC
2 setlinecap
1 LJ
0.833 LW
N
669 50 M
666.67 50 L
S
GR
GS
[0.6 0 0 0.6 257.60001 77.20002] CT
0.149 GC
/Helvetica 16.667 F
GS
[1 0 0 1 0 0] CT
-25 7 moveto 
1 -1 scale
(-20) t 
GR
GR
GS
[0.6 0 0 0.6 257.60001 53.80002] CT
0.149 GC
/Helvetica 16.667 F
GS
[1 0 0 1 0 0] CT
-10 7 moveto 
1 -1 scale
(0) t 
GR
GR
GS
[0.6 0 0 0.6 257.60001 30.40002] CT
0.149 GC
/Helvetica 16.667 F
GS
[1 0 0 1 0 0] CT
-19 7 moveto 
1 -1 scale
(20) t 
GR
GR
GS
[0 -0.6 0.6 0 239.60001 53.8] CT
0.149 GC
/Helvetica 18.333 F
GS
[1 0 0 1 0 0] CT
-54.5 -4 moveto 
1 -1 scale
(Deltap\(deg/s\)) t 
GR
GR
GS
[0.6 0 0 0.6 0 0.40002] CT
0 0.447 0.741 RC
1 LJ
0.833 LW
N
436 89 M
438.33 123.333 L
440.66 121.319 L
442.99 119.386 L
445.32 117.562 L
447.65 115.842 L
449.98 114.22 L
452.31 112.689 L
454.64 111.245 L
456.97 109.883 L
459.3 108.598 L
461.63 107.386 L
463.96 106.243 L
466.29 105.164 L
468.62 104.147 L
470.95 103.187 L
473.28 102.281 L
475.61 101.427 L
477.94 100.621 L
480.27 99.861 L
482.6 99.144 L
484.93 98.468 L
487.26 97.83 L
489.59 97.228 L
491.92 96.66 L
494.25 96.124 L
496.58 95.619 L
498.91 95.142 L
501.24 94.693 L
503.57 94.269 L
505.9 93.868 L
508.23 93.491 L
510.56 93.135 L
512.89 92.799 L
515.22 92.482 L
517.55 92.183 L
519.88 91.901 L
522.21 91.635 L
524.54 91.384 L
526.87 91.147 L
529.2 90.924 L
531.53 90.714 L
533.86 90.515 L
536.19 90.327 L
538.52 90.15 L
540.85 89.984 L
543.18 89.826 L
545.51 89.678 L
547.84 89.538 L
550.17 89.406 L
552.5 89.281 L
554.83 89.164 L
557.16 89.053 L
559.49 88.948 L
561.82 88.849 L
564.15 88.756 L
566.48 88.668 L
568.81 88.586 L
571.14 88.507 L
573.47 88.434 L
575.8 88.364 L
578.13 88.299 L
580.46 88.237 L
582.79 88.178 L
585.12 88.123 L
587.45 88.071 L
589.78 88.022 L
592.11 87.976 L
594.44 87.933 L
596.77 87.891 L
599.1 87.853 L
601.43 87.816 L
603.76 87.781 L
606.09 87.749 L
608.42 87.718 L
610.75 87.689 L
613.08 87.662 L
615.41 87.636 L
617.74 87.612 L
620.07 87.589 L
622.4 87.567 L
624.73 87.547 L
627.06 87.527 L
629.39 87.509 L
631.72 87.492 L
634.05 87.476 L
636.38 87.461 L
638.71 87.446 L
641.04 87.433 L
643.37 87.42 L
645.7 87.408 L
648.03 87.396 L
650.36 87.386 L
652.69 87.375 L
655.02 87.366 L
657.35 87.357 L
659.68 87.348 L
662.01 87.34 L
664.34 87.333 L
666.67 87.325 L
669 87.319 L
S
GR
GS
[0.6 0 0 0.6 0 0.40002] CT
1 GC
N
110 286 M
343 286 L
343 207 L
110 207 L
cp
f
GR
GS
[0.6 0 0 0.6 0 0.40002] CT
0.873 GC
1 LJ
0.833 LW
N
110 286 M
110 207 L
S
GR
GS
[0.6 0 0 0.6 0 0.40002] CT
0.873 GC
1 LJ
0.833 LW
N
168.25 286 M
168.25 207 L
S
GR
GS
[0.6 0 0 0.6 0 0.40002] CT
0.873 GC
1 LJ
0.833 LW
N
226.5 286 M
226.5 207 L
S
GR
GS
[0.6 0 0 0.6 0 0.40002] CT
0.873 GC
1 LJ
0.833 LW
N
284.75 286 M
284.75 207 L
S
GR
GS
[0.6 0 0 0.6 0 0.40002] CT
0.873 GC
1 LJ
0.833 LW
N
343 286 M
343 207 L
S
GR
GS
[0.6 0 0 0.6 0 0.40002] CT
0.873 GC
1 LJ
0.833 LW
N
343 286 M
110 286 L
S
GR
GS
[0.6 0 0 0.6 0 0.40002] CT
0.873 GC
1 LJ
0.833 LW
N
343 246.5 M
110 246.5 L
S
GR
GS
[0.6 0 0 0.6 0 0.40002] CT
0.873 GC
1 LJ
0.833 LW
N
343 207 M
110 207 L
S
GR
GS
[0.6 0 0 0.6 0 0.40002] CT
0.149 GC
2 setlinecap
1 LJ
0.833 LW
N
110 286 M
343 286 L
S
GR
GS
[0.6 0 0 0.6 0 0.40002] CT
0.149 GC
2 setlinecap
1 LJ
0.833 LW
N
110 207 M
343 207 L
S
GR
GS
[0.6 0 0 0.6 0 0.40002] CT
0.149 GC
2 setlinecap
1 LJ
0.833 LW
N
110 286 M
110 283.67 L
S
GR
GS
[0.6 0 0 0.6 0 0.40002] CT
0.149 GC
2 setlinecap
1 LJ
0.833 LW
N
168.25 286 M
168.25 283.67 L
S
GR
GS
[0.6 0 0 0.6 0 0.40002] CT
0.149 GC
2 setlinecap
1 LJ
0.833 LW
N
226.5 286 M
226.5 283.67 L
S
GR
GS
[0.6 0 0 0.6 0 0.40002] CT
0.149 GC
2 setlinecap
1 LJ
0.833 LW
N
284.75 286 M
284.75 283.67 L
S
GR
GS
[0.6 0 0 0.6 0 0.40002] CT
0.149 GC
2 setlinecap
1 LJ
0.833 LW
N
343 286 M
343 283.67 L
S
GR
GS
[0.6 0 0 0.6 0 0.40002] CT
0.149 GC
2 setlinecap
1 LJ
0.833 LW
N
110 207 M
110 209.33 L
S
GR
GS
[0.6 0 0 0.6 0 0.40002] CT
0.149 GC
2 setlinecap
1 LJ
0.833 LW
N
168.25 207 M
168.25 209.33 L
S
GR
GS
[0.6 0 0 0.6 0 0.40002] CT
0.149 GC
2 setlinecap
1 LJ
0.833 LW
N
226.5 207 M
226.5 209.33 L
S
GR
GS
[0.6 0 0 0.6 0 0.40002] CT
0.149 GC
2 setlinecap
1 LJ
0.833 LW
N
284.75 207 M
284.75 209.33 L
S
GR
GS
[0.6 0 0 0.6 0 0.40002] CT
0.149 GC
2 setlinecap
1 LJ
0.833 LW
N
343 207 M
343 209.33 L
S
GR
GS
[0.6 0 0 0.6 66 176] CT
0.149 GC
/Helvetica 16.667 F
GS
[1 0 0 1 0 0] CT
-5 18 moveto 
1 -1 scale
(0) t 
GR
GR
GS
[0.6 0 0 0.6 100.95 176] CT
0.149 GC
/Helvetica 16.667 F
GS
[1 0 0 1 0 0] CT
-14.5 18 moveto 
1 -1 scale
(100) t 
GR
GR
GS
[0.6 0 0 0.6 135.9 176] CT
0.149 GC
/Helvetica 16.667 F
GS
[1 0 0 1 0 0] CT
-14.5 18 moveto 
1 -1 scale
(200) t 
GR
GR
GS
[0.6 0 0 0.6 170.85 176] CT
0.149 GC
/Helvetica 16.667 F
GS
[1 0 0 1 0 0] CT
-14.5 18 moveto 
1 -1 scale
(300) t 
GR
GR
GS
[0.6 0 0 0.6 205.8 176] CT
0.149 GC
/Helvetica 16.667 F
GS
[1 0 0 1 0 0] CT
-14.5 18 moveto 
1 -1 scale
(400) t 
GR
GR
GS
[0.6 0 0 0.6 135.90007 190.20002] CT
0.149 GC
/Helvetica 18.333 F
GS
[1 0 0 1 0 0] CT
-13 19 moveto 
1 -1 scale
(t\(s\)) t 
GR
GR
GS
[0.6 0 0 0.6 0 0.40002] CT
0.149 GC
2 setlinecap
1 LJ
0.833 LW
N
110 286 M
110 207 L
S
GR
GS
[0.6 0 0 0.6 0 0.40002] CT
0.149 GC
2 setlinecap
1 LJ
0.833 LW
N
343 286 M
343 207 L
S
GR
GS
[0.6 0 0 0.6 0 0.40002] CT
0.149 GC
2 setlinecap
1 LJ
0.833 LW
N
110 286 M
112.33 286 L
S
GR
GS
[0.6 0 0 0.6 0 0.40002] CT
0.149 GC
2 setlinecap
1 LJ
0.833 LW
N
110 246.5 M
112.33 246.5 L
S
GR
GS
[0.6 0 0 0.6 0 0.40002] CT
0.149 GC
2 setlinecap
1 LJ
0.833 LW
N
110 207 M
112.33 207 L
S
GR
GS
[0.6 0 0 0.6 0 0.40002] CT
0.149 GC
2 setlinecap
1 LJ
0.833 LW
N
343 286 M
340.67 286 L
S
GR
GS
[0.6 0 0 0.6 0 0.40002] CT
0.149 GC
2 setlinecap
1 LJ
0.833 LW
N
343 246.5 M
340.67 246.5 L
S
GR
GS
[0.6 0 0 0.6 0 0.40002] CT
0.149 GC
2 setlinecap
1 LJ
0.833 LW
N
343 207 M
340.67 207 L
S
GR
GS
[0.6 0 0 0.6 62 172.00001] CT
0.149 GC
/Helvetica 16.667 F
GS
[1 0 0 1 0 0] CT
-35 7 moveto 
1 -1 scale
(-100) t 
GR
GR
GS
[0.6 0 0 0.6 62 148.30001] CT
0.149 GC
/Helvetica 16.667 F
GS
[1 0 0 1 0 0] CT
-25 7 moveto 
1 -1 scale
(-50) t 
GR
GR
GS
[0.6 0 0 0.6 62 124.60001] CT
0.149 GC
/Helvetica 16.667 F
GS
[1 0 0 1 0 0] CT
-10 7 moveto 
1 -1 scale
(0) t 
GR
GR
GS
[0 -0.6 0.6 0 38 148.29999] CT
0.149 GC
/Helvetica 18.333 F
GS
[1 0 0 1 0 0] CT
-52.5 -4 moveto 
1 -1 scale
(Deltar\(deg/s\)) t 
GR
GR
GS
[0.6 0 0 0.6 0 0.40002] CT
0 0.447 0.741 RC
1 LJ
0.833 LW
N
110 207 M
112.33 210.08 L
114.66 212.953 L
116.99 215.682 L
119.32 218.254 L
121.65 220.682 L
123.98 222.971 L
126.31 225.131 L
128.64 227.168 L
130.97 229.09 L
133.3 230.903 L
135.63 232.614 L
137.96 234.227 L
140.29 235.749 L
142.62 237.185 L
144.95 238.539 L
147.28 239.817 L
149.61 241.022 L
151.94 242.159 L
154.27 243.232 L
156.6 244.244 L
158.93 245.198 L
161.26 246.099 L
163.59 246.948 L
165.92 247.749 L
168.25 248.505 L
170.58 249.218 L
172.91 249.891 L
175.24 250.525 L
177.57 251.124 L
179.9 251.688 L
182.23 252.221 L
184.56 252.724 L
186.89 253.198 L
189.22 253.645 L
191.55 254.067 L
193.88 254.464 L
196.21 254.84 L
198.54 255.194 L
200.87 255.528 L
203.2 255.843 L
205.53 256.14 L
207.86 256.421 L
210.19 256.685 L
212.52 256.935 L
214.85 257.17 L
217.18 257.392 L
219.51 257.602 L
221.84 257.799 L
224.17 257.986 L
226.5 258.161 L
228.83 258.327 L
231.16 258.484 L
233.49 258.631 L
235.82 258.771 L
238.15 258.902 L
240.48 259.026 L
242.81 259.143 L
245.14 259.253 L
247.47 259.357 L
249.8 259.455 L
252.13 259.548 L
254.46 259.635 L
256.79 259.718 L
259.12 259.795 L
261.45 259.869 L
263.78 259.938 L
266.11 260.003 L
268.44 260.064 L
270.77 260.123 L
273.1 260.177 L
275.43 260.229 L
277.76 260.278 L
280.09 260.324 L
282.42 260.367 L
284.75 260.408 L
287.08 260.447 L
289.41 260.483 L
291.74 260.517 L
294.07 260.55 L
296.4 260.58 L
298.73 260.609 L
301.06 260.636 L
303.39 260.662 L
305.72 260.686 L
308.05 260.709 L
310.38 260.73 L
312.71 260.751 L
315.04 260.77 L
317.37 260.788 L
319.7 260.805 L
322.03 260.821 L
324.36 260.836 L
326.69 260.851 L
329.02 260.864 L
331.35 260.877 L
333.68 260.889 L
336.01 260.9 L
338.34 260.911 L
340.67 260.921 L
343 260.931 L
S
GR
GS
[0.6 0 0 0.6 0 0.40002] CT
1 GC
N
436 286 M
669 286 L
669 207 L
436 207 L
cp
f
GR
GS
[0.6 0 0 0.6 0 0.40002] CT
0.873 GC
1 LJ
0.833 LW
N
436 286 M
436 207 L
S
GR
GS
[0.6 0 0 0.6 0 0.40002] CT
0.873 GC
1 LJ
0.833 LW
N
494.25 286 M
494.25 207 L
S
GR
GS
[0.6 0 0 0.6 0 0.40002] CT
0.873 GC
1 LJ
0.833 LW
N
552.5 286 M
552.5 207 L
S
GR
GS
[0.6 0 0 0.6 0 0.40002] CT
0.873 GC
1 LJ
0.833 LW
N
610.75 286 M
610.75 207 L
S
GR
GS
[0.6 0 0 0.6 0 0.40002] CT
0.873 GC
1 LJ
0.833 LW
N
669 286 M
669 207 L
S
GR
GS
[0.6 0 0 0.6 0 0.40002] CT
0.873 GC
1 LJ
0.833 LW
N
669 286 M
436 286 L
S
GR
GS
[0.6 0 0 0.6 0 0.40002] CT
0.873 GC
1 LJ
0.833 LW
N
669 246.5 M
436 246.5 L
S
GR
GS
[0.6 0 0 0.6 0 0.40002] CT
0.873 GC
1 LJ
0.833 LW
N
669 207 M
436 207 L
S
GR
GS
[0.6 0 0 0.6 0 0.40002] CT
0.149 GC
2 setlinecap
1 LJ
0.833 LW
N
436 286 M
669 286 L
S
GR
GS
[0.6 0 0 0.6 0 0.40002] CT
0.149 GC
2 setlinecap
1 LJ
0.833 LW
N
436 207 M
669 207 L
S
GR
GS
[0.6 0 0 0.6 0 0.40002] CT
0.149 GC
2 setlinecap
1 LJ
0.833 LW
N
436 286 M
436 283.67 L
S
GR
GS
[0.6 0 0 0.6 0 0.40002] CT
0.149 GC
2 setlinecap
1 LJ
0.833 LW
N
494.25 286 M
494.25 283.67 L
S
GR
GS
[0.6 0 0 0.6 0 0.40002] CT
0.149 GC
2 setlinecap
1 LJ
0.833 LW
N
552.5 286 M
552.5 283.67 L
S
GR
GS
[0.6 0 0 0.6 0 0.40002] CT
0.149 GC
2 setlinecap
1 LJ
0.833 LW
N
610.75 286 M
610.75 283.67 L
S
GR
GS
[0.6 0 0 0.6 0 0.40002] CT
0.149 GC
2 setlinecap
1 LJ
0.833 LW
N
669 286 M
669 283.67 L
S
GR
GS
[0.6 0 0 0.6 0 0.40002] CT
0.149 GC
2 setlinecap
1 LJ
0.833 LW
N
436 207 M
436 209.33 L
S
GR
GS
[0.6 0 0 0.6 0 0.40002] CT
0.149 GC
2 setlinecap
1 LJ
0.833 LW
N
494.25 207 M
494.25 209.33 L
S
GR
GS
[0.6 0 0 0.6 0 0.40002] CT
0.149 GC
2 setlinecap
1 LJ
0.833 LW
N
552.5 207 M
552.5 209.33 L
S
GR
GS
[0.6 0 0 0.6 0 0.40002] CT
0.149 GC
2 setlinecap
1 LJ
0.833 LW
N
610.75 207 M
610.75 209.33 L
S
GR
GS
[0.6 0 0 0.6 0 0.40002] CT
0.149 GC
2 setlinecap
1 LJ
0.833 LW
N
669 207 M
669 209.33 L
S
GR
GS
[0.6 0 0 0.6 261.6 176] CT
0.149 GC
/Helvetica 16.667 F
GS
[1 0 0 1 0 0] CT
-5 18 moveto 
1 -1 scale
(0) t 
GR
GR
GS
[0.6 0 0 0.6 296.55 176] CT
0.149 GC
/Helvetica 16.667 F
GS
[1 0 0 1 0 0] CT
-14.5 18 moveto 
1 -1 scale
(100) t 
GR
GR
GS
[0.6 0 0 0.6 331.5 176] CT
0.149 GC
/Helvetica 16.667 F
GS
[1 0 0 1 0 0] CT
-14.5 18 moveto 
1 -1 scale
(200) t 
GR
GR
GS
[0.6 0 0 0.6 366.45001 176] CT
0.149 GC
/Helvetica 16.667 F
GS
[1 0 0 1 0 0] CT
-14.5 18 moveto 
1 -1 scale
(300) t 
GR
GR
GS
[0.6 0 0 0.6 401.40001 176] CT
0.149 GC
/Helvetica 16.667 F
GS
[1 0 0 1 0 0] CT
-14.5 18 moveto 
1 -1 scale
(400) t 
GR
GR
GS
[0.6 0 0 0.6 331.50008 190.20002] CT
0.149 GC
/Helvetica 18.333 F
GS
[1 0 0 1 0 0] CT
-13 19 moveto 
1 -1 scale
(t\(s\)) t 
GR
GR
GS
[0.6 0 0 0.6 0 0.40002] CT
0.149 GC
2 setlinecap
1 LJ
0.833 LW
N
436 286 M
436 207 L
S
GR
GS
[0.6 0 0 0.6 0 0.40002] CT
0.149 GC
2 setlinecap
1 LJ
0.833 LW
N
669 286 M
669 207 L
S
GR
GS
[0.6 0 0 0.6 0 0.40002] CT
0.149 GC
2 setlinecap
1 LJ
0.833 LW
N
436 286 M
438.33 286 L
S
GR
GS
[0.6 0 0 0.6 0 0.40002] CT
0.149 GC
2 setlinecap
1 LJ
0.833 LW
N
436 246.5 M
438.33 246.5 L
S
GR
GS
[0.6 0 0 0.6 0 0.40002] CT
0.149 GC
2 setlinecap
1 LJ
0.833 LW
N
436 207 M
438.33 207 L
S
GR
GS
[0.6 0 0 0.6 0 0.40002] CT
0.149 GC
2 setlinecap
1 LJ
0.833 LW
N
669 286 M
666.67 286 L
S
GR
GS
[0.6 0 0 0.6 0 0.40002] CT
0.149 GC
2 setlinecap
1 LJ
0.833 LW
N
669 246.5 M
666.67 246.5 L
S
GR
GS
[0.6 0 0 0.6 0 0.40002] CT
0.149 GC
2 setlinecap
1 LJ
0.833 LW
N
669 207 M
666.67 207 L
S
GR
GS
[0.6 0 0 0.6 257.60001 172.00001] CT
0.149 GC
/Helvetica 16.667 F
GS
[1 0 0 1 0 0] CT
-44 7 moveto 
1 -1 scale
(-2000) t 
GR
GR
GS
[0.6 0 0 0.6 257.60001 148.30001] CT
0.149 GC
/Helvetica 16.667 F
GS
[1 0 0 1 0 0] CT
-44 7 moveto 
1 -1 scale
(-1000) t 
GR
GR
GS
[0.6 0 0 0.6 257.60001 124.60001] CT
0.149 GC
/Helvetica 16.667 F
GS
[1 0 0 1 0 0] CT
-10 7 moveto 
1 -1 scale
(0) t 
GR
GR
GS
[0 -0.6 0.6 0 225.6 177.40001] CT
0.149 GC
/Helvetica 18.333 F
GS
[1 0 0 1 0 0] CT
0 0 moveto 
1 -1 scale
(Delta) t 
GR
GR
GS
[0 -0.6 0.6 0 225.6 151.60001] CT
0.149 GC
N
3.484 3.5 M
4.297 0.25 L
3.391 0.25 2.594 -0.172 QT
1.797 -0.594 1.32 -1.359 QT
0.844 -2.125 0.844 -3.031 QT
0.844 -4 1.328 -4.891 QT
1.813 -5.781 2.648 -6.5 QT
3.484 -7.219 4.453 -7.609 QT
5.422 -8 6.375 -8 QT
7.453 -12.391 L
7.484 -12.484 7.594 -12.484 QT
7.813 -12.484 L
7.891 -12.484 7.93 -12.422 QT
7.969 -12.359 7.969 -12.313 QT
6.891 -8 L
7.563 -8 8.195 -7.758 QT
8.828 -7.516 9.32 -7.07 QT
9.813 -6.625 10.086 -6.023 QT
10.359 -5.422 10.359 -4.734 QT
10.359 -3.766 9.875 -2.875 QT
9.391 -1.984 8.57 -1.273 QT
7.75 -0.563 6.742 -0.156 QT
5.734 0.25 4.828 0.25 QT
4 3.594 L
3.969 3.688 3.844 3.688 QT
3.641 3.688 L
3.563 3.688 3.523 3.625 QT
3.484 3.563 3.484 3.5 QT
cp
4.406 -0.219 M
6.25 -7.547 L
5.797 -7.547 5.297 -7.359 QT
4.797 -7.172 4.352 -6.891 QT
3.906 -6.609 3.547 -6.25 QT
3.109 -5.813 2.773 -5.211 QT
2.438 -4.609 2.266 -3.945 QT
2.094 -3.281 2.094 -2.641 QT
2.094 -1.969 2.383 -1.414 QT
2.672 -0.859 3.203 -0.539 QT
3.734 -0.219 4.406 -0.219 QT
cp
4.953 -0.219 M
5.625 -0.219 6.391 -0.609 QT
7.156 -1 7.641 -1.516 QT
8.328 -2.188 8.719 -3.156 QT
9.109 -4.125 9.109 -5.109 QT
9.109 -5.781 8.82 -6.344 QT
8.531 -6.906 8 -7.227 QT
7.469 -7.547 6.781 -7.547 QT
4.953 -0.219 L
cp
f
GR
GS
[0 -0.6 0.6 0 225.6 145.00001] CT
0.149 GC
/Helvetica 18.333 F
GS
[1 0 0 1 0 0] CT
0 0 moveto 
1 -1 scale
(\(deg\)) t 
GR
GR
GS
[0.6 0 0 0.6 0 0.40002] CT
0 0.447 0.741 RC
1 LJ
0.833 LW
N
436 207 M
438.33 209.693 L
440.66 212.406 L
442.99 214.966 L
445.32 217.38 L
447.65 219.657 L
449.98 221.806 L
452.31 223.832 L
454.64 225.744 L
456.97 227.548 L
459.3 229.249 L
461.63 230.854 L
463.96 232.368 L
466.29 233.796 L
468.62 235.143 L
470.95 236.414 L
473.28 237.613 L
475.61 238.744 L
477.94 239.811 L
480.27 240.818 L
482.6 241.767 L
484.93 242.663 L
487.26 243.508 L
489.59 244.305 L
491.92 245.056 L
494.25 245.766 L
496.58 246.435 L
498.91 247.066 L
501.24 247.661 L
503.57 248.223 L
505.9 248.753 L
508.23 249.253 L
510.56 249.724 L
512.89 250.169 L
515.22 250.588 L
517.55 250.984 L
519.88 251.358 L
522.21 251.71 L
524.54 252.042 L
526.87 252.356 L
529.2 252.651 L
531.53 252.93 L
533.86 253.193 L
536.19 253.441 L
538.52 253.676 L
540.85 253.896 L
543.18 254.105 L
545.51 254.301 L
547.84 254.487 L
550.17 254.662 L
552.5 254.827 L
554.83 254.982 L
557.16 255.129 L
559.49 255.268 L
561.82 255.398 L
564.15 255.522 L
566.48 255.638 L
568.81 255.748 L
571.14 255.851 L
573.47 255.949 L
575.8 256.041 L
578.13 256.128 L
580.46 256.21 L
582.79 256.287 L
585.12 256.36 L
587.45 256.429 L
589.78 256.493 L
592.11 256.555 L
594.44 256.612 L
596.77 256.667 L
599.1 256.718 L
601.43 256.767 L
603.76 256.813 L
606.09 256.856 L
608.42 256.896 L
610.75 256.935 L
613.08 256.971 L
615.41 257.005 L
617.74 257.037 L
620.07 257.068 L
622.4 257.096 L
624.73 257.123 L
627.06 257.149 L
629.39 257.173 L
631.72 257.196 L
634.05 257.217 L
636.38 257.237 L
638.71 257.256 L
641.04 257.274 L
643.37 257.291 L
645.7 257.307 L
648.03 257.322 L
650.36 257.337 L
652.69 257.35 L
655.02 257.363 L
657.35 257.375 L
659.68 257.386 L
662.01 257.397 L
664.34 257.407 L
666.67 257.416 L
669 257.425 L
S
GR
GS
[0.6 0 0 0.6 0 0.40002] CT
1 GC
N
110 443 M
343 443 L
343 365 L
110 365 L
cp
f
GR
GS
[0.6 0 0 0.6 0 0.40002] CT
0.873 GC
1 LJ
0.833 LW
N
110 443 M
110 365 L
S
GR
GS
[0.6 0 0 0.6 0 0.40002] CT
0.873 GC
1 LJ
0.833 LW
N
168.25 443 M
168.25 365 L
S
GR
GS
[0.6 0 0 0.6 0 0.40002] CT
0.873 GC
1 LJ
0.833 LW
N
226.5 443 M
226.5 365 L
S
GR
GS
[0.6 0 0 0.6 0 0.40002] CT
0.873 GC
1 LJ
0.833 LW
N
284.75 443 M
284.75 365 L
S
GR
GS
[0.6 0 0 0.6 0 0.40002] CT
0.873 GC
1 LJ
0.833 LW
N
343 443 M
343 365 L
S
GR
GS
[0.6 0 0 0.6 0 0.40002] CT
0.873 GC
1 LJ
0.833 LW
N
343 443 M
110 443 L
S
GR
GS
[0.6 0 0 0.6 0 0.40002] CT
0.873 GC
1 LJ
0.833 LW
N
343 404 M
110 404 L
S
GR
GS
[0.6 0 0 0.6 0 0.40002] CT
0.873 GC
1 LJ
0.833 LW
N
343 365 M
110 365 L
S
GR
GS
[0.6 0 0 0.6 0 0.40002] CT
0.149 GC
2 setlinecap
1 LJ
0.833 LW
N
110 443 M
343 443 L
S
GR
GS
[0.6 0 0 0.6 0 0.40002] CT
0.149 GC
2 setlinecap
1 LJ
0.833 LW
N
110 365 M
343 365 L
S
GR
GS
[0.6 0 0 0.6 0 0.40002] CT
0.149 GC
2 setlinecap
1 LJ
0.833 LW
N
110 443 M
110 440.67 L
S
GR
GS
[0.6 0 0 0.6 0 0.40002] CT
0.149 GC
2 setlinecap
1 LJ
0.833 LW
N
168.25 443 M
168.25 440.67 L
S
GR
GS
[0.6 0 0 0.6 0 0.40002] CT
0.149 GC
2 setlinecap
1 LJ
0.833 LW
N
226.5 443 M
226.5 440.67 L
S
GR
GS
[0.6 0 0 0.6 0 0.40002] CT
0.149 GC
2 setlinecap
1 LJ
0.833 LW
N
284.75 443 M
284.75 440.67 L
S
GR
GS
[0.6 0 0 0.6 0 0.40002] CT
0.149 GC
2 setlinecap
1 LJ
0.833 LW
N
343 443 M
343 440.67 L
S
GR
GS
[0.6 0 0 0.6 0 0.40002] CT
0.149 GC
2 setlinecap
1 LJ
0.833 LW
N
110 365 M
110 367.33 L
S
GR
GS
[0.6 0 0 0.6 0 0.40002] CT
0.149 GC
2 setlinecap
1 LJ
0.833 LW
N
168.25 365 M
168.25 367.33 L
S
GR
GS
[0.6 0 0 0.6 0 0.40002] CT
0.149 GC
2 setlinecap
1 LJ
0.833 LW
N
226.5 365 M
226.5 367.33 L
S
GR
GS
[0.6 0 0 0.6 0 0.40002] CT
0.149 GC
2 setlinecap
1 LJ
0.833 LW
N
284.75 365 M
284.75 367.33 L
S
GR
GS
[0.6 0 0 0.6 0 0.40002] CT
0.149 GC
2 setlinecap
1 LJ
0.833 LW
N
343 365 M
343 367.33 L
S
GR
GS
[0.6 0 0 0.6 66 270.2] CT
0.149 GC
/Helvetica 16.667 F
GS
[1 0 0 1 0 0] CT
-5 18 moveto 
1 -1 scale
(0) t 
GR
GR
GS
[0.6 0 0 0.6 100.95 270.2] CT
0.149 GC
/Helvetica 16.667 F
GS
[1 0 0 1 0 0] CT
-14.5 18 moveto 
1 -1 scale
(100) t 
GR
GR
GS
[0.6 0 0 0.6 135.9 270.2] CT
0.149 GC
/Helvetica 16.667 F
GS
[1 0 0 1 0 0] CT
-14.5 18 moveto 
1 -1 scale
(200) t 
GR
GR
GS
[0.6 0 0 0.6 170.85 270.2] CT
0.149 GC
/Helvetica 16.667 F
GS
[1 0 0 1 0 0] CT
-14.5 18 moveto 
1 -1 scale
(300) t 
GR
GR
GS
[0.6 0 0 0.6 205.8 270.2] CT
0.149 GC
/Helvetica 16.667 F
GS
[1 0 0 1 0 0] CT
-14.5 18 moveto 
1 -1 scale
(400) t 
GR
GR
GS
[0.6 0 0 0.6 135.90008 284.40001] CT
0.149 GC
/Helvetica 18.333 F
GS
[1 0 0 1 0 0] CT
-13 19 moveto 
1 -1 scale
(t\(s\)) t 
GR
GR
GS
[0.6 0 0 0.6 0 0.40002] CT
0.149 GC
2 setlinecap
1 LJ
0.833 LW
N
110 443 M
110 365 L
S
GR
GS
[0.6 0 0 0.6 0 0.40002] CT
0.149 GC
2 setlinecap
1 LJ
0.833 LW
N
343 443 M
343 365 L
S
GR
GS
[0.6 0 0 0.6 0 0.40002] CT
0.149 GC
2 setlinecap
1 LJ
0.833 LW
N
110 443 M
112.33 443 L
S
GR
GS
[0.6 0 0 0.6 0 0.40002] CT
0.149 GC
2 setlinecap
1 LJ
0.833 LW
N
110 404 M
112.33 404 L
S
GR
GS
[0.6 0 0 0.6 0 0.40002] CT
0.149 GC
2 setlinecap
1 LJ
0.833 LW
N
110 365 M
112.33 365 L
S
GR
GS
[0.6 0 0 0.6 0 0.40002] CT
0.149 GC
2 setlinecap
1 LJ
0.833 LW
N
343 443 M
340.67 443 L
S
GR
GS
[0.6 0 0 0.6 0 0.40002] CT
0.149 GC
2 setlinecap
1 LJ
0.833 LW
N
343 404 M
340.67 404 L
S
GR
GS
[0.6 0 0 0.6 0 0.40002] CT
0.149 GC
2 setlinecap
1 LJ
0.833 LW
N
343 365 M
340.67 365 L
S
GR
GS
[0.6 0 0 0.6 62 266.2] CT
0.149 GC
/Helvetica 16.667 F
GS
[1 0 0 1 0 0] CT
-16 7 moveto 
1 -1 scale
(-4) t 
GR
GR
GS
[0.6 0 0 0.6 62 242.80001] CT
0.149 GC
/Helvetica 16.667 F
GS
[1 0 0 1 0 0] CT
-16 7 moveto 
1 -1 scale
(-2) t 
GR
GR
GS
[0.6 0 0 0.6 62 219.40001] CT
0.149 GC
/Helvetica 16.667 F
GS
[1 0 0 1 0 0] CT
-10 7 moveto 
1 -1 scale
(0) t 
GR
GR
GS
[0 -0.6 0.6 0 46.8 275.2] CT
0.149 GC
/Helvetica 18.333 F
GS
[1 0 0 1 0 0] CT
0 0 moveto 
1 -1 scale
(Deltap) t 
GR
GR
GS
[0 -0.6 0.6 0 46.8 243.40001] CT
0.149 GC
N
4.281 3.5 M
5.141 0.156 L
4.344 0.156 3.617 -0.141 QT
2.891 -0.438 2.438 -1.008 QT
1.984 -1.578 1.984 -2.391 QT
1.984 -2.859 2.148 -3.453 QT
2.313 -4.047 2.5 -4.547 QT
2.688 -5.047 3 -5.875 QT
3.25 -6.531 3.25 -6.953 QT
3.25 -7.484 2.844 -7.484 QT
2.141 -7.484 1.68 -6.75 QT
1.219 -6.016 1 -5.109 QT
0.953 -5 0.844 -5 QT
0.641 -5 L
0.484 -5 0.484 -5.172 QT
0.484 -5.219 L
0.781 -6.297 1.375 -7.125 QT
1.969 -7.953 2.891 -7.953 QT
3.531 -7.953 3.969 -7.531 QT
4.406 -7.109 4.406 -6.453 QT
4.406 -6.125 4.266 -5.75 QT
3.953 -4.938 3.766 -4.453 QT
3.578 -3.969 3.414 -3.359 QT
3.25 -2.75 3.25 -2.266 QT
3.25 -1.391 3.797 -0.906 QT
4.344 -0.422 5.234 -0.313 QT
8.266 -12.391 L
8.297 -12.484 8.406 -12.484 QT
8.625 -12.484 L
8.766 -12.484 8.766 -12.313 QT
5.75 -0.266 L
5.953 -0.266 L
6.719 -0.266 7.555 -0.719 QT
8.391 -1.172 9.086 -1.898 QT
9.781 -2.625 10.18 -3.469 QT
10.578 -4.313 10.578 -5.031 QT
10.578 -5.578 10.406 -5.883 QT
10.234 -6.188 9.953 -6.516 QT
9.672 -6.844 9.672 -7.047 QT
9.672 -7.391 9.961 -7.68 QT
10.25 -7.969 10.594 -7.969 QT
11.031 -7.969 11.219 -7.578 QT
11.406 -7.188 11.406 -6.688 QT
11.406 -6.156 11.305 -5.625 QT
11.203 -5.094 11.016 -4.375 QT
10.594 -2.734 9.297 -1.422 QT
8.844 -0.969 8.305 -0.602 QT
7.766 -0.234 7.164 -0.016 QT
6.563 0.203 5.938 0.203 QT
5.656 0.203 L
4.813 3.594 L
4.766 3.688 4.656 3.688 QT
4.453 3.688 L
4.375 3.688 4.328 3.633 QT
4.281 3.578 4.281 3.5 QT
cp
f
GR
GS
[0 -0.6 0.6 0 46.8 236.20001] CT
0.149 GC
/Helvetica 18.333 F
GS
[1 0 0 1 0 0] CT
0 0 moveto 
1 -1 scale
(\(deg\)) t 
GR
GR
GS
[0.6 0 0 0.6 66 217.00001] CT
0.149 GC
N
2.5 -0.484 M
2.5 -0.625 2.578 -0.734 QT
6.125 -4.25 L
2.578 -7.781 L
2.5 -7.875 2.5 -8.016 QT
2.5 -8.141 2.602 -8.242 QT
2.703 -8.344 2.844 -8.344 QT
2.953 -8.344 3.094 -8.25 QT
6.609 -4.719 L
10.125 -8.25 L
10.266 -8.344 10.375 -8.344 QT
10.516 -8.344 10.609 -8.25 QT
10.703 -8.156 10.703 -8.016 QT
10.703 -7.875 10.625 -7.781 QT
7.094 -4.25 L
10.625 -0.734 L
10.703 -0.625 10.703 -0.484 QT
10.703 -0.344 10.609 -0.25 QT
10.516 -0.156 10.375 -0.156 QT
10.25 -0.156 10.125 -0.281 QT
6.609 -3.781 L
3.094 -0.281 L
2.969 -0.156 2.844 -0.156 QT
2.703 -0.156 2.602 -0.258 QT
2.5 -0.359 2.5 -0.484 QT
cp
f
GR
GS
[0.6 0 0 0.6 74.4 217.00001] CT
0.149 GC
/Helvetica 16.667 F
GS
[1 0 0 1 0 0] CT
0 0 moveto 
1 -1 scale
(10) t 
GR
GR
GS
[0.6 0 0 0.6 85.8 212.20001] CT
0.149 GC
/Helvetica 13.333 F
GS
[1 0 0 1 0 0] CT
0 0 moveto 
1 -1 scale
(4) t 
GR
GR
GS
[0.6 0 0 0.6 0 0.40002] CT
0 0.447 0.741 RC
1 LJ
0.833 LW
N
110 365 M
112.33 365.015 L
114.66 365.06 L
116.99 365.132 L
119.32 365.231 L
121.65 365.354 L
123.98 365.501 L
126.31 365.669 L
128.64 365.858 L
130.97 366.067 L
133.3 366.294 L
135.63 366.539 L
137.96 366.8 L
140.29 367.076 L
142.62 367.367 L
144.95 367.672 L
147.28 367.99 L
149.61 368.32 L
151.94 368.662 L
154.27 369.014 L
156.6 369.377 L
158.93 369.749 L
161.26 370.131 L
163.59 370.521 L
165.92 370.92 L
168.25 371.326 L
170.58 371.739 L
172.91 372.16 L
175.24 372.586 L
177.57 373.019 L
179.9 373.458 L
182.23 373.902 L
184.56 374.351 L
186.89 374.804 L
189.22 375.263 L
191.55 375.725 L
193.88 376.192 L
196.21 376.663 L
198.54 377.137 L
200.87 377.614 L
203.2 378.095 L
205.53 378.579 L
207.86 379.066 L
210.19 379.555 L
212.52 380.047 L
214.85 380.541 L
217.18 381.038 L
219.51 381.536 L
221.84 382.037 L
224.17 382.539 L
226.5 383.044 L
228.83 383.55 L
231.16 384.057 L
233.49 384.566 L
235.82 385.077 L
238.15 385.589 L
240.48 386.102 L
242.81 386.616 L
245.14 387.132 L
247.47 387.648 L
249.8 388.166 L
252.13 388.684 L
254.46 389.203 L
256.79 389.723 L
259.12 390.244 L
261.45 390.766 L
263.78 391.288 L
266.11 391.811 L
268.44 392.335 L
270.77 392.859 L
273.1 393.384 L
275.43 393.91 L
277.76 394.435 L
280.09 394.962 L
282.42 395.488 L
284.75 396.016 L
287.08 396.543 L
289.41 397.071 L
291.74 397.599 L
294.07 398.128 L
296.4 398.657 L
298.73 399.186 L
301.06 399.716 L
303.39 400.245 L
305.72 400.775 L
308.05 401.306 L
310.38 401.836 L
312.71 402.367 L
315.04 402.898 L
317.37 403.429 L
319.7 403.96 L
322.03 404.491 L
324.36 405.023 L
326.69 405.554 L
329.02 406.086 L
331.35 406.618 L
333.68 407.15 L
336.01 407.682 L
338.34 408.215 L
340.67 408.747 L
343 409.279 L
S
GR
%%Trailer
%%Pages: 1
%%EOF
