%!PS-Adobe-3.0 EPSF-3.0
%%Creator: (MATLAB, The Mathworks, Inc. Version 9.1.0.441655 \(R2016b\). Operating System: Windows 8)
%%Title: D:/Users/Administrator/Desktop/flight-control-system-paper/report/fig/lon_before_bode.eps
%%CreationDate: 2019-05-02T17:43:49
%%Pages: (atend)
%%BoundingBox: 0 0 420 315
%%LanguageLevel: 3
%%EndComments
%%BeginProlog
%%BeginResource: procset (Apache XML Graphics Std ProcSet) 1.2 0
%%Version: 1.2 0
%%Copyright: (Copyright 2001-2003,2010 The Apache Software Foundation. License terms: http://www.apache.org/licenses/LICENSE-2.0)
/bd{bind def}bind def
/ld{load def}bd
/GR/grestore ld
/M/moveto ld
/LJ/setlinejoin ld
/C/curveto ld
/f/fill ld
/LW/setlinewidth ld
/GC/setgray ld
/t/show ld
/N/newpath ld
/CT/concat ld
/cp/closepath ld
/S/stroke ld
/L/lineto ld
/CC/setcmykcolor ld
/A/ashow ld
/GS/gsave ld
/RC/setrgbcolor ld
/RM/rmoveto ld
/ML/setmiterlimit ld
/re {4 2 roll M
1 index 0 rlineto
0 exch rlineto
neg 0 rlineto
cp } bd
/_ctm matrix def
/_tm matrix def
/BT { _ctm currentmatrix pop matrix _tm copy pop 0 0 moveto } bd
/ET { _ctm setmatrix } bd
/iTm { _ctm setmatrix _tm concat } bd
/Tm { _tm astore pop iTm 0 0 moveto } bd
/ux 0.0 def
/uy 0.0 def
/F {
  /Tp exch def
  /Tf exch def
  Tf findfont Tp scalefont setfont
  /cf Tf def  /cs Tp def
} bd
/ULS {currentpoint /uy exch def /ux exch def} bd
/ULE {
  /Tcx currentpoint pop def
  gsave
  newpath
  cf findfont cs scalefont dup
  /FontMatrix get 0 get /Ts exch def /FontInfo get dup
  /UnderlinePosition get Ts mul /To exch def
  /UnderlineThickness get Ts mul /Tt exch def
  ux uy To add moveto  Tcx uy To add lineto
  Tt setlinewidth stroke
  grestore
} bd
/OLE {
  /Tcx currentpoint pop def
  gsave
  newpath
  cf findfont cs scalefont dup
  /FontMatrix get 0 get /Ts exch def /FontInfo get dup
  /UnderlinePosition get Ts mul /To exch def
  /UnderlineThickness get Ts mul /Tt exch def
  ux uy To add cs add moveto Tcx uy To add cs add lineto
  Tt setlinewidth stroke
  grestore
} bd
/SOE {
  /Tcx currentpoint pop def
  gsave
  newpath
  cf findfont cs scalefont dup
  /FontMatrix get 0 get /Ts exch def /FontInfo get dup
  /UnderlinePosition get Ts mul /To exch def
  /UnderlineThickness get Ts mul /Tt exch def
  ux uy To add cs 10 mul 26 idiv add moveto Tcx uy To add cs 10 mul 26 idiv add lineto
  Tt setlinewidth stroke
  grestore
} bd
/QT {
/Y22 exch store
/X22 exch store
/Y21 exch store
/X21 exch store
currentpoint
/Y21 load 2 mul add 3 div exch
/X21 load 2 mul add 3 div exch
/X21 load 2 mul /X22 load add 3 div
/Y21 load 2 mul /Y22 load add 3 div
/X22 load /Y22 load curveto
} bd
/SSPD {
dup length /d exch dict def
{
/v exch def
/k exch def
currentpagedevice k known {
/cpdv currentpagedevice k get def
v cpdv ne {
/upd false def
/nullv v type /nulltype eq def
/nullcpdv cpdv type /nulltype eq def
nullv nullcpdv or
{
/upd true def
} {
/sametype v type cpdv type eq def
sametype {
v type /arraytype eq {
/vlen v length def
/cpdvlen cpdv length def
vlen cpdvlen eq {
0 1 vlen 1 sub {
/i exch def
/obj v i get def
/cpdobj cpdv i get def
obj cpdobj ne {
/upd true def
exit
} if
} for
} {
/upd true def
} ifelse
} {
v type /dicttype eq {
v {
/dv exch def
/dk exch def
/cpddv cpdv dk get def
dv cpddv ne {
/upd true def
exit
} if
} forall
} {
/upd true def
} ifelse
} ifelse
} if
} ifelse
upd true eq {
d k v put
} if
} if
} if
} forall
d length 0 gt {
d setpagedevice
} if
} bd
/RE { % /NewFontName [NewEncodingArray] /FontName RE -
  findfont dup length dict begin
  {
    1 index /FID ne
    {def} {pop pop} ifelse
  } forall
  /Encoding exch def
  /FontName 1 index def
  currentdict definefont pop
  end
} bind def
%%EndResource
%%BeginResource: procset (Apache XML Graphics EPS ProcSet) 1.0 0
%%Version: 1.0 0
%%Copyright: (Copyright 2002-2003 The Apache Software Foundation. License terms: http://www.apache.org/licenses/LICENSE-2.0)
/BeginEPSF { %def
/b4_Inc_state save def         % Save state for cleanup
/dict_count countdictstack def % Count objects on dict stack
/op_count count 1 sub def      % Count objects on operand stack
userdict begin                 % Push userdict on dict stack
/showpage { } def              % Redefine showpage, { } = null proc
0 setgray 0 setlinecap         % Prepare graphics state
1 setlinewidth 0 setlinejoin
10 setmiterlimit [ ] 0 setdash newpath
/languagelevel where           % If level not equal to 1 then
{pop languagelevel             % set strokeadjust and
1 ne                           % overprint to their defaults.
{false setstrokeadjust false setoverprint
} if
} if
} bd
/EndEPSF { %def
count op_count sub {pop} repeat            % Clean up stacks
countdictstack dict_count sub {end} repeat
b4_Inc_state restore
} bd
%%EndResource
%FOPBeginFontDict
%%IncludeResource: font Courier-Bold
%%IncludeResource: font Helvetica
%%IncludeResource: font Courier-BoldOblique
%%IncludeResource: font Courier-Oblique
%%IncludeResource: font Times-Roman
%%IncludeResource: font Helvetica-BoldOblique
%%IncludeResource: font Helvetica-Bold
%%IncludeResource: font Helvetica-Oblique
%%IncludeResource: font Times-BoldItalic
%%IncludeResource: font Courier
%%IncludeResource: font Times-Italic
%%IncludeResource: font Times-Bold
%%IncludeResource: font Symbol
%%IncludeResource: font ZapfDingbats
%FOPEndFontDict
%%BeginResource: encoding WinAnsiEncoding
/WinAnsiEncoding [
/.notdef /.notdef /.notdef /.notdef /.notdef
/.notdef /.notdef /.notdef /.notdef /.notdef
/.notdef /.notdef /.notdef /.notdef /.notdef
/.notdef /.notdef /.notdef /.notdef /.notdef
/.notdef /.notdef /.notdef /.notdef /.notdef
/.notdef /.notdef /.notdef /.notdef /.notdef
/.notdef /.notdef /space /exclam /quotedbl
/numbersign /dollar /percent /ampersand /quotesingle
/parenleft /parenright /asterisk /plus /comma
/hyphen /period /slash /zero /one
/two /three /four /five /six
/seven /eight /nine /colon /semicolon
/less /equal /greater /question /at
/A /B /C /D /E
/F /G /H /I /J
/K /L /M /N /O
/P /Q /R /S /T
/U /V /W /X /Y
/Z /bracketleft /backslash /bracketright /asciicircum
/underscore /quoteleft /a /b /c
/d /e /f /g /h
/i /j /k /l /m
/n /o /p /q /r
/s /t /u /v /w
/x /y /z /braceleft /bar
/braceright /asciitilde /bullet /Euro /bullet
/quotesinglbase /florin /quotedblbase /ellipsis /dagger
/daggerdbl /circumflex /perthousand /Scaron /guilsinglleft
/OE /bullet /Zcaron /bullet /bullet
/quoteleft /quoteright /quotedblleft /quotedblright /bullet
/endash /emdash /asciitilde /trademark /scaron
/guilsinglright /oe /bullet /zcaron /Ydieresis
/space /exclamdown /cent /sterling /currency
/yen /brokenbar /section /dieresis /copyright
/ordfeminine /guillemotleft /logicalnot /sfthyphen /registered
/macron /degree /plusminus /twosuperior /threesuperior
/acute /mu /paragraph /middot /cedilla
/onesuperior /ordmasculine /guillemotright /onequarter /onehalf
/threequarters /questiondown /Agrave /Aacute /Acircumflex
/Atilde /Adieresis /Aring /AE /Ccedilla
/Egrave /Eacute /Ecircumflex /Edieresis /Igrave
/Iacute /Icircumflex /Idieresis /Eth /Ntilde
/Ograve /Oacute /Ocircumflex /Otilde /Odieresis
/multiply /Oslash /Ugrave /Uacute /Ucircumflex
/Udieresis /Yacute /Thorn /germandbls /agrave
/aacute /acircumflex /atilde /adieresis /aring
/ae /ccedilla /egrave /eacute /ecircumflex
/edieresis /igrave /iacute /icircumflex /idieresis
/eth /ntilde /ograve /oacute /ocircumflex
/otilde /odieresis /divide /oslash /ugrave
/uacute /ucircumflex /udieresis /yacute /thorn
/ydieresis
] def
%%EndResource
%FOPBeginFontReencode
/Courier-Bold findfont
dup length dict begin
  {1 index /FID ne {def} {pop pop} ifelse} forall
  /Encoding WinAnsiEncoding def
  currentdict
end
/Courier-Bold exch definefont pop
/Helvetica findfont
dup length dict begin
  {1 index /FID ne {def} {pop pop} ifelse} forall
  /Encoding WinAnsiEncoding def
  currentdict
end
/Helvetica exch definefont pop
/Courier-BoldOblique findfont
dup length dict begin
  {1 index /FID ne {def} {pop pop} ifelse} forall
  /Encoding WinAnsiEncoding def
  currentdict
end
/Courier-BoldOblique exch definefont pop
/Courier-Oblique findfont
dup length dict begin
  {1 index /FID ne {def} {pop pop} ifelse} forall
  /Encoding WinAnsiEncoding def
  currentdict
end
/Courier-Oblique exch definefont pop
/Times-Roman findfont
dup length dict begin
  {1 index /FID ne {def} {pop pop} ifelse} forall
  /Encoding WinAnsiEncoding def
  currentdict
end
/Times-Roman exch definefont pop
/Helvetica-BoldOblique findfont
dup length dict begin
  {1 index /FID ne {def} {pop pop} ifelse} forall
  /Encoding WinAnsiEncoding def
  currentdict
end
/Helvetica-BoldOblique exch definefont pop
/Helvetica-Bold findfont
dup length dict begin
  {1 index /FID ne {def} {pop pop} ifelse} forall
  /Encoding WinAnsiEncoding def
  currentdict
end
/Helvetica-Bold exch definefont pop
/Helvetica-Oblique findfont
dup length dict begin
  {1 index /FID ne {def} {pop pop} ifelse} forall
  /Encoding WinAnsiEncoding def
  currentdict
end
/Helvetica-Oblique exch definefont pop
/Times-BoldItalic findfont
dup length dict begin
  {1 index /FID ne {def} {pop pop} ifelse} forall
  /Encoding WinAnsiEncoding def
  currentdict
end
/Times-BoldItalic exch definefont pop
/Courier findfont
dup length dict begin
  {1 index /FID ne {def} {pop pop} ifelse} forall
  /Encoding WinAnsiEncoding def
  currentdict
end
/Courier exch definefont pop
/Times-Italic findfont
dup length dict begin
  {1 index /FID ne {def} {pop pop} ifelse} forall
  /Encoding WinAnsiEncoding def
  currentdict
end
/Times-Italic exch definefont pop
/Times-Bold findfont
dup length dict begin
  {1 index /FID ne {def} {pop pop} ifelse} forall
  /Encoding WinAnsiEncoding def
  currentdict
end
/Times-Bold exch definefont pop
%FOPEndFontReencode
%%EndProlog
%%Page: 1 1
%%PageBoundingBox: 0 0 420 315
%%BeginPageSetup
[1 0 0 -1 0 315] CT
%%EndPageSetup
GS
[0.6 0 0 0.6 0 0] CT
1 GC
N
0 0 700 525 re
f
GR
GS
[0.6 0 0 0.6 0 0] CT
1 GC
N
0 0 700 525 re
f
GR
GS
[0.6 0 0 0.6 0 0] CT
1 GC
N
106 270 M
634 270 L
634 64 L
106 64 L
cp
f
GR
GS
[0.6 0 0 0.6 0 0] CT
0.849 GC
[1 3] 0 setdash
2 LJ
0.833 LW
N
145.736 270 M
145.736 64 L
S
GR
GS
[0.6 0 0 0.6 0 0] CT
0.849 GC
[1 3] 0 setdash
2 LJ
0.833 LW
N
168.98 270 M
168.98 64 L
S
GR
GS
[0.6 0 0 0.6 0 0] CT
0.849 GC
[1 3] 0 setdash
2 LJ
0.833 LW
N
185.472 270 M
185.472 64 L
S
GR
GS
[0.6 0 0 0.6 0 0] CT
0.849 GC
[1 3] 0 setdash
2 LJ
0.833 LW
N
198.264 270 M
198.264 64 L
S
GR
GS
[0.6 0 0 0.6 0 0] CT
0.849 GC
[1 3] 0 setdash
2 LJ
0.833 LW
N
208.716 270 M
208.716 64 L
S
GR
GS
[0.6 0 0 0.6 0 0] CT
0.849 GC
[1 3] 0 setdash
2 LJ
0.833 LW
N
217.553 270 M
217.553 64 L
S
GR
GS
[0.6 0 0 0.6 0 0] CT
0.849 GC
[1 3] 0 setdash
2 LJ
0.833 LW
N
225.208 270 M
225.208 64 L
S
GR
GS
[0.6 0 0 0.6 0 0] CT
0.849 GC
[1 3] 0 setdash
2 LJ
0.833 LW
N
231.96 270 M
231.96 64 L
S
GR
GS
[0.6 0 0 0.6 0 0] CT
0.849 GC
[1 3] 0 setdash
2 LJ
0.833 LW
N
277.736 270 M
277.736 64 L
S
GR
GS
[0.6 0 0 0.6 0 0] CT
0.849 GC
[1 3] 0 setdash
2 LJ
0.833 LW
N
300.98 270 M
300.98 64 L
S
GR
GS
[0.6 0 0 0.6 0 0] CT
0.849 GC
[1 3] 0 setdash
2 LJ
0.833 LW
N
317.472 270 M
317.472 64 L
S
GR
GS
[0.6 0 0 0.6 0 0] CT
0.849 GC
[1 3] 0 setdash
2 LJ
0.833 LW
N
330.264 270 M
330.264 64 L
S
GR
GS
[0.6 0 0 0.6 0 0] CT
0.849 GC
[1 3] 0 setdash
2 LJ
0.833 LW
N
340.716 270 M
340.716 64 L
S
GR
GS
[0.6 0 0 0.6 0 0] CT
0.849 GC
[1 3] 0 setdash
2 LJ
0.833 LW
N
349.553 270 M
349.553 64 L
S
GR
GS
[0.6 0 0 0.6 0 0] CT
0.849 GC
[1 3] 0 setdash
2 LJ
0.833 LW
N
357.208 270 M
357.208 64 L
S
GR
GS
[0.6 0 0 0.6 0 0] CT
0.849 GC
[1 3] 0 setdash
2 LJ
0.833 LW
N
363.96 270 M
363.96 64 L
S
GR
GS
[0.6 0 0 0.6 0 0] CT
0.849 GC
[1 3] 0 setdash
2 LJ
0.833 LW
N
409.736 270 M
409.736 64 L
S
GR
GS
[0.6 0 0 0.6 0 0] CT
0.849 GC
[1 3] 0 setdash
2 LJ
0.833 LW
N
432.98 270 M
432.98 64 L
S
GR
GS
[0.6 0 0 0.6 0 0] CT
0.849 GC
[1 3] 0 setdash
2 LJ
0.833 LW
N
449.472 270 M
449.472 64 L
S
GR
GS
[0.6 0 0 0.6 0 0] CT
0.849 GC
[1 3] 0 setdash
2 LJ
0.833 LW
N
462.264 270 M
462.264 64 L
S
GR
GS
[0.6 0 0 0.6 0 0] CT
0.849 GC
[1 3] 0 setdash
2 LJ
0.833 LW
N
472.716 270 M
472.716 64 L
S
GR
GS
[0.6 0 0 0.6 0 0] CT
0.849 GC
[1 3] 0 setdash
2 LJ
0.833 LW
N
481.553 270 M
481.553 64 L
S
GR
GS
[0.6 0 0 0.6 0 0] CT
0.849 GC
[1 3] 0 setdash
2 LJ
0.833 LW
N
489.208 270 M
489.208 64 L
S
GR
GS
[0.6 0 0 0.6 0 0] CT
0.849 GC
[1 3] 0 setdash
2 LJ
0.833 LW
N
495.96 270 M
495.96 64 L
S
GR
GS
[0.6 0 0 0.6 0 0] CT
0.849 GC
[1 3] 0 setdash
2 LJ
0.833 LW
N
541.736 270 M
541.736 64 L
S
GR
GS
[0.6 0 0 0.6 0 0] CT
0.849 GC
[1 3] 0 setdash
2 LJ
0.833 LW
N
564.98 270 M
564.98 64 L
S
GR
GS
[0.6 0 0 0.6 0 0] CT
0.849 GC
[1 3] 0 setdash
2 LJ
0.833 LW
N
581.472 270 M
581.472 64 L
S
GR
GS
[0.6 0 0 0.6 0 0] CT
0.849 GC
[1 3] 0 setdash
2 LJ
0.833 LW
N
594.264 270 M
594.264 64 L
S
GR
GS
[0.6 0 0 0.6 0 0] CT
0.849 GC
[1 3] 0 setdash
2 LJ
0.833 LW
N
604.716 270 M
604.716 64 L
S
GR
GS
[0.6 0 0 0.6 0 0] CT
0.849 GC
[1 3] 0 setdash
2 LJ
0.833 LW
N
613.553 270 M
613.553 64 L
S
GR
GS
[0.6 0 0 0.6 0 0] CT
0.849 GC
[1 3] 0 setdash
2 LJ
0.833 LW
N
621.208 270 M
621.208 64 L
S
GR
GS
[0.6 0 0 0.6 0 0] CT
0.849 GC
[1 3] 0 setdash
2 LJ
0.833 LW
N
627.96 270 M
627.96 64 L
S
GR
GS
[0.6 0 0 0.6 0 0] CT
0.873 GC
1 LJ
0.833 LW
N
106 270 M
106 64 L
S
GR
GS
[0.6 0 0 0.6 0 0] CT
0.873 GC
1 LJ
0.833 LW
N
238 270 M
238 64 L
S
GR
GS
[0.6 0 0 0.6 0 0] CT
0.873 GC
1 LJ
0.833 LW
N
370 270 M
370 64 L
S
GR
GS
[0.6 0 0 0.6 0 0] CT
0.873 GC
1 LJ
0.833 LW
N
502 270 M
502 64 L
S
GR
GS
[0.6 0 0 0.6 0 0] CT
0.873 GC
1 LJ
0.833 LW
N
634 270 M
634 64 L
S
GR
GS
[0.6 0 0 0.6 0 0] CT
0.873 GC
1 LJ
0.833 LW
N
634 270 M
106 270 L
S
GR
GS
[0.6 0 0 0.6 0 0] CT
0.873 GC
1 LJ
0.833 LW
N
634 228.8 M
106 228.8 L
S
GR
GS
[0.6 0 0 0.6 0 0] CT
0.873 GC
1 LJ
0.833 LW
N
634 187.6 M
106 187.6 L
S
GR
GS
[0.6 0 0 0.6 0 0] CT
0.873 GC
1 LJ
0.833 LW
N
634 146.4 M
106 146.4 L
S
GR
GS
[0.6 0 0 0.6 0 0] CT
0.873 GC
1 LJ
0.833 LW
N
634 105.2 M
106 105.2 L
S
GR
GS
[0.6 0 0 0.6 0 0] CT
0.873 GC
1 LJ
0.833 LW
N
634 64 M
106 64 L
S
GR
GS
[0.6 0 0 0.6 0 0] CT
0.4 GC
2 setlinecap
1 LJ
0.833 LW
N
106 270 M
634 270 L
S
GR
GS
[0.6 0 0 0.6 0 0] CT
0.4 GC
2 setlinecap
1 LJ
0.833 LW
N
106 64 M
634 64 L
S
GR
GS
[0.6 0 0 0.6 0 0] CT
0.4 GC
2 setlinecap
1 LJ
0.833 LW
N
106 270 M
106 264.72 L
S
GR
GS
[0.6 0 0 0.6 0 0] CT
0.4 GC
2 setlinecap
1 LJ
0.833 LW
N
238 270 M
238 264.72 L
S
GR
GS
[0.6 0 0 0.6 0 0] CT
0.4 GC
2 setlinecap
1 LJ
0.833 LW
N
370 270 M
370 264.72 L
S
GR
GS
[0.6 0 0 0.6 0 0] CT
0.4 GC
2 setlinecap
1 LJ
0.833 LW
N
502 270 M
502 264.72 L
S
GR
GS
[0.6 0 0 0.6 0 0] CT
0.4 GC
2 setlinecap
1 LJ
0.833 LW
N
634 270 M
634 264.72 L
S
GR
GS
[0.6 0 0 0.6 0 0] CT
0.4 GC
2 setlinecap
1 LJ
0.833 LW
N
106 64 M
106 69.28 L
S
GR
GS
[0.6 0 0 0.6 0 0] CT
0.4 GC
2 setlinecap
1 LJ
0.833 LW
N
238 64 M
238 69.28 L
S
GR
GS
[0.6 0 0 0.6 0 0] CT
0.4 GC
2 setlinecap
1 LJ
0.833 LW
N
370 64 M
370 69.28 L
S
GR
GS
[0.6 0 0 0.6 0 0] CT
0.4 GC
2 setlinecap
1 LJ
0.833 LW
N
502 64 M
502 69.28 L
S
GR
GS
[0.6 0 0 0.6 0 0] CT
0.4 GC
2 setlinecap
1 LJ
0.833 LW
N
634 64 M
634 69.28 L
S
GR
GS
[0.6 0 0 0.6 0 0] CT
0.4 GC
2 setlinecap
1 LJ
0.833 LW
N
106 270 M
106 267.36 L
S
GR
GS
[0.6 0 0 0.6 0 0] CT
0.4 GC
2 setlinecap
1 LJ
0.833 LW
N
145.736 270 M
145.736 267.36 L
S
GR
GS
[0.6 0 0 0.6 0 0] CT
0.4 GC
2 setlinecap
1 LJ
0.833 LW
N
168.98 270 M
168.98 267.36 L
S
GR
GS
[0.6 0 0 0.6 0 0] CT
0.4 GC
2 setlinecap
1 LJ
0.833 LW
N
185.472 270 M
185.472 267.36 L
S
GR
GS
[0.6 0 0 0.6 0 0] CT
0.4 GC
2 setlinecap
1 LJ
0.833 LW
N
198.264 270 M
198.264 267.36 L
S
GR
GS
[0.6 0 0 0.6 0 0] CT
0.4 GC
2 setlinecap
1 LJ
0.833 LW
N
208.716 270 M
208.716 267.36 L
S
GR
GS
[0.6 0 0 0.6 0 0] CT
0.4 GC
2 setlinecap
1 LJ
0.833 LW
N
217.553 270 M
217.553 267.36 L
S
GR
GS
[0.6 0 0 0.6 0 0] CT
0.4 GC
2 setlinecap
1 LJ
0.833 LW
N
225.208 270 M
225.208 267.36 L
S
GR
GS
[0.6 0 0 0.6 0 0] CT
0.4 GC
2 setlinecap
1 LJ
0.833 LW
N
231.96 270 M
231.96 267.36 L
S
GR
GS
[0.6 0 0 0.6 0 0] CT
0.4 GC
2 setlinecap
1 LJ
0.833 LW
N
238 270 M
238 267.36 L
S
GR
GS
[0.6 0 0 0.6 0 0] CT
0.4 GC
2 setlinecap
1 LJ
0.833 LW
N
277.736 270 M
277.736 267.36 L
S
GR
GS
[0.6 0 0 0.6 0 0] CT
0.4 GC
2 setlinecap
1 LJ
0.833 LW
N
300.98 270 M
300.98 267.36 L
S
GR
GS
[0.6 0 0 0.6 0 0] CT
0.4 GC
2 setlinecap
1 LJ
0.833 LW
N
317.472 270 M
317.472 267.36 L
S
GR
GS
[0.6 0 0 0.6 0 0] CT
0.4 GC
2 setlinecap
1 LJ
0.833 LW
N
330.264 270 M
330.264 267.36 L
S
GR
GS
[0.6 0 0 0.6 0 0] CT
0.4 GC
2 setlinecap
1 LJ
0.833 LW
N
340.716 270 M
340.716 267.36 L
S
GR
GS
[0.6 0 0 0.6 0 0] CT
0.4 GC
2 setlinecap
1 LJ
0.833 LW
N
349.553 270 M
349.553 267.36 L
S
GR
GS
[0.6 0 0 0.6 0 0] CT
0.4 GC
2 setlinecap
1 LJ
0.833 LW
N
357.208 270 M
357.208 267.36 L
S
GR
GS
[0.6 0 0 0.6 0 0] CT
0.4 GC
2 setlinecap
1 LJ
0.833 LW
N
363.96 270 M
363.96 267.36 L
S
GR
GS
[0.6 0 0 0.6 0 0] CT
0.4 GC
2 setlinecap
1 LJ
0.833 LW
N
370 270 M
370 267.36 L
S
GR
GS
[0.6 0 0 0.6 0 0] CT
0.4 GC
2 setlinecap
1 LJ
0.833 LW
N
409.736 270 M
409.736 267.36 L
S
GR
GS
[0.6 0 0 0.6 0 0] CT
0.4 GC
2 setlinecap
1 LJ
0.833 LW
N
432.98 270 M
432.98 267.36 L
S
GR
GS
[0.6 0 0 0.6 0 0] CT
0.4 GC
2 setlinecap
1 LJ
0.833 LW
N
449.472 270 M
449.472 267.36 L
S
GR
GS
[0.6 0 0 0.6 0 0] CT
0.4 GC
2 setlinecap
1 LJ
0.833 LW
N
462.264 270 M
462.264 267.36 L
S
GR
GS
[0.6 0 0 0.6 0 0] CT
0.4 GC
2 setlinecap
1 LJ
0.833 LW
N
472.716 270 M
472.716 267.36 L
S
GR
GS
[0.6 0 0 0.6 0 0] CT
0.4 GC
2 setlinecap
1 LJ
0.833 LW
N
481.553 270 M
481.553 267.36 L
S
GR
GS
[0.6 0 0 0.6 0 0] CT
0.4 GC
2 setlinecap
1 LJ
0.833 LW
N
489.208 270 M
489.208 267.36 L
S
GR
GS
[0.6 0 0 0.6 0 0] CT
0.4 GC
2 setlinecap
1 LJ
0.833 LW
N
495.96 270 M
495.96 267.36 L
S
GR
GS
[0.6 0 0 0.6 0 0] CT
0.4 GC
2 setlinecap
1 LJ
0.833 LW
N
502 270 M
502 267.36 L
S
GR
GS
[0.6 0 0 0.6 0 0] CT
0.4 GC
2 setlinecap
1 LJ
0.833 LW
N
541.736 270 M
541.736 267.36 L
S
GR
GS
[0.6 0 0 0.6 0 0] CT
0.4 GC
2 setlinecap
1 LJ
0.833 LW
N
564.98 270 M
564.98 267.36 L
S
GR
GS
[0.6 0 0 0.6 0 0] CT
0.4 GC
2 setlinecap
1 LJ
0.833 LW
N
581.472 270 M
581.472 267.36 L
S
GR
GS
[0.6 0 0 0.6 0 0] CT
0.4 GC
2 setlinecap
1 LJ
0.833 LW
N
594.264 270 M
594.264 267.36 L
S
GR
GS
[0.6 0 0 0.6 0 0] CT
0.4 GC
2 setlinecap
1 LJ
0.833 LW
N
604.716 270 M
604.716 267.36 L
S
GR
GS
[0.6 0 0 0.6 0 0] CT
0.4 GC
2 setlinecap
1 LJ
0.833 LW
N
613.553 270 M
613.553 267.36 L
S
GR
GS
[0.6 0 0 0.6 0 0] CT
0.4 GC
2 setlinecap
1 LJ
0.833 LW
N
621.208 270 M
621.208 267.36 L
S
GR
GS
[0.6 0 0 0.6 0 0] CT
0.4 GC
2 setlinecap
1 LJ
0.833 LW
N
627.96 270 M
627.96 267.36 L
S
GR
GS
[0.6 0 0 0.6 0 0] CT
0.4 GC
2 setlinecap
1 LJ
0.833 LW
N
634 270 M
634 267.36 L
S
GR
GS
[0.6 0 0 0.6 0 0] CT
0.4 GC
2 setlinecap
1 LJ
0.833 LW
N
106 64 M
106 66.64 L
S
GR
GS
[0.6 0 0 0.6 0 0] CT
0.4 GC
2 setlinecap
1 LJ
0.833 LW
N
145.736 64 M
145.736 66.64 L
S
GR
GS
[0.6 0 0 0.6 0 0] CT
0.4 GC
2 setlinecap
1 LJ
0.833 LW
N
168.98 64 M
168.98 66.64 L
S
GR
GS
[0.6 0 0 0.6 0 0] CT
0.4 GC
2 setlinecap
1 LJ
0.833 LW
N
185.472 64 M
185.472 66.64 L
S
GR
GS
[0.6 0 0 0.6 0 0] CT
0.4 GC
2 setlinecap
1 LJ
0.833 LW
N
198.264 64 M
198.264 66.64 L
S
GR
GS
[0.6 0 0 0.6 0 0] CT
0.4 GC
2 setlinecap
1 LJ
0.833 LW
N
208.716 64 M
208.716 66.64 L
S
GR
GS
[0.6 0 0 0.6 0 0] CT
0.4 GC
2 setlinecap
1 LJ
0.833 LW
N
217.553 64 M
217.553 66.64 L
S
GR
GS
[0.6 0 0 0.6 0 0] CT
0.4 GC
2 setlinecap
1 LJ
0.833 LW
N
225.208 64 M
225.208 66.64 L
S
GR
GS
[0.6 0 0 0.6 0 0] CT
0.4 GC
2 setlinecap
1 LJ
0.833 LW
N
231.96 64 M
231.96 66.64 L
S
GR
GS
[0.6 0 0 0.6 0 0] CT
0.4 GC
2 setlinecap
1 LJ
0.833 LW
N
238 64 M
238 66.64 L
S
GR
GS
[0.6 0 0 0.6 0 0] CT
0.4 GC
2 setlinecap
1 LJ
0.833 LW
N
277.736 64 M
277.736 66.64 L
S
GR
GS
[0.6 0 0 0.6 0 0] CT
0.4 GC
2 setlinecap
1 LJ
0.833 LW
N
300.98 64 M
300.98 66.64 L
S
GR
GS
[0.6 0 0 0.6 0 0] CT
0.4 GC
2 setlinecap
1 LJ
0.833 LW
N
317.472 64 M
317.472 66.64 L
S
GR
GS
[0.6 0 0 0.6 0 0] CT
0.4 GC
2 setlinecap
1 LJ
0.833 LW
N
330.264 64 M
330.264 66.64 L
S
GR
GS
[0.6 0 0 0.6 0 0] CT
0.4 GC
2 setlinecap
1 LJ
0.833 LW
N
340.716 64 M
340.716 66.64 L
S
GR
GS
[0.6 0 0 0.6 0 0] CT
0.4 GC
2 setlinecap
1 LJ
0.833 LW
N
349.553 64 M
349.553 66.64 L
S
GR
GS
[0.6 0 0 0.6 0 0] CT
0.4 GC
2 setlinecap
1 LJ
0.833 LW
N
357.208 64 M
357.208 66.64 L
S
GR
GS
[0.6 0 0 0.6 0 0] CT
0.4 GC
2 setlinecap
1 LJ
0.833 LW
N
363.96 64 M
363.96 66.64 L
S
GR
GS
[0.6 0 0 0.6 0 0] CT
0.4 GC
2 setlinecap
1 LJ
0.833 LW
N
370 64 M
370 66.64 L
S
GR
GS
[0.6 0 0 0.6 0 0] CT
0.4 GC
2 setlinecap
1 LJ
0.833 LW
N
409.736 64 M
409.736 66.64 L
S
GR
GS
[0.6 0 0 0.6 0 0] CT
0.4 GC
2 setlinecap
1 LJ
0.833 LW
N
432.98 64 M
432.98 66.64 L
S
GR
GS
[0.6 0 0 0.6 0 0] CT
0.4 GC
2 setlinecap
1 LJ
0.833 LW
N
449.472 64 M
449.472 66.64 L
S
GR
GS
[0.6 0 0 0.6 0 0] CT
0.4 GC
2 setlinecap
1 LJ
0.833 LW
N
462.264 64 M
462.264 66.64 L
S
GR
GS
[0.6 0 0 0.6 0 0] CT
0.4 GC
2 setlinecap
1 LJ
0.833 LW
N
472.716 64 M
472.716 66.64 L
S
GR
GS
[0.6 0 0 0.6 0 0] CT
0.4 GC
2 setlinecap
1 LJ
0.833 LW
N
481.553 64 M
481.553 66.64 L
S
GR
GS
[0.6 0 0 0.6 0 0] CT
0.4 GC
2 setlinecap
1 LJ
0.833 LW
N
489.208 64 M
489.208 66.64 L
S
GR
GS
[0.6 0 0 0.6 0 0] CT
0.4 GC
2 setlinecap
1 LJ
0.833 LW
N
495.96 64 M
495.96 66.64 L
S
GR
GS
[0.6 0 0 0.6 0 0] CT
0.4 GC
2 setlinecap
1 LJ
0.833 LW
N
502 64 M
502 66.64 L
S
GR
GS
[0.6 0 0 0.6 0 0] CT
0.4 GC
2 setlinecap
1 LJ
0.833 LW
N
541.736 64 M
541.736 66.64 L
S
GR
GS
[0.6 0 0 0.6 0 0] CT
0.4 GC
2 setlinecap
1 LJ
0.833 LW
N
564.98 64 M
564.98 66.64 L
S
GR
GS
[0.6 0 0 0.6 0 0] CT
0.4 GC
2 setlinecap
1 LJ
0.833 LW
N
581.472 64 M
581.472 66.64 L
S
GR
GS
[0.6 0 0 0.6 0 0] CT
0.4 GC
2 setlinecap
1 LJ
0.833 LW
N
594.264 64 M
594.264 66.64 L
S
GR
GS
[0.6 0 0 0.6 0 0] CT
0.4 GC
2 setlinecap
1 LJ
0.833 LW
N
604.716 64 M
604.716 66.64 L
S
GR
GS
[0.6 0 0 0.6 0 0] CT
0.4 GC
2 setlinecap
1 LJ
0.833 LW
N
613.553 64 M
613.553 66.64 L
S
GR
GS
[0.6 0 0 0.6 0 0] CT
0.4 GC
2 setlinecap
1 LJ
0.833 LW
N
621.208 64 M
621.208 66.64 L
S
GR
GS
[0.6 0 0 0.6 0 0] CT
0.4 GC
2 setlinecap
1 LJ
0.833 LW
N
627.96 64 M
627.96 66.64 L
S
GR
GS
[0.6 0 0 0.6 0 0] CT
0.4 GC
2 setlinecap
1 LJ
0.833 LW
N
634 64 M
634 66.64 L
S
GR
GS
[0.6 0 0 0.6 0 0] CT
0.4 GC
2 setlinecap
1 LJ
0.833 LW
N
106 270 M
106 64 L
S
GR
GS
[0.6 0 0 0.6 0 0] CT
0.4 GC
2 setlinecap
1 LJ
0.833 LW
N
634 270 M
634 64 L
S
GR
GS
[0.6 0 0 0.6 0 0] CT
0.4 GC
2 setlinecap
1 LJ
0.833 LW
N
106 270 M
111.28 270 L
S
GR
GS
[0.6 0 0 0.6 0 0] CT
0.4 GC
2 setlinecap
1 LJ
0.833 LW
N
106 228.8 M
111.28 228.8 L
S
GR
GS
[0.6 0 0 0.6 0 0] CT
0.4 GC
2 setlinecap
1 LJ
0.833 LW
N
106 187.6 M
111.28 187.6 L
S
GR
GS
[0.6 0 0 0.6 0 0] CT
0.4 GC
2 setlinecap
1 LJ
0.833 LW
N
106 146.4 M
111.28 146.4 L
S
GR
GS
[0.6 0 0 0.6 0 0] CT
0.4 GC
2 setlinecap
1 LJ
0.833 LW
N
106 105.2 M
111.28 105.2 L
S
GR
GS
[0.6 0 0 0.6 0 0] CT
0.4 GC
2 setlinecap
1 LJ
0.833 LW
N
106 64 M
111.28 64 L
S
GR
GS
[0.6 0 0 0.6 0 0] CT
0.4 GC
2 setlinecap
1 LJ
0.833 LW
N
634 270 M
628.72 270 L
S
GR
GS
[0.6 0 0 0.6 0 0] CT
0.4 GC
2 setlinecap
1 LJ
0.833 LW
N
634 228.8 M
628.72 228.8 L
S
GR
GS
[0.6 0 0 0.6 0 0] CT
0.4 GC
2 setlinecap
1 LJ
0.833 LW
N
634 187.6 M
628.72 187.6 L
S
GR
GS
[0.6 0 0 0.6 0 0] CT
0.4 GC
2 setlinecap
1 LJ
0.833 LW
N
634 146.4 M
628.72 146.4 L
S
GR
GS
[0.6 0 0 0.6 0 0] CT
0.4 GC
2 setlinecap
1 LJ
0.833 LW
N
634 105.2 M
628.72 105.2 L
S
GR
GS
[0.6 0 0 0.6 0 0] CT
0.4 GC
2 setlinecap
1 LJ
0.833 LW
N
634 64 M
628.72 64 L
S
GR
GS
[0.6 0 0 0.6 59.6 162] CT
0.4 GC
/Helvetica 16.667 F
GS
[1 0 0 1 0 0] CT
-25 7 moveto 
1 -1 scale
(-80) t 
GR
GR
GS
[0.6 0 0 0.6 59.6 137.28] CT
0.4 GC
/Helvetica 16.667 F
GS
[1 0 0 1 0 0] CT
-25 7 moveto 
1 -1 scale
(-60) t 
GR
GR
GS
[0.6 0 0 0.6 59.6 112.56] CT
0.4 GC
/Helvetica 16.667 F
GS
[1 0 0 1 0 0] CT
-25 7 moveto 
1 -1 scale
(-40) t 
GR
GR
GS
[0.6 0 0 0.6 59.6 87.84] CT
0.4 GC
/Helvetica 16.667 F
GS
[1 0 0 1 0 0] CT
-25 7 moveto 
1 -1 scale
(-20) t 
GR
GR
GS
[0.6 0 0 0.6 59.6 63.12] CT
0.4 GC
/Helvetica 16.667 F
GS
[1 0 0 1 0 0] CT
-10 7 moveto 
1 -1 scale
(0) t 
GR
GR
GS
[0.6 0 0 0.6 59.6 38.4] CT
0.4 GC
/Helvetica 16.667 F
GS
[1 0 0 1 0 0] CT
-19 7 moveto 
1 -1 scale
(20) t 
GR
GR
GS
[0 -0.6 0.6 0 41.6 100.19995] CT
/Helvetica 18.333 F
GS
[1 0 0 1 0 0] CT
-62 -4 moveto 
1 -1 scale
(Magnitude \(dB\)) t 
GR
GR
GS
[0.6 0 0 0.6 0 0] CT
0.4 GC
[8 3 2 3] 0 setdash
2 LJ
0.833 LW
N
106 105.2 M
634 105.2 L
S
GR
GS
[0.6 0 0 0.6 0 0] CT
[8 3 2 3] 0 setdash
2 LJ
0.833 LW
N
306.369 270 M
306.369 70.354 L
S
GR
GS
[0.6 0 0 0.6 0 0] CT
[8 3 2 3] 0 setdash
2 LJ
0.833 LW
N
106 70.354 M
306.369 70.354 L
S
GR
GS
[0.6 0 0 0.6 0 0] CT
0.4 GC
[8 3 2 3] 0 setdash
2 LJ
0.833 LW
N
106 105.2 M
634 105.2 L
S
GR
GS
[0.6 0 0 0.6 0 0] CT
0 0.447 0.741 RC
1 setlinecap
1 LJ
0.833 LW
N
105.937 88.921 M
109.338 88.916 L
S
GR
GS
[0.6 0 0 0.6 0 0] CT
0 0.447 0.741 RC
1 setlinecap
1 LJ
0.833 LW
N
109.338 88.916 M
118.155 88.898 L
S
GR
GS
[0.6 0 0 0.6 0 0] CT
0 0.447 0.741 RC
1 setlinecap
1 LJ
0.833 LW
N
118.155 88.898 M
126.972 88.873 L
S
GR
GS
[0.6 0 0 0.6 0 0] CT
0 0.447 0.741 RC
1 setlinecap
1 LJ
0.833 LW
N
126.972 88.873 M
135.789 88.839 L
S
GR
GS
[0.6 0 0 0.6 0 0] CT
0 0.447 0.741 RC
1 setlinecap
1 LJ
0.833 LW
N
135.789 88.839 M
144.605 88.792 L
S
GR
GS
[0.6 0 0 0.6 0 0] CT
0 0.447 0.741 RC
1 setlinecap
1 LJ
0.833 LW
N
144.605 88.792 M
153.422 88.73 L
S
GR
GS
[0.6 0 0 0.6 0 0] CT
0 0.447 0.741 RC
1 setlinecap
1 LJ
0.833 LW
N
153.422 88.73 M
162.239 88.645 L
S
GR
GS
[0.6 0 0 0.6 0 0] CT
0 0.447 0.741 RC
1 setlinecap
1 LJ
0.833 LW
N
162.239 88.645 M
171.056 88.531 L
S
GR
GS
[0.6 0 0 0.6 0 0] CT
0 0.447 0.741 RC
1 setlinecap
1 LJ
0.833 LW
N
171.056 88.531 M
179.873 88.377 L
S
GR
GS
[0.6 0 0 0.6 0 0] CT
0 0.447 0.741 RC
1 setlinecap
1 LJ
0.833 LW
N
179.873 88.377 M
188.69 88.171 L
S
GR
GS
[0.6 0 0 0.6 0 0] CT
0 0.447 0.741 RC
1 setlinecap
1 LJ
0.833 LW
N
188.69 88.171 M
197.506 87.895 L
S
GR
GS
[0.6 0 0 0.6 0 0] CT
0 0.447 0.741 RC
1 setlinecap
1 LJ
0.833 LW
N
197.506 87.895 M
206.323 87.528 L
S
GR
GS
[0.6 0 0 0.6 0 0] CT
0 0.447 0.741 RC
1 setlinecap
1 LJ
0.833 LW
N
206.323 87.528 M
215.14 87.044 L
S
GR
GS
[0.6 0 0 0.6 0 0] CT
0 0.447 0.741 RC
1 setlinecap
1 LJ
0.833 LW
N
215.14 87.044 M
223.957 86.412 L
S
GR
GS
[0.6 0 0 0.6 0 0] CT
0 0.447 0.741 RC
1 setlinecap
1 LJ
0.833 LW
N
223.957 86.412 M
232.774 85.594 L
S
GR
GS
[0.6 0 0 0.6 0 0] CT
0 0.447 0.741 RC
1 setlinecap
1 LJ
0.833 LW
N
232.774 85.594 M
241.591 84.55 L
S
GR
GS
[0.6 0 0 0.6 0 0] CT
0 0.447 0.741 RC
1 setlinecap
1 LJ
0.833 LW
N
241.591 84.55 M
248.253 83.586 L
S
GR
GS
[0.6 0 0 0.6 0 0] CT
0 0.447 0.741 RC
1 setlinecap
1 LJ
0.833 LW
N
248.253 83.586 M
250.407 83.238 L
S
GR
GS
[0.6 0 0 0.6 0 0] CT
0 0.447 0.741 RC
1 setlinecap
1 LJ
0.833 LW
N
250.407 83.238 M
257.665 81.928 L
S
GR
GS
[0.6 0 0 0.6 0 0] CT
0 0.447 0.741 RC
1 setlinecap
1 LJ
0.833 LW
N
257.665 81.928 M
265.57 80.242 L
S
GR
GS
[0.6 0 0 0.6 0 0] CT
0 0.447 0.741 RC
1 setlinecap
1 LJ
0.833 LW
N
265.57 80.242 M
272.619 78.506 L
S
GR
GS
[0.6 0 0 0.6 0 0] CT
0 0.447 0.741 RC
1 setlinecap
1 LJ
0.833 LW
N
272.619 78.506 M
278.905 76.786 L
S
GR
GS
[0.6 0 0 0.6 0 0] CT
0 0.447 0.741 RC
1 setlinecap
1 LJ
0.833 LW
N
278.905 76.786 M
284.51 75.154 L
S
GR
GS
[0.6 0 0 0.6 0 0] CT
0 0.447 0.741 RC
1 setlinecap
1 LJ
0.833 LW
N
284.51 75.154 M
289.508 73.683 L
S
GR
GS
[0.6 0 0 0.6 0 0] CT
0 0.447 0.741 RC
1 setlinecap
1 LJ
0.833 LW
N
289.508 73.683 M
293.964 72.44 L
S
GR
GS
[0.6 0 0 0.6 0 0] CT
0 0.447 0.741 RC
1 setlinecap
1 LJ
0.833 LW
N
293.964 72.44 M
297.938 71.474 L
S
GR
GS
[0.6 0 0 0.6 0 0] CT
0 0.447 0.741 RC
1 setlinecap
1 LJ
0.833 LW
N
297.938 71.474 M
301.912 70.748 L
S
GR
GS
[0.6 0 0 0.6 0 0] CT
0 0.447 0.741 RC
1 setlinecap
1 LJ
0.833 LW
N
301.912 70.748 M
306.369 70.354 L
S
GR
GS
[0.6 0 0 0.6 0 0] CT
0 0.447 0.741 RC
1 setlinecap
1 LJ
0.833 LW
N
306.369 70.354 M
311.367 70.586 L
S
GR
GS
[0.6 0 0 0.6 0 0] CT
0 0.447 0.741 RC
1 setlinecap
1 LJ
0.833 LW
N
311.367 70.586 M
316.972 71.743 L
S
GR
GS
[0.6 0 0 0.6 0 0] CT
0 0.447 0.741 RC
1 setlinecap
1 LJ
0.833 LW
N
316.972 71.743 M
323.258 73.965 L
S
GR
GS
[0.6 0 0 0.6 0 0] CT
0 0.447 0.741 RC
1 setlinecap
1 LJ
0.833 LW
N
323.258 73.965 M
330.307 77.159 L
S
GR
GS
[0.6 0 0 0.6 0 0] CT
0 0.447 0.741 RC
1 setlinecap
1 LJ
0.833 LW
N
330.307 77.159 M
338.212 81.116 L
S
GR
GS
[0.6 0 0 0.6 0 0] CT
0 0.447 0.741 RC
1 setlinecap
1 LJ
0.833 LW
N
338.212 81.116 M
338.576 81.302 L
S
GR
GS
[0.6 0 0 0.6 0 0] CT
0 0.447 0.741 RC
1 setlinecap
1 LJ
0.833 LW
N
338.576 81.302 M
347.393 85.837 L
S
GR
GS
[0.6 0 0 0.6 0 0] CT
0 0.447 0.741 RC
1 setlinecap
1 LJ
0.833 LW
N
347.393 85.837 M
356.21 90.383 L
S
GR
GS
[0.6 0 0 0.6 0 0] CT
0 0.447 0.741 RC
1 setlinecap
1 LJ
0.833 LW
N
356.21 90.383 M
365.026 94.944 L
S
GR
GS
[0.6 0 0 0.6 0 0] CT
0 0.447 0.741 RC
1 setlinecap
1 LJ
0.833 LW
N
365.026 94.944 M
373.843 99.556 L
S
GR
GS
[0.6 0 0 0.6 0 0] CT
0 0.447 0.741 RC
1 setlinecap
1 LJ
0.833 LW
N
373.843 99.556 M
382.66 104.253 L
S
GR
GS
[0.6 0 0 0.6 0 0] CT
0 0.447 0.741 RC
1 setlinecap
1 LJ
0.833 LW
N
382.66 104.253 M
391.477 109.055 L
S
GR
GS
[0.6 0 0 0.6 0 0] CT
0 0.447 0.741 RC
1 setlinecap
1 LJ
0.833 LW
N
391.477 109.055 M
400.294 113.97 L
S
GR
GS
[0.6 0 0 0.6 0 0] CT
0 0.447 0.741 RC
1 setlinecap
1 LJ
0.833 LW
N
400.294 113.97 M
409.111 118.992 L
S
GR
GS
[0.6 0 0 0.6 0 0] CT
0 0.447 0.741 RC
1 setlinecap
1 LJ
0.833 LW
N
409.111 118.992 M
417.927 124.112 L
S
GR
GS
[0.6 0 0 0.6 0 0] CT
0 0.447 0.741 RC
1 setlinecap
1 LJ
0.833 LW
N
417.927 124.112 M
426.744 129.316 L
S
GR
GS
[0.6 0 0 0.6 0 0] CT
0 0.447 0.741 RC
1 setlinecap
1 LJ
0.833 LW
N
426.744 129.316 M
435.561 134.588 L
S
GR
GS
[0.6 0 0 0.6 0 0] CT
0 0.447 0.741 RC
1 setlinecap
1 LJ
0.833 LW
N
435.561 134.588 M
444.378 139.915 L
S
GR
GS
[0.6 0 0 0.6 0 0] CT
0 0.447 0.741 RC
1 setlinecap
1 LJ
0.833 LW
N
444.378 139.915 M
453.195 145.286 L
S
GR
GS
[0.6 0 0 0.6 0 0] CT
0 0.447 0.741 RC
1 setlinecap
1 LJ
0.833 LW
N
453.195 145.286 M
462.012 150.69 L
S
GR
GS
[0.6 0 0 0.6 0 0] CT
0 0.447 0.741 RC
1 setlinecap
1 LJ
0.833 LW
N
462.012 150.69 M
470.828 156.119 L
S
GR
GS
[0.6 0 0 0.6 0 0] CT
0 0.447 0.741 RC
1 setlinecap
1 LJ
0.833 LW
N
470.828 156.119 M
479.645 161.567 L
S
GR
GS
[0.6 0 0 0.6 0 0] CT
0 0.447 0.741 RC
1 setlinecap
1 LJ
0.833 LW
N
479.645 161.567 M
488.462 167.03 L
S
GR
GS
[0.6 0 0 0.6 222.0002 36.90001] CT
0.4 GC
/Helvetica 16.667 F
GS
[1 0 0 1 0 0] CT
-62 -4 moveto 
1 -1 scale
(From: uc  To: uc) t 
GR
GR
GS
[0.6 0 0 0.6 0 0] CT
0 0.447 0.741 RC
1 setlinecap
1 LJ
0.833 LW
N
497.279 172.504 M
506.096 177.985 L
S
GR
GS
[0.6 0 0 0.6 0 0] CT
0 0.447 0.741 RC
1 setlinecap
1 LJ
0.833 LW
N
506.096 177.985 M
514.913 183.472 L
S
GR
GS
[0.6 0 0 0.6 0 0] CT
0 0.447 0.741 RC
1 setlinecap
1 LJ
0.833 LW
N
514.913 183.472 M
523.729 188.964 L
S
GR
GS
[0.6 0 0 0.6 0 0] CT
0 0.447 0.741 RC
1 setlinecap
1 LJ
0.833 LW
N
523.729 188.964 M
532.546 194.459 L
S
GR
GS
[0.6 0 0 0.6 0 0] CT
0 0.447 0.741 RC
1 setlinecap
1 LJ
0.833 LW
N
532.546 194.459 M
541.363 199.956 L
S
GR
GS
[0.6 0 0 0.6 0 0] CT
0 0.447 0.741 RC
1 setlinecap
1 LJ
0.833 LW
N
541.363 199.956 M
550.18 205.455 L
S
GR
GS
[0.6 0 0 0.6 0 0] CT
0 0.447 0.741 RC
1 setlinecap
1 LJ
0.833 LW
N
550.18 205.455 M
558.997 210.955 L
S
GR
GS
[0.6 0 0 0.6 0 0] CT
0 0.447 0.741 RC
1 setlinecap
1 LJ
0.833 LW
N
558.997 210.955 M
567.814 216.456 L
S
GR
GS
[0.6 0 0 0.6 0 0] CT
0 0.447 0.741 RC
1 setlinecap
1 LJ
0.833 LW
N
567.814 216.456 M
576.63 221.958 L
S
GR
GS
[0.6 0 0 0.6 0 0] CT
0 0.447 0.741 RC
1 setlinecap
1 LJ
0.833 LW
N
576.63 221.958 M
585.447 227.461 L
S
GR
GS
[0.6 0 0 0.6 0 0] CT
0 0.447 0.741 RC
1 setlinecap
1 LJ
0.833 LW
N
488.462 167.03 M
497.279 172.504 L
S
GR
GS
[0.6 0 0 0.6 0 0] CT
0 0.447 0.741 RC
1 setlinecap
1 LJ
0.833 LW
N
594.264 232.963 M
634.063 257.807 L
S
GR
GS
[0.6 0 0 0.6 0 0] CT
0 0.447 0.741 RC
1 setlinecap
1 LJ
0.833 LW
N
585.447 227.461 M
594.264 232.963 L
S
GR
GS
[0.6 0 0 0.6 183.82148 42.21227] CT
0 0.447 0.741 RC
N
4.5 -0.5 M
4.5 -3.261 2.261 -5.5 -0.5 -5.5 C
-3.261 -5.5 -5.5 -3.261 -5.5 -0.5 C
-5.5 2.261 -3.261 4.5 -0.5 4.5 C
2.261 4.5 4.5 2.261 4.5 -0.5 C
f
GR
GS
[0.6 0 0 0.6 183.82148 42.21227] CT
0 0.447 0.741 RC
10.0 ML
0.833 LW
N
4.5 -0.5 M
4.5 -3.261 2.261 -5.5 -0.5 -5.5 C
-3.261 -5.5 -5.5 -3.261 -5.5 -0.5 C
-5.5 2.261 -3.261 4.5 -0.5 4.5 C
2.261 4.5 4.5 2.261 4.5 -0.5 C
S
GR
GS
[0.6 0 0 0.6 0 0] CT
1 GC
N
106 467 M
634 467 L
634 285 L
106 285 L
cp
f
GR
GS
[0.6 0 0 0.6 0 0] CT
0.849 GC
[1 3] 0 setdash
2 LJ
0.833 LW
N
145.736 467 M
145.736 285 L
S
GR
GS
[0.6 0 0 0.6 0 0] CT
0.849 GC
[1 3] 0 setdash
2 LJ
0.833 LW
N
168.98 467 M
168.98 285 L
S
GR
GS
[0.6 0 0 0.6 0 0] CT
0.849 GC
[1 3] 0 setdash
2 LJ
0.833 LW
N
185.472 467 M
185.472 285 L
S
GR
GS
[0.6 0 0 0.6 0 0] CT
0.849 GC
[1 3] 0 setdash
2 LJ
0.833 LW
N
198.264 467 M
198.264 285 L
S
GR
GS
[0.6 0 0 0.6 0 0] CT
0.849 GC
[1 3] 0 setdash
2 LJ
0.833 LW
N
208.716 467 M
208.716 285 L
S
GR
GS
[0.6 0 0 0.6 0 0] CT
0.849 GC
[1 3] 0 setdash
2 LJ
0.833 LW
N
217.553 467 M
217.553 285 L
S
GR
GS
[0.6 0 0 0.6 0 0] CT
0.849 GC
[1 3] 0 setdash
2 LJ
0.833 LW
N
225.208 467 M
225.208 285 L
S
GR
GS
[0.6 0 0 0.6 0 0] CT
0.849 GC
[1 3] 0 setdash
2 LJ
0.833 LW
N
231.96 467 M
231.96 285 L
S
GR
GS
[0.6 0 0 0.6 0 0] CT
0.849 GC
[1 3] 0 setdash
2 LJ
0.833 LW
N
277.736 467 M
277.736 285 L
S
GR
GS
[0.6 0 0 0.6 0 0] CT
0.849 GC
[1 3] 0 setdash
2 LJ
0.833 LW
N
300.98 467 M
300.98 285 L
S
GR
GS
[0.6 0 0 0.6 0 0] CT
0.849 GC
[1 3] 0 setdash
2 LJ
0.833 LW
N
317.472 467 M
317.472 285 L
S
GR
GS
[0.6 0 0 0.6 0 0] CT
0.849 GC
[1 3] 0 setdash
2 LJ
0.833 LW
N
330.264 467 M
330.264 285 L
S
GR
GS
[0.6 0 0 0.6 0 0] CT
0.849 GC
[1 3] 0 setdash
2 LJ
0.833 LW
N
340.716 467 M
340.716 285 L
S
GR
GS
[0.6 0 0 0.6 0 0] CT
0.849 GC
[1 3] 0 setdash
2 LJ
0.833 LW
N
349.553 467 M
349.553 285 L
S
GR
GS
[0.6 0 0 0.6 0 0] CT
0.849 GC
[1 3] 0 setdash
2 LJ
0.833 LW
N
357.208 467 M
357.208 285 L
S
GR
GS
[0.6 0 0 0.6 0 0] CT
0.849 GC
[1 3] 0 setdash
2 LJ
0.833 LW
N
363.96 467 M
363.96 285 L
S
GR
GS
[0.6 0 0 0.6 0 0] CT
0.849 GC
[1 3] 0 setdash
2 LJ
0.833 LW
N
409.736 467 M
409.736 285 L
S
GR
GS
[0.6 0 0 0.6 0 0] CT
0.849 GC
[1 3] 0 setdash
2 LJ
0.833 LW
N
432.98 467 M
432.98 285 L
S
GR
GS
[0.6 0 0 0.6 0 0] CT
0.849 GC
[1 3] 0 setdash
2 LJ
0.833 LW
N
449.472 467 M
449.472 285 L
S
GR
GS
[0.6 0 0 0.6 0 0] CT
0.849 GC
[1 3] 0 setdash
2 LJ
0.833 LW
N
462.264 467 M
462.264 285 L
S
GR
GS
[0.6 0 0 0.6 0 0] CT
0.849 GC
[1 3] 0 setdash
2 LJ
0.833 LW
N
472.716 467 M
472.716 285 L
S
GR
GS
[0.6 0 0 0.6 0 0] CT
0.849 GC
[1 3] 0 setdash
2 LJ
0.833 LW
N
481.553 467 M
481.553 285 L
S
GR
GS
[0.6 0 0 0.6 0 0] CT
0.849 GC
[1 3] 0 setdash
2 LJ
0.833 LW
N
489.208 467 M
489.208 285 L
S
GR
GS
[0.6 0 0 0.6 0 0] CT
0.849 GC
[1 3] 0 setdash
2 LJ
0.833 LW
N
495.96 467 M
495.96 285 L
S
GR
GS
[0.6 0 0 0.6 0 0] CT
0.849 GC
[1 3] 0 setdash
2 LJ
0.833 LW
N
541.736 467 M
541.736 285 L
S
GR
GS
[0.6 0 0 0.6 0 0] CT
0.849 GC
[1 3] 0 setdash
2 LJ
0.833 LW
N
564.98 467 M
564.98 285 L
S
GR
GS
[0.6 0 0 0.6 0 0] CT
0.849 GC
[1 3] 0 setdash
2 LJ
0.833 LW
N
581.472 467 M
581.472 285 L
S
GR
GS
[0.6 0 0 0.6 0 0] CT
0.849 GC
[1 3] 0 setdash
2 LJ
0.833 LW
N
594.264 467 M
594.264 285 L
S
GR
GS
[0.6 0 0 0.6 0 0] CT
0.849 GC
[1 3] 0 setdash
2 LJ
0.833 LW
N
604.716 467 M
604.716 285 L
S
GR
GS
[0.6 0 0 0.6 0 0] CT
0.849 GC
[1 3] 0 setdash
2 LJ
0.833 LW
N
613.553 467 M
613.553 285 L
S
GR
GS
[0.6 0 0 0.6 0 0] CT
0.849 GC
[1 3] 0 setdash
2 LJ
0.833 LW
N
621.208 467 M
621.208 285 L
S
GR
GS
[0.6 0 0 0.6 0 0] CT
0.849 GC
[1 3] 0 setdash
2 LJ
0.833 LW
N
627.96 467 M
627.96 285 L
S
GR
GS
[0.6 0 0 0.6 0 0] CT
0.873 GC
1 LJ
0.833 LW
N
106 467 M
106 285 L
S
GR
GS
[0.6 0 0 0.6 0 0] CT
0.873 GC
1 LJ
0.833 LW
N
238 467 M
238 285 L
S
GR
GS
[0.6 0 0 0.6 0 0] CT
0.873 GC
1 LJ
0.833 LW
N
370 467 M
370 285 L
S
GR
GS
[0.6 0 0 0.6 0 0] CT
0.873 GC
1 LJ
0.833 LW
N
502 467 M
502 285 L
S
GR
GS
[0.6 0 0 0.6 0 0] CT
0.873 GC
1 LJ
0.833 LW
N
634 467 M
634 285 L
S
GR
GS
[0.6 0 0 0.6 0 0] CT
0.873 GC
1 LJ
0.833 LW
N
634 465.216 M
106 465.216 L
S
GR
GS
[0.6 0 0 0.6 0 0] CT
0.873 GC
1 LJ
0.833 LW
N
634 405.739 M
106 405.739 L
S
GR
GS
[0.6 0 0 0.6 0 0] CT
0.873 GC
1 LJ
0.833 LW
N
634 346.261 M
106 346.261 L
S
GR
GS
[0.6 0 0 0.6 0 0] CT
0.873 GC
1 LJ
0.833 LW
N
634 286.784 M
106 286.784 L
S
GR
GS
[0.6 0 0 0.6 0 0] CT
0.4 GC
2 setlinecap
1 LJ
0.833 LW
N
106 467 M
634 467 L
S
GR
GS
[0.6 0 0 0.6 0 0] CT
0.4 GC
2 setlinecap
1 LJ
0.833 LW
N
106 285 M
634 285 L
S
GR
GS
[0.6 0 0 0.6 0 0] CT
0.4 GC
2 setlinecap
1 LJ
0.833 LW
N
106 467 M
106 461.72 L
S
GR
GS
[0.6 0 0 0.6 0 0] CT
0.4 GC
2 setlinecap
1 LJ
0.833 LW
N
238 467 M
238 461.72 L
S
GR
GS
[0.6 0 0 0.6 0 0] CT
0.4 GC
2 setlinecap
1 LJ
0.833 LW
N
370 467 M
370 461.72 L
S
GR
GS
[0.6 0 0 0.6 0 0] CT
0.4 GC
2 setlinecap
1 LJ
0.833 LW
N
502 467 M
502 461.72 L
S
GR
GS
[0.6 0 0 0.6 0 0] CT
0.4 GC
2 setlinecap
1 LJ
0.833 LW
N
634 467 M
634 461.72 L
S
GR
GS
[0.6 0 0 0.6 0 0] CT
0.4 GC
2 setlinecap
1 LJ
0.833 LW
N
106 285 M
106 290.28 L
S
GR
GS
[0.6 0 0 0.6 0 0] CT
0.4 GC
2 setlinecap
1 LJ
0.833 LW
N
238 285 M
238 290.28 L
S
GR
GS
[0.6 0 0 0.6 0 0] CT
0.4 GC
2 setlinecap
1 LJ
0.833 LW
N
370 285 M
370 290.28 L
S
GR
GS
[0.6 0 0 0.6 0 0] CT
0.4 GC
2 setlinecap
1 LJ
0.833 LW
N
502 285 M
502 290.28 L
S
GR
GS
[0.6 0 0 0.6 0 0] CT
0.4 GC
2 setlinecap
1 LJ
0.833 LW
N
634 285 M
634 290.28 L
S
GR
GS
[0.6 0 0 0.6 0 0] CT
0.4 GC
2 setlinecap
1 LJ
0.833 LW
N
106 467 M
106 464.36 L
S
GR
GS
[0.6 0 0 0.6 0 0] CT
0.4 GC
2 setlinecap
1 LJ
0.833 LW
N
145.736 467 M
145.736 464.36 L
S
GR
GS
[0.6 0 0 0.6 0 0] CT
0.4 GC
2 setlinecap
1 LJ
0.833 LW
N
168.98 467 M
168.98 464.36 L
S
GR
GS
[0.6 0 0 0.6 0 0] CT
0.4 GC
2 setlinecap
1 LJ
0.833 LW
N
185.472 467 M
185.472 464.36 L
S
GR
GS
[0.6 0 0 0.6 0 0] CT
0.4 GC
2 setlinecap
1 LJ
0.833 LW
N
198.264 467 M
198.264 464.36 L
S
GR
GS
[0.6 0 0 0.6 0 0] CT
0.4 GC
2 setlinecap
1 LJ
0.833 LW
N
208.716 467 M
208.716 464.36 L
S
GR
GS
[0.6 0 0 0.6 0 0] CT
0.4 GC
2 setlinecap
1 LJ
0.833 LW
N
217.553 467 M
217.553 464.36 L
S
GR
GS
[0.6 0 0 0.6 0 0] CT
0.4 GC
2 setlinecap
1 LJ
0.833 LW
N
225.208 467 M
225.208 464.36 L
S
GR
GS
[0.6 0 0 0.6 0 0] CT
0.4 GC
2 setlinecap
1 LJ
0.833 LW
N
231.96 467 M
231.96 464.36 L
S
GR
GS
[0.6 0 0 0.6 0 0] CT
0.4 GC
2 setlinecap
1 LJ
0.833 LW
N
238 467 M
238 464.36 L
S
GR
GS
[0.6 0 0 0.6 0 0] CT
0.4 GC
2 setlinecap
1 LJ
0.833 LW
N
277.736 467 M
277.736 464.36 L
S
GR
GS
[0.6 0 0 0.6 0 0] CT
0.4 GC
2 setlinecap
1 LJ
0.833 LW
N
300.98 467 M
300.98 464.36 L
S
GR
GS
[0.6 0 0 0.6 0 0] CT
0.4 GC
2 setlinecap
1 LJ
0.833 LW
N
317.472 467 M
317.472 464.36 L
S
GR
GS
[0.6 0 0 0.6 0 0] CT
0.4 GC
2 setlinecap
1 LJ
0.833 LW
N
330.264 467 M
330.264 464.36 L
S
GR
GS
[0.6 0 0 0.6 0 0] CT
0.4 GC
2 setlinecap
1 LJ
0.833 LW
N
340.716 467 M
340.716 464.36 L
S
GR
GS
[0.6 0 0 0.6 0 0] CT
0.4 GC
2 setlinecap
1 LJ
0.833 LW
N
349.553 467 M
349.553 464.36 L
S
GR
GS
[0.6 0 0 0.6 0 0] CT
0.4 GC
2 setlinecap
1 LJ
0.833 LW
N
357.208 467 M
357.208 464.36 L
S
GR
GS
[0.6 0 0 0.6 0 0] CT
0.4 GC
2 setlinecap
1 LJ
0.833 LW
N
363.96 467 M
363.96 464.36 L
S
GR
GS
[0.6 0 0 0.6 0 0] CT
0.4 GC
2 setlinecap
1 LJ
0.833 LW
N
370 467 M
370 464.36 L
S
GR
GS
[0.6 0 0 0.6 0 0] CT
0.4 GC
2 setlinecap
1 LJ
0.833 LW
N
409.736 467 M
409.736 464.36 L
S
GR
GS
[0.6 0 0 0.6 0 0] CT
0.4 GC
2 setlinecap
1 LJ
0.833 LW
N
432.98 467 M
432.98 464.36 L
S
GR
GS
[0.6 0 0 0.6 0 0] CT
0.4 GC
2 setlinecap
1 LJ
0.833 LW
N
449.472 467 M
449.472 464.36 L
S
GR
GS
[0.6 0 0 0.6 0 0] CT
0.4 GC
2 setlinecap
1 LJ
0.833 LW
N
462.264 467 M
462.264 464.36 L
S
GR
GS
[0.6 0 0 0.6 0 0] CT
0.4 GC
2 setlinecap
1 LJ
0.833 LW
N
472.716 467 M
472.716 464.36 L
S
GR
GS
[0.6 0 0 0.6 0 0] CT
0.4 GC
2 setlinecap
1 LJ
0.833 LW
N
481.553 467 M
481.553 464.36 L
S
GR
GS
[0.6 0 0 0.6 0 0] CT
0.4 GC
2 setlinecap
1 LJ
0.833 LW
N
489.208 467 M
489.208 464.36 L
S
GR
GS
[0.6 0 0 0.6 0 0] CT
0.4 GC
2 setlinecap
1 LJ
0.833 LW
N
495.96 467 M
495.96 464.36 L
S
GR
GS
[0.6 0 0 0.6 0 0] CT
0.4 GC
2 setlinecap
1 LJ
0.833 LW
N
502 467 M
502 464.36 L
S
GR
GS
[0.6 0 0 0.6 0 0] CT
0.4 GC
2 setlinecap
1 LJ
0.833 LW
N
541.736 467 M
541.736 464.36 L
S
GR
GS
[0.6 0 0 0.6 0 0] CT
0.4 GC
2 setlinecap
1 LJ
0.833 LW
N
564.98 467 M
564.98 464.36 L
S
GR
GS
[0.6 0 0 0.6 0 0] CT
0.4 GC
2 setlinecap
1 LJ
0.833 LW
N
581.472 467 M
581.472 464.36 L
S
GR
GS
[0.6 0 0 0.6 0 0] CT
0.4 GC
2 setlinecap
1 LJ
0.833 LW
N
594.264 467 M
594.264 464.36 L
S
GR
GS
[0.6 0 0 0.6 0 0] CT
0.4 GC
2 setlinecap
1 LJ
0.833 LW
N
604.716 467 M
604.716 464.36 L
S
GR
GS
[0.6 0 0 0.6 0 0] CT
0.4 GC
2 setlinecap
1 LJ
0.833 LW
N
613.553 467 M
613.553 464.36 L
S
GR
GS
[0.6 0 0 0.6 0 0] CT
0.4 GC
2 setlinecap
1 LJ
0.833 LW
N
621.208 467 M
621.208 464.36 L
S
GR
GS
[0.6 0 0 0.6 0 0] CT
0.4 GC
2 setlinecap
1 LJ
0.833 LW
N
627.96 467 M
627.96 464.36 L
S
GR
GS
[0.6 0 0 0.6 0 0] CT
0.4 GC
2 setlinecap
1 LJ
0.833 LW
N
634 467 M
634 464.36 L
S
GR
GS
[0.6 0 0 0.6 0 0] CT
0.4 GC
2 setlinecap
1 LJ
0.833 LW
N
106 285 M
106 287.64 L
S
GR
GS
[0.6 0 0 0.6 0 0] CT
0.4 GC
2 setlinecap
1 LJ
0.833 LW
N
145.736 285 M
145.736 287.64 L
S
GR
GS
[0.6 0 0 0.6 0 0] CT
0.4 GC
2 setlinecap
1 LJ
0.833 LW
N
168.98 285 M
168.98 287.64 L
S
GR
GS
[0.6 0 0 0.6 0 0] CT
0.4 GC
2 setlinecap
1 LJ
0.833 LW
N
185.472 285 M
185.472 287.64 L
S
GR
GS
[0.6 0 0 0.6 0 0] CT
0.4 GC
2 setlinecap
1 LJ
0.833 LW
N
198.264 285 M
198.264 287.64 L
S
GR
GS
[0.6 0 0 0.6 0 0] CT
0.4 GC
2 setlinecap
1 LJ
0.833 LW
N
208.716 285 M
208.716 287.64 L
S
GR
GS
[0.6 0 0 0.6 0 0] CT
0.4 GC
2 setlinecap
1 LJ
0.833 LW
N
217.553 285 M
217.553 287.64 L
S
GR
GS
[0.6 0 0 0.6 0 0] CT
0.4 GC
2 setlinecap
1 LJ
0.833 LW
N
225.208 285 M
225.208 287.64 L
S
GR
GS
[0.6 0 0 0.6 0 0] CT
0.4 GC
2 setlinecap
1 LJ
0.833 LW
N
231.96 285 M
231.96 287.64 L
S
GR
GS
[0.6 0 0 0.6 0 0] CT
0.4 GC
2 setlinecap
1 LJ
0.833 LW
N
238 285 M
238 287.64 L
S
GR
GS
[0.6 0 0 0.6 0 0] CT
0.4 GC
2 setlinecap
1 LJ
0.833 LW
N
277.736 285 M
277.736 287.64 L
S
GR
GS
[0.6 0 0 0.6 0 0] CT
0.4 GC
2 setlinecap
1 LJ
0.833 LW
N
300.98 285 M
300.98 287.64 L
S
GR
GS
[0.6 0 0 0.6 0 0] CT
0.4 GC
2 setlinecap
1 LJ
0.833 LW
N
317.472 285 M
317.472 287.64 L
S
GR
GS
[0.6 0 0 0.6 0 0] CT
0.4 GC
2 setlinecap
1 LJ
0.833 LW
N
330.264 285 M
330.264 287.64 L
S
GR
GS
[0.6 0 0 0.6 0 0] CT
0.4 GC
2 setlinecap
1 LJ
0.833 LW
N
340.716 285 M
340.716 287.64 L
S
GR
GS
[0.6 0 0 0.6 0 0] CT
0.4 GC
2 setlinecap
1 LJ
0.833 LW
N
349.553 285 M
349.553 287.64 L
S
GR
GS
[0.6 0 0 0.6 0 0] CT
0.4 GC
2 setlinecap
1 LJ
0.833 LW
N
357.208 285 M
357.208 287.64 L
S
GR
GS
[0.6 0 0 0.6 0 0] CT
0.4 GC
2 setlinecap
1 LJ
0.833 LW
N
363.96 285 M
363.96 287.64 L
S
GR
GS
[0.6 0 0 0.6 0 0] CT
0.4 GC
2 setlinecap
1 LJ
0.833 LW
N
370 285 M
370 287.64 L
S
GR
GS
[0.6 0 0 0.6 0 0] CT
0.4 GC
2 setlinecap
1 LJ
0.833 LW
N
409.736 285 M
409.736 287.64 L
S
GR
GS
[0.6 0 0 0.6 0 0] CT
0.4 GC
2 setlinecap
1 LJ
0.833 LW
N
432.98 285 M
432.98 287.64 L
S
GR
GS
[0.6 0 0 0.6 0 0] CT
0.4 GC
2 setlinecap
1 LJ
0.833 LW
N
449.472 285 M
449.472 287.64 L
S
GR
GS
[0.6 0 0 0.6 0 0] CT
0.4 GC
2 setlinecap
1 LJ
0.833 LW
N
462.264 285 M
462.264 287.64 L
S
GR
GS
[0.6 0 0 0.6 0 0] CT
0.4 GC
2 setlinecap
1 LJ
0.833 LW
N
472.716 285 M
472.716 287.64 L
S
GR
GS
[0.6 0 0 0.6 0 0] CT
0.4 GC
2 setlinecap
1 LJ
0.833 LW
N
481.553 285 M
481.553 287.64 L
S
GR
GS
[0.6 0 0 0.6 0 0] CT
0.4 GC
2 setlinecap
1 LJ
0.833 LW
N
489.208 285 M
489.208 287.64 L
S
GR
GS
[0.6 0 0 0.6 0 0] CT
0.4 GC
2 setlinecap
1 LJ
0.833 LW
N
495.96 285 M
495.96 287.64 L
S
GR
GS
[0.6 0 0 0.6 0 0] CT
0.4 GC
2 setlinecap
1 LJ
0.833 LW
N
502 285 M
502 287.64 L
S
GR
GS
[0.6 0 0 0.6 0 0] CT
0.4 GC
2 setlinecap
1 LJ
0.833 LW
N
541.736 285 M
541.736 287.64 L
S
GR
GS
[0.6 0 0 0.6 0 0] CT
0.4 GC
2 setlinecap
1 LJ
0.833 LW
N
564.98 285 M
564.98 287.64 L
S
GR
GS
[0.6 0 0 0.6 0 0] CT
0.4 GC
2 setlinecap
1 LJ
0.833 LW
N
581.472 285 M
581.472 287.64 L
S
GR
GS
[0.6 0 0 0.6 0 0] CT
0.4 GC
2 setlinecap
1 LJ
0.833 LW
N
594.264 285 M
594.264 287.64 L
S
GR
GS
[0.6 0 0 0.6 0 0] CT
0.4 GC
2 setlinecap
1 LJ
0.833 LW
N
604.716 285 M
604.716 287.64 L
S
GR
GS
[0.6 0 0 0.6 0 0] CT
0.4 GC
2 setlinecap
1 LJ
0.833 LW
N
613.553 285 M
613.553 287.64 L
S
GR
GS
[0.6 0 0 0.6 0 0] CT
0.4 GC
2 setlinecap
1 LJ
0.833 LW
N
621.208 285 M
621.208 287.64 L
S
GR
GS
[0.6 0 0 0.6 0 0] CT
0.4 GC
2 setlinecap
1 LJ
0.833 LW
N
627.96 285 M
627.96 287.64 L
S
GR
GS
[0.6 0 0 0.6 0 0] CT
0.4 GC
2 setlinecap
1 LJ
0.833 LW
N
634 285 M
634 287.64 L
S
GR
GS
[0.6 0 0 0.6 54 297.6] CT
0.4 GC
/Helvetica 16.667 F
GS
[1 0 0 1 0 0] CT
0 0 moveto 
1 -1 scale
(10) t 
GR
GR
GS
[0.6 0 0 0.6 65.4 292.8] CT
0.4 GC
/Helvetica 13.333 F
GS
[1 0 0 1 0 0] CT
0 0 moveto 
1 -1 scale
(-1) t 
GR
GR
GS
[0.6 0 0 0.6 134.4 297.6] CT
0.4 GC
/Helvetica 16.667 F
GS
[1 0 0 1 0 0] CT
0 0 moveto 
1 -1 scale
(10) t 
GR
GR
GS
[0.6 0 0 0.6 145.8 292.8] CT
0.4 GC
/Helvetica 13.333 F
GS
[1 0 0 1 0 0] CT
0 0 moveto 
1 -1 scale
(0) t 
GR
GR
GS
[0.6 0 0 0.6 213.6 297.6] CT
0.4 GC
/Helvetica 16.667 F
GS
[1 0 0 1 0 0] CT
0 0 moveto 
1 -1 scale
(10) t 
GR
GR
GS
[0.6 0 0 0.6 225 292.8] CT
0.4 GC
/Helvetica 13.333 F
GS
[1 0 0 1 0 0] CT
0 0 moveto 
1 -1 scale
(1) t 
GR
GR
GS
[0.6 0 0 0.6 292.8 297.6] CT
0.4 GC
/Helvetica 16.667 F
GS
[1 0 0 1 0 0] CT
0 0 moveto 
1 -1 scale
(10) t 
GR
GR
GS
[0.6 0 0 0.6 304.2 292.8] CT
0.4 GC
/Helvetica 13.333 F
GS
[1 0 0 1 0 0] CT
0 0 moveto 
1 -1 scale
(2) t 
GR
GR
GS
[0.6 0 0 0.6 372 297.6] CT
0.4 GC
/Helvetica 16.667 F
GS
[1 0 0 1 0 0] CT
0 0 moveto 
1 -1 scale
(10) t 
GR
GR
GS
[0.6 0 0 0.6 383.4 292.8] CT
0.4 GC
/Helvetica 13.333 F
GS
[1 0 0 1 0 0] CT
0 0 moveto 
1 -1 scale
(3) t 
GR
GR
GS
[0.6 0 0 0.6 0 0] CT
0.4 GC
2 setlinecap
1 LJ
0.833 LW
N
106 467 M
106 285 L
S
GR
GS
[0.6 0 0 0.6 0 0] CT
0.4 GC
2 setlinecap
1 LJ
0.833 LW
N
634 467 M
634 285 L
S
GR
GS
[0.6 0 0 0.6 0 0] CT
0.4 GC
2 setlinecap
1 LJ
0.833 LW
N
106 465.216 M
111.28 465.216 L
S
GR
GS
[0.6 0 0 0.6 0 0] CT
0.4 GC
2 setlinecap
1 LJ
0.833 LW
N
106 405.739 M
111.28 405.739 L
S
GR
GS
[0.6 0 0 0.6 0 0] CT
0.4 GC
2 setlinecap
1 LJ
0.833 LW
N
106 346.261 M
111.28 346.261 L
S
GR
GS
[0.6 0 0 0.6 0 0] CT
0.4 GC
2 setlinecap
1 LJ
0.833 LW
N
106 286.784 M
111.28 286.784 L
S
GR
GS
[0.6 0 0 0.6 0 0] CT
0.4 GC
2 setlinecap
1 LJ
0.833 LW
N
634 465.216 M
628.72 465.216 L
S
GR
GS
[0.6 0 0 0.6 0 0] CT
0.4 GC
2 setlinecap
1 LJ
0.833 LW
N
634 405.739 M
628.72 405.739 L
S
GR
GS
[0.6 0 0 0.6 0 0] CT
0.4 GC
2 setlinecap
1 LJ
0.833 LW
N
634 346.261 M
628.72 346.261 L
S
GR
GS
[0.6 0 0 0.6 0 0] CT
0.4 GC
2 setlinecap
1 LJ
0.833 LW
N
634 286.784 M
628.72 286.784 L
S
GR
GS
[0.6 0 0 0.6 59.6 279.12942] CT
0.4 GC
/Helvetica 16.667 F
GS
[1 0 0 1 0 0] CT
-35 7 moveto 
1 -1 scale
(-180) t 
GR
GR
GS
[0.6 0 0 0.6 59.6 243.44313] CT
0.4 GC
/Helvetica 16.667 F
GS
[1 0 0 1 0 0] CT
-25 7 moveto 
1 -1 scale
(-90) t 
GR
GR
GS
[0.6 0 0 0.6 59.6 207.75687] CT
0.4 GC
/Helvetica 16.667 F
GS
[1 0 0 1 0 0] CT
-10 7 moveto 
1 -1 scale
(0) t 
GR
GR
GS
[0.6 0 0 0.6 59.6 172.0706] CT
0.4 GC
/Helvetica 16.667 F
GS
[1 0 0 1 0 0] CT
-19 7 moveto 
1 -1 scale
(90) t 
GR
GR
GS
[0 -0.6 0.6 0 35.6 225.59995] CT
/Helvetica 18.333 F
GS
[1 0 0 1 0 0] CT
-49.5 -4 moveto 
1 -1 scale
(Phase \(deg\)) t 
GR
GR
GS
[0.6 0 0 0.6 0 0] CT
0.4 GC
[8 3 2 3] 0 setdash
2 LJ
0.833 LW
N
106 465.216 M
634 465.216 L
S
GR
GS
[0.6 0 0 0.6 0 0] CT
0.4 GC
1 LJ
0.833 LW
N
384.414 465.216 M
384.414 435.584 L
S
GR
GS
[0.6 0 0 0.6 0 0] CT
0.4 GC
[8 3 2 3] 0 setdash
2 LJ
0.833 LW
N
106 465.216 M
634 465.216 L
S
GR
GS
[0.6 0 0 0.6 0 0] CT
0.4 GC
1 LJ
0.833 LW
N
384.414 465.216 M
384.414 435.584 L
S
GR
GS
[0.6 0 0 0.6 0 0] CT
0 0.447 0.741 RC
1 setlinecap
1 LJ
0.833 LW
N
105.937 345.092 M
109.338 345.025 L
S
GR
GS
[0.6 0 0 0.6 0 0] CT
0 0.447 0.741 RC
1 setlinecap
1 LJ
0.833 LW
N
109.338 345.025 M
118.155 344.821 L
S
GR
GS
[0.6 0 0 0.6 0 0] CT
0 0.447 0.741 RC
1 setlinecap
1 LJ
0.833 LW
N
118.155 344.821 M
126.972 344.585 L
S
GR
GS
[0.6 0 0 0.6 0 0] CT
0 0.447 0.741 RC
1 setlinecap
1 LJ
0.833 LW
N
126.972 344.585 M
135.789 344.311 L
S
GR
GS
[0.6 0 0 0.6 0 0] CT
0 0.447 0.741 RC
1 setlinecap
1 LJ
0.833 LW
N
135.789 344.311 M
144.605 343.995 L
S
GR
GS
[0.6 0 0 0.6 0 0] CT
0 0.447 0.741 RC
1 setlinecap
1 LJ
0.833 LW
N
144.605 343.995 M
153.422 343.63 L
S
GR
GS
[0.6 0 0 0.6 0 0] CT
0 0.447 0.741 RC
1 setlinecap
1 LJ
0.833 LW
N
153.422 343.63 M
162.239 343.212 L
S
GR
GS
[0.6 0 0 0.6 0 0] CT
0 0.447 0.741 RC
1 setlinecap
1 LJ
0.833 LW
N
162.239 343.212 M
171.056 342.735 L
S
GR
GS
[0.6 0 0 0.6 0 0] CT
0 0.447 0.741 RC
1 setlinecap
1 LJ
0.833 LW
N
171.056 342.735 M
179.873 342.197 L
S
GR
GS
[0.6 0 0 0.6 0 0] CT
0 0.447 0.741 RC
1 setlinecap
1 LJ
0.833 LW
N
179.873 342.197 M
188.69 341.595 L
S
GR
GS
[0.6 0 0 0.6 0 0] CT
0 0.447 0.741 RC
1 setlinecap
1 LJ
0.833 LW
N
188.69 341.595 M
197.506 340.934 L
S
GR
GS
[0.6 0 0 0.6 0 0] CT
0 0.447 0.741 RC
1 setlinecap
1 LJ
0.833 LW
N
197.506 340.934 M
206.323 340.227 L
S
GR
GS
[0.6 0 0 0.6 0 0] CT
0 0.447 0.741 RC
1 setlinecap
1 LJ
0.833 LW
N
206.323 340.227 M
215.14 339.495 L
S
GR
GS
[0.6 0 0 0.6 0 0] CT
0 0.447 0.741 RC
1 setlinecap
1 LJ
0.833 LW
N
215.14 339.495 M
223.957 338.782 L
S
GR
GS
[0.6 0 0 0.6 0 0] CT
0 0.447 0.741 RC
1 setlinecap
1 LJ
0.833 LW
N
223.957 338.782 M
232.774 338.153 L
S
GR
GS
[0.6 0 0 0.6 0 0] CT
0 0.447 0.741 RC
1 setlinecap
1 LJ
0.833 LW
N
232.774 338.153 M
241.591 337.71 L
S
GR
GS
[0.6 0 0 0.6 0 0] CT
0 0.447 0.741 RC
1 setlinecap
1 LJ
0.833 LW
N
241.591 337.71 M
248.253 337.588 L
S
GR
GS
[0.6 0 0 0.6 0 0] CT
0 0.447 0.741 RC
1 setlinecap
1 LJ
0.833 LW
N
248.253 337.588 M
250.407 337.603 L
S
GR
GS
[0.6 0 0 0.6 0 0] CT
0 0.447 0.741 RC
1 setlinecap
1 LJ
0.833 LW
N
250.407 337.603 M
257.665 337.914 L
S
GR
GS
[0.6 0 0 0.6 0 0] CT
0 0.447 0.741 RC
1 setlinecap
1 LJ
0.833 LW
N
257.665 337.914 M
265.57 338.871 L
S
GR
GS
[0.6 0 0 0.6 0 0] CT
0 0.447 0.741 RC
1 setlinecap
1 LJ
0.833 LW
N
265.57 338.871 M
272.619 340.496 L
S
GR
GS
[0.6 0 0 0.6 0 0] CT
0 0.447 0.741 RC
1 setlinecap
1 LJ
0.833 LW
N
272.619 340.496 M
278.905 342.799 L
S
GR
GS
[0.6 0 0 0.6 0 0] CT
0 0.447 0.741 RC
1 setlinecap
1 LJ
0.833 LW
N
278.905 342.799 M
284.51 345.752 L
S
GR
GS
[0.6 0 0 0.6 0 0] CT
0 0.447 0.741 RC
1 setlinecap
1 LJ
0.833 LW
N
284.51 345.752 M
289.508 349.29 L
S
GR
GS
[0.6 0 0 0.6 0 0] CT
0 0.447 0.741 RC
1 setlinecap
1 LJ
0.833 LW
N
289.508 349.29 M
293.964 353.301 L
S
GR
GS
[0.6 0 0 0.6 0 0] CT
0 0.447 0.741 RC
1 setlinecap
1 LJ
0.833 LW
N
293.964 353.301 M
297.938 357.628 L
S
GR
GS
[0.6 0 0 0.6 0 0] CT
0 0.447 0.741 RC
1 setlinecap
1 LJ
0.833 LW
N
297.938 357.628 M
301.912 362.662 L
S
GR
GS
[0.6 0 0 0.6 0 0] CT
0 0.447 0.741 RC
1 setlinecap
1 LJ
0.833 LW
N
301.912 362.662 M
306.369 369.024 L
S
GR
GS
[0.6 0 0 0.6 0 0] CT
0 0.447 0.741 RC
1 setlinecap
1 LJ
0.833 LW
N
306.369 369.024 M
311.367 376.691 L
S
GR
GS
[0.6 0 0 0.6 0 0] CT
0 0.447 0.741 RC
1 setlinecap
1 LJ
0.833 LW
N
311.367 376.691 M
316.972 385.251 L
S
GR
GS
[0.6 0 0 0.6 0 0] CT
0 0.447 0.741 RC
1 setlinecap
1 LJ
0.833 LW
N
316.972 385.251 M
323.258 393.968 L
S
GR
GS
[0.6 0 0 0.6 0 0] CT
0 0.447 0.741 RC
1 setlinecap
1 LJ
0.833 LW
N
323.258 393.968 M
330.307 402.157 L
S
GR
GS
[0.6 0 0 0.6 0 0] CT
0 0.447 0.741 RC
1 setlinecap
1 LJ
0.833 LW
N
330.307 402.157 M
338.212 409.523 L
S
GR
GS
[0.6 0 0 0.6 0 0] CT
0 0.447 0.741 RC
1 setlinecap
1 LJ
0.833 LW
N
338.212 409.523 M
338.576 409.824 L
S
GR
GS
[0.6 0 0 0.6 0 0] CT
0 0.447 0.741 RC
1 setlinecap
1 LJ
0.833 LW
N
338.576 409.824 M
347.393 416.359 L
S
GR
GS
[0.6 0 0 0.6 0 0] CT
0 0.447 0.741 RC
1 setlinecap
1 LJ
0.833 LW
N
347.393 416.359 M
356.21 421.819 L
S
GR
GS
[0.6 0 0 0.6 0 0] CT
0 0.447 0.741 RC
1 setlinecap
1 LJ
0.833 LW
N
356.21 421.819 M
365.026 426.598 L
S
GR
GS
[0.6 0 0 0.6 0 0] CT
0 0.447 0.741 RC
1 setlinecap
1 LJ
0.833 LW
N
365.026 426.598 M
373.843 430.905 L
S
GR
GS
[0.6 0 0 0.6 0 0] CT
0 0.447 0.741 RC
1 setlinecap
1 LJ
0.833 LW
N
373.843 430.905 M
382.66 434.841 L
S
GR
GS
[0.6 0 0 0.6 0 0] CT
0 0.447 0.741 RC
1 setlinecap
1 LJ
0.833 LW
N
382.66 434.841 M
391.477 438.446 L
S
GR
GS
[0.6 0 0 0.6 0 0] CT
0 0.447 0.741 RC
1 setlinecap
1 LJ
0.833 LW
N
391.477 438.446 M
400.294 441.733 L
S
GR
GS
[0.6 0 0 0.6 0 0] CT
0 0.447 0.741 RC
1 setlinecap
1 LJ
0.833 LW
N
400.294 441.733 M
409.111 444.707 L
S
GR
GS
[0.6 0 0 0.6 0 0] CT
0 0.447 0.741 RC
1 setlinecap
1 LJ
0.833 LW
N
409.111 444.707 M
417.927 447.373 L
S
GR
GS
[0.6 0 0 0.6 0 0] CT
0 0.447 0.741 RC
1 setlinecap
1 LJ
0.833 LW
N
417.927 447.373 M
426.744 449.743 L
S
GR
GS
[0.6 0 0 0.6 0 0] CT
0 0.447 0.741 RC
1 setlinecap
1 LJ
0.833 LW
N
426.744 449.743 M
435.561 451.833 L
S
GR
GS
[0.6 0 0 0.6 0 0] CT
0 0.447 0.741 RC
1 setlinecap
1 LJ
0.833 LW
N
435.561 451.833 M
444.378 453.665 L
S
GR
GS
[0.6 0 0 0.6 0 0] CT
0 0.447 0.741 RC
1 setlinecap
1 LJ
0.833 LW
N
444.378 453.665 M
453.195 455.263 L
S
GR
GS
[0.6 0 0 0.6 0 0] CT
0 0.447 0.741 RC
1 setlinecap
1 LJ
0.833 LW
N
453.195 455.263 M
462.012 456.65 L
S
GR
GS
[0.6 0 0 0.6 0 0] CT
0 0.447 0.741 RC
1 setlinecap
1 LJ
0.833 LW
N
462.012 456.65 M
470.828 457.851 L
S
GR
GS
[0.6 0 0 0.6 0 0] CT
0 0.447 0.741 RC
1 setlinecap
1 LJ
0.833 LW
N
470.828 457.851 M
479.645 458.888 L
S
GR
GS
[0.6 0 0 0.6 0 0] CT
0 0.447 0.741 RC
1 setlinecap
1 LJ
0.833 LW
N
479.645 458.888 M
488.462 459.782 L
S
GR
GS
[0.6 0 0 0.6 0 0] CT
0 0.447 0.741 RC
1 setlinecap
1 LJ
0.833 LW
N
488.462 459.782 M
497.279 460.551 L
S
GR
GS
[0.6 0 0 0.6 0 0] CT
0 0.447 0.741 RC
1 setlinecap
1 LJ
0.833 LW
N
506.096 461.213 M
514.913 461.781 L
S
GR
GS
[0.6 0 0 0.6 0 0] CT
0 0.447 0.741 RC
1 setlinecap
1 LJ
0.833 LW
N
514.913 461.781 M
523.729 462.27 L
S
GR
GS
[0.6 0 0 0.6 0 0] CT
0 0.447 0.741 RC
1 setlinecap
1 LJ
0.833 LW
N
523.729 462.27 M
532.546 462.689 L
S
GR
GS
[0.6 0 0 0.6 0 0] CT
0 0.447 0.741 RC
1 setlinecap
1 LJ
0.833 LW
N
532.546 462.689 M
541.363 463.048 L
S
GR
GS
[0.6 0 0 0.6 0 0] CT
0 0.447 0.741 RC
1 setlinecap
1 LJ
0.833 LW
N
541.363 463.048 M
550.18 463.357 L
S
GR
GS
[0.6 0 0 0.6 0 0] CT
0 0.447 0.741 RC
1 setlinecap
1 LJ
0.833 LW
N
550.18 463.357 M
558.997 463.622 L
S
GR
GS
[0.6 0 0 0.6 0 0] CT
0 0.447 0.741 RC
1 setlinecap
1 LJ
0.833 LW
N
558.997 463.622 M
567.814 463.849 L
S
GR
GS
[0.6 0 0 0.6 0 0] CT
0 0.447 0.741 RC
1 setlinecap
1 LJ
0.833 LW
N
567.814 463.849 M
576.63 464.044 L
S
GR
GS
[0.6 0 0 0.6 0 0] CT
0 0.447 0.741 RC
1 setlinecap
1 LJ
0.833 LW
N
576.63 464.044 M
585.447 464.211 L
S
GR
GS
[0.6 0 0 0.6 0 0] CT
0 0.447 0.741 RC
1 setlinecap
1 LJ
0.833 LW
N
585.447 464.211 M
594.264 464.354 L
S
GR
GS
[0.6 0 0 0.6 0 0] CT
0 0.447 0.741 RC
1 setlinecap
1 LJ
0.833 LW
N
497.279 460.551 M
506.096 461.213 L
S
GR
GS
[0.6 0 0 0.6 0 0] CT
0 0.447 0.741 RC
1 setlinecap
1 LJ
0.833 LW
N
594.264 464.354 M
634.063 464.588 L
S
GR
GS
[0.6 0 0 0.6 230.64846 261.35021] CT
0 0.447 0.741 RC
N
/f929750868{4.5 -0.5 M
4.5 -3.261 2.261 -5.5 -0.5 -5.5 C
-3.261 -5.5 -5.5 -3.261 -5.5 -0.5 C
-5.5 2.261 -3.261 4.5 -0.5 4.5 C
2.261 4.5 4.5 2.261 4.5 -0.5 C}def
f929750868
f
GR
GS
[0.6 0 0 0.6 230.64846 261.35021] CT
0 0.447 0.741 RC
10.0 ML
0.833 LW
N
4.5 -0.5 M
4.5 -3.261 2.261 -5.5 -0.5 -5.5 C
-3.261 -5.5 -5.5 -3.261 -5.5 -0.5 C
-5.5 2.261 -3.261 4.5 -0.5 4.5 C
2.261 4.5 4.5 2.261 4.5 -0.5 C
S
GR
GS
[0.6 0 0 0.6 230.64846 261.35021] CT
0 0.447 0.741 RC
N
f929750868
f
GR
GS
[0.6 0 0 0.6 230.64846 261.35021] CT
0 0.447 0.741 RC
10.0 ML
0.833 LW
N
4.5 -0.5 M
4.5 -3.261 2.261 -5.5 -0.5 -5.5 C
-3.261 -5.5 -5.5 -3.261 -5.5 -0.5 C
-5.5 2.261 -3.261 4.5 -0.5 4.5 C
2.261 4.5 4.5 2.261 4.5 -0.5 C
S
GR
GS
[0.6 0 0 0.6 221.1 20.025] CT
/Helvetica 18.333 F
GS
[1 0 0 1 0 0] CT
-58 -4 moveto 
1 -1 scale
(Bode Diagram) t 
GR
GR
GS
[0.6 0 0 0.6 221.1 299.30001] CT
/Helvetica 18.333 F
GS
[1 0 0 1 0 0] CT
-74 19 moveto 
1 -1 scale
(Frequency  \(rad/s\)) t 
GR
GR
%%Trailer
%%Pages: 1
%%EOF
