%!PS-Adobe-3.0 EPSF-3.0
%%Creator: (MATLAB, The Mathworks, Inc. Version 9.1.0.441655 \(R2016b\). Operating System: Windows 8)
%%Title: D:/Users/Administrator/Desktop/flight-control-system-paper/report/fig/lon_before_rlocus.eps
%%CreationDate: 2019-05-02T17:44:53
%%Pages: (atend)
%%BoundingBox: 0 0 420 315
%%LanguageLevel: 3
%%EndComments
%%BeginProlog
%%BeginResource: procset (Apache XML Graphics Std ProcSet) 1.2 0
%%Version: 1.2 0
%%Copyright: (Copyright 2001-2003,2010 The Apache Software Foundation. License terms: http://www.apache.org/licenses/LICENSE-2.0)
/bd{bind def}bind def
/ld{load def}bd
/GR/grestore ld
/M/moveto ld
/LJ/setlinejoin ld
/C/curveto ld
/f/fill ld
/LW/setlinewidth ld
/GC/setgray ld
/t/show ld
/N/newpath ld
/CT/concat ld
/cp/closepath ld
/S/stroke ld
/L/lineto ld
/CC/setcmykcolor ld
/A/ashow ld
/GS/gsave ld
/RC/setrgbcolor ld
/RM/rmoveto ld
/ML/setmiterlimit ld
/re {4 2 roll M
1 index 0 rlineto
0 exch rlineto
neg 0 rlineto
cp } bd
/_ctm matrix def
/_tm matrix def
/BT { _ctm currentmatrix pop matrix _tm copy pop 0 0 moveto } bd
/ET { _ctm setmatrix } bd
/iTm { _ctm setmatrix _tm concat } bd
/Tm { _tm astore pop iTm 0 0 moveto } bd
/ux 0.0 def
/uy 0.0 def
/F {
  /Tp exch def
  /Tf exch def
  Tf findfont Tp scalefont setfont
  /cf Tf def  /cs Tp def
} bd
/ULS {currentpoint /uy exch def /ux exch def} bd
/ULE {
  /Tcx currentpoint pop def
  gsave
  newpath
  cf findfont cs scalefont dup
  /FontMatrix get 0 get /Ts exch def /FontInfo get dup
  /UnderlinePosition get Ts mul /To exch def
  /UnderlineThickness get Ts mul /Tt exch def
  ux uy To add moveto  Tcx uy To add lineto
  Tt setlinewidth stroke
  grestore
} bd
/OLE {
  /Tcx currentpoint pop def
  gsave
  newpath
  cf findfont cs scalefont dup
  /FontMatrix get 0 get /Ts exch def /FontInfo get dup
  /UnderlinePosition get Ts mul /To exch def
  /UnderlineThickness get Ts mul /Tt exch def
  ux uy To add cs add moveto Tcx uy To add cs add lineto
  Tt setlinewidth stroke
  grestore
} bd
/SOE {
  /Tcx currentpoint pop def
  gsave
  newpath
  cf findfont cs scalefont dup
  /FontMatrix get 0 get /Ts exch def /FontInfo get dup
  /UnderlinePosition get Ts mul /To exch def
  /UnderlineThickness get Ts mul /Tt exch def
  ux uy To add cs 10 mul 26 idiv add moveto Tcx uy To add cs 10 mul 26 idiv add lineto
  Tt setlinewidth stroke
  grestore
} bd
/QT {
/Y22 exch store
/X22 exch store
/Y21 exch store
/X21 exch store
currentpoint
/Y21 load 2 mul add 3 div exch
/X21 load 2 mul add 3 div exch
/X21 load 2 mul /X22 load add 3 div
/Y21 load 2 mul /Y22 load add 3 div
/X22 load /Y22 load curveto
} bd
/SSPD {
dup length /d exch dict def
{
/v exch def
/k exch def
currentpagedevice k known {
/cpdv currentpagedevice k get def
v cpdv ne {
/upd false def
/nullv v type /nulltype eq def
/nullcpdv cpdv type /nulltype eq def
nullv nullcpdv or
{
/upd true def
} {
/sametype v type cpdv type eq def
sametype {
v type /arraytype eq {
/vlen v length def
/cpdvlen cpdv length def
vlen cpdvlen eq {
0 1 vlen 1 sub {
/i exch def
/obj v i get def
/cpdobj cpdv i get def
obj cpdobj ne {
/upd true def
exit
} if
} for
} {
/upd true def
} ifelse
} {
v type /dicttype eq {
v {
/dv exch def
/dk exch def
/cpddv cpdv dk get def
dv cpddv ne {
/upd true def
exit
} if
} forall
} {
/upd true def
} ifelse
} ifelse
} if
} ifelse
upd true eq {
d k v put
} if
} if
} if
} forall
d length 0 gt {
d setpagedevice
} if
} bd
/RE { % /NewFontName [NewEncodingArray] /FontName RE -
  findfont dup length dict begin
  {
    1 index /FID ne
    {def} {pop pop} ifelse
  } forall
  /Encoding exch def
  /FontName 1 index def
  currentdict definefont pop
  end
} bind def
%%EndResource
%%BeginResource: procset (Apache XML Graphics EPS ProcSet) 1.0 0
%%Version: 1.0 0
%%Copyright: (Copyright 2002-2003 The Apache Software Foundation. License terms: http://www.apache.org/licenses/LICENSE-2.0)
/BeginEPSF { %def
/b4_Inc_state save def         % Save state for cleanup
/dict_count countdictstack def % Count objects on dict stack
/op_count count 1 sub def      % Count objects on operand stack
userdict begin                 % Push userdict on dict stack
/showpage { } def              % Redefine showpage, { } = null proc
0 setgray 0 setlinecap         % Prepare graphics state
1 setlinewidth 0 setlinejoin
10 setmiterlimit [ ] 0 setdash newpath
/languagelevel where           % If level not equal to 1 then
{pop languagelevel             % set strokeadjust and
1 ne                           % overprint to their defaults.
{false setstrokeadjust false setoverprint
} if
} if
} bd
/EndEPSF { %def
count op_count sub {pop} repeat            % Clean up stacks
countdictstack dict_count sub {end} repeat
b4_Inc_state restore
} bd
%%EndResource
%FOPBeginFontDict
%%IncludeResource: font Courier-Bold
%%IncludeResource: font Helvetica
%%IncludeResource: font Courier-BoldOblique
%%IncludeResource: font Courier-Oblique
%%IncludeResource: font Times-Roman
%%IncludeResource: font Helvetica-BoldOblique
%%IncludeResource: font Helvetica-Bold
%%IncludeResource: font Helvetica-Oblique
%%IncludeResource: font Times-BoldItalic
%%IncludeResource: font Courier
%%IncludeResource: font Times-Italic
%%IncludeResource: font Times-Bold
%%IncludeResource: font Symbol
%%IncludeResource: font ZapfDingbats
%FOPEndFontDict
%%BeginResource: encoding WinAnsiEncoding
/WinAnsiEncoding [
/.notdef /.notdef /.notdef /.notdef /.notdef
/.notdef /.notdef /.notdef /.notdef /.notdef
/.notdef /.notdef /.notdef /.notdef /.notdef
/.notdef /.notdef /.notdef /.notdef /.notdef
/.notdef /.notdef /.notdef /.notdef /.notdef
/.notdef /.notdef /.notdef /.notdef /.notdef
/.notdef /.notdef /space /exclam /quotedbl
/numbersign /dollar /percent /ampersand /quotesingle
/parenleft /parenright /asterisk /plus /comma
/hyphen /period /slash /zero /one
/two /three /four /five /six
/seven /eight /nine /colon /semicolon
/less /equal /greater /question /at
/A /B /C /D /E
/F /G /H /I /J
/K /L /M /N /O
/P /Q /R /S /T
/U /V /W /X /Y
/Z /bracketleft /backslash /bracketright /asciicircum
/underscore /quoteleft /a /b /c
/d /e /f /g /h
/i /j /k /l /m
/n /o /p /q /r
/s /t /u /v /w
/x /y /z /braceleft /bar
/braceright /asciitilde /bullet /Euro /bullet
/quotesinglbase /florin /quotedblbase /ellipsis /dagger
/daggerdbl /circumflex /perthousand /Scaron /guilsinglleft
/OE /bullet /Zcaron /bullet /bullet
/quoteleft /quoteright /quotedblleft /quotedblright /bullet
/endash /emdash /asciitilde /trademark /scaron
/guilsinglright /oe /bullet /zcaron /Ydieresis
/space /exclamdown /cent /sterling /currency
/yen /brokenbar /section /dieresis /copyright
/ordfeminine /guillemotleft /logicalnot /sfthyphen /registered
/macron /degree /plusminus /twosuperior /threesuperior
/acute /mu /paragraph /middot /cedilla
/onesuperior /ordmasculine /guillemotright /onequarter /onehalf
/threequarters /questiondown /Agrave /Aacute /Acircumflex
/Atilde /Adieresis /Aring /AE /Ccedilla
/Egrave /Eacute /Ecircumflex /Edieresis /Igrave
/Iacute /Icircumflex /Idieresis /Eth /Ntilde
/Ograve /Oacute /Ocircumflex /Otilde /Odieresis
/multiply /Oslash /Ugrave /Uacute /Ucircumflex
/Udieresis /Yacute /Thorn /germandbls /agrave
/aacute /acircumflex /atilde /adieresis /aring
/ae /ccedilla /egrave /eacute /ecircumflex
/edieresis /igrave /iacute /icircumflex /idieresis
/eth /ntilde /ograve /oacute /ocircumflex
/otilde /odieresis /divide /oslash /ugrave
/uacute /ucircumflex /udieresis /yacute /thorn
/ydieresis
] def
%%EndResource
%FOPBeginFontReencode
/Courier-Bold findfont
dup length dict begin
  {1 index /FID ne {def} {pop pop} ifelse} forall
  /Encoding WinAnsiEncoding def
  currentdict
end
/Courier-Bold exch definefont pop
/Helvetica findfont
dup length dict begin
  {1 index /FID ne {def} {pop pop} ifelse} forall
  /Encoding WinAnsiEncoding def
  currentdict
end
/Helvetica exch definefont pop
/Courier-BoldOblique findfont
dup length dict begin
  {1 index /FID ne {def} {pop pop} ifelse} forall
  /Encoding WinAnsiEncoding def
  currentdict
end
/Courier-BoldOblique exch definefont pop
/Courier-Oblique findfont
dup length dict begin
  {1 index /FID ne {def} {pop pop} ifelse} forall
  /Encoding WinAnsiEncoding def
  currentdict
end
/Courier-Oblique exch definefont pop
/Times-Roman findfont
dup length dict begin
  {1 index /FID ne {def} {pop pop} ifelse} forall
  /Encoding WinAnsiEncoding def
  currentdict
end
/Times-Roman exch definefont pop
/Helvetica-BoldOblique findfont
dup length dict begin
  {1 index /FID ne {def} {pop pop} ifelse} forall
  /Encoding WinAnsiEncoding def
  currentdict
end
/Helvetica-BoldOblique exch definefont pop
/Helvetica-Bold findfont
dup length dict begin
  {1 index /FID ne {def} {pop pop} ifelse} forall
  /Encoding WinAnsiEncoding def
  currentdict
end
/Helvetica-Bold exch definefont pop
/Helvetica-Oblique findfont
dup length dict begin
  {1 index /FID ne {def} {pop pop} ifelse} forall
  /Encoding WinAnsiEncoding def
  currentdict
end
/Helvetica-Oblique exch definefont pop
/Times-BoldItalic findfont
dup length dict begin
  {1 index /FID ne {def} {pop pop} ifelse} forall
  /Encoding WinAnsiEncoding def
  currentdict
end
/Times-BoldItalic exch definefont pop
/Courier findfont
dup length dict begin
  {1 index /FID ne {def} {pop pop} ifelse} forall
  /Encoding WinAnsiEncoding def
  currentdict
end
/Courier exch definefont pop
/Times-Italic findfont
dup length dict begin
  {1 index /FID ne {def} {pop pop} ifelse} forall
  /Encoding WinAnsiEncoding def
  currentdict
end
/Times-Italic exch definefont pop
/Times-Bold findfont
dup length dict begin
  {1 index /FID ne {def} {pop pop} ifelse} forall
  /Encoding WinAnsiEncoding def
  currentdict
end
/Times-Bold exch definefont pop
%FOPEndFontReencode
%%EndProlog
%%Page: 1 1
%%PageBoundingBox: 0 0 420 315
%%BeginPageSetup
[1 0 0 -1 0 315] CT
%%EndPageSetup
GS
[0.6 0 0 0.6 0 0] CT
1 GC
N
0 0 700 525 re
f
GR
GS
[0.6 0 0 0.6 0 0] CT
1 GC
N
0 0 700 525 re
f
GR
GS
[0.6 0 0 0.6 0 0] CT
1 GC
N
106 467 M
634 467 L
634 64 L
106 64 L
cp
f
GR
GS
[0.6 0 0 0.6 0 0] CT
0.4 GC
2 setlinecap
1 LJ
0.833 LW
N
106 467 M
634 467 L
S
GR
GS
[0.6 0 0 0.6 0 0] CT
0.4 GC
2 setlinecap
1 LJ
0.833 LW
N
106 64 M
634 64 L
S
GR
GS
[0.6 0 0 0.6 0 0] CT
0.4 GC
2 setlinecap
1 LJ
0.833 LW
N
106 467 M
106 461.72 L
S
GR
GS
[0.6 0 0 0.6 0 0] CT
0.4 GC
2 setlinecap
1 LJ
0.833 LW
N
181.429 467 M
181.429 461.72 L
S
GR
GS
[0.6 0 0 0.6 0 0] CT
0.4 GC
2 setlinecap
1 LJ
0.833 LW
N
256.857 467 M
256.857 461.72 L
S
GR
GS
[0.6 0 0 0.6 0 0] CT
0.4 GC
2 setlinecap
1 LJ
0.833 LW
N
332.286 467 M
332.286 461.72 L
S
GR
GS
[0.6 0 0 0.6 0 0] CT
0.4 GC
2 setlinecap
1 LJ
0.833 LW
N
407.714 467 M
407.714 461.72 L
S
GR
GS
[0.6 0 0 0.6 0 0] CT
0.4 GC
2 setlinecap
1 LJ
0.833 LW
N
483.143 467 M
483.143 461.72 L
S
GR
GS
[0.6 0 0 0.6 0 0] CT
0.4 GC
2 setlinecap
1 LJ
0.833 LW
N
558.571 467 M
558.571 461.72 L
S
GR
GS
[0.6 0 0 0.6 0 0] CT
0.4 GC
2 setlinecap
1 LJ
0.833 LW
N
634 467 M
634 461.72 L
S
GR
GS
[0.6 0 0 0.6 0 0] CT
0.4 GC
2 setlinecap
1 LJ
0.833 LW
N
106 64 M
106 69.28 L
S
GR
GS
[0.6 0 0 0.6 0 0] CT
0.4 GC
2 setlinecap
1 LJ
0.833 LW
N
181.429 64 M
181.429 69.28 L
S
GR
GS
[0.6 0 0 0.6 0 0] CT
0.4 GC
2 setlinecap
1 LJ
0.833 LW
N
256.857 64 M
256.857 69.28 L
S
GR
GS
[0.6 0 0 0.6 0 0] CT
0.4 GC
2 setlinecap
1 LJ
0.833 LW
N
332.286 64 M
332.286 69.28 L
S
GR
GS
[0.6 0 0 0.6 0 0] CT
0.4 GC
2 setlinecap
1 LJ
0.833 LW
N
407.714 64 M
407.714 69.28 L
S
GR
GS
[0.6 0 0 0.6 0 0] CT
0.4 GC
2 setlinecap
1 LJ
0.833 LW
N
483.143 64 M
483.143 69.28 L
S
GR
GS
[0.6 0 0 0.6 0 0] CT
0.4 GC
2 setlinecap
1 LJ
0.833 LW
N
558.571 64 M
558.571 69.28 L
S
GR
GS
[0.6 0 0 0.6 0 0] CT
0.4 GC
2 setlinecap
1 LJ
0.833 LW
N
634 64 M
634 69.28 L
S
GR
GS
[0.6 0 0 0.6 63.6 284.19999] CT
0.4 GC
/Helvetica 16.667 F
GS
[1 0 0 1 0 0] CT
-12.5 18 moveto 
1 -1 scale
(-12) t 
GR
GR
GS
[0.6 0 0 0.6 108.85714 284.19999] CT
0.4 GC
/Helvetica 16.667 F
GS
[1 0 0 1 0 0] CT
-12.5 18 moveto 
1 -1 scale
(-10) t 
GR
GR
GS
[0.6 0 0 0.6 154.11429 284.19999] CT
0.4 GC
/Helvetica 16.667 F
GS
[1 0 0 1 0 0] CT
-8 18 moveto 
1 -1 scale
(-8) t 
GR
GR
GS
[0.6 0 0 0.6 199.37142 284.19999] CT
0.4 GC
/Helvetica 16.667 F
GS
[1 0 0 1 0 0] CT
-8 18 moveto 
1 -1 scale
(-6) t 
GR
GR
GS
[0.6 0 0 0.6 244.62858 284.19999] CT
0.4 GC
/Helvetica 16.667 F
GS
[1 0 0 1 0 0] CT
-8 18 moveto 
1 -1 scale
(-4) t 
GR
GR
GS
[0.6 0 0 0.6 289.88571 284.19999] CT
0.4 GC
/Helvetica 16.667 F
GS
[1 0 0 1 0 0] CT
-8 18 moveto 
1 -1 scale
(-2) t 
GR
GR
GS
[0.6 0 0 0.6 335.14285 284.19999] CT
0.4 GC
/Helvetica 16.667 F
GS
[1 0 0 1 0 0] CT
-5 18 moveto 
1 -1 scale
(0) t 
GR
GR
GS
[0.6 0 0 0.6 380.4 284.19999] CT
0.4 GC
/Helvetica 16.667 F
GS
[1 0 0 1 0 0] CT
-5 18 moveto 
1 -1 scale
(2) t 
GR
GR
GS
[0.6 0 0 0.6 0 0] CT
0.4 GC
2 setlinecap
1 LJ
0.833 LW
N
106 467 M
106 64 L
S
GR
GS
[0.6 0 0 0.6 0 0] CT
0.4 GC
2 setlinecap
1 LJ
0.833 LW
N
634 467 M
634 64 L
S
GR
GS
[0.6 0 0 0.6 0 0] CT
0.4 GC
2 setlinecap
1 LJ
0.833 LW
N
106 467 M
111.28 467 L
S
GR
GS
[0.6 0 0 0.6 0 0] CT
0.4 GC
2 setlinecap
1 LJ
0.833 LW
N
106 399.833 M
111.28 399.833 L
S
GR
GS
[0.6 0 0 0.6 0 0] CT
0.4 GC
2 setlinecap
1 LJ
0.833 LW
N
106 332.667 M
111.28 332.667 L
S
GR
GS
[0.6 0 0 0.6 0 0] CT
0.4 GC
2 setlinecap
1 LJ
0.833 LW
N
106 265.5 M
111.28 265.5 L
S
GR
GS
[0.6 0 0 0.6 0 0] CT
0.4 GC
2 setlinecap
1 LJ
0.833 LW
N
106 198.333 M
111.28 198.333 L
S
GR
GS
[0.6 0 0 0.6 0 0] CT
0.4 GC
2 setlinecap
1 LJ
0.833 LW
N
106 131.167 M
111.28 131.167 L
S
GR
GS
[0.6 0 0 0.6 0 0] CT
0.4 GC
2 setlinecap
1 LJ
0.833 LW
N
106 64 M
111.28 64 L
S
GR
GS
[0.6 0 0 0.6 0 0] CT
0.4 GC
2 setlinecap
1 LJ
0.833 LW
N
634 467 M
628.72 467 L
S
GR
GS
[0.6 0 0 0.6 0 0] CT
0.4 GC
2 setlinecap
1 LJ
0.833 LW
N
634 399.833 M
628.72 399.833 L
S
GR
GS
[0.6 0 0 0.6 0 0] CT
0.4 GC
2 setlinecap
1 LJ
0.833 LW
N
634 332.667 M
628.72 332.667 L
S
GR
GS
[0.6 0 0 0.6 0 0] CT
0.4 GC
2 setlinecap
1 LJ
0.833 LW
N
634 265.5 M
628.72 265.5 L
S
GR
GS
[0.6 0 0 0.6 0 0] CT
0.4 GC
2 setlinecap
1 LJ
0.833 LW
N
634 198.333 M
628.72 198.333 L
S
GR
GS
[0.6 0 0 0.6 0 0] CT
0.4 GC
2 setlinecap
1 LJ
0.833 LW
N
634 131.167 M
628.72 131.167 L
S
GR
GS
[0.6 0 0 0.6 0 0] CT
0.4 GC
2 setlinecap
1 LJ
0.833 LW
N
634 64 M
628.72 64 L
S
GR
GS
[0.6 0 0 0.6 59.60001 280.2] CT
0.4 GC
/Helvetica 16.667 F
GS
[1 0 0 1 0 0] CT
-25 7 moveto 
1 -1 scale
(-30) t 
GR
GR
GS
[0.6 0 0 0.6 59.60001 239.90001] CT
0.4 GC
/Helvetica 16.667 F
GS
[1 0 0 1 0 0] CT
-25 7 moveto 
1 -1 scale
(-20) t 
GR
GR
GS
[0.6 0 0 0.6 59.60001 199.59999] CT
0.4 GC
/Helvetica 16.667 F
GS
[1 0 0 1 0 0] CT
-25 7 moveto 
1 -1 scale
(-10) t 
GR
GR
GS
[0.6 0 0 0.6 59.60001 159.3] CT
0.4 GC
/Helvetica 16.667 F
GS
[1 0 0 1 0 0] CT
-10 7 moveto 
1 -1 scale
(0) t 
GR
GR
GS
[0.6 0 0 0.6 59.60001 119] CT
0.4 GC
/Helvetica 16.667 F
GS
[1 0 0 1 0 0] CT
-19 7 moveto 
1 -1 scale
(10) t 
GR
GR
GS
[0.6 0 0 0.6 59.60001 78.7] CT
0.4 GC
/Helvetica 16.667 F
GS
[1 0 0 1 0 0] CT
-19 7 moveto 
1 -1 scale
(20) t 
GR
GR
GS
[0.6 0 0 0.6 59.60001 38.4] CT
0.4 GC
/Helvetica 16.667 F
GS
[1 0 0 1 0 0] CT
-19 7 moveto 
1 -1 scale
(30) t 
GR
GR
GS
[0.6 0 0 0.6 0 0] CT
0.4 GC
[1 3] 0 setdash
2 LJ
0.833 LW
N
105.937 265.5 M
520.857 265.5 L
S
GR
GS
[0.6 0 0 0.6 0 0] CT
0.4 GC
[1 3] 0 setdash
2 LJ
0.833 LW
N
520.857 265.5 M
558.571 265.5 L
S
GR
GS
[0.6 0 0 0.6 0 0] CT
0.4 GC
[1 3] 0 setdash
2 LJ
0.833 LW
N
558.571 265.5 M
596.286 265.5 L
S
GR
GS
[0.6 0 0 0.6 0 0] CT
0.4 GC
[1 3] 0 setdash
2 LJ
0.833 LW
N
596.286 265.5 M
634.063 265.5 L
S
GR
GS
[0.6 0 0 0.6 0 0] CT
0.4 GC
[1 3] 0 setdash
2 LJ
0.833 LW
N
188.367 382.541 M
155.379 379.031 L
S
GR
GS
[0.6 0 0 0.6 0 0] CT
0.4 GC
[1 3] 0 setdash
2 LJ
0.833 LW
N
155.379 379.031 M
118.595 374.613 L
S
GR
GS
[0.6 0 0 0.6 0 0] CT
0.4 GC
[1 3] 0 setdash
2 LJ
0.833 LW
N
118.595 374.613 M
105.937 372.874 L
S
GR
GS
[0.6 0 0 0.6 0 0] CT
0.4 GC
[1 3] 0 setdash
2 LJ
0.833 LW
N
558.571 433.417 M
549.928 433.41 L
S
GR
GS
[0.6 0 0 0.6 0 0] CT
0.4 GC
[1 3] 0 setdash
2 LJ
0.833 LW
N
549.928 433.41 M
541.26 433.388 L
S
GR
GS
[0.6 0 0 0.6 0 0] CT
0.4 GC
[1 3] 0 setdash
2 LJ
0.833 LW
N
541.26 433.388 M
532.543 433.353 L
S
GR
GS
[0.6 0 0 0.6 0 0] CT
0.4 GC
[1 3] 0 setdash
2 LJ
0.833 LW
N
532.543 433.353 M
523.751 433.302 L
S
GR
GS
[0.6 0 0 0.6 0 0] CT
0.4 GC
[1 3] 0 setdash
2 LJ
0.833 LW
N
523.751 433.302 M
514.858 433.236 L
S
GR
GS
[0.6 0 0 0.6 0 0] CT
0.4 GC
[1 3] 0 setdash
2 LJ
0.833 LW
N
514.858 433.236 M
505.837 433.154 L
S
GR
GS
[0.6 0 0 0.6 0 0] CT
0.4 GC
[1 3] 0 setdash
2 LJ
0.833 LW
N
505.837 433.154 M
496.659 433.054 L
S
GR
GS
[0.6 0 0 0.6 0 0] CT
0.4 GC
[1 3] 0 setdash
2 LJ
0.833 LW
N
496.659 433.054 M
487.294 432.936 L
S
GR
GS
[0.6 0 0 0.6 0 0] CT
0.4 GC
[1 3] 0 setdash
2 LJ
0.833 LW
N
487.294 432.936 M
477.708 432.798 L
S
GR
GS
[0.6 0 0 0.6 0 0] CT
0.4 GC
[1 3] 0 setdash
2 LJ
0.833 LW
N
477.708 432.798 M
467.867 432.638 L
S
GR
GS
[0.6 0 0 0.6 0 0] CT
0.4 GC
[1 3] 0 setdash
2 LJ
0.833 LW
N
467.867 432.638 M
457.732 432.454 L
S
GR
GS
[0.6 0 0 0.6 0 0] CT
0.4 GC
[1 3] 0 setdash
2 LJ
0.833 LW
N
457.732 432.454 M
447.26 432.242 L
S
GR
GS
[0.6 0 0 0.6 0 0] CT
0.4 GC
[1 3] 0 setdash
2 LJ
0.833 LW
N
447.26 432.242 M
436.404 432.001 L
S
GR
GS
[0.6 0 0 0.6 0 0] CT
0.4 GC
[1 3] 0 setdash
2 LJ
0.833 LW
N
436.404 432.001 M
425.113 431.726 L
S
GR
GS
[0.6 0 0 0.6 0 0] CT
0.4 GC
[1 3] 0 setdash
2 LJ
0.833 LW
N
425.113 431.726 M
413.327 431.412 L
S
GR
GS
[0.6 0 0 0.6 0 0] CT
0.4 GC
[1 3] 0 setdash
2 LJ
0.833 LW
N
413.327 431.412 M
400.981 431.055 L
S
GR
GS
[0.6 0 0 0.6 0 0] CT
0.4 GC
[1 3] 0 setdash
2 LJ
0.833 LW
N
400.981 431.055 M
387.999 430.646 L
S
GR
GS
[0.6 0 0 0.6 0 0] CT
0.4 GC
[1 3] 0 setdash
2 LJ
0.833 LW
N
387.999 430.646 M
374.297 430.178 L
S
GR
GS
[0.6 0 0 0.6 0 0] CT
0.4 GC
[1 3] 0 setdash
2 LJ
0.833 LW
N
374.297 430.178 M
359.777 429.642 L
S
GR
GS
[0.6 0 0 0.6 0 0] CT
0.4 GC
[1 3] 0 setdash
2 LJ
0.833 LW
N
359.777 429.642 M
344.326 429.024 L
S
GR
GS
[0.6 0 0 0.6 0 0] CT
0.4 GC
[1 3] 0 setdash
2 LJ
0.833 LW
N
344.326 429.024 M
327.815 428.31 L
S
GR
GS
[0.6 0 0 0.6 0 0] CT
0.4 GC
[1 3] 0 setdash
2 LJ
0.833 LW
N
327.815 428.31 M
310.091 427.481 L
S
GR
GS
[0.6 0 0 0.6 0 0] CT
0.4 GC
[1 3] 0 setdash
2 LJ
0.833 LW
N
310.091 427.481 M
290.978 426.512 L
S
GR
GS
[0.6 0 0 0.6 0 0] CT
0.4 GC
[1 3] 0 setdash
2 LJ
0.833 LW
N
290.978 426.512 M
270.27 425.374 L
S
GR
GS
[0.6 0 0 0.6 0 0] CT
0.4 GC
[1 3] 0 setdash
2 LJ
0.833 LW
N
270.27 425.374 M
247.726 424.029 L
S
GR
GS
[0.6 0 0 0.6 0 0] CT
0.4 GC
[1 3] 0 setdash
2 LJ
0.833 LW
N
247.726 424.029 M
223.063 422.426 L
S
GR
GS
[0.6 0 0 0.6 0 0] CT
0.4 GC
[1 3] 0 setdash
2 LJ
0.833 LW
N
223.063 422.426 M
195.949 420.501 L
S
GR
GS
[0.6 0 0 0.6 0 0] CT
0.4 GC
[1 3] 0 setdash
2 LJ
0.833 LW
N
195.949 420.501 M
166.002 418.17 L
S
GR
GS
[0.6 0 0 0.6 0 0] CT
0.4 GC
[1 3] 0 setdash
2 LJ
0.833 LW
N
166.002 418.17 M
132.786 415.32 L
S
GR
GS
[0.6 0 0 0.6 0 0] CT
0.4 GC
[1 3] 0 setdash
2 LJ
0.833 LW
N
132.786 415.32 M
105.937 412.764 L
S
GR
GS
[0.6 0 0 0.6 278.96779 42.027] CT
0.2 GC
/Helvetica 16.667 F
GS
[1 0 0 1 0 0] CT
-21.5 18 moveto 
1 -1 scale
(0.085) t 
GR
GR
GS
[0.6 0 0 0.6 0 0] CT
0.4 GC
[1 3] 0 setdash
2 LJ
0.833 LW
N
558.571 265.5 M
462.028 63.952 L
S
GR
GS
[0.6 0 0 0.6 0 0] CT
0.4 GC
[1 3] 0 setdash
2 LJ
0.833 LW
N
558.571 467 M
548.199 466.992 L
S
GR
GS
[0.6 0 0 0.6 0 0] CT
0.4 GC
[1 3] 0 setdash
2 LJ
0.833 LW
N
548.199 466.992 M
537.798 466.966 L
S
GR
GS
[0.6 0 0 0.6 0 0] CT
0.4 GC
[1 3] 0 setdash
2 LJ
0.833 LW
N
537.798 466.966 M
527.337 466.923 L
S
GR
GS
[0.6 0 0 0.6 0 0] CT
0.4 GC
[1 3] 0 setdash
2 LJ
0.833 LW
N
527.337 466.923 M
516.786 466.863 L
S
GR
GS
[0.6 0 0 0.6 0 0] CT
0.4 GC
[1 3] 0 setdash
2 LJ
0.833 LW
N
516.786 466.863 M
506.115 466.783 L
S
GR
GS
[0.6 0 0 0.6 0 0] CT
0.4 GC
[1 3] 0 setdash
2 LJ
0.833 LW
N
506.115 466.783 M
495.29 466.685 L
S
GR
GS
[0.6 0 0 0.6 0 0] CT
0.4 GC
[1 3] 0 setdash
2 LJ
0.833 LW
N
495.29 466.685 M
484.276 466.565 L
S
GR
GS
[0.6 0 0 0.6 0 0] CT
0.4 GC
[1 3] 0 setdash
2 LJ
0.833 LW
N
484.276 466.565 M
473.038 466.423 L
S
GR
GS
[0.6 0 0 0.6 0 0] CT
0.4 GC
[1 3] 0 setdash
2 LJ
0.833 LW
N
473.038 466.423 M
461.536 466.258 L
S
GR
GS
[0.6 0 0 0.6 0 0] CT
0.4 GC
[1 3] 0 setdash
2 LJ
0.833 LW
N
461.536 466.258 M
449.726 466.065 L
S
GR
GS
[0.6 0 0 0.6 0 0] CT
0.4 GC
[1 3] 0 setdash
2 LJ
0.833 LW
N
449.726 466.065 M
437.564 465.844 L
S
GR
GS
[0.6 0 0 0.6 0 0] CT
0.4 GC
[1 3] 0 setdash
2 LJ
0.833 LW
N
437.564 465.844 M
424.997 465.591 L
S
GR
GS
[0.6 0 0 0.6 0 0] CT
0.4 GC
[1 3] 0 setdash
2 LJ
0.833 LW
N
424.997 465.591 M
411.971 465.301 L
S
GR
GS
[0.6 0 0 0.6 0 0] CT
0.4 GC
[1 3] 0 setdash
2 LJ
0.833 LW
N
411.971 465.301 M
398.421 464.971 L
S
GR
GS
[0.6 0 0 0.6 0 0] CT
0.4 GC
[1 3] 0 setdash
2 LJ
0.833 LW
N
398.421 464.971 M
384.278 464.595 L
S
GR
GS
[0.6 0 0 0.6 0 0] CT
0.4 GC
[1 3] 0 setdash
2 LJ
0.833 LW
N
384.278 464.595 M
369.462 464.165 L
S
GR
GS
[0.6 0 0 0.6 0 0] CT
0.4 GC
[1 3] 0 setdash
2 LJ
0.833 LW
N
369.462 464.165 M
353.885 463.675 L
S
GR
GS
[0.6 0 0 0.6 0 0] CT
0.4 GC
[1 3] 0 setdash
2 LJ
0.833 LW
N
353.885 463.675 M
337.442 463.114 L
S
GR
GS
[0.6 0 0 0.6 0 0] CT
0.4 GC
[1 3] 0 setdash
2 LJ
0.833 LW
N
337.442 463.114 M
320.018 462.47 L
S
GR
GS
[0.6 0 0 0.6 0 0] CT
0.4 GC
[1 3] 0 setdash
2 LJ
0.833 LW
N
320.018 462.47 M
301.477 461.729 L
S
GR
GS
[0.6 0 0 0.6 0 0] CT
0.4 GC
[1 3] 0 setdash
2 LJ
0.833 LW
N
301.477 461.729 M
281.663 460.872 L
S
GR
GS
[0.6 0 0 0.6 157.8373 276.57301] CT
0.2 GC
/Helvetica 16.667 F
GS
[1 0 0 1 0 0] CT
-17 -4 moveto 
1 -1 scale
(0.26) t 
GR
GR
GS
[0.6 0 0 0.6 0 0] CT
0.4 GC
[1 3] 0 setdash
2 LJ
0.833 LW
N
281.663 460.872 M
260.394 459.877 L
S
GR
GS
[0.6 0 0 0.6 0 0] CT
0.4 GC
[1 3] 0 setdash
2 LJ
0.833 LW
N
260.394 459.877 M
237.459 458.714 L
S
GR
GS
[0.6 0 0 0.6 0 0] CT
0.4 GC
[1 3] 0 setdash
2 LJ
0.833 LW
N
237.459 458.714 M
212.61 457.349 L
S
GR
GS
[0.6 0 0 0.6 0 0] CT
0.4 GC
[1 3] 0 setdash
2 LJ
0.833 LW
N
212.61 457.349 M
185.557 455.734 L
S
GR
GS
[0.6 0 0 0.6 0 0] CT
0.4 GC
[1 3] 0 setdash
2 LJ
0.833 LW
N
185.557 455.734 M
155.961 453.811 L
S
GR
GS
[0.6 0 0 0.6 68.352 274.95667] CT
0.2 GC
/Helvetica 16.667 F
GS
[1 0 0 1 0 0] CT
0 7 moveto 
1 -1 scale
(0.38) t 
GR
GR
GS
[0.6 0 0 0.6 0 0] CT
0.4 GC
[1 3] 0 setdash
2 LJ
0.833 LW
N
155.961 453.811 M
123.424 451.501 L
S
GR
GS
[0.6 0 0 0.6 0 0] CT
0.4 GC
[1 3] 0 setdash
2 LJ
0.833 LW
N
123.424 451.501 M
105.937 450.14 L
S
GR
GS
[0.6 0 0 0.6 308.7821 42.027] CT
0.2 GC
/Helvetica 16.667 F
GS
[1 0 0 1 0 0] CT
-17 18 moveto 
1 -1 scale
(0.04) t 
GR
GR
GS
[0.6 0 0 0.6 248.80633 42.027] CT
0.2 GC
/Helvetica 16.667 F
GS
[1 0 0 1 0 0] CT
-17 18 moveto 
1 -1 scale
(0.13) t 
GR
GR
GS
[0.6 0 0 0.6 207.70814 42.027] CT
0.2 GC
/Helvetica 16.667 F
GS
[1 0 0 1 0 0] CT
-17 18 moveto 
1 -1 scale
(0.19) t 
GR
GR
GS
[0.6 0 0 0.6 157.8373 42.027] CT
0.2 GC
/Helvetica 16.667 F
GS
[1 0 0 1 0 0] CT
-17 18 moveto 
1 -1 scale
(0.26) t 
GR
GR
GS
[0.6 0 0 0.6 68.352 43.64334] CT
0.2 GC
/Helvetica 16.667 F
GS
[1 0 0 1 0 0] CT
0 7 moveto 
1 -1 scale
(0.38) t 
GR
GR
GS
[0.6 0 0 0.6 68.352 81.25269] CT
0.2 GC
/Helvetica 16.667 F
GS
[1 0 0 1 0 0] CT
0 7 moveto 
1 -1 scale
(0.52) t 
GR
GR
GS
[0.6 0 0 0.6 68.352 123.66473] CT
0.2 GC
/Helvetica 16.667 F
GS
[1 0 0 1 0 0] CT
0 7 moveto 
1 -1 scale
(0.8) t 
GR
GR
GS
[0.6 0 0 0.6 308.7821 276.57301] CT
0.2 GC
/Helvetica 16.667 F
GS
[1 0 0 1 0 0] CT
-17 -4 moveto 
1 -1 scale
(0.04) t 
GR
GR
GS
[0.6 0 0 0.6 278.96779 276.57301] CT
0.2 GC
/Helvetica 16.667 F
GS
[1 0 0 1 0 0] CT
-21.5 -4 moveto 
1 -1 scale
(0.085) t 
GR
GR
GS
[0.6 0 0 0.6 248.80633 276.57301] CT
0.2 GC
/Helvetica 16.667 F
GS
[1 0 0 1 0 0] CT
-17 -4 moveto 
1 -1 scale
(0.13) t 
GR
GR
GS
[0.6 0 0 0.6 207.70814 276.57301] CT
0.2 GC
/Helvetica 16.667 F
GS
[1 0 0 1 0 0] CT
-17 -4 moveto 
1 -1 scale
(0.19) t 
GR
GR
GS
[0.6 0 0 0.6 68.352 237.34731] CT
0.2 GC
/Helvetica 16.667 F
GS
[1 0 0 1 0 0] CT
0 7 moveto 
1 -1 scale
(0.52) t 
GR
GR
GS
[0.6 0 0 0.6 68.352 194.93527] CT
0.2 GC
/Helvetica 16.667 F
GS
[1 0 0 1 0 0] CT
0 7 moveto 
1 -1 scale
(0.8) t 
GR
GR
GS
[0.6 0 0 0.6 335.14285 139.15] CT
0.2 GC
/Helvetica 16.667 F
GS
[1 0 0 1 0 0] CT
-10 -4 moveto 
1 -1 scale
(5) t 
GR
GR
GS
[0.6 0 0 0.6 335.14285 119] CT
0.2 GC
/Helvetica 16.667 F
GS
[1 0 0 1 0 0] CT
-19 -4 moveto 
1 -1 scale
(10) t 
GR
GR
GS
[0.6 0 0 0.6 335.14285 98.85] CT
0.2 GC
/Helvetica 16.667 F
GS
[1 0 0 1 0 0] CT
-19 -4 moveto 
1 -1 scale
(15) t 
GR
GR
GS
[0.6 0 0 0.6 335.14285 78.7] CT
0.2 GC
/Helvetica 16.667 F
GS
[1 0 0 1 0 0] CT
-19 -4 moveto 
1 -1 scale
(20) t 
GR
GR
GS
[0.6 0 0 0.6 335.14285 58.55] CT
0.2 GC
/Helvetica 16.667 F
GS
[1 0 0 1 0 0] CT
-19 -4 moveto 
1 -1 scale
(25) t 
GR
GR
GS
[0.6 0 0 0.6 335.14285 38.4] CT
0.2 GC
/Helvetica 16.667 F
GS
[1 0 0 1 0 0] CT
-19 -4 moveto 
1 -1 scale
(30) t 
GR
GR
GS
[0.6 0 0 0.6 335.14285 179.45001] CT
0.2 GC
/Helvetica 16.667 F
GS
[1 0 0 1 0 0] CT
-10 18 moveto 
1 -1 scale
(5) t 
GR
GR
GS
[0.6 0 0 0.6 335.14285 199.59999] CT
0.2 GC
/Helvetica 16.667 F
GS
[1 0 0 1 0 0] CT
-19 18 moveto 
1 -1 scale
(10) t 
GR
GR
GS
[0.6 0 0 0.6 335.14285 219.75] CT
0.2 GC
/Helvetica 16.667 F
GS
[1 0 0 1 0 0] CT
-19 18 moveto 
1 -1 scale
(15) t 
GR
GR
GS
[0.6 0 0 0.6 335.14285 239.90001] CT
0.2 GC
/Helvetica 16.667 F
GS
[1 0 0 1 0 0] CT
-19 18 moveto 
1 -1 scale
(20) t 
GR
GR
GS
[0.6 0 0 0.6 335.14285 260.04999] CT
0.2 GC
/Helvetica 16.667 F
GS
[1 0 0 1 0 0] CT
-19 18 moveto 
1 -1 scale
(25) t 
GR
GR
GS
[0.6 0 0 0.6 0 0] CT
0.4 GC
[1 3] 0 setdash
2 LJ
0.833 LW
N
558.571 265.5 M
558.571 63.952 L
S
GR
GS
[0.6 0 0 0.6 0 0] CT
0.4 GC
[1 3] 0 setdash
2 LJ
0.833 LW
N
558.571 265.5 M
513.267 63.952 L
S
GR
GS
[0.6 0 0 0.6 335.14285 280.2] CT
0.2 GC
/Helvetica 16.667 F
GS
[1 0 0 1 0 0] CT
-19 18 moveto 
1 -1 scale
(30) t 
GR
GR
GS
[0.6 0 0 0.6 0 0] CT
0.4 GC
[1 3] 0 setdash
2 LJ
0.833 LW
N
558.571 265.5 M
410.191 63.952 L
S
GR
GS
[0.6 0 0 0.6 0 0] CT
0.4 GC
[1 3] 0 setdash
2 LJ
0.833 LW
N
558.571 265.5 M
339.559 63.952 L
S
GR
GS
[0.6 0 0 0.6 0 0] CT
0.4 GC
[1 3] 0 setdash
2 LJ
0.833 LW
N
558.571 265.5 M
253.85 63.952 L
S
GR
GS
[0.6 0 0 0.6 0 0] CT
0.4 GC
[1 3] 0 setdash
2 LJ
0.833 LW
N
558.571 265.5 M
105.937 69.278 L
S
GR
GS
[0.6 0 0 0.6 0 0] CT
0.4 GC
[1 3] 0 setdash
2 LJ
0.833 LW
N
558.571 265.5 M
105.937 133.086 L
S
GR
GS
[0.6 0 0 0.6 0 0] CT
0.4 GC
[1 3] 0 setdash
2 LJ
0.833 LW
N
558.571 265.5 M
105.937 205.042 L
S
GR
GS
[0.6 0 0 0.6 0 0] CT
0.4 GC
[1 3] 0 setdash
2 LJ
0.833 LW
N
558.571 265.5 M
105.937 265.5 L
S
GR
GS
[0.6 0 0 0.6 0 0] CT
0.4 GC
[1 3] 0 setdash
2 LJ
0.833 LW
N
558.571 265.5 M
558.571 467.048 L
S
GR
GS
[0.6 0 0 0.6 0 0] CT
0.4 GC
[1 3] 0 setdash
2 LJ
0.833 LW
N
558.571 265.5 M
513.267 467.048 L
S
GR
GS
[0.6 0 0 0.6 0 0] CT
0.4 GC
[1 3] 0 setdash
2 LJ
0.833 LW
N
558.571 265.5 M
462.028 467.048 L
S
GR
GS
[0.6 0 0 0.6 0 0] CT
0.4 GC
[1 3] 0 setdash
2 LJ
0.833 LW
N
558.571 265.5 M
410.191 467.048 L
S
GR
GS
[0.6 0 0 0.6 0 0] CT
0.4 GC
[1 3] 0 setdash
2 LJ
0.833 LW
N
558.571 265.5 M
339.559 467.048 L
S
GR
GS
[0.6 0 0 0.6 0 0] CT
0.4 GC
[1 3] 0 setdash
2 LJ
0.833 LW
N
558.571 265.5 M
253.85 467.048 L
S
GR
GS
[0.6 0 0 0.6 0 0] CT
0.4 GC
[1 3] 0 setdash
2 LJ
0.833 LW
N
558.571 265.5 M
105.937 461.722 L
S
GR
GS
[0.6 0 0 0.6 0 0] CT
0.4 GC
[1 3] 0 setdash
2 LJ
0.833 LW
N
558.571 265.5 M
105.937 397.914 L
S
GR
GS
[0.6 0 0 0.6 0 0] CT
0.4 GC
[1 3] 0 setdash
2 LJ
0.833 LW
N
558.571 265.5 M
105.937 325.958 L
S
GR
GS
[0.6 0 0 0.6 0 0] CT
0.4 GC
[1 3] 0 setdash
2 LJ
0.833 LW
N
558.571 265.5 M
105.937 265.5 L
S
GR
GS
[0.6 0 0 0.6 0 0] CT
0.4 GC
[1 3] 0 setdash
2 LJ
0.833 LW
N
558.571 265.5 M
558.571 265.5 L
S
GR
GS
[0.6 0 0 0.6 0 0] CT
0.4 GC
[1 3] 0 setdash
2 LJ
0.833 LW
N
558.571 265.5 M
558.571 265.5 L
S
GR
GS
[0.6 0 0 0.6 0 0] CT
0.4 GC
[1 3] 0 setdash
2 LJ
0.833 LW
N
558.571 265.5 M
558.571 265.5 L
S
GR
GS
[0.6 0 0 0.6 0 0] CT
0.4 GC
[1 3] 0 setdash
2 LJ
0.833 LW
N
558.571 265.5 M
558.571 265.5 L
S
GR
GS
[0.6 0 0 0.6 0 0] CT
0.4 GC
[1 3] 0 setdash
2 LJ
0.833 LW
N
558.571 265.5 M
558.571 265.5 L
S
GR
GS
[0.6 0 0 0.6 0 0] CT
0.4 GC
[1 3] 0 setdash
2 LJ
0.833 LW
N
558.571 265.5 M
558.571 265.5 L
S
GR
GS
[0.6 0 0 0.6 0 0] CT
0.4 GC
[1 3] 0 setdash
2 LJ
0.833 LW
N
558.571 265.5 M
558.571 265.5 L
S
GR
GS
[0.6 0 0 0.6 0 0] CT
0.4 GC
[1 3] 0 setdash
2 LJ
0.833 LW
N
558.571 265.5 M
558.571 265.5 L
S
GR
GS
[0.6 0 0 0.6 0 0] CT
0.4 GC
[1 3] 0 setdash
2 LJ
0.833 LW
N
558.571 265.5 M
558.571 265.5 L
S
GR
GS
[0.6 0 0 0.6 0 0] CT
0.4 GC
[1 3] 0 setdash
2 LJ
0.833 LW
N
558.571 265.5 M
558.571 265.5 L
S
GR
GS
[0.6 0 0 0.6 0 0] CT
0.4 GC
[1 3] 0 setdash
2 LJ
0.833 LW
N
558.571 265.5 M
558.571 265.5 L
S
GR
GS
[0.6 0 0 0.6 0 0] CT
0.4 GC
[1 3] 0 setdash
2 LJ
0.833 LW
N
558.571 265.5 M
558.571 265.5 L
S
GR
GS
[0.6 0 0 0.6 0 0] CT
0.4 GC
[1 3] 0 setdash
2 LJ
0.833 LW
N
558.571 265.5 M
558.571 265.5 L
S
GR
GS
[0.6 0 0 0.6 0 0] CT
0.4 GC
[1 3] 0 setdash
2 LJ
0.833 LW
N
558.571 265.5 M
558.571 265.5 L
S
GR
GS
[0.6 0 0 0.6 0 0] CT
0.4 GC
[1 3] 0 setdash
2 LJ
0.833 LW
N
558.571 265.5 M
558.571 265.5 L
S
GR
GS
[0.6 0 0 0.6 0 0] CT
0.4 GC
[1 3] 0 setdash
2 LJ
0.833 LW
N
558.571 265.5 M
558.571 265.5 L
S
GR
GS
[0.6 0 0 0.6 0 0] CT
0.4 GC
[1 3] 0 setdash
2 LJ
0.833 LW
N
558.571 265.5 M
558.571 265.5 L
S
GR
GS
[0.6 0 0 0.6 0 0] CT
0.4 GC
[1 3] 0 setdash
2 LJ
0.833 LW
N
558.571 265.5 M
558.571 265.5 L
S
GR
GS
[0.6 0 0 0.6 0 0] CT
0.4 GC
[1 3] 0 setdash
2 LJ
0.833 LW
N
558.571 265.5 M
558.571 265.5 L
S
GR
GS
[0.6 0 0 0.6 0 0] CT
0.4 GC
[1 3] 0 setdash
2 LJ
0.833 LW
N
558.571 265.5 M
558.571 265.5 L
S
GR
GS
[0.6 0 0 0.6 0 0] CT
0.4 GC
[1 3] 0 setdash
2 LJ
0.833 LW
N
558.571 265.5 M
558.571 265.5 L
S
GR
GS
[0.6 0 0 0.6 0 0] CT
0.4 GC
[1 3] 0 setdash
2 LJ
0.833 LW
N
558.571 265.5 M
558.571 265.5 L
S
GR
GS
[0.6 0 0 0.6 0 0] CT
0.4 GC
[1 3] 0 setdash
2 LJ
0.833 LW
N
558.571 265.5 M
558.571 265.5 L
S
GR
GS
[0.6 0 0 0.6 0 0] CT
0.4 GC
[1 3] 0 setdash
2 LJ
0.833 LW
N
558.571 265.5 M
558.571 265.5 L
S
GR
GS
[0.6 0 0 0.6 0 0] CT
0.4 GC
[1 3] 0 setdash
2 LJ
0.833 LW
N
558.571 265.5 M
558.571 265.5 L
S
GR
GS
[0.6 0 0 0.6 0 0] CT
0.4 GC
[1 3] 0 setdash
2 LJ
0.833 LW
N
558.571 265.5 M
558.571 265.5 L
S
GR
GS
[0.6 0 0 0.6 0 0] CT
0.4 GC
[1 3] 0 setdash
2 LJ
0.833 LW
N
558.571 265.5 M
558.571 265.5 L
S
GR
GS
[0.6 0 0 0.6 0 0] CT
0.4 GC
[1 3] 0 setdash
2 LJ
0.833 LW
N
558.571 265.5 M
558.571 265.5 L
S
GR
GS
[0.6 0 0 0.6 0 0] CT
0.4 GC
[1 3] 0 setdash
2 LJ
0.833 LW
N
558.571 265.5 M
558.571 265.5 L
S
GR
GS
[0.6 0 0 0.6 0 0] CT
0.4 GC
[1 3] 0 setdash
2 LJ
0.833 LW
N
558.571 265.5 M
558.571 265.5 L
S
GR
GS
[0.6 0 0 0.6 0 0] CT
0.4 GC
[1 3] 0 setdash
2 LJ
0.833 LW
N
558.571 265.5 M
558.571 265.5 L
S
GR
GS
[0.6 0 0 0.6 0 0] CT
0.4 GC
[1 3] 0 setdash
2 LJ
0.833 LW
N
558.571 265.5 M
558.571 265.5 L
S
GR
GS
[0.6 0 0 0.6 0 0] CT
0.4 GC
[1 3] 0 setdash
2 LJ
0.833 LW
N
558.571 265.5 M
558.571 265.5 L
S
GR
GS
[0.6 0 0 0.6 0 0] CT
0.4 GC
[1 3] 0 setdash
2 LJ
0.833 LW
N
558.571 265.5 M
558.571 265.5 L
S
GR
GS
[0.6 0 0 0.6 0 0] CT
0.4 GC
[1 3] 0 setdash
2 LJ
0.833 LW
N
558.571 265.5 M
558.571 265.5 L
S
GR
GS
[0.6 0 0 0.6 0 0] CT
0.4 GC
[1 3] 0 setdash
2 LJ
0.833 LW
N
558.571 265.5 M
558.571 265.5 L
S
GR
GS
[0.6 0 0 0.6 0 0] CT
0.4 GC
[1 3] 0 setdash
2 LJ
0.833 LW
N
558.571 265.5 M
558.571 265.5 L
S
GR
GS
[0.6 0 0 0.6 0 0] CT
0.4 GC
[1 3] 0 setdash
2 LJ
0.833 LW
N
558.571 265.5 M
558.571 265.5 L
S
GR
GS
[0.6 0 0 0.6 0 0] CT
0.4 GC
[1 3] 0 setdash
2 LJ
0.833 LW
N
558.571 265.5 M
558.571 265.5 L
S
GR
GS
[0.6 0 0 0.6 0 0] CT
0.4 GC
[1 3] 0 setdash
2 LJ
0.833 LW
N
558.571 265.5 M
558.571 265.5 L
S
GR
GS
[0.6 0 0 0.6 0 0] CT
0.4 GC
[1 3] 0 setdash
2 LJ
0.833 LW
N
558.571 231.917 M
556.843 231.918 L
S
GR
GS
[0.6 0 0 0.6 0 0] CT
0.4 GC
[1 3] 0 setdash
2 LJ
0.833 LW
N
556.843 231.918 M
555.109 231.922 L
S
GR
GS
[0.6 0 0 0.6 0 0] CT
0.4 GC
[1 3] 0 setdash
2 LJ
0.833 LW
N
555.109 231.922 M
553.366 231.929 L
S
GR
GS
[0.6 0 0 0.6 0 0] CT
0.4 GC
[1 3] 0 setdash
2 LJ
0.833 LW
N
553.366 231.929 M
551.607 231.94 L
S
GR
GS
[0.6 0 0 0.6 0 0] CT
0.4 GC
[1 3] 0 setdash
2 LJ
0.833 LW
N
551.607 231.94 M
549.829 231.953 L
S
GR
GS
[0.6 0 0 0.6 0 0] CT
0.4 GC
[1 3] 0 setdash
2 LJ
0.833 LW
N
549.829 231.953 M
548.024 231.969 L
S
GR
GS
[0.6 0 0 0.6 0 0] CT
0.4 GC
[1 3] 0 setdash
2 LJ
0.833 LW
N
548.024 231.969 M
546.189 231.989 L
S
GR
GS
[0.6 0 0 0.6 0 0] CT
0.4 GC
[1 3] 0 setdash
2 LJ
0.833 LW
N
546.189 231.989 M
544.316 232.013 L
S
GR
GS
[0.6 0 0 0.6 0 0] CT
0.4 GC
[1 3] 0 setdash
2 LJ
0.833 LW
N
544.316 232.013 M
542.399 232.04 L
S
GR
GS
[0.6 0 0 0.6 0 0] CT
0.4 GC
[1 3] 0 setdash
2 LJ
0.833 LW
N
542.399 232.04 M
540.431 232.072 L
S
GR
GS
[0.6 0 0 0.6 0 0] CT
0.4 GC
[1 3] 0 setdash
2 LJ
0.833 LW
N
540.431 232.072 M
538.404 232.109 L
S
GR
GS
[0.6 0 0 0.6 0 0] CT
0.4 GC
[1 3] 0 setdash
2 LJ
0.833 LW
N
538.404 232.109 M
536.309 232.152 L
S
GR
GS
[0.6 0 0 0.6 0 0] CT
0.4 GC
[1 3] 0 setdash
2 LJ
0.833 LW
N
536.309 232.152 M
534.138 232.2 L
S
GR
GS
[0.6 0 0 0.6 0 0] CT
0.4 GC
[1 3] 0 setdash
2 LJ
0.833 LW
N
534.138 232.2 M
531.88 232.255 L
S
GR
GS
[0.6 0 0 0.6 0 0] CT
0.4 GC
[1 3] 0 setdash
2 LJ
0.833 LW
N
531.88 232.255 M
529.523 232.318 L
S
GR
GS
[0.6 0 0 0.6 0 0] CT
0.4 GC
[1 3] 0 setdash
2 LJ
0.833 LW
N
529.523 232.318 M
527.053 232.389 L
S
GR
GS
[0.6 0 0 0.6 0 0] CT
0.4 GC
[1 3] 0 setdash
2 LJ
0.833 LW
N
527.053 232.389 M
524.457 232.471 L
S
GR
GS
[0.6 0 0 0.6 0 0] CT
0.4 GC
[1 3] 0 setdash
2 LJ
0.833 LW
N
524.457 232.471 M
521.717 232.564 L
S
GR
GS
[0.6 0 0 0.6 0 0] CT
0.4 GC
[1 3] 0 setdash
2 LJ
0.833 LW
N
521.717 232.564 M
518.813 232.672 L
S
GR
GS
[0.6 0 0 0.6 0 0] CT
0.4 GC
[1 3] 0 setdash
2 LJ
0.833 LW
N
518.813 232.672 M
515.722 232.795 L
S
GR
GS
[0.6 0 0 0.6 0 0] CT
0.4 GC
[1 3] 0 setdash
2 LJ
0.833 LW
N
515.722 232.795 M
512.42 232.938 L
S
GR
GS
[0.6 0 0 0.6 0 0] CT
0.4 GC
[1 3] 0 setdash
2 LJ
0.833 LW
N
512.42 232.938 M
508.875 233.104 L
S
GR
GS
[0.6 0 0 0.6 0 0] CT
0.4 GC
[1 3] 0 setdash
2 LJ
0.833 LW
N
508.875 233.104 M
505.053 233.298 L
S
GR
GS
[0.6 0 0 0.6 0 0] CT
0.4 GC
[1 3] 0 setdash
2 LJ
0.833 LW
N
505.053 233.298 M
500.911 233.525 L
S
GR
GS
[0.6 0 0 0.6 0 0] CT
0.4 GC
[1 3] 0 setdash
2 LJ
0.833 LW
N
500.911 233.525 M
496.402 233.794 L
S
GR
GS
[0.6 0 0 0.6 0 0] CT
0.4 GC
[1 3] 0 setdash
2 LJ
0.833 LW
N
496.402 233.794 M
491.47 234.115 L
S
GR
GS
[0.6 0 0 0.6 0 0] CT
0.4 GC
[1 3] 0 setdash
2 LJ
0.833 LW
N
491.47 234.115 M
486.047 234.5 L
S
GR
GS
[0.6 0 0 0.6 0 0] CT
0.4 GC
[1 3] 0 setdash
2 LJ
0.833 LW
N
486.047 234.5 M
480.058 234.966 L
S
GR
GS
[0.6 0 0 0.6 0 0] CT
0.4 GC
[1 3] 0 setdash
2 LJ
0.833 LW
N
480.058 234.966 M
473.414 235.536 L
S
GR
GS
[0.6 0 0 0.6 0 0] CT
0.4 GC
[1 3] 0 setdash
2 LJ
0.833 LW
N
473.414 235.536 M
466.02 236.24 L
S
GR
GS
[0.6 0 0 0.6 0 0] CT
0.4 GC
[1 3] 0 setdash
2 LJ
0.833 LW
N
466.02 236.24 M
457.773 237.117 L
S
GR
GS
[0.6 0 0 0.6 0 0] CT
0.4 GC
[1 3] 0 setdash
2 LJ
0.833 LW
N
457.773 237.117 M
448.577 238.222 L
S
GR
GS
[0.6 0 0 0.6 0 0] CT
0.4 GC
[1 3] 0 setdash
2 LJ
0.833 LW
N
448.577 238.222 M
438.366 239.624 L
S
GR
GS
[0.6 0 0 0.6 0 0] CT
0.4 GC
[1 3] 0 setdash
2 LJ
0.833 LW
N
438.366 239.624 M
427.145 241.417 L
S
GR
GS
[0.6 0 0 0.6 0 0] CT
0.4 GC
[1 3] 0 setdash
2 LJ
0.833 LW
N
427.145 241.417 M
415.067 243.713 L
S
GR
GS
[0.6 0 0 0.6 0 0] CT
0.4 GC
[1 3] 0 setdash
2 LJ
0.833 LW
N
415.067 243.713 M
402.549 246.639 L
S
GR
GS
[0.6 0 0 0.6 0 0] CT
0.4 GC
[1 3] 0 setdash
2 LJ
0.833 LW
N
402.549 246.639 M
390.398 250.308 L
S
GR
GS
[0.6 0 0 0.6 0 0] CT
0.4 GC
[1 3] 0 setdash
2 LJ
0.833 LW
N
390.398 250.308 M
379.89 254.767 L
S
GR
GS
[0.6 0 0 0.6 0 0] CT
0.4 GC
[1 3] 0 setdash
2 LJ
0.833 LW
N
379.89 254.767 M
372.618 259.924 L
S
GR
GS
[0.6 0 0 0.6 0 0] CT
0.4 GC
[1 3] 0 setdash
2 LJ
0.833 LW
N
372.618 259.924 M
370 265.5 L
S
GR
GS
[0.6 0 0 0.6 0 0] CT
0.4 GC
[1 3] 0 setdash
2 LJ
0.833 LW
N
558.571 198.333 M
555.114 198.336 L
S
GR
GS
[0.6 0 0 0.6 0 0] CT
0.4 GC
[1 3] 0 setdash
2 LJ
0.833 LW
N
555.114 198.336 M
551.647 198.345 L
S
GR
GS
[0.6 0 0 0.6 0 0] CT
0.4 GC
[1 3] 0 setdash
2 LJ
0.833 LW
N
551.647 198.345 M
548.16 198.359 L
S
GR
GS
[0.6 0 0 0.6 0 0] CT
0.4 GC
[1 3] 0 setdash
2 LJ
0.833 LW
N
548.16 198.359 M
544.643 198.379 L
S
GR
GS
[0.6 0 0 0.6 0 0] CT
0.4 GC
[1 3] 0 setdash
2 LJ
0.833 LW
N
544.643 198.379 M
541.086 198.406 L
S
GR
GS
[0.6 0 0 0.6 0 0] CT
0.4 GC
[1 3] 0 setdash
2 LJ
0.833 LW
N
541.086 198.406 M
537.478 198.438 L
S
GR
GS
[0.6 0 0 0.6 0 0] CT
0.4 GC
[1 3] 0 setdash
2 LJ
0.833 LW
N
537.478 198.438 M
533.806 198.478 L
S
GR
GS
[0.6 0 0 0.6 0 0] CT
0.4 GC
[1 3] 0 setdash
2 LJ
0.833 LW
N
533.806 198.478 M
530.06 198.526 L
S
GR
GS
[0.6 0 0 0.6 0 0] CT
0.4 GC
[1 3] 0 setdash
2 LJ
0.833 LW
N
530.06 198.526 M
526.226 198.581 L
S
GR
GS
[0.6 0 0 0.6 0 0] CT
0.4 GC
[1 3] 0 setdash
2 LJ
0.833 LW
N
526.226 198.581 M
522.29 198.645 L
S
GR
GS
[0.6 0 0 0.6 0 0] CT
0.4 GC
[1 3] 0 setdash
2 LJ
0.833 LW
N
522.29 198.645 M
518.236 198.719 L
S
GR
GS
[0.6 0 0 0.6 0 0] CT
0.4 GC
[1 3] 0 setdash
2 LJ
0.833 LW
N
518.236 198.719 M
514.047 198.803 L
S
GR
GS
[0.6 0 0 0.6 0 0] CT
0.4 GC
[1 3] 0 setdash
2 LJ
0.833 LW
N
514.047 198.803 M
509.704 198.9 L
S
GR
GS
[0.6 0 0 0.6 0 0] CT
0.4 GC
[1 3] 0 setdash
2 LJ
0.833 LW
N
509.704 198.9 M
505.188 199.01 L
S
GR
GS
[0.6 0 0 0.6 0 0] CT
0.4 GC
[1 3] 0 setdash
2 LJ
0.833 LW
N
505.188 199.01 M
500.474 199.135 L
S
GR
GS
[0.6 0 0 0.6 0 0] CT
0.4 GC
[1 3] 0 setdash
2 LJ
0.833 LW
N
500.474 199.135 M
495.535 199.278 L
S
GR
GS
[0.6 0 0 0.6 0 0] CT
0.4 GC
[1 3] 0 setdash
2 LJ
0.833 LW
N
495.535 199.278 M
490.342 199.442 L
S
GR
GS
[0.6 0 0 0.6 0 0] CT
0.4 GC
[1 3] 0 setdash
2 LJ
0.833 LW
N
490.342 199.442 M
484.862 199.629 L
S
GR
GS
[0.6 0 0 0.6 0 0] CT
0.4 GC
[1 3] 0 setdash
2 LJ
0.833 LW
N
484.862 199.629 M
479.054 199.843 L
S
GR
GS
[0.6 0 0 0.6 0 0] CT
0.4 GC
[1 3] 0 setdash
2 LJ
0.833 LW
N
479.054 199.843 M
472.873 200.09 L
S
GR
GS
[0.6 0 0 0.6 0 0] CT
0.4 GC
[1 3] 0 setdash
2 LJ
0.833 LW
N
472.873 200.09 M
466.269 200.376 L
S
GR
GS
[0.6 0 0 0.6 0 0] CT
0.4 GC
[1 3] 0 setdash
2 LJ
0.833 LW
N
466.269 200.376 M
459.179 200.708 L
S
GR
GS
[0.6 0 0 0.6 0 0] CT
0.4 GC
[1 3] 0 setdash
2 LJ
0.833 LW
N
459.179 200.708 M
451.534 201.095 L
S
GR
GS
[0.6 0 0 0.6 0 0] CT
0.4 GC
[1 3] 0 setdash
2 LJ
0.833 LW
N
451.534 201.095 M
443.251 201.55 L
S
GR
GS
[0.6 0 0 0.6 0 0] CT
0.4 GC
[1 3] 0 setdash
2 LJ
0.833 LW
N
443.251 201.55 M
434.233 202.089 L
S
GR
GS
[0.6 0 0 0.6 0 0] CT
0.4 GC
[1 3] 0 setdash
2 LJ
0.833 LW
N
434.233 202.089 M
424.368 202.73 L
S
GR
GS
[0.6 0 0 0.6 0 0] CT
0.4 GC
[1 3] 0 setdash
2 LJ
0.833 LW
N
424.368 202.73 M
413.522 203.5 L
S
GR
GS
[0.6 0 0 0.6 0 0] CT
0.4 GC
[1 3] 0 setdash
2 LJ
0.833 LW
N
413.522 203.5 M
401.544 204.432 L
S
GR
GS
[0.6 0 0 0.6 0 0] CT
0.4 GC
[1 3] 0 setdash
2 LJ
0.833 LW
N
401.544 204.432 M
388.257 205.572 L
S
GR
GS
[0.6 0 0 0.6 0 0] CT
0.4 GC
[1 3] 0 setdash
2 LJ
0.833 LW
N
388.257 205.572 M
373.469 206.98 L
S
GR
GS
[0.6 0 0 0.6 0 0] CT
0.4 GC
[1 3] 0 setdash
2 LJ
0.833 LW
N
373.469 206.98 M
356.975 208.734 L
S
GR
GS
[0.6 0 0 0.6 0 0] CT
0.4 GC
[1 3] 0 setdash
2 LJ
0.833 LW
N
356.975 208.734 M
338.583 210.944 L
S
GR
GS
[0.6 0 0 0.6 0 0] CT
0.4 GC
[1 3] 0 setdash
2 LJ
0.833 LW
N
338.583 210.944 M
318.16 213.749 L
S
GR
GS
[0.6 0 0 0.6 0 0] CT
0.4 GC
[1 3] 0 setdash
2 LJ
0.833 LW
N
318.16 213.749 M
295.718 217.334 L
S
GR
GS
[0.6 0 0 0.6 0 0] CT
0.4 GC
[1 3] 0 setdash
2 LJ
0.833 LW
N
295.718 217.334 M
271.563 221.926 L
S
GR
GS
[0.6 0 0 0.6 0 0] CT
0.4 GC
[1 3] 0 setdash
2 LJ
0.833 LW
N
271.563 221.926 M
246.527 227.777 L
S
GR
GS
[0.6 0 0 0.6 0 0] CT
0.4 GC
[1 3] 0 setdash
2 LJ
0.833 LW
N
246.527 227.777 M
222.225 235.115 L
S
GR
GS
[0.6 0 0 0.6 0 0] CT
0.4 GC
[1 3] 0 setdash
2 LJ
0.833 LW
N
222.225 235.115 M
201.209 244.033 L
S
GR
GS
[0.6 0 0 0.6 0 0] CT
0.4 GC
[1 3] 0 setdash
2 LJ
0.833 LW
N
201.209 244.033 M
186.664 254.347 L
S
GR
GS
[0.6 0 0 0.6 0 0] CT
0.4 GC
[1 3] 0 setdash
2 LJ
0.833 LW
N
186.664 254.347 M
181.429 265.5 L
S
GR
GS
[0.6 0 0 0.6 0 0] CT
0.4 GC
[1 3] 0 setdash
2 LJ
0.833 LW
N
558.571 164.75 M
553.385 164.754 L
S
GR
GS
[0.6 0 0 0.6 0 0] CT
0.4 GC
[1 3] 0 setdash
2 LJ
0.833 LW
N
553.385 164.754 M
548.185 164.767 L
S
GR
GS
[0.6 0 0 0.6 0 0] CT
0.4 GC
[1 3] 0 setdash
2 LJ
0.833 LW
N
548.185 164.767 M
542.954 164.788 L
S
GR
GS
[0.6 0 0 0.6 0 0] CT
0.4 GC
[1 3] 0 setdash
2 LJ
0.833 LW
N
542.954 164.788 M
537.679 164.819 L
S
GR
GS
[0.6 0 0 0.6 0 0] CT
0.4 GC
[1 3] 0 setdash
2 LJ
0.833 LW
N
537.679 164.819 M
532.343 164.858 L
S
GR
GS
[0.6 0 0 0.6 0 0] CT
0.4 GC
[1 3] 0 setdash
2 LJ
0.833 LW
N
532.343 164.858 M
526.931 164.908 L
S
GR
GS
[0.6 0 0 0.6 0 0] CT
0.4 GC
[1 3] 0 setdash
2 LJ
0.833 LW
N
526.931 164.908 M
521.424 164.967 L
S
GR
GS
[0.6 0 0 0.6 0 0] CT
0.4 GC
[1 3] 0 setdash
2 LJ
0.833 LW
N
521.424 164.967 M
515.805 165.038 L
S
GR
GS
[0.6 0 0 0.6 0 0] CT
0.4 GC
[1 3] 0 setdash
2 LJ
0.833 LW
N
515.805 165.038 M
510.053 165.121 L
S
GR
GS
[0.6 0 0 0.6 0 0] CT
0.4 GC
[1 3] 0 setdash
2 LJ
0.833 LW
N
510.053 165.121 M
504.149 165.217 L
S
GR
GS
[0.6 0 0 0.6 0 0] CT
0.4 GC
[1 3] 0 setdash
2 LJ
0.833 LW
N
504.149 165.217 M
498.068 165.328 L
S
GR
GS
[0.6 0 0 0.6 0 0] CT
0.4 GC
[1 3] 0 setdash
2 LJ
0.833 LW
N
498.068 165.328 M
491.784 165.455 L
S
GR
GS
[0.6 0 0 0.6 0 0] CT
0.4 GC
[1 3] 0 setdash
2 LJ
0.833 LW
N
491.784 165.455 M
485.271 165.599 L
S
GR
GS
[0.6 0 0 0.6 0 0] CT
0.4 GC
[1 3] 0 setdash
2 LJ
0.833 LW
N
485.271 165.599 M
478.496 165.764 L
S
GR
GS
[0.6 0 0 0.6 0 0] CT
0.4 GC
[1 3] 0 setdash
2 LJ
0.833 LW
N
478.496 165.764 M
471.425 165.953 L
S
GR
GS
[0.6 0 0 0.6 0 0] CT
0.4 GC
[1 3] 0 setdash
2 LJ
0.833 LW
N
471.425 165.953 M
464.017 166.167 L
S
GR
GS
[0.6 0 0 0.6 0 0] CT
0.4 GC
[1 3] 0 setdash
2 LJ
0.833 LW
N
464.017 166.167 M
456.228 166.412 L
S
GR
GS
[0.6 0 0 0.6 0 0] CT
0.4 GC
[1 3] 0 setdash
2 LJ
0.833 LW
N
456.228 166.412 M
448.007 166.693 L
S
GR
GS
[0.6 0 0 0.6 0 0] CT
0.4 GC
[1 3] 0 setdash
2 LJ
0.833 LW
N
448.007 166.693 M
439.295 167.015 L
S
GR
GS
[0.6 0 0 0.6 0 0] CT
0.4 GC
[1 3] 0 setdash
2 LJ
0.833 LW
N
439.295 167.015 M
430.024 167.385 L
S
GR
GS
[0.6 0 0 0.6 0 0] CT
0.4 GC
[1 3] 0 setdash
2 LJ
0.833 LW
N
430.024 167.385 M
420.117 167.814 L
S
GR
GS
[0.6 0 0 0.6 0 0] CT
0.4 GC
[1 3] 0 setdash
2 LJ
0.833 LW
N
420.117 167.814 M
409.483 168.312 L
S
GR
GS
[0.6 0 0 0.6 0 0] CT
0.4 GC
[1 3] 0 setdash
2 LJ
0.833 LW
N
409.483 168.312 M
398.015 168.893 L
S
GR
GS
[0.6 0 0 0.6 0 0] CT
0.4 GC
[1 3] 0 setdash
2 LJ
0.833 LW
N
398.015 168.893 M
385.591 169.576 L
S
GR
GS
[0.6 0 0 0.6 0 0] CT
0.4 GC
[1 3] 0 setdash
2 LJ
0.833 LW
N
385.591 169.576 M
372.064 170.383 L
S
GR
GS
[0.6 0 0 0.6 0 0] CT
0.4 GC
[1 3] 0 setdash
2 LJ
0.833 LW
N
372.064 170.383 M
357.266 171.345 L
S
GR
GS
[0.6 0 0 0.6 0 0] CT
0.4 GC
[1 3] 0 setdash
2 LJ
0.833 LW
N
357.266 171.345 M
340.998 172.499 L
S
GR
GS
[0.6 0 0 0.6 0 0] CT
0.4 GC
[1 3] 0 setdash
2 LJ
0.833 LW
N
340.998 172.499 M
323.03 173.898 L
S
GR
GS
[0.6 0 0 0.6 0 0] CT
0.4 GC
[1 3] 0 setdash
2 LJ
0.833 LW
N
323.03 173.898 M
303.1 175.608 L
S
GR
GS
[0.6 0 0 0.6 0 0] CT
0.4 GC
[1 3] 0 setdash
2 LJ
0.833 LW
N
303.1 175.608 M
280.918 177.719 L
S
GR
GS
[0.6 0 0 0.6 0 0] CT
0.4 GC
[1 3] 0 setdash
2 LJ
0.833 LW
N
280.918 177.719 M
256.177 180.352 L
S
GR
GS
[0.6 0 0 0.6 0 0] CT
0.4 GC
[1 3] 0 setdash
2 LJ
0.833 LW
N
256.177 180.352 M
228.589 183.665 L
S
GR
GS
[0.6 0 0 0.6 0 0] CT
0.4 GC
[1 3] 0 setdash
2 LJ
0.833 LW
N
228.589 183.665 M
197.955 187.873 L
S
GR
GS
[0.6 0 0 0.6 0 0] CT
0.4 GC
[1 3] 0 setdash
2 LJ
0.833 LW
N
197.955 187.873 M
164.291 193.251 L
S
GR
GS
[0.6 0 0 0.6 0 0] CT
0.4 GC
[1 3] 0 setdash
2 LJ
0.833 LW
N
164.291 193.251 M
128.059 200.139 L
S
GR
GS
[0.6 0 0 0.6 0 0] CT
0.4 GC
[1 3] 0 setdash
2 LJ
0.833 LW
N
128.059 200.139 M
105.937 205.309 L
S
GR
GS
[0.6 0 0 0.6 0 0] CT
0.4 GC
[1 3] 0 setdash
2 LJ
0.833 LW
N
558.571 131.167 M
551.657 131.172 L
S
GR
GS
[0.6 0 0 0.6 0 0] CT
0.4 GC
[1 3] 0 setdash
2 LJ
0.833 LW
N
551.657 131.172 M
544.722 131.189 L
S
GR
GS
[0.6 0 0 0.6 0 0] CT
0.4 GC
[1 3] 0 setdash
2 LJ
0.833 LW
N
544.722 131.189 M
537.748 131.218 L
S
GR
GS
[0.6 0 0 0.6 0 0] CT
0.4 GC
[1 3] 0 setdash
2 LJ
0.833 LW
N
537.748 131.218 M
530.715 131.258 L
S
GR
GS
[0.6 0 0 0.6 0 0] CT
0.4 GC
[1 3] 0 setdash
2 LJ
0.833 LW
N
530.715 131.258 M
523.601 131.311 L
S
GR
GS
[0.6 0 0 0.6 0 0] CT
0.4 GC
[1 3] 0 setdash
2 LJ
0.833 LW
N
523.601 131.311 M
516.384 131.377 L
S
GR
GS
[0.6 0 0 0.6 0 0] CT
0.4 GC
[1 3] 0 setdash
2 LJ
0.833 LW
N
516.384 131.377 M
509.041 131.457 L
S
GR
GS
[0.6 0 0 0.6 0 0] CT
0.4 GC
[1 3] 0 setdash
2 LJ
0.833 LW
N
509.041 131.457 M
501.549 131.551 L
S
GR
GS
[0.6 0 0 0.6 0 0] CT
0.4 GC
[1 3] 0 setdash
2 LJ
0.833 LW
N
501.549 131.551 M
493.881 131.662 L
S
GR
GS
[0.6 0 0 0.6 0 0] CT
0.4 GC
[1 3] 0 setdash
2 LJ
0.833 LW
N
493.881 131.662 M
486.008 131.79 L
S
GR
GS
[0.6 0 0 0.6 0 0] CT
0.4 GC
[1 3] 0 setdash
2 LJ
0.833 LW
N
486.008 131.79 M
477.9 131.937 L
S
GR
GS
[0.6 0 0 0.6 0 0] CT
0.4 GC
[1 3] 0 setdash
2 LJ
0.833 LW
N
477.9 131.937 M
469.522 132.106 L
S
GR
GS
[0.6 0 0 0.6 0 0] CT
0.4 GC
[1 3] 0 setdash
2 LJ
0.833 LW
N
469.522 132.106 M
460.838 132.299 L
S
GR
GS
[0.6 0 0 0.6 0 0] CT
0.4 GC
[1 3] 0 setdash
2 LJ
0.833 LW
N
460.838 132.299 M
451.804 132.519 L
S
GR
GS
[0.6 0 0 0.6 0 0] CT
0.4 GC
[1 3] 0 setdash
2 LJ
0.833 LW
N
451.804 132.519 M
442.376 132.77 L
S
GR
GS
[0.6 0 0 0.6 0 0] CT
0.4 GC
[1 3] 0 setdash
2 LJ
0.833 LW
N
442.376 132.77 M
432.499 133.056 L
S
GR
GS
[0.6 0 0 0.6 0 0] CT
0.4 GC
[1 3] 0 setdash
2 LJ
0.833 LW
N
432.499 133.056 M
422.114 133.383 L
S
GR
GS
[0.6 0 0 0.6 0 0] CT
0.4 GC
[1 3] 0 setdash
2 LJ
0.833 LW
N
422.114 133.383 M
411.152 133.757 L
S
GR
GS
[0.6 0 0 0.6 0 0] CT
0.4 GC
[1 3] 0 setdash
2 LJ
0.833 LW
N
411.152 133.757 M
399.536 134.186 L
S
GR
GS
[0.6 0 0 0.6 0 0] CT
0.4 GC
[1 3] 0 setdash
2 LJ
0.833 LW
N
399.536 134.186 M
387.175 134.681 L
S
GR
GS
[0.6 0 0 0.6 0 0] CT
0.4 GC
[1 3] 0 setdash
2 LJ
0.833 LW
N
387.175 134.681 M
373.966 135.252 L
S
GR
GS
[0.6 0 0 0.6 0 0] CT
0.4 GC
[1 3] 0 setdash
2 LJ
0.833 LW
N
373.966 135.252 M
359.787 135.916 L
S
GR
GS
[0.6 0 0 0.6 0 0] CT
0.4 GC
[1 3] 0 setdash
2 LJ
0.833 LW
N
359.787 135.916 M
344.497 136.69 L
S
GR
GS
[0.6 0 0 0.6 0 0] CT
0.4 GC
[1 3] 0 setdash
2 LJ
0.833 LW
N
344.497 136.69 M
327.931 137.601 L
S
GR
GS
[0.6 0 0 0.6 0 0] CT
0.4 GC
[1 3] 0 setdash
2 LJ
0.833 LW
N
327.931 137.601 M
309.895 138.677 L
S
GR
GS
[0.6 0 0 0.6 0 0] CT
0.4 GC
[1 3] 0 setdash
2 LJ
0.833 LW
N
309.895 138.677 M
290.164 139.959 L
S
GR
GS
[0.6 0 0 0.6 0 0] CT
0.4 GC
[1 3] 0 setdash
2 LJ
0.833 LW
N
290.164 139.959 M
268.473 141.499 L
S
GR
GS
[0.6 0 0 0.6 0 0] CT
0.4 GC
[1 3] 0 setdash
2 LJ
0.833 LW
N
268.473 141.499 M
244.516 143.364 L
S
GR
GS
[0.6 0 0 0.6 0 0] CT
0.4 GC
[1 3] 0 setdash
2 LJ
0.833 LW
N
244.516 143.364 M
217.943 145.644 L
S
GR
GS
[0.6 0 0 0.6 0 0] CT
0.4 GC
[1 3] 0 setdash
2 LJ
0.833 LW
N
217.943 145.644 M
188.367 148.459 L
S
GR
GS
[0.6 0 0 0.6 0 0] CT
0.4 GC
[1 3] 0 setdash
2 LJ
0.833 LW
N
188.367 148.459 M
155.379 151.969 L
S
GR
GS
[0.6 0 0 0.6 0 0] CT
0.4 GC
[1 3] 0 setdash
2 LJ
0.833 LW
N
155.379 151.969 M
118.595 156.387 L
S
GR
GS
[0.6 0 0 0.6 0 0] CT
0.4 GC
[1 3] 0 setdash
2 LJ
0.833 LW
N
118.595 156.387 M
105.937 158.126 L
S
GR
GS
[0.6 0 0 0.6 0 0] CT
0.4 GC
[1 3] 0 setdash
2 LJ
0.833 LW
N
558.571 97.583 M
549.928 97.59 L
S
GR
GS
[0.6 0 0 0.6 0 0] CT
0.4 GC
[1 3] 0 setdash
2 LJ
0.833 LW
N
549.928 97.59 M
541.26 97.612 L
S
GR
GS
[0.6 0 0 0.6 0 0] CT
0.4 GC
[1 3] 0 setdash
2 LJ
0.833 LW
N
541.26 97.612 M
532.543 97.647 L
S
GR
GS
[0.6 0 0 0.6 0 0] CT
0.4 GC
[1 3] 0 setdash
2 LJ
0.833 LW
N
532.543 97.647 M
523.751 97.698 L
S
GR
GS
[0.6 0 0 0.6 0 0] CT
0.4 GC
[1 3] 0 setdash
2 LJ
0.833 LW
N
523.751 97.698 M
514.858 97.764 L
S
GR
GS
[0.6 0 0 0.6 0 0] CT
0.4 GC
[1 3] 0 setdash
2 LJ
0.833 LW
N
514.858 97.764 M
505.837 97.846 L
S
GR
GS
[0.6 0 0 0.6 0 0] CT
0.4 GC
[1 3] 0 setdash
2 LJ
0.833 LW
N
505.837 97.846 M
496.659 97.946 L
S
GR
GS
[0.6 0 0 0.6 0 0] CT
0.4 GC
[1 3] 0 setdash
2 LJ
0.833 LW
N
496.659 97.946 M
487.294 98.064 L
S
GR
GS
[0.6 0 0 0.6 0 0] CT
0.4 GC
[1 3] 0 setdash
2 LJ
0.833 LW
N
487.294 98.064 M
477.708 98.202 L
S
GR
GS
[0.6 0 0 0.6 0 0] CT
0.4 GC
[1 3] 0 setdash
2 LJ
0.833 LW
N
477.708 98.202 M
467.867 98.362 L
S
GR
GS
[0.6 0 0 0.6 0 0] CT
0.4 GC
[1 3] 0 setdash
2 LJ
0.833 LW
N
467.867 98.362 M
457.732 98.546 L
S
GR
GS
[0.6 0 0 0.6 0 0] CT
0.4 GC
[1 3] 0 setdash
2 LJ
0.833 LW
N
457.732 98.546 M
447.26 98.758 L
S
GR
GS
[0.6 0 0 0.6 0 0] CT
0.4 GC
[1 3] 0 setdash
2 LJ
0.833 LW
N
447.26 98.758 M
436.404 98.999 L
S
GR
GS
[0.6 0 0 0.6 0 0] CT
0.4 GC
[1 3] 0 setdash
2 LJ
0.833 LW
N
436.404 98.999 M
425.113 99.274 L
S
GR
GS
[0.6 0 0 0.6 0 0] CT
0.4 GC
[1 3] 0 setdash
2 LJ
0.833 LW
N
425.113 99.274 M
413.327 99.588 L
S
GR
GS
[0.6 0 0 0.6 0 0] CT
0.4 GC
[1 3] 0 setdash
2 LJ
0.833 LW
N
413.327 99.588 M
400.981 99.945 L
S
GR
GS
[0.6 0 0 0.6 0 0] CT
0.4 GC
[1 3] 0 setdash
2 LJ
0.833 LW
N
400.981 99.945 M
387.999 100.354 L
S
GR
GS
[0.6 0 0 0.6 0 0] CT
0.4 GC
[1 3] 0 setdash
2 LJ
0.833 LW
N
387.999 100.354 M
374.297 100.822 L
S
GR
GS
[0.6 0 0 0.6 0 0] CT
0.4 GC
[1 3] 0 setdash
2 LJ
0.833 LW
N
374.297 100.822 M
359.777 101.358 L
S
GR
GS
[0.6 0 0 0.6 0 0] CT
0.4 GC
[1 3] 0 setdash
2 LJ
0.833 LW
N
359.777 101.358 M
344.326 101.976 L
S
GR
GS
[0.6 0 0 0.6 0 0] CT
0.4 GC
[1 3] 0 setdash
2 LJ
0.833 LW
N
344.326 101.976 M
327.815 102.69 L
S
GR
GS
[0.6 0 0 0.6 0 0] CT
0.4 GC
[1 3] 0 setdash
2 LJ
0.833 LW
N
327.815 102.69 M
310.091 103.519 L
S
GR
GS
[0.6 0 0 0.6 0 0] CT
0.4 GC
[1 3] 0 setdash
2 LJ
0.833 LW
N
310.091 103.519 M
290.978 104.488 L
S
GR
GS
[0.6 0 0 0.6 0 0] CT
0.4 GC
[1 3] 0 setdash
2 LJ
0.833 LW
N
290.978 104.488 M
270.27 105.626 L
S
GR
GS
[0.6 0 0 0.6 0 0] CT
0.4 GC
[1 3] 0 setdash
2 LJ
0.833 LW
N
270.27 105.626 M
247.726 106.971 L
S
GR
GS
[0.6 0 0 0.6 0 0] CT
0.4 GC
[1 3] 0 setdash
2 LJ
0.833 LW
N
247.726 106.971 M
223.063 108.574 L
S
GR
GS
[0.6 0 0 0.6 0 0] CT
0.4 GC
[1 3] 0 setdash
2 LJ
0.833 LW
N
223.063 108.574 M
195.949 110.499 L
S
GR
GS
[0.6 0 0 0.6 0 0] CT
0.4 GC
[1 3] 0 setdash
2 LJ
0.833 LW
N
195.949 110.499 M
166.002 112.83 L
S
GR
GS
[0.6 0 0 0.6 0 0] CT
0.4 GC
[1 3] 0 setdash
2 LJ
0.833 LW
N
166.002 112.83 M
132.786 115.68 L
S
GR
GS
[0.6 0 0 0.6 0 0] CT
0.4 GC
[1 3] 0 setdash
2 LJ
0.833 LW
N
132.786 115.68 M
105.937 118.236 L
S
GR
GS
[0.6 0 0 0.6 0 0] CT
0.4 GC
[1 3] 0 setdash
2 LJ
0.833 LW
N
558.571 64 M
548.199 64.008 L
S
GR
GS
[0.6 0 0 0.6 0 0] CT
0.4 GC
[1 3] 0 setdash
2 LJ
0.833 LW
N
548.199 64.008 M
537.798 64.034 L
S
GR
GS
[0.6 0 0 0.6 0 0] CT
0.4 GC
[1 3] 0 setdash
2 LJ
0.833 LW
N
537.798 64.034 M
527.337 64.077 L
S
GR
GS
[0.6 0 0 0.6 0 0] CT
0.4 GC
[1 3] 0 setdash
2 LJ
0.833 LW
N
527.337 64.077 M
516.786 64.137 L
S
GR
GS
[0.6 0 0 0.6 0 0] CT
0.4 GC
[1 3] 0 setdash
2 LJ
0.833 LW
N
516.786 64.137 M
506.115 64.217 L
S
GR
GS
[0.6 0 0 0.6 0 0] CT
0.4 GC
[1 3] 0 setdash
2 LJ
0.833 LW
N
506.115 64.217 M
495.29 64.315 L
S
GR
GS
[0.6 0 0 0.6 0 0] CT
0.4 GC
[1 3] 0 setdash
2 LJ
0.833 LW
N
495.29 64.315 M
484.276 64.435 L
S
GR
GS
[0.6 0 0 0.6 0 0] CT
0.4 GC
[1 3] 0 setdash
2 LJ
0.833 LW
N
484.276 64.435 M
473.038 64.577 L
S
GR
GS
[0.6 0 0 0.6 0 0] CT
0.4 GC
[1 3] 0 setdash
2 LJ
0.833 LW
N
473.038 64.577 M
461.536 64.742 L
S
GR
GS
[0.6 0 0 0.6 0 0] CT
0.4 GC
[1 3] 0 setdash
2 LJ
0.833 LW
N
461.536 64.742 M
449.726 64.935 L
S
GR
GS
[0.6 0 0 0.6 0 0] CT
0.4 GC
[1 3] 0 setdash
2 LJ
0.833 LW
N
449.726 64.935 M
437.564 65.156 L
S
GR
GS
[0.6 0 0 0.6 0 0] CT
0.4 GC
[1 3] 0 setdash
2 LJ
0.833 LW
N
437.564 65.156 M
424.997 65.409 L
S
GR
GS
[0.6 0 0 0.6 0 0] CT
0.4 GC
[1 3] 0 setdash
2 LJ
0.833 LW
N
424.997 65.409 M
411.971 65.699 L
S
GR
GS
[0.6 0 0 0.6 0 0] CT
0.4 GC
[1 3] 0 setdash
2 LJ
0.833 LW
N
411.971 65.699 M
398.421 66.029 L
S
GR
GS
[0.6 0 0 0.6 0 0] CT
0.4 GC
[1 3] 0 setdash
2 LJ
0.833 LW
N
398.421 66.029 M
384.278 66.405 L
S
GR
GS
[0.6 0 0 0.6 0 0] CT
0.4 GC
[1 3] 0 setdash
2 LJ
0.833 LW
N
384.278 66.405 M
369.462 66.835 L
S
GR
GS
[0.6 0 0 0.6 0 0] CT
0.4 GC
[1 3] 0 setdash
2 LJ
0.833 LW
N
369.462 66.835 M
353.885 67.325 L
S
GR
GS
[0.6 0 0 0.6 0 0] CT
0.4 GC
[1 3] 0 setdash
2 LJ
0.833 LW
N
353.885 67.325 M
337.442 67.886 L
S
GR
GS
[0.6 0 0 0.6 0 0] CT
0.4 GC
[1 3] 0 setdash
2 LJ
0.833 LW
N
337.442 67.886 M
320.018 68.53 L
S
GR
GS
[0.6 0 0 0.6 0 0] CT
0.4 GC
[1 3] 0 setdash
2 LJ
0.833 LW
N
320.018 68.53 M
301.477 69.271 L
S
GR
GS
[0.6 0 0 0.6 0 0] CT
0.4 GC
[1 3] 0 setdash
2 LJ
0.833 LW
N
301.477 69.271 M
281.663 70.128 L
S
GR
GS
[0.6 0 0 0.6 0 0] CT
0.4 GC
[1 3] 0 setdash
2 LJ
0.833 LW
N
281.663 70.128 M
260.394 71.123 L
S
GR
GS
[0.6 0 0 0.6 0 0] CT
0.4 GC
[1 3] 0 setdash
2 LJ
0.833 LW
N
260.394 71.123 M
237.459 72.286 L
S
GR
GS
[0.6 0 0 0.6 0 0] CT
0.4 GC
[1 3] 0 setdash
2 LJ
0.833 LW
N
237.459 72.286 M
212.61 73.651 L
S
GR
GS
[0.6 0 0 0.6 0 0] CT
0.4 GC
[1 3] 0 setdash
2 LJ
0.833 LW
N
212.61 73.651 M
185.557 75.266 L
S
GR
GS
[0.6 0 0 0.6 0 0] CT
0.4 GC
[1 3] 0 setdash
2 LJ
0.833 LW
N
185.557 75.266 M
155.961 77.189 L
S
GR
GS
[0.6 0 0 0.6 0 0] CT
0.4 GC
[1 3] 0 setdash
2 LJ
0.833 LW
N
155.961 77.189 M
123.424 79.499 L
S
GR
GS
[0.6 0 0 0.6 0 0] CT
0.4 GC
[1 3] 0 setdash
2 LJ
0.833 LW
N
123.424 79.499 M
105.937 80.86 L
S
GR
GS
[0.6 0 0 0.6 0 0] CT
0.4 GC
[1 3] 0 setdash
2 LJ
0.833 LW
N
558.571 265.5 M
558.571 265.5 L
S
GR
GS
[0.6 0 0 0.6 0 0] CT
0.4 GC
[1 3] 0 setdash
2 LJ
0.833 LW
N
558.571 265.5 M
558.571 265.5 L
S
GR
GS
[0.6 0 0 0.6 0 0] CT
0.4 GC
[1 3] 0 setdash
2 LJ
0.833 LW
N
558.571 265.5 M
558.571 265.5 L
S
GR
GS
[0.6 0 0 0.6 0 0] CT
0.4 GC
[1 3] 0 setdash
2 LJ
0.833 LW
N
558.571 265.5 M
558.571 265.5 L
S
GR
GS
[0.6 0 0 0.6 0 0] CT
0.4 GC
[1 3] 0 setdash
2 LJ
0.833 LW
N
558.571 265.5 M
558.571 265.5 L
S
GR
GS
[0.6 0 0 0.6 0 0] CT
0.4 GC
[1 3] 0 setdash
2 LJ
0.833 LW
N
558.571 265.5 M
558.571 265.5 L
S
GR
GS
[0.6 0 0 0.6 0 0] CT
0.4 GC
[1 3] 0 setdash
2 LJ
0.833 LW
N
558.571 265.5 M
558.571 265.5 L
S
GR
GS
[0.6 0 0 0.6 0 0] CT
0.4 GC
[1 3] 0 setdash
2 LJ
0.833 LW
N
558.571 265.5 M
558.571 265.5 L
S
GR
GS
[0.6 0 0 0.6 0 0] CT
0.4 GC
[1 3] 0 setdash
2 LJ
0.833 LW
N
558.571 265.5 M
558.571 265.5 L
S
GR
GS
[0.6 0 0 0.6 0 0] CT
0.4 GC
[1 3] 0 setdash
2 LJ
0.833 LW
N
558.571 265.5 M
558.571 265.5 L
S
GR
GS
[0.6 0 0 0.6 0 0] CT
0.4 GC
[1 3] 0 setdash
2 LJ
0.833 LW
N
558.571 265.5 M
558.571 265.5 L
S
GR
GS
[0.6 0 0 0.6 0 0] CT
0.4 GC
[1 3] 0 setdash
2 LJ
0.833 LW
N
558.571 265.5 M
558.571 265.5 L
S
GR
GS
[0.6 0 0 0.6 0 0] CT
0.4 GC
[1 3] 0 setdash
2 LJ
0.833 LW
N
558.571 265.5 M
558.571 265.5 L
S
GR
GS
[0.6 0 0 0.6 0 0] CT
0.4 GC
[1 3] 0 setdash
2 LJ
0.833 LW
N
558.571 265.5 M
558.571 265.5 L
S
GR
GS
[0.6 0 0 0.6 0 0] CT
0.4 GC
[1 3] 0 setdash
2 LJ
0.833 LW
N
558.571 265.5 M
558.571 265.5 L
S
GR
GS
[0.6 0 0 0.6 0 0] CT
0.4 GC
[1 3] 0 setdash
2 LJ
0.833 LW
N
558.571 265.5 M
558.571 265.5 L
S
GR
GS
[0.6 0 0 0.6 0 0] CT
0.4 GC
[1 3] 0 setdash
2 LJ
0.833 LW
N
558.571 265.5 M
558.571 265.5 L
S
GR
GS
[0.6 0 0 0.6 0 0] CT
0.4 GC
[1 3] 0 setdash
2 LJ
0.833 LW
N
558.571 265.5 M
558.571 265.5 L
S
GR
GS
[0.6 0 0 0.6 0 0] CT
0.4 GC
[1 3] 0 setdash
2 LJ
0.833 LW
N
558.571 265.5 M
558.571 265.5 L
S
GR
GS
[0.6 0 0 0.6 0 0] CT
0.4 GC
[1 3] 0 setdash
2 LJ
0.833 LW
N
558.571 265.5 M
558.571 265.5 L
S
GR
GS
[0.6 0 0 0.6 0 0] CT
0.4 GC
[1 3] 0 setdash
2 LJ
0.833 LW
N
558.571 265.5 M
558.571 265.5 L
S
GR
GS
[0.6 0 0 0.6 0 0] CT
0.4 GC
[1 3] 0 setdash
2 LJ
0.833 LW
N
558.571 265.5 M
558.571 265.5 L
S
GR
GS
[0.6 0 0 0.6 0 0] CT
0.4 GC
[1 3] 0 setdash
2 LJ
0.833 LW
N
558.571 265.5 M
558.571 265.5 L
S
GR
GS
[0.6 0 0 0.6 0 0] CT
0.4 GC
[1 3] 0 setdash
2 LJ
0.833 LW
N
558.571 265.5 M
558.571 265.5 L
S
GR
GS
[0.6 0 0 0.6 0 0] CT
0.4 GC
[1 3] 0 setdash
2 LJ
0.833 LW
N
558.571 265.5 M
558.571 265.5 L
S
GR
GS
[0.6 0 0 0.6 0 0] CT
0.4 GC
[1 3] 0 setdash
2 LJ
0.833 LW
N
558.571 265.5 M
558.571 265.5 L
S
GR
GS
[0.6 0 0 0.6 0 0] CT
0.4 GC
[1 3] 0 setdash
2 LJ
0.833 LW
N
558.571 265.5 M
558.571 265.5 L
S
GR
GS
[0.6 0 0 0.6 0 0] CT
0.4 GC
[1 3] 0 setdash
2 LJ
0.833 LW
N
558.571 265.5 M
558.571 265.5 L
S
GR
GS
[0.6 0 0 0.6 0 0] CT
0.4 GC
[1 3] 0 setdash
2 LJ
0.833 LW
N
558.571 265.5 M
558.571 265.5 L
S
GR
GS
[0.6 0 0 0.6 0 0] CT
0.4 GC
[1 3] 0 setdash
2 LJ
0.833 LW
N
558.571 265.5 M
558.571 265.5 L
S
GR
GS
[0.6 0 0 0.6 0 0] CT
0.4 GC
[1 3] 0 setdash
2 LJ
0.833 LW
N
558.571 265.5 M
558.571 265.5 L
S
GR
GS
[0.6 0 0 0.6 0 0] CT
0.4 GC
[1 3] 0 setdash
2 LJ
0.833 LW
N
558.571 265.5 M
558.571 265.5 L
S
GR
GS
[0.6 0 0 0.6 0 0] CT
0.4 GC
[1 3] 0 setdash
2 LJ
0.833 LW
N
558.571 265.5 M
558.571 265.5 L
S
GR
GS
[0.6 0 0 0.6 0 0] CT
0.4 GC
[1 3] 0 setdash
2 LJ
0.833 LW
N
558.571 265.5 M
558.571 265.5 L
S
GR
GS
[0.6 0 0 0.6 0 0] CT
0.4 GC
[1 3] 0 setdash
2 LJ
0.833 LW
N
558.571 265.5 M
558.571 265.5 L
S
GR
GS
[0.6 0 0 0.6 0 0] CT
0.4 GC
[1 3] 0 setdash
2 LJ
0.833 LW
N
558.571 265.5 M
558.571 265.5 L
S
GR
GS
[0.6 0 0 0.6 0 0] CT
0.4 GC
[1 3] 0 setdash
2 LJ
0.833 LW
N
558.571 265.5 M
558.571 265.5 L
S
GR
GS
[0.6 0 0 0.6 0 0] CT
0.4 GC
[1 3] 0 setdash
2 LJ
0.833 LW
N
558.571 265.5 M
558.571 265.5 L
S
GR
GS
[0.6 0 0 0.6 0 0] CT
0.4 GC
[1 3] 0 setdash
2 LJ
0.833 LW
N
558.571 265.5 M
558.571 265.5 L
S
GR
GS
[0.6 0 0 0.6 0 0] CT
0.4 GC
[1 3] 0 setdash
2 LJ
0.833 LW
N
558.571 265.5 M
558.571 265.5 L
S
GR
GS
[0.6 0 0 0.6 0 0] CT
0.4 GC
[1 3] 0 setdash
2 LJ
0.833 LW
N
558.571 299.083 M
556.843 299.082 L
S
GR
GS
[0.6 0 0 0.6 0 0] CT
0.4 GC
[1 3] 0 setdash
2 LJ
0.833 LW
N
556.843 299.082 M
555.109 299.078 L
S
GR
GS
[0.6 0 0 0.6 0 0] CT
0.4 GC
[1 3] 0 setdash
2 LJ
0.833 LW
N
555.109 299.078 M
553.366 299.071 L
S
GR
GS
[0.6 0 0 0.6 0 0] CT
0.4 GC
[1 3] 0 setdash
2 LJ
0.833 LW
N
553.366 299.071 M
551.607 299.06 L
S
GR
GS
[0.6 0 0 0.6 0 0] CT
0.4 GC
[1 3] 0 setdash
2 LJ
0.833 LW
N
551.607 299.06 M
549.829 299.047 L
S
GR
GS
[0.6 0 0 0.6 0 0] CT
0.4 GC
[1 3] 0 setdash
2 LJ
0.833 LW
N
549.829 299.047 M
548.024 299.031 L
S
GR
GS
[0.6 0 0 0.6 0 0] CT
0.4 GC
[1 3] 0 setdash
2 LJ
0.833 LW
N
548.024 299.031 M
546.189 299.011 L
S
GR
GS
[0.6 0 0 0.6 0 0] CT
0.4 GC
[1 3] 0 setdash
2 LJ
0.833 LW
N
546.189 299.011 M
544.316 298.987 L
S
GR
GS
[0.6 0 0 0.6 0 0] CT
0.4 GC
[1 3] 0 setdash
2 LJ
0.833 LW
N
544.316 298.987 M
542.399 298.96 L
S
GR
GS
[0.6 0 0 0.6 0 0] CT
0.4 GC
[1 3] 0 setdash
2 LJ
0.833 LW
N
542.399 298.96 M
540.431 298.928 L
S
GR
GS
[0.6 0 0 0.6 0 0] CT
0.4 GC
[1 3] 0 setdash
2 LJ
0.833 LW
N
540.431 298.928 M
538.404 298.891 L
S
GR
GS
[0.6 0 0 0.6 0 0] CT
0.4 GC
[1 3] 0 setdash
2 LJ
0.833 LW
N
538.404 298.891 M
536.309 298.848 L
S
GR
GS
[0.6 0 0 0.6 0 0] CT
0.4 GC
[1 3] 0 setdash
2 LJ
0.833 LW
N
536.309 298.848 M
534.138 298.8 L
S
GR
GS
[0.6 0 0 0.6 0 0] CT
0.4 GC
[1 3] 0 setdash
2 LJ
0.833 LW
N
534.138 298.8 M
531.88 298.745 L
S
GR
GS
[0.6 0 0 0.6 0 0] CT
0.4 GC
[1 3] 0 setdash
2 LJ
0.833 LW
N
531.88 298.745 M
529.523 298.682 L
S
GR
GS
[0.6 0 0 0.6 0 0] CT
0.4 GC
[1 3] 0 setdash
2 LJ
0.833 LW
N
529.523 298.682 M
527.053 298.611 L
S
GR
GS
[0.6 0 0 0.6 0 0] CT
0.4 GC
[1 3] 0 setdash
2 LJ
0.833 LW
N
527.053 298.611 M
524.457 298.529 L
S
GR
GS
[0.6 0 0 0.6 0 0] CT
0.4 GC
[1 3] 0 setdash
2 LJ
0.833 LW
N
524.457 298.529 M
521.717 298.436 L
S
GR
GS
[0.6 0 0 0.6 0 0] CT
0.4 GC
[1 3] 0 setdash
2 LJ
0.833 LW
N
521.717 298.436 M
518.813 298.328 L
S
GR
GS
[0.6 0 0 0.6 0 0] CT
0.4 GC
[1 3] 0 setdash
2 LJ
0.833 LW
N
518.813 298.328 M
515.722 298.205 L
S
GR
GS
[0.6 0 0 0.6 0 0] CT
0.4 GC
[1 3] 0 setdash
2 LJ
0.833 LW
N
515.722 298.205 M
512.42 298.062 L
S
GR
GS
[0.6 0 0 0.6 0 0] CT
0.4 GC
[1 3] 0 setdash
2 LJ
0.833 LW
N
512.42 298.062 M
508.875 297.896 L
S
GR
GS
[0.6 0 0 0.6 0 0] CT
0.4 GC
[1 3] 0 setdash
2 LJ
0.833 LW
N
508.875 297.896 M
505.053 297.702 L
S
GR
GS
[0.6 0 0 0.6 0 0] CT
0.4 GC
[1 3] 0 setdash
2 LJ
0.833 LW
N
505.053 297.702 M
500.911 297.475 L
S
GR
GS
[0.6 0 0 0.6 0 0] CT
0.4 GC
[1 3] 0 setdash
2 LJ
0.833 LW
N
500.911 297.475 M
496.402 297.206 L
S
GR
GS
[0.6 0 0 0.6 0 0] CT
0.4 GC
[1 3] 0 setdash
2 LJ
0.833 LW
N
496.402 297.206 M
491.47 296.885 L
S
GR
GS
[0.6 0 0 0.6 0 0] CT
0.4 GC
[1 3] 0 setdash
2 LJ
0.833 LW
N
491.47 296.885 M
486.047 296.5 L
S
GR
GS
[0.6 0 0 0.6 0 0] CT
0.4 GC
[1 3] 0 setdash
2 LJ
0.833 LW
N
486.047 296.5 M
480.058 296.034 L
S
GR
GS
[0.6 0 0 0.6 0 0] CT
0.4 GC
[1 3] 0 setdash
2 LJ
0.833 LW
N
480.058 296.034 M
473.414 295.464 L
S
GR
GS
[0.6 0 0 0.6 0 0] CT
0.4 GC
[1 3] 0 setdash
2 LJ
0.833 LW
N
473.414 295.464 M
466.02 294.76 L
S
GR
GS
[0.6 0 0 0.6 0 0] CT
0.4 GC
[1 3] 0 setdash
2 LJ
0.833 LW
N
466.02 294.76 M
457.773 293.883 L
S
GR
GS
[0.6 0 0 0.6 0 0] CT
0.4 GC
[1 3] 0 setdash
2 LJ
0.833 LW
N
457.773 293.883 M
448.577 292.778 L
S
GR
GS
[0.6 0 0 0.6 0 0] CT
0.4 GC
[1 3] 0 setdash
2 LJ
0.833 LW
N
448.577 292.778 M
438.366 291.376 L
S
GR
GS
[0.6 0 0 0.6 0 0] CT
0.4 GC
[1 3] 0 setdash
2 LJ
0.833 LW
N
438.366 291.376 M
427.145 289.583 L
S
GR
GS
[0.6 0 0 0.6 0 0] CT
0.4 GC
[1 3] 0 setdash
2 LJ
0.833 LW
N
427.145 289.583 M
415.067 287.287 L
S
GR
GS
[0.6 0 0 0.6 0 0] CT
0.4 GC
[1 3] 0 setdash
2 LJ
0.833 LW
N
415.067 287.287 M
402.549 284.361 L
S
GR
GS
[0.6 0 0 0.6 0 0] CT
0.4 GC
[1 3] 0 setdash
2 LJ
0.833 LW
N
402.549 284.361 M
390.398 280.692 L
S
GR
GS
[0.6 0 0 0.6 0 0] CT
0.4 GC
[1 3] 0 setdash
2 LJ
0.833 LW
N
390.398 280.692 M
379.89 276.233 L
S
GR
GS
[0.6 0 0 0.6 0 0] CT
0.4 GC
[1 3] 0 setdash
2 LJ
0.833 LW
N
379.89 276.233 M
372.618 271.076 L
S
GR
GS
[0.6 0 0 0.6 0 0] CT
0.4 GC
[1 3] 0 setdash
2 LJ
0.833 LW
N
372.618 271.076 M
370 265.5 L
S
GR
GS
[0.6 0 0 0.6 0 0] CT
0.4 GC
[1 3] 0 setdash
2 LJ
0.833 LW
N
558.571 332.667 M
555.114 332.664 L
S
GR
GS
[0.6 0 0 0.6 0 0] CT
0.4 GC
[1 3] 0 setdash
2 LJ
0.833 LW
N
555.114 332.664 M
551.647 332.655 L
S
GR
GS
[0.6 0 0 0.6 0 0] CT
0.4 GC
[1 3] 0 setdash
2 LJ
0.833 LW
N
551.647 332.655 M
548.16 332.641 L
S
GR
GS
[0.6 0 0 0.6 0 0] CT
0.4 GC
[1 3] 0 setdash
2 LJ
0.833 LW
N
548.16 332.641 M
544.643 332.621 L
S
GR
GS
[0.6 0 0 0.6 0 0] CT
0.4 GC
[1 3] 0 setdash
2 LJ
0.833 LW
N
544.643 332.621 M
541.086 332.594 L
S
GR
GS
[0.6 0 0 0.6 0 0] CT
0.4 GC
[1 3] 0 setdash
2 LJ
0.833 LW
N
541.086 332.594 M
537.478 332.562 L
S
GR
GS
[0.6 0 0 0.6 0 0] CT
0.4 GC
[1 3] 0 setdash
2 LJ
0.833 LW
N
537.478 332.562 M
533.806 332.522 L
S
GR
GS
[0.6 0 0 0.6 0 0] CT
0.4 GC
[1 3] 0 setdash
2 LJ
0.833 LW
N
533.806 332.522 M
530.06 332.474 L
S
GR
GS
[0.6 0 0 0.6 0 0] CT
0.4 GC
[1 3] 0 setdash
2 LJ
0.833 LW
N
530.06 332.474 M
526.226 332.419 L
S
GR
GS
[0.6 0 0 0.6 0 0] CT
0.4 GC
[1 3] 0 setdash
2 LJ
0.833 LW
N
526.226 332.419 M
522.29 332.355 L
S
GR
GS
[0.6 0 0 0.6 0 0] CT
0.4 GC
[1 3] 0 setdash
2 LJ
0.833 LW
N
522.29 332.355 M
518.236 332.281 L
S
GR
GS
[0.6 0 0 0.6 0 0] CT
0.4 GC
[1 3] 0 setdash
2 LJ
0.833 LW
N
518.236 332.281 M
514.047 332.197 L
S
GR
GS
[0.6 0 0 0.6 0 0] CT
0.4 GC
[1 3] 0 setdash
2 LJ
0.833 LW
N
514.047 332.197 M
509.704 332.1 L
S
GR
GS
[0.6 0 0 0.6 0 0] CT
0.4 GC
[1 3] 0 setdash
2 LJ
0.833 LW
N
509.704 332.1 M
505.188 331.99 L
S
GR
GS
[0.6 0 0 0.6 0 0] CT
0.4 GC
[1 3] 0 setdash
2 LJ
0.833 LW
N
505.188 331.99 M
500.474 331.865 L
S
GR
GS
[0.6 0 0 0.6 0 0] CT
0.4 GC
[1 3] 0 setdash
2 LJ
0.833 LW
N
500.474 331.865 M
495.535 331.722 L
S
GR
GS
[0.6 0 0 0.6 0 0] CT
0.4 GC
[1 3] 0 setdash
2 LJ
0.833 LW
N
495.535 331.722 M
490.342 331.558 L
S
GR
GS
[0.6 0 0 0.6 0 0] CT
0.4 GC
[1 3] 0 setdash
2 LJ
0.833 LW
N
490.342 331.558 M
484.862 331.371 L
S
GR
GS
[0.6 0 0 0.6 0 0] CT
0.4 GC
[1 3] 0 setdash
2 LJ
0.833 LW
N
484.862 331.371 M
479.054 331.157 L
S
GR
GS
[0.6 0 0 0.6 0 0] CT
0.4 GC
[1 3] 0 setdash
2 LJ
0.833 LW
N
479.054 331.157 M
472.873 330.91 L
S
GR
GS
[0.6 0 0 0.6 0 0] CT
0.4 GC
[1 3] 0 setdash
2 LJ
0.833 LW
N
472.873 330.91 M
466.269 330.624 L
S
GR
GS
[0.6 0 0 0.6 0 0] CT
0.4 GC
[1 3] 0 setdash
2 LJ
0.833 LW
N
466.269 330.624 M
459.179 330.292 L
S
GR
GS
[0.6 0 0 0.6 0 0] CT
0.4 GC
[1 3] 0 setdash
2 LJ
0.833 LW
N
459.179 330.292 M
451.534 329.905 L
S
GR
GS
[0.6 0 0 0.6 0 0] CT
0.4 GC
[1 3] 0 setdash
2 LJ
0.833 LW
N
451.534 329.905 M
443.251 329.45 L
S
GR
GS
[0.6 0 0 0.6 0 0] CT
0.4 GC
[1 3] 0 setdash
2 LJ
0.833 LW
N
443.251 329.45 M
434.233 328.911 L
S
GR
GS
[0.6 0 0 0.6 0 0] CT
0.4 GC
[1 3] 0 setdash
2 LJ
0.833 LW
N
434.233 328.911 M
424.368 328.27 L
S
GR
GS
[0.6 0 0 0.6 0 0] CT
0.4 GC
[1 3] 0 setdash
2 LJ
0.833 LW
N
424.368 328.27 M
413.522 327.5 L
S
GR
GS
[0.6 0 0 0.6 0 0] CT
0.4 GC
[1 3] 0 setdash
2 LJ
0.833 LW
N
413.522 327.5 M
401.544 326.568 L
S
GR
GS
[0.6 0 0 0.6 0 0] CT
0.4 GC
[1 3] 0 setdash
2 LJ
0.833 LW
N
401.544 326.568 M
388.257 325.428 L
S
GR
GS
[0.6 0 0 0.6 0 0] CT
0.4 GC
[1 3] 0 setdash
2 LJ
0.833 LW
N
388.257 325.428 M
373.469 324.02 L
S
GR
GS
[0.6 0 0 0.6 0 0] CT
0.4 GC
[1 3] 0 setdash
2 LJ
0.833 LW
N
373.469 324.02 M
356.975 322.266 L
S
GR
GS
[0.6 0 0 0.6 0 0] CT
0.4 GC
[1 3] 0 setdash
2 LJ
0.833 LW
N
356.975 322.266 M
338.583 320.056 L
S
GR
GS
[0.6 0 0 0.6 0 0] CT
0.4 GC
[1 3] 0 setdash
2 LJ
0.833 LW
N
338.583 320.056 M
318.16 317.251 L
S
GR
GS
[0.6 0 0 0.6 0 0] CT
0.4 GC
[1 3] 0 setdash
2 LJ
0.833 LW
N
318.16 317.251 M
295.718 313.666 L
S
GR
GS
[0.6 0 0 0.6 0 0] CT
0.4 GC
[1 3] 0 setdash
2 LJ
0.833 LW
N
295.718 313.666 M
271.563 309.074 L
S
GR
GS
[0.6 0 0 0.6 0 0] CT
0.4 GC
[1 3] 0 setdash
2 LJ
0.833 LW
N
271.563 309.074 M
246.527 303.223 L
S
GR
GS
[0.6 0 0 0.6 0 0] CT
0.4 GC
[1 3] 0 setdash
2 LJ
0.833 LW
N
246.527 303.223 M
222.225 295.885 L
S
GR
GS
[0.6 0 0 0.6 0 0] CT
0.4 GC
[1 3] 0 setdash
2 LJ
0.833 LW
N
222.225 295.885 M
201.209 286.967 L
S
GR
GS
[0.6 0 0 0.6 0 0] CT
0.4 GC
[1 3] 0 setdash
2 LJ
0.833 LW
N
201.209 286.967 M
186.664 276.653 L
S
GR
GS
[0.6 0 0 0.6 0 0] CT
0.4 GC
[1 3] 0 setdash
2 LJ
0.833 LW
N
186.664 276.653 M
181.429 265.5 L
S
GR
GS
[0.6 0 0 0.6 0 0] CT
0.4 GC
[1 3] 0 setdash
2 LJ
0.833 LW
N
558.571 366.25 M
553.385 366.246 L
S
GR
GS
[0.6 0 0 0.6 0 0] CT
0.4 GC
[1 3] 0 setdash
2 LJ
0.833 LW
N
553.385 366.246 M
548.185 366.233 L
S
GR
GS
[0.6 0 0 0.6 0 0] CT
0.4 GC
[1 3] 0 setdash
2 LJ
0.833 LW
N
548.185 366.233 M
542.954 366.212 L
S
GR
GS
[0.6 0 0 0.6 0 0] CT
0.4 GC
[1 3] 0 setdash
2 LJ
0.833 LW
N
542.954 366.212 M
537.679 366.181 L
S
GR
GS
[0.6 0 0 0.6 0 0] CT
0.4 GC
[1 3] 0 setdash
2 LJ
0.833 LW
N
537.679 366.181 M
532.343 366.142 L
S
GR
GS
[0.6 0 0 0.6 0 0] CT
0.4 GC
[1 3] 0 setdash
2 LJ
0.833 LW
N
532.343 366.142 M
526.931 366.092 L
S
GR
GS
[0.6 0 0 0.6 0 0] CT
0.4 GC
[1 3] 0 setdash
2 LJ
0.833 LW
N
526.931 366.092 M
521.424 366.033 L
S
GR
GS
[0.6 0 0 0.6 0 0] CT
0.4 GC
[1 3] 0 setdash
2 LJ
0.833 LW
N
521.424 366.033 M
515.805 365.962 L
S
GR
GS
[0.6 0 0 0.6 0 0] CT
0.4 GC
[1 3] 0 setdash
2 LJ
0.833 LW
N
515.805 365.962 M
510.053 365.879 L
S
GR
GS
[0.6 0 0 0.6 0 0] CT
0.4 GC
[1 3] 0 setdash
2 LJ
0.833 LW
N
510.053 365.879 M
504.149 365.783 L
S
GR
GS
[0.6 0 0 0.6 0 0] CT
0.4 GC
[1 3] 0 setdash
2 LJ
0.833 LW
N
504.149 365.783 M
498.068 365.672 L
S
GR
GS
[0.6 0 0 0.6 0 0] CT
0.4 GC
[1 3] 0 setdash
2 LJ
0.833 LW
N
498.068 365.672 M
491.784 365.545 L
S
GR
GS
[0.6 0 0 0.6 0 0] CT
0.4 GC
[1 3] 0 setdash
2 LJ
0.833 LW
N
491.784 365.545 M
485.271 365.401 L
S
GR
GS
[0.6 0 0 0.6 0 0] CT
0.4 GC
[1 3] 0 setdash
2 LJ
0.833 LW
N
485.271 365.401 M
478.496 365.236 L
S
GR
GS
[0.6 0 0 0.6 0 0] CT
0.4 GC
[1 3] 0 setdash
2 LJ
0.833 LW
N
478.496 365.236 M
471.425 365.047 L
S
GR
GS
[0.6 0 0 0.6 0 0] CT
0.4 GC
[1 3] 0 setdash
2 LJ
0.833 LW
N
471.425 365.047 M
464.017 364.833 L
S
GR
GS
[0.6 0 0 0.6 0 0] CT
0.4 GC
[1 3] 0 setdash
2 LJ
0.833 LW
N
464.017 364.833 M
456.228 364.588 L
S
GR
GS
[0.6 0 0 0.6 0 0] CT
0.4 GC
[1 3] 0 setdash
2 LJ
0.833 LW
N
456.228 364.588 M
448.007 364.307 L
S
GR
GS
[0.6 0 0 0.6 0 0] CT
0.4 GC
[1 3] 0 setdash
2 LJ
0.833 LW
N
448.007 364.307 M
439.295 363.985 L
S
GR
GS
[0.6 0 0 0.6 0 0] CT
0.4 GC
[1 3] 0 setdash
2 LJ
0.833 LW
N
439.295 363.985 M
430.024 363.615 L
S
GR
GS
[0.6 0 0 0.6 0 0] CT
0.4 GC
[1 3] 0 setdash
2 LJ
0.833 LW
N
430.024 363.615 M
420.117 363.186 L
S
GR
GS
[0.6 0 0 0.6 0 0] CT
0.4 GC
[1 3] 0 setdash
2 LJ
0.833 LW
N
420.117 363.186 M
409.483 362.688 L
S
GR
GS
[0.6 0 0 0.6 0 0] CT
0.4 GC
[1 3] 0 setdash
2 LJ
0.833 LW
N
409.483 362.688 M
398.015 362.107 L
S
GR
GS
[0.6 0 0 0.6 0 0] CT
0.4 GC
[1 3] 0 setdash
2 LJ
0.833 LW
N
398.015 362.107 M
385.591 361.424 L
S
GR
GS
[0.6 0 0 0.6 0 0] CT
0.4 GC
[1 3] 0 setdash
2 LJ
0.833 LW
N
385.591 361.424 M
372.064 360.617 L
S
GR
GS
[0.6 0 0 0.6 0 0] CT
0.4 GC
[1 3] 0 setdash
2 LJ
0.833 LW
N
372.064 360.617 M
357.266 359.655 L
S
GR
GS
[0.6 0 0 0.6 0 0] CT
0.4 GC
[1 3] 0 setdash
2 LJ
0.833 LW
N
357.266 359.655 M
340.998 358.501 L
S
GR
GS
[0.6 0 0 0.6 0 0] CT
0.4 GC
[1 3] 0 setdash
2 LJ
0.833 LW
N
340.998 358.501 M
323.03 357.102 L
S
GR
GS
[0.6 0 0 0.6 0 0] CT
0.4 GC
[1 3] 0 setdash
2 LJ
0.833 LW
N
323.03 357.102 M
303.1 355.392 L
S
GR
GS
[0.6 0 0 0.6 0 0] CT
0.4 GC
[1 3] 0 setdash
2 LJ
0.833 LW
N
303.1 355.392 M
280.918 353.281 L
S
GR
GS
[0.6 0 0 0.6 0 0] CT
0.4 GC
[1 3] 0 setdash
2 LJ
0.833 LW
N
280.918 353.281 M
256.177 350.648 L
S
GR
GS
[0.6 0 0 0.6 0 0] CT
0.4 GC
[1 3] 0 setdash
2 LJ
0.833 LW
N
256.177 350.648 M
228.589 347.335 L
S
GR
GS
[0.6 0 0 0.6 0 0] CT
0.4 GC
[1 3] 0 setdash
2 LJ
0.833 LW
N
228.589 347.335 M
197.955 343.127 L
S
GR
GS
[0.6 0 0 0.6 0 0] CT
0.4 GC
[1 3] 0 setdash
2 LJ
0.833 LW
N
197.955 343.127 M
164.291 337.749 L
S
GR
GS
[0.6 0 0 0.6 0 0] CT
0.4 GC
[1 3] 0 setdash
2 LJ
0.833 LW
N
164.291 337.749 M
128.059 330.861 L
S
GR
GS
[0.6 0 0 0.6 0 0] CT
0.4 GC
[1 3] 0 setdash
2 LJ
0.833 LW
N
128.059 330.861 M
105.937 325.691 L
S
GR
GS
[0.6 0 0 0.6 0 0] CT
0.4 GC
[1 3] 0 setdash
2 LJ
0.833 LW
N
558.571 399.833 M
551.657 399.828 L
S
GR
GS
[0.6 0 0 0.6 0 0] CT
0.4 GC
[1 3] 0 setdash
2 LJ
0.833 LW
N
551.657 399.828 M
544.722 399.811 L
S
GR
GS
[0.6 0 0 0.6 0 0] CT
0.4 GC
[1 3] 0 setdash
2 LJ
0.833 LW
N
544.722 399.811 M
537.748 399.782 L
S
GR
GS
[0.6 0 0 0.6 0 0] CT
0.4 GC
[1 3] 0 setdash
2 LJ
0.833 LW
N
537.748 399.782 M
530.715 399.742 L
S
GR
GS
[0.6 0 0 0.6 0 0] CT
0.4 GC
[1 3] 0 setdash
2 LJ
0.833 LW
N
530.715 399.742 M
523.601 399.689 L
S
GR
GS
[0.6 0 0 0.6 0 0] CT
0.4 GC
[1 3] 0 setdash
2 LJ
0.833 LW
N
523.601 399.689 M
516.384 399.623 L
S
GR
GS
[0.6 0 0 0.6 0 0] CT
0.4 GC
[1 3] 0 setdash
2 LJ
0.833 LW
N
516.384 399.623 M
509.041 399.543 L
S
GR
GS
[0.6 0 0 0.6 0 0] CT
0.4 GC
[1 3] 0 setdash
2 LJ
0.833 LW
N
509.041 399.543 M
501.549 399.449 L
S
GR
GS
[0.6 0 0 0.6 0 0] CT
0.4 GC
[1 3] 0 setdash
2 LJ
0.833 LW
N
501.549 399.449 M
493.881 399.338 L
S
GR
GS
[0.6 0 0 0.6 0 0] CT
0.4 GC
[1 3] 0 setdash
2 LJ
0.833 LW
N
493.881 399.338 M
486.008 399.21 L
S
GR
GS
[0.6 0 0 0.6 0 0] CT
0.4 GC
[1 3] 0 setdash
2 LJ
0.833 LW
N
486.008 399.21 M
477.9 399.063 L
S
GR
GS
[0.6 0 0 0.6 0 0] CT
0.4 GC
[1 3] 0 setdash
2 LJ
0.833 LW
N
477.9 399.063 M
469.522 398.894 L
S
GR
GS
[0.6 0 0 0.6 0 0] CT
0.4 GC
[1 3] 0 setdash
2 LJ
0.833 LW
N
469.522 398.894 M
460.838 398.701 L
S
GR
GS
[0.6 0 0 0.6 0 0] CT
0.4 GC
[1 3] 0 setdash
2 LJ
0.833 LW
N
460.838 398.701 M
451.804 398.481 L
S
GR
GS
[0.6 0 0 0.6 0 0] CT
0.4 GC
[1 3] 0 setdash
2 LJ
0.833 LW
N
451.804 398.481 M
442.376 398.23 L
S
GR
GS
[0.6 0 0 0.6 0 0] CT
0.4 GC
[1 3] 0 setdash
2 LJ
0.833 LW
N
442.376 398.23 M
432.499 397.944 L
S
GR
GS
[0.6 0 0 0.6 0 0] CT
0.4 GC
[1 3] 0 setdash
2 LJ
0.833 LW
N
432.499 397.944 M
422.114 397.617 L
S
GR
GS
[0.6 0 0 0.6 0 0] CT
0.4 GC
[1 3] 0 setdash
2 LJ
0.833 LW
N
422.114 397.617 M
411.152 397.243 L
S
GR
GS
[0.6 0 0 0.6 0 0] CT
0.4 GC
[1 3] 0 setdash
2 LJ
0.833 LW
N
411.152 397.243 M
399.536 396.814 L
S
GR
GS
[0.6 0 0 0.6 0 0] CT
0.4 GC
[1 3] 0 setdash
2 LJ
0.833 LW
N
399.536 396.814 M
387.175 396.319 L
S
GR
GS
[0.6 0 0 0.6 0 0] CT
0.4 GC
[1 3] 0 setdash
2 LJ
0.833 LW
N
387.175 396.319 M
373.966 395.748 L
S
GR
GS
[0.6 0 0 0.6 0 0] CT
0.4 GC
[1 3] 0 setdash
2 LJ
0.833 LW
N
373.966 395.748 M
359.787 395.084 L
S
GR
GS
[0.6 0 0 0.6 0 0] CT
0.4 GC
[1 3] 0 setdash
2 LJ
0.833 LW
N
359.787 395.084 M
344.497 394.31 L
S
GR
GS
[0.6 0 0 0.6 0 0] CT
0.4 GC
[1 3] 0 setdash
2 LJ
0.833 LW
N
344.497 394.31 M
327.931 393.399 L
S
GR
GS
[0.6 0 0 0.6 0 0] CT
0.4 GC
[1 3] 0 setdash
2 LJ
0.833 LW
N
327.931 393.399 M
309.895 392.323 L
S
GR
GS
[0.6 0 0 0.6 0 0] CT
0.4 GC
[1 3] 0 setdash
2 LJ
0.833 LW
N
309.895 392.323 M
290.164 391.041 L
S
GR
GS
[0.6 0 0 0.6 0 0] CT
0.4 GC
[1 3] 0 setdash
2 LJ
0.833 LW
N
290.164 391.041 M
268.473 389.501 L
S
GR
GS
[0.6 0 0 0.6 0 0] CT
0.4 GC
[1 3] 0 setdash
2 LJ
0.833 LW
N
268.473 389.501 M
244.516 387.636 L
S
GR
GS
[0.6 0 0 0.6 0 0] CT
0.4 GC
[1 3] 0 setdash
2 LJ
0.833 LW
N
244.516 387.636 M
217.943 385.356 L
S
GR
GS
[0.6 0 0 0.6 0 0] CT
0.4 GC
[1 3] 0 setdash
2 LJ
0.833 LW
N
217.943 385.356 M
188.367 382.541 L
S
GR
GS
[0.6 0 0 0.6 300.103 159.3] CT
0 0.447 0.741 RC
10.0 ML
0.833 LW
N
4.5 -0.5 M
4.5 -3.261 2.261 -5.5 -0.5 -5.5 C
-3.261 -5.5 -5.5 -3.261 -5.5 -0.5 C
-5.5 2.261 -3.261 4.5 -0.5 4.5 C
2.261 4.5 4.5 2.261 4.5 -0.5 C
S
GR
GS
[0.6 0 0 0.6 108.85714 159.3] CT
0 0.447 0.741 RC
10.0 ML
0.833 LW
N
-3.536 -3.536 M
3.536 3.536 L
-3.536 3.536 M
3.536 -3.536 L
S
GR
GS
[0.6 0 0 0.6 302.00004 146.40457] CT
0 0.447 0.741 RC
10.0 ML
0.833 LW
N
-3.536 -3.536 M
3.536 3.536 L
-3.536 3.536 M
3.536 -3.536 L
S
GR
GS
[0.6 0 0 0.6 302.00004 172.19544] CT
0 0.447 0.741 RC
10.0 ML
0.833 LW
N
-3.536 -3.536 M
3.536 3.536 L
-3.536 3.536 M
3.536 -3.536 L
S
GR
GS
[0.6 0 0 0.6 0 0] CT
0 0 1 RC
1 LJ
0.833 LW
N
181.429 265.5 M
209.175 265.5 L
S
GR
GS
[0.6 0 0 0.6 0 0] CT
0 0 1 RC
1 setlinecap
1 LJ
0.833 LW
N
209.175 265.5 M
212.316 265.5 L
S
GR
GS
[0.6 0 0 0.6 0 0] CT
0 0 1 RC
1 setlinecap
1 LJ
0.833 LW
N
212.316 265.5 M
215.847 265.5 L
S
GR
GS
[0.6 0 0 0.6 0 0] CT
0 0 1 RC
1 setlinecap
1 LJ
0.833 LW
N
215.847 265.5 M
219.823 265.5 L
S
GR
GS
[0.6 0 0 0.6 0 0] CT
0 0 1 RC
1 setlinecap
1 LJ
0.833 LW
N
219.823 265.5 M
224.313 265.5 L
S
GR
GS
[0.6 0 0 0.6 0 0] CT
0 0 1 RC
1 setlinecap
1 LJ
0.833 LW
N
224.313 265.5 M
229.398 265.5 L
S
GR
GS
[0.6 0 0 0.6 0 0] CT
0 0 1 RC
1 setlinecap
1 LJ
0.833 LW
N
229.398 265.5 M
235.179 265.5 L
S
GR
GS
[0.6 0 0 0.6 0 0] CT
0 0 1 RC
1 setlinecap
1 LJ
0.833 LW
N
235.179 265.5 M
241.78 265.5 L
S
GR
GS
[0.6 0 0 0.6 0 0] CT
0 0 1 RC
1 setlinecap
1 LJ
0.833 LW
N
241.78 265.5 M
249.354 265.5 L
S
GR
GS
[0.6 0 0 0.6 0 0] CT
0 0 1 RC
1 setlinecap
1 LJ
0.833 LW
N
249.354 265.5 M
258.096 265.5 L
S
GR
GS
[0.6 0 0 0.6 0 0] CT
0 0 1 RC
1 setlinecap
1 LJ
0.833 LW
N
258.096 265.5 M
268.257 265.5 L
S
GR
GS
[0.6 0 0 0.6 0 0] CT
0 0 1 RC
1 setlinecap
1 LJ
0.833 LW
N
268.257 265.5 M
280.154 265.5 L
S
GR
GS
[0.6 0 0 0.6 0 0] CT
0 0 1 RC
1 setlinecap
1 LJ
0.833 LW
N
280.154 265.5 M
294.179 265.5 L
S
GR
GS
[0.6 0 0 0.6 0 0] CT
0 0 1 RC
1 setlinecap
1 LJ
0.833 LW
N
294.179 265.5 M
310.753 265.5 L
S
GR
GS
[0.6 0 0 0.6 0 0] CT
0 0 1 RC
1 setlinecap
1 LJ
0.833 LW
N
310.753 265.5 M
330.098 265.5 L
S
GR
GS
[0.6 0 0 0.6 0 0] CT
0 0 1 RC
1 setlinecap
1 LJ
0.833 LW
N
330.098 265.5 M
351.607 265.5 L
S
GR
GS
[0.6 0 0 0.6 0 0] CT
0 0 1 RC
1 setlinecap
1 LJ
0.833 LW
N
351.607 265.5 M
373.183 265.5 L
S
GR
GS
[0.6 0 0 0.6 0 0] CT
0 0 1 RC
1 setlinecap
1 LJ
0.833 LW
N
373.183 265.5 M
392.27 265.5 L
S
GR
GS
[0.6 0 0 0.6 0 0] CT
0 0 1 RC
1 setlinecap
1 LJ
0.833 LW
N
392.27 265.5 M
407.844 265.5 L
S
GR
GS
[0.6 0 0 0.6 0 0] CT
0 0 1 RC
1 setlinecap
1 LJ
0.833 LW
N
407.844 265.5 M
420.289 265.5 L
S
GR
GS
[0.6 0 0 0.6 0 0] CT
0 0 1 RC
1 setlinecap
1 LJ
0.833 LW
N
420.289 265.5 M
430.337 265.5 L
S
GR
GS
[0.6 0 0 0.6 0 0] CT
0 0 1 RC
1 setlinecap
1 LJ
0.833 LW
N
430.337 265.5 M
438.608 265.5 L
S
GR
GS
[0.6 0 0 0.6 0 0] CT
0 0 1 RC
1 setlinecap
1 LJ
0.833 LW
N
438.608 265.5 M
445.544 265.5 L
S
GR
GS
[0.6 0 0 0.6 0 0] CT
0 0 1 RC
1 setlinecap
1 LJ
0.833 LW
N
445.544 265.5 M
451.455 265.5 L
S
GR
GS
[0.6 0 0 0.6 0 0] CT
0 0 1 RC
1 setlinecap
1 LJ
0.833 LW
N
451.455 265.5 M
456.559 265.5 L
S
GR
GS
[0.6 0 0 0.6 0 0] CT
0 0 1 RC
1 setlinecap
1 LJ
0.833 LW
N
456.559 265.5 M
461.011 265.5 L
S
GR
GS
[0.6 0 0 0.6 0 0] CT
0 0 1 RC
1 setlinecap
1 LJ
0.833 LW
N
461.011 265.5 M
464.928 265.5 L
S
GR
GS
[0.6 0 0 0.6 0 0] CT
0 0 1 RC
1 setlinecap
1 LJ
0.833 LW
N
464.928 265.5 M
468.396 265.5 L
S
GR
GS
[0.6 0 0 0.6 0 0] CT
0 0 1 RC
1 setlinecap
1 LJ
0.833 LW
N
468.396 265.5 M
471.484 265.5 L
S
GR
GS
[0.6 0 0 0.6 0 0] CT
0 0 1 RC
1 setlinecap
1 LJ
0.833 LW
N
471.484 265.5 M
474.244 265.5 L
S
GR
GS
[0.6 0 0 0.6 0 0] CT
0 0 1 RC
1 setlinecap
1 LJ
0.833 LW
N
474.244 265.5 M
476.719 265.5 L
S
GR
GS
[0.6 0 0 0.6 0 0] CT
0 0 1 RC
1 setlinecap
1 LJ
0.833 LW
N
476.719 265.5 M
478.945 265.5 L
S
GR
GS
[0.6 0 0 0.6 0 0] CT
0 0 1 RC
1 setlinecap
1 LJ
0.833 LW
N
478.945 265.5 M
480.951 265.5 L
S
GR
GS
[0.6 0 0 0.6 0 0] CT
0 0 1 RC
1 setlinecap
1 LJ
0.833 LW
N
480.951 265.5 M
482.762 265.5 L
S
GR
GS
[0.6 0 0 0.6 0 0] CT
0 0 1 RC
1 setlinecap
1 LJ
0.833 LW
N
482.762 265.5 M
484.398 265.5 L
S
GR
GS
[0.6 0 0 0.6 0 0] CT
0 0 1 RC
1 setlinecap
1 LJ
0.833 LW
N
484.398 265.5 M
485.877 265.5 L
S
GR
GS
[0.6 0 0 0.6 0 0] CT
0 0 1 RC
1 setlinecap
1 LJ
0.833 LW
N
485.877 265.5 M
487.217 265.5 L
S
GR
GS
[0.6 0 0 0.6 0 0] CT
0 0 1 RC
1 setlinecap
1 LJ
0.833 LW
N
487.217 265.5 M
488.431 265.5 L
S
GR
GS
[0.6 0 0 0.6 0 0] CT
0 0 1 RC
1 setlinecap
1 LJ
0.833 LW
N
488.431 265.5 M
489.53 265.5 L
S
GR
GS
[0.6 0 0 0.6 0 0] CT
0 0 1 RC
1 setlinecap
1 LJ
0.833 LW
N
489.53 265.5 M
490.527 265.5 L
S
GR
GS
[0.6 0 0 0.6 0 0] CT
0 0 1 RC
1 setlinecap
1 LJ
0.833 LW
N
490.527 265.5 M
491.431 265.5 L
S
GR
GS
[0.6 0 0 0.6 0 0] CT
0 0 1 RC
1 setlinecap
1 LJ
0.833 LW
N
491.431 265.5 M
492.25 265.5 L
S
GR
GS
[0.6 0 0 0.6 0 0] CT
0 0 1 RC
1 setlinecap
1 LJ
0.833 LW
N
492.993 265.5 M
493.666 265.5 L
S
GR
GS
[0.6 0 0 0.6 0 0] CT
0 0 1 RC
1 setlinecap
1 LJ
0.833 LW
N
493.666 265.5 M
494.277 265.5 L
S
GR
GS
[0.6 0 0 0.6 0 0] CT
0 0 1 RC
1 setlinecap
1 LJ
0.833 LW
N
494.277 265.5 M
494.831 265.5 L
S
GR
GS
[0.6 0 0 0.6 0 0] CT
0 0 1 RC
1 setlinecap
1 LJ
0.833 LW
N
494.831 265.5 M
495.333 265.5 L
S
GR
GS
[0.6 0 0 0.6 0 0] CT
0 0 1 RC
1 setlinecap
1 LJ
0.833 LW
N
495.333 265.5 M
495.788 265.5 L
S
GR
GS
[0.6 0 0 0.6 0 0] CT
0 0 1 RC
1 setlinecap
1 LJ
0.833 LW
N
495.788 265.5 M
496.201 265.5 L
S
GR
GS
[0.6 0 0 0.6 0 0] CT
0 0 1 RC
1 setlinecap
1 LJ
0.833 LW
N
496.201 265.5 M
496.575 265.5 L
S
GR
GS
[0.6 0 0 0.6 0 0] CT
0 0 1 RC
1 setlinecap
1 LJ
0.833 LW
N
496.575 265.5 M
500.163 265.5 L
S
GR
GS
[0.6 0 0 0.6 0 0] CT
0 0 1 RC
1 LJ
0.833 LW
N
500.163 265.5 M
500.172 265.5 L
S
GR
GS
[0.6 0 0 0.6 0 0] CT
1 0 0 RC
1 LJ
0.833 LW
N
503.333 286.992 M
489.46 287.92 L
S
GR
GS
[0.6 0 0 0.6 0 0] CT
1 0 0 RC
1 setlinecap
1 LJ
0.833 LW
N
489.46 287.92 M
487.889 288.018 L
S
GR
GS
[0.6 0 0 0.6 0 0] CT
1 0 0 RC
1 setlinecap
1 LJ
0.833 LW
N
487.889 288.018 M
486.124 288.126 L
S
GR
GS
[0.6 0 0 0.6 0 0] CT
1 0 0 RC
1 setlinecap
1 LJ
0.833 LW
N
486.124 288.126 M
484.136 288.246 L
S
GR
GS
[0.6 0 0 0.6 0 0] CT
1 0 0 RC
1 setlinecap
1 LJ
0.833 LW
N
484.136 288.246 M
481.891 288.38 L
S
GR
GS
[0.6 0 0 0.6 0 0] CT
1 0 0 RC
1 setlinecap
1 LJ
0.833 LW
N
481.891 288.38 M
479.349 288.53 L
S
GR
GS
[0.6 0 0 0.6 0 0] CT
1 0 0 RC
1 setlinecap
1 LJ
0.833 LW
N
479.349 288.53 M
476.458 288.698 L
S
GR
GS
[0.6 0 0 0.6 0 0] CT
1 0 0 RC
1 setlinecap
1 LJ
0.833 LW
N
476.458 288.698 M
473.158 288.889 L
S
GR
GS
[0.6 0 0 0.6 0 0] CT
1 0 0 RC
1 setlinecap
1 LJ
0.833 LW
N
473.158 288.889 M
469.371 289.108 L
S
GR
GS
[0.6 0 0 0.6 0 0] CT
1 0 0 RC
1 setlinecap
1 LJ
0.833 LW
N
469.371 289.108 M
464.999 289.362 L
S
GR
GS
[0.6 0 0 0.6 0 0] CT
1 0 0 RC
1 setlinecap
1 LJ
0.833 LW
N
464.999 289.362 M
459.919 289.664 L
S
GR
GS
[0.6 0 0 0.6 0 0] CT
1 0 0 RC
1 setlinecap
1 LJ
0.833 LW
N
459.919 289.664 M
453.971 290.035 L
S
GR
GS
[0.6 0 0 0.6 0 0] CT
1 0 0 RC
1 setlinecap
1 LJ
0.833 LW
N
453.971 290.035 M
446.958 290.509 L
S
GR
GS
[0.6 0 0 0.6 0 0] CT
1 0 0 RC
1 setlinecap
1 LJ
0.833 LW
N
446.958 290.509 M
438.671 291.149 L
S
GR
GS
[0.6 0 0 0.6 0 0] CT
1 0 0 RC
1 setlinecap
1 LJ
0.833 LW
N
438.671 291.149 M
428.999 292.064 L
S
GR
GS
[0.6 0 0 0.6 0 0] CT
1 0 0 RC
1 setlinecap
1 LJ
0.833 LW
N
428.999 292.064 M
418.244 293.408 L
S
GR
GS
[0.6 0 0 0.6 0 0] CT
1 0 0 RC
1 setlinecap
1 LJ
0.833 LW
N
418.244 293.408 M
407.456 295.292 L
S
GR
GS
[0.6 0 0 0.6 0 0] CT
1 0 0 RC
1 setlinecap
1 LJ
0.833 LW
N
407.456 295.292 M
397.913 297.653 L
S
GR
GS
[0.6 0 0 0.6 0 0] CT
1 0 0 RC
1 setlinecap
1 LJ
0.833 LW
N
397.913 297.653 M
390.126 300.309 L
S
GR
GS
[0.6 0 0 0.6 0 0] CT
1 0 0 RC
1 setlinecap
1 LJ
0.833 LW
N
390.126 300.309 M
383.903 303.125 L
S
GR
GS
[0.6 0 0 0.6 0 0] CT
1 0 0 RC
1 setlinecap
1 LJ
0.833 LW
N
383.903 303.125 M
378.879 306.036 L
S
GR
GS
[0.6 0 0 0.6 0 0] CT
1 0 0 RC
1 setlinecap
1 LJ
0.833 LW
N
378.879 306.036 M
374.744 309.023 L
S
GR
GS
[0.6 0 0 0.6 0 0] CT
1 0 0 RC
1 setlinecap
1 LJ
0.833 LW
N
374.744 309.023 M
371.276 312.085 L
S
GR
GS
[0.6 0 0 0.6 0 0] CT
1 0 0 RC
1 setlinecap
1 LJ
0.833 LW
N
371.276 312.085 M
368.32 315.229 L
S
GR
GS
[0.6 0 0 0.6 0 0] CT
1 0 0 RC
1 setlinecap
1 LJ
0.833 LW
N
368.32 315.229 M
365.768 318.465 L
S
GR
GS
[0.6 0 0 0.6 0 0] CT
1 0 0 RC
1 setlinecap
1 LJ
0.833 LW
N
365.768 318.465 M
363.542 321.805 L
S
GR
GS
[0.6 0 0 0.6 0 0] CT
1 0 0 RC
1 setlinecap
1 LJ
0.833 LW
N
363.542 321.805 M
361.584 325.26 L
S
GR
GS
[0.6 0 0 0.6 0 0] CT
1 0 0 RC
1 setlinecap
1 LJ
0.833 LW
N
361.584 325.26 M
359.849 328.843 L
S
GR
GS
[0.6 0 0 0.6 0 0] CT
1 0 0 RC
1 setlinecap
1 LJ
0.833 LW
N
359.849 328.843 M
358.306 332.564 L
S
GR
GS
[0.6 0 0 0.6 0 0] CT
1 0 0 RC
1 setlinecap
1 LJ
0.833 LW
N
358.306 332.564 M
356.926 336.435 L
S
GR
GS
[0.6 0 0 0.6 0 0] CT
1 0 0 RC
1 setlinecap
1 LJ
0.833 LW
N
356.926 336.435 M
355.688 340.469 L
S
GR
GS
[0.6 0 0 0.6 0 0] CT
1 0 0 RC
1 setlinecap
1 LJ
0.833 LW
N
355.688 340.469 M
354.575 344.676 L
S
GR
GS
[0.6 0 0 0.6 0 0] CT
1 0 0 RC
1 setlinecap
1 LJ
0.833 LW
N
354.575 344.676 M
353.572 349.07 L
S
GR
GS
[0.6 0 0 0.6 0 0] CT
1 0 0 RC
1 setlinecap
1 LJ
0.833 LW
N
353.572 349.07 M
352.667 353.662 L
S
GR
GS
[0.6 0 0 0.6 0 0] CT
1 0 0 RC
1 setlinecap
1 LJ
0.833 LW
N
352.667 353.662 M
351.849 358.465 L
S
GR
GS
[0.6 0 0 0.6 0 0] CT
1 0 0 RC
1 setlinecap
1 LJ
0.833 LW
N
351.849 358.465 M
351.109 363.493 L
S
GR
GS
[0.6 0 0 0.6 0 0] CT
1 0 0 RC
1 setlinecap
1 LJ
0.833 LW
N
351.109 363.493 M
350.439 368.758 L
S
GR
GS
[0.6 0 0 0.6 0 0] CT
1 0 0 RC
1 setlinecap
1 LJ
0.833 LW
N
350.439 368.758 M
349.832 374.275 L
S
GR
GS
[0.6 0 0 0.6 0 0] CT
1 0 0 RC
1 setlinecap
1 LJ
0.833 LW
N
349.832 374.275 M
349.283 380.057 L
S
GR
GS
[0.6 0 0 0.6 0 0] CT
1 0 0 RC
1 setlinecap
1 LJ
0.833 LW
N
349.283 380.057 M
348.784 386.121 L
S
GR
GS
[0.6 0 0 0.6 0 0] CT
1 0 0 RC
1 setlinecap
1 LJ
0.833 LW
N
348.784 386.121 M
348.332 392.481 L
S
GR
GS
[0.6 0 0 0.6 0 0] CT
1 0 0 RC
1 setlinecap
1 LJ
0.833 LW
N
348.332 392.481 M
347.923 399.154 L
S
GR
GS
[0.6 0 0 0.6 0 0] CT
1 0 0 RC
1 setlinecap
1 LJ
0.833 LW
N
347.923 399.154 M
347.551 406.157 L
S
GR
GS
[0.6 0 0 0.6 0 0] CT
1 0 0 RC
1 setlinecap
1 LJ
0.833 LW
N
347.551 406.157 M
347.215 413.508 L
S
GR
GS
[0.6 0 0 0.6 0 0] CT
1 0 0 RC
1 setlinecap
1 LJ
0.833 LW
N
347.215 413.508 M
346.909 421.225 L
S
GR
GS
[0.6 0 0 0.6 0 0] CT
1 0 0 RC
1 setlinecap
1 LJ
0.833 LW
N
346.909 421.225 M
346.632 429.328 L
S
GR
GS
[0.6 0 0 0.6 0 0] CT
1 0 0 RC
1 setlinecap
1 LJ
0.833 LW
N
346.632 429.328 M
346.381 437.838 L
S
GR
GS
[0.6 0 0 0.6 0 0] CT
1 0 0 RC
1 setlinecap
1 LJ
0.833 LW
N
346.381 437.838 M
346.154 446.775 L
S
GR
GS
[0.6 0 0 0.6 0 0] CT
1 0 0 RC
1 setlinecap
1 LJ
0.833 LW
N
346.154 446.775 M
345.947 456.162 L
S
GR
GS
[0.6 0 0 0.6 0 0] CT
1 0 0 RC
1 setlinecap
1 LJ
0.833 LW
N
345.947 456.162 M
345.76 466.022 L
S
GR
GS
[0.6 0 0 0.6 0 0] CT
1 0 0 RC
1 LJ
0.833 LW
N
345.76 466.022 M
345.76 467.048 L
S
GR
GS
[0.6 0 0 0.6 0 0] CT
0 0.502 0 RC
1 LJ
0.833 LW
N
503.333 244.008 M
489.46 243.08 L
S
GR
GS
[0.6 0 0 0.6 0 0] CT
0 0.502 0 RC
1 setlinecap
1 LJ
0.833 LW
N
489.46 243.08 M
487.889 242.982 L
S
GR
GS
[0.6 0 0 0.6 0 0] CT
0 0.502 0 RC
1 setlinecap
1 LJ
0.833 LW
N
487.889 242.982 M
486.124 242.874 L
S
GR
GS
[0.6 0 0 0.6 0 0] CT
0 0.502 0 RC
1 setlinecap
1 LJ
0.833 LW
N
486.124 242.874 M
484.136 242.754 L
S
GR
GS
[0.6 0 0 0.6 0 0] CT
0 0.502 0 RC
1 setlinecap
1 LJ
0.833 LW
N
484.136 242.754 M
481.891 242.62 L
S
GR
GS
[0.6 0 0 0.6 0 0] CT
0 0.502 0 RC
1 setlinecap
1 LJ
0.833 LW
N
481.891 242.62 M
479.349 242.47 L
S
GR
GS
[0.6 0 0 0.6 0 0] CT
0 0.502 0 RC
1 setlinecap
1 LJ
0.833 LW
N
479.349 242.47 M
476.458 242.302 L
S
GR
GS
[0.6 0 0 0.6 0 0] CT
0 0.502 0 RC
1 setlinecap
1 LJ
0.833 LW
N
476.458 242.302 M
473.158 242.111 L
S
GR
GS
[0.6 0 0 0.6 0 0] CT
0 0.502 0 RC
1 setlinecap
1 LJ
0.833 LW
N
473.158 242.111 M
469.371 241.892 L
S
GR
GS
[0.6 0 0 0.6 0 0] CT
0 0.502 0 RC
1 setlinecap
1 LJ
0.833 LW
N
469.371 241.892 M
464.999 241.638 L
S
GR
GS
[0.6 0 0 0.6 0 0] CT
0 0.502 0 RC
1 setlinecap
1 LJ
0.833 LW
N
464.999 241.638 M
459.919 241.336 L
S
GR
GS
[0.6 0 0 0.6 0 0] CT
0 0.502 0 RC
1 setlinecap
1 LJ
0.833 LW
N
459.919 241.336 M
453.971 240.965 L
S
GR
GS
[0.6 0 0 0.6 0 0] CT
0 0.502 0 RC
1 setlinecap
1 LJ
0.833 LW
N
453.971 240.965 M
446.958 240.491 L
S
GR
GS
[0.6 0 0 0.6 0 0] CT
0 0.502 0 RC
1 setlinecap
1 LJ
0.833 LW
N
446.958 240.491 M
438.671 239.851 L
S
GR
GS
[0.6 0 0 0.6 0 0] CT
0 0.502 0 RC
1 setlinecap
1 LJ
0.833 LW
N
438.671 239.851 M
428.999 238.936 L
S
GR
GS
[0.6 0 0 0.6 0 0] CT
0 0.502 0 RC
1 setlinecap
1 LJ
0.833 LW
N
428.999 238.936 M
418.244 237.592 L
S
GR
GS
[0.6 0 0 0.6 0 0] CT
0 0.502 0 RC
1 setlinecap
1 LJ
0.833 LW
N
418.244 237.592 M
407.456 235.708 L
S
GR
GS
[0.6 0 0 0.6 0 0] CT
0 0.502 0 RC
1 setlinecap
1 LJ
0.833 LW
N
407.456 235.708 M
397.913 233.347 L
S
GR
GS
[0.6 0 0 0.6 0 0] CT
0 0.502 0 RC
1 setlinecap
1 LJ
0.833 LW
N
397.913 233.347 M
390.126 230.691 L
S
GR
GS
[0.6 0 0 0.6 0 0] CT
0 0.502 0 RC
1 setlinecap
1 LJ
0.833 LW
N
390.126 230.691 M
383.903 227.875 L
S
GR
GS
[0.6 0 0 0.6 0 0] CT
0 0.502 0 RC
1 setlinecap
1 LJ
0.833 LW
N
383.903 227.875 M
378.879 224.964 L
S
GR
GS
[0.6 0 0 0.6 0 0] CT
0 0.502 0 RC
1 setlinecap
1 LJ
0.833 LW
N
378.879 224.964 M
374.744 221.977 L
S
GR
GS
[0.6 0 0 0.6 0 0] CT
0 0.502 0 RC
1 setlinecap
1 LJ
0.833 LW
N
374.744 221.977 M
371.276 218.915 L
S
GR
GS
[0.6 0 0 0.6 0 0] CT
0 0.502 0 RC
1 setlinecap
1 LJ
0.833 LW
N
371.276 218.915 M
368.32 215.771 L
S
GR
GS
[0.6 0 0 0.6 0 0] CT
0 0.502 0 RC
1 setlinecap
1 LJ
0.833 LW
N
368.32 215.771 M
365.768 212.535 L
S
GR
GS
[0.6 0 0 0.6 0 0] CT
0 0.502 0 RC
1 setlinecap
1 LJ
0.833 LW
N
365.768 212.535 M
363.542 209.195 L
S
GR
GS
[0.6 0 0 0.6 0 0] CT
0 0.502 0 RC
1 setlinecap
1 LJ
0.833 LW
N
363.542 209.195 M
361.584 205.74 L
S
GR
GS
[0.6 0 0 0.6 0 0] CT
0 0.502 0 RC
1 setlinecap
1 LJ
0.833 LW
N
361.584 205.74 M
359.849 202.157 L
S
GR
GS
[0.6 0 0 0.6 0 0] CT
0 0.502 0 RC
1 setlinecap
1 LJ
0.833 LW
N
359.849 202.157 M
358.306 198.436 L
S
GR
GS
[0.6 0 0 0.6 0 0] CT
0 0.502 0 RC
1 setlinecap
1 LJ
0.833 LW
N
358.306 198.436 M
356.926 194.565 L
S
GR
GS
[0.6 0 0 0.6 0 0] CT
0 0.502 0 RC
1 setlinecap
1 LJ
0.833 LW
N
356.926 194.565 M
355.688 190.532 L
S
GR
GS
[0.6 0 0 0.6 0 0] CT
0 0.502 0 RC
1 setlinecap
1 LJ
0.833 LW
N
355.688 190.532 M
354.575 186.324 L
S
GR
GS
[0.6 0 0 0.6 0 0] CT
0 0.502 0 RC
1 setlinecap
1 LJ
0.833 LW
N
354.575 186.324 M
353.572 181.93 L
S
GR
GS
[0.6 0 0 0.6 0 0] CT
0 0.502 0 RC
1 setlinecap
1 LJ
0.833 LW
N
353.572 181.93 M
352.667 177.338 L
S
GR
GS
[0.6 0 0 0.6 0 0] CT
0 0.502 0 RC
1 setlinecap
1 LJ
0.833 LW
N
352.667 177.338 M
351.849 172.535 L
S
GR
GS
[0.6 0 0 0.6 0 0] CT
0 0.502 0 RC
1 setlinecap
1 LJ
0.833 LW
N
351.849 172.535 M
351.109 167.507 L
S
GR
GS
[0.6 0 0 0.6 0 0] CT
0 0.502 0 RC
1 setlinecap
1 LJ
0.833 LW
N
351.109 167.507 M
350.439 162.242 L
S
GR
GS
[0.6 0 0 0.6 0 0] CT
0 0.502 0 RC
1 setlinecap
1 LJ
0.833 LW
N
350.439 162.242 M
349.832 156.725 L
S
GR
GS
[0.6 0 0 0.6 0 0] CT
0 0.502 0 RC
1 setlinecap
1 LJ
0.833 LW
N
349.832 156.725 M
349.283 150.943 L
S
GR
GS
[0.6 0 0 0.6 0 0] CT
0 0.502 0 RC
1 setlinecap
1 LJ
0.833 LW
N
349.283 150.943 M
348.784 144.879 L
S
GR
GS
[0.6 0 0 0.6 0 0] CT
0 0.502 0 RC
1 setlinecap
1 LJ
0.833 LW
N
348.784 144.879 M
348.332 138.519 L
S
GR
GS
[0.6 0 0 0.6 0 0] CT
0 0.502 0 RC
1 setlinecap
1 LJ
0.833 LW
N
348.332 138.519 M
347.923 131.846 L
S
GR
GS
[0.6 0 0 0.6 0 0] CT
0 0.502 0 RC
1 setlinecap
1 LJ
0.833 LW
N
347.923 131.846 M
347.551 124.843 L
S
GR
GS
[0.6 0 0 0.6 0 0] CT
0 0.502 0 RC
1 setlinecap
1 LJ
0.833 LW
N
347.551 124.843 M
347.215 117.492 L
S
GR
GS
[0.6 0 0 0.6 0 0] CT
0 0.502 0 RC
1 setlinecap
1 LJ
0.833 LW
N
347.215 117.492 M
346.909 109.775 L
S
GR
GS
[0.6 0 0 0.6 0 0] CT
0 0.502 0 RC
1 setlinecap
1 LJ
0.833 LW
N
346.909 109.775 M
346.632 101.672 L
S
GR
GS
[0.6 0 0 0.6 0 0] CT
0 0.502 0 RC
1 setlinecap
1 LJ
0.833 LW
N
346.632 101.672 M
346.381 93.162 L
S
GR
GS
[0.6 0 0 0.6 0 0] CT
0 0.502 0 RC
1 setlinecap
1 LJ
0.833 LW
N
346.381 93.162 M
346.154 84.225 L
S
GR
GS
[0.6 0 0 0.6 0 0] CT
0 0.502 0 RC
1 setlinecap
1 LJ
0.833 LW
N
346.154 84.225 M
345.947 74.838 L
S
GR
GS
[0.6 0 0 0.6 0 0] CT
0 0.502 0 RC
1 setlinecap
1 LJ
0.833 LW
N
345.947 74.838 M
345.76 64.978 L
S
GR
GS
[0.6 0 0 0.6 0 0] CT
0 0.502 0 RC
1 LJ
0.833 LW
N
345.76 64.978 M
345.76 63.952 L
S
GR
GS
[0.6 0 0 0.6 0 0] CT
0 0 1 RC
1 setlinecap
1 LJ
0.833 LW
N
492.25 265.5 M
492.993 265.5 L
S
GR
GS
[0.6 0 0 0.6 221.1 33.225] CT
/Helvetica 18.333 F
GS
[1 0 0 1 0 0] CT
-46 -4 moveto 
1 -1 scale
(Root Locus) t 
GR
GR
GS
[0.6 0 0 0.6 168.6 312] CT
/Helvetica 18.333 F
GS
[1 0 0 1 0 0] CT
0 0 moveto 
1 -1 scale
(Real Axis \(seconds) t 
GR
GR
GS
[0.6 0 0 0.6 261.6 306.6] CT
/Helvetica 14.667 F
GS
[1 0 0 1 0 0] CT
0 0 moveto 
1 -1 scale
(-1) t 
GR
GR
GS
[0.6 0 0 0.6 270 312] CT
/Helvetica 18.333 F
GS
[1 0 0 1 0 0] CT
0 0 moveto 
1 -1 scale
(\)) t 
GR
GR
GS
[0 -0.6 0.6 0 39 225.6] CT
/Helvetica 18.333 F
GS
[1 0 0 1 0 0] CT
0 0 moveto 
1 -1 scale
(Imaginary Axis \(seconds) t 
GR
GR
GS
[0 -0.6 0.6 0 33.6 107.4] CT
/Helvetica 14.667 F
GS
[1 0 0 1 0 0] CT
0 0 moveto 
1 -1 scale
(-1) t 
GR
GR
GS
[0 -0.6 0.6 0 39 99] CT
/Helvetica 18.333 F
GS
[1 0 0 1 0 0] CT
0 0 moveto 
1 -1 scale
(\)) t 
GR
GR
%%Trailer
%%Pages: 1
%%EOF
