%!PS-Adobe-3.0 EPSF-3.0
%%Creator: (MATLAB, The Mathworks, Inc. Version 9.1.0.441655 \(R2016b\). Operating System: Windows 8)
%%Title: D:/Users/Administrator/Desktop/flight-control-system-paper/report/fig/lon_after_step.eps
%%CreationDate: 2019-05-02T17:49:50
%%Pages: (atend)
%%BoundingBox: 0 0 420 315
%%LanguageLevel: 3
%%EndComments
%%BeginProlog
%%BeginResource: procset (Apache XML Graphics Std ProcSet) 1.2 0
%%Version: 1.2 0
%%Copyright: (Copyright 2001-2003,2010 The Apache Software Foundation. License terms: http://www.apache.org/licenses/LICENSE-2.0)
/bd{bind def}bind def
/ld{load def}bd
/GR/grestore ld
/M/moveto ld
/LJ/setlinejoin ld
/C/curveto ld
/f/fill ld
/LW/setlinewidth ld
/GC/setgray ld
/t/show ld
/N/newpath ld
/CT/concat ld
/cp/closepath ld
/S/stroke ld
/L/lineto ld
/CC/setcmykcolor ld
/A/ashow ld
/GS/gsave ld
/RC/setrgbcolor ld
/RM/rmoveto ld
/ML/setmiterlimit ld
/re {4 2 roll M
1 index 0 rlineto
0 exch rlineto
neg 0 rlineto
cp } bd
/_ctm matrix def
/_tm matrix def
/BT { _ctm currentmatrix pop matrix _tm copy pop 0 0 moveto } bd
/ET { _ctm setmatrix } bd
/iTm { _ctm setmatrix _tm concat } bd
/Tm { _tm astore pop iTm 0 0 moveto } bd
/ux 0.0 def
/uy 0.0 def
/F {
  /Tp exch def
  /Tf exch def
  Tf findfont Tp scalefont setfont
  /cf Tf def  /cs Tp def
} bd
/ULS {currentpoint /uy exch def /ux exch def} bd
/ULE {
  /Tcx currentpoint pop def
  gsave
  newpath
  cf findfont cs scalefont dup
  /FontMatrix get 0 get /Ts exch def /FontInfo get dup
  /UnderlinePosition get Ts mul /To exch def
  /UnderlineThickness get Ts mul /Tt exch def
  ux uy To add moveto  Tcx uy To add lineto
  Tt setlinewidth stroke
  grestore
} bd
/OLE {
  /Tcx currentpoint pop def
  gsave
  newpath
  cf findfont cs scalefont dup
  /FontMatrix get 0 get /Ts exch def /FontInfo get dup
  /UnderlinePosition get Ts mul /To exch def
  /UnderlineThickness get Ts mul /Tt exch def
  ux uy To add cs add moveto Tcx uy To add cs add lineto
  Tt setlinewidth stroke
  grestore
} bd
/SOE {
  /Tcx currentpoint pop def
  gsave
  newpath
  cf findfont cs scalefont dup
  /FontMatrix get 0 get /Ts exch def /FontInfo get dup
  /UnderlinePosition get Ts mul /To exch def
  /UnderlineThickness get Ts mul /Tt exch def
  ux uy To add cs 10 mul 26 idiv add moveto Tcx uy To add cs 10 mul 26 idiv add lineto
  Tt setlinewidth stroke
  grestore
} bd
/QT {
/Y22 exch store
/X22 exch store
/Y21 exch store
/X21 exch store
currentpoint
/Y21 load 2 mul add 3 div exch
/X21 load 2 mul add 3 div exch
/X21 load 2 mul /X22 load add 3 div
/Y21 load 2 mul /Y22 load add 3 div
/X22 load /Y22 load curveto
} bd
/SSPD {
dup length /d exch dict def
{
/v exch def
/k exch def
currentpagedevice k known {
/cpdv currentpagedevice k get def
v cpdv ne {
/upd false def
/nullv v type /nulltype eq def
/nullcpdv cpdv type /nulltype eq def
nullv nullcpdv or
{
/upd true def
} {
/sametype v type cpdv type eq def
sametype {
v type /arraytype eq {
/vlen v length def
/cpdvlen cpdv length def
vlen cpdvlen eq {
0 1 vlen 1 sub {
/i exch def
/obj v i get def
/cpdobj cpdv i get def
obj cpdobj ne {
/upd true def
exit
} if
} for
} {
/upd true def
} ifelse
} {
v type /dicttype eq {
v {
/dv exch def
/dk exch def
/cpddv cpdv dk get def
dv cpddv ne {
/upd true def
exit
} if
} forall
} {
/upd true def
} ifelse
} ifelse
} if
} ifelse
upd true eq {
d k v put
} if
} if
} if
} forall
d length 0 gt {
d setpagedevice
} if
} bd
/RE { % /NewFontName [NewEncodingArray] /FontName RE -
  findfont dup length dict begin
  {
    1 index /FID ne
    {def} {pop pop} ifelse
  } forall
  /Encoding exch def
  /FontName 1 index def
  currentdict definefont pop
  end
} bind def
%%EndResource
%%BeginResource: procset (Apache XML Graphics EPS ProcSet) 1.0 0
%%Version: 1.0 0
%%Copyright: (Copyright 2002-2003 The Apache Software Foundation. License terms: http://www.apache.org/licenses/LICENSE-2.0)
/BeginEPSF { %def
/b4_Inc_state save def         % Save state for cleanup
/dict_count countdictstack def % Count objects on dict stack
/op_count count 1 sub def      % Count objects on operand stack
userdict begin                 % Push userdict on dict stack
/showpage { } def              % Redefine showpage, { } = null proc
0 setgray 0 setlinecap         % Prepare graphics state
1 setlinewidth 0 setlinejoin
10 setmiterlimit [ ] 0 setdash newpath
/languagelevel where           % If level not equal to 1 then
{pop languagelevel             % set strokeadjust and
1 ne                           % overprint to their defaults.
{false setstrokeadjust false setoverprint
} if
} if
} bd
/EndEPSF { %def
count op_count sub {pop} repeat            % Clean up stacks
countdictstack dict_count sub {end} repeat
b4_Inc_state restore
} bd
%%EndResource
%FOPBeginFontDict
%%IncludeResource: font Courier-Bold
%%IncludeResource: font Helvetica
%%IncludeResource: font Courier-BoldOblique
%%IncludeResource: font Courier-Oblique
%%IncludeResource: font Times-Roman
%%IncludeResource: font Helvetica-BoldOblique
%%IncludeResource: font Helvetica-Bold
%%IncludeResource: font Helvetica-Oblique
%%IncludeResource: font Times-BoldItalic
%%IncludeResource: font Courier
%%IncludeResource: font Times-Italic
%%IncludeResource: font Times-Bold
%%IncludeResource: font Symbol
%%IncludeResource: font ZapfDingbats
%FOPEndFontDict
%%BeginResource: encoding WinAnsiEncoding
/WinAnsiEncoding [
/.notdef /.notdef /.notdef /.notdef /.notdef
/.notdef /.notdef /.notdef /.notdef /.notdef
/.notdef /.notdef /.notdef /.notdef /.notdef
/.notdef /.notdef /.notdef /.notdef /.notdef
/.notdef /.notdef /.notdef /.notdef /.notdef
/.notdef /.notdef /.notdef /.notdef /.notdef
/.notdef /.notdef /space /exclam /quotedbl
/numbersign /dollar /percent /ampersand /quotesingle
/parenleft /parenright /asterisk /plus /comma
/hyphen /period /slash /zero /one
/two /three /four /five /six
/seven /eight /nine /colon /semicolon
/less /equal /greater /question /at
/A /B /C /D /E
/F /G /H /I /J
/K /L /M /N /O
/P /Q /R /S /T
/U /V /W /X /Y
/Z /bracketleft /backslash /bracketright /asciicircum
/underscore /quoteleft /a /b /c
/d /e /f /g /h
/i /j /k /l /m
/n /o /p /q /r
/s /t /u /v /w
/x /y /z /braceleft /bar
/braceright /asciitilde /bullet /Euro /bullet
/quotesinglbase /florin /quotedblbase /ellipsis /dagger
/daggerdbl /circumflex /perthousand /Scaron /guilsinglleft
/OE /bullet /Zcaron /bullet /bullet
/quoteleft /quoteright /quotedblleft /quotedblright /bullet
/endash /emdash /asciitilde /trademark /scaron
/guilsinglright /oe /bullet /zcaron /Ydieresis
/space /exclamdown /cent /sterling /currency
/yen /brokenbar /section /dieresis /copyright
/ordfeminine /guillemotleft /logicalnot /sfthyphen /registered
/macron /degree /plusminus /twosuperior /threesuperior
/acute /mu /paragraph /middot /cedilla
/onesuperior /ordmasculine /guillemotright /onequarter /onehalf
/threequarters /questiondown /Agrave /Aacute /Acircumflex
/Atilde /Adieresis /Aring /AE /Ccedilla
/Egrave /Eacute /Ecircumflex /Edieresis /Igrave
/Iacute /Icircumflex /Idieresis /Eth /Ntilde
/Ograve /Oacute /Ocircumflex /Otilde /Odieresis
/multiply /Oslash /Ugrave /Uacute /Ucircumflex
/Udieresis /Yacute /Thorn /germandbls /agrave
/aacute /acircumflex /atilde /adieresis /aring
/ae /ccedilla /egrave /eacute /ecircumflex
/edieresis /igrave /iacute /icircumflex /idieresis
/eth /ntilde /ograve /oacute /ocircumflex
/otilde /odieresis /divide /oslash /ugrave
/uacute /ucircumflex /udieresis /yacute /thorn
/ydieresis
] def
%%EndResource
%FOPBeginFontReencode
/Courier-Bold findfont
dup length dict begin
  {1 index /FID ne {def} {pop pop} ifelse} forall
  /Encoding WinAnsiEncoding def
  currentdict
end
/Courier-Bold exch definefont pop
/Helvetica findfont
dup length dict begin
  {1 index /FID ne {def} {pop pop} ifelse} forall
  /Encoding WinAnsiEncoding def
  currentdict
end
/Helvetica exch definefont pop
/Courier-BoldOblique findfont
dup length dict begin
  {1 index /FID ne {def} {pop pop} ifelse} forall
  /Encoding WinAnsiEncoding def
  currentdict
end
/Courier-BoldOblique exch definefont pop
/Courier-Oblique findfont
dup length dict begin
  {1 index /FID ne {def} {pop pop} ifelse} forall
  /Encoding WinAnsiEncoding def
  currentdict
end
/Courier-Oblique exch definefont pop
/Times-Roman findfont
dup length dict begin
  {1 index /FID ne {def} {pop pop} ifelse} forall
  /Encoding WinAnsiEncoding def
  currentdict
end
/Times-Roman exch definefont pop
/Helvetica-BoldOblique findfont
dup length dict begin
  {1 index /FID ne {def} {pop pop} ifelse} forall
  /Encoding WinAnsiEncoding def
  currentdict
end
/Helvetica-BoldOblique exch definefont pop
/Helvetica-Bold findfont
dup length dict begin
  {1 index /FID ne {def} {pop pop} ifelse} forall
  /Encoding WinAnsiEncoding def
  currentdict
end
/Helvetica-Bold exch definefont pop
/Helvetica-Oblique findfont
dup length dict begin
  {1 index /FID ne {def} {pop pop} ifelse} forall
  /Encoding WinAnsiEncoding def
  currentdict
end
/Helvetica-Oblique exch definefont pop
/Times-BoldItalic findfont
dup length dict begin
  {1 index /FID ne {def} {pop pop} ifelse} forall
  /Encoding WinAnsiEncoding def
  currentdict
end
/Times-BoldItalic exch definefont pop
/Courier findfont
dup length dict begin
  {1 index /FID ne {def} {pop pop} ifelse} forall
  /Encoding WinAnsiEncoding def
  currentdict
end
/Courier exch definefont pop
/Times-Italic findfont
dup length dict begin
  {1 index /FID ne {def} {pop pop} ifelse} forall
  /Encoding WinAnsiEncoding def
  currentdict
end
/Times-Italic exch definefont pop
/Times-Bold findfont
dup length dict begin
  {1 index /FID ne {def} {pop pop} ifelse} forall
  /Encoding WinAnsiEncoding def
  currentdict
end
/Times-Bold exch definefont pop
%FOPEndFontReencode
%%EndProlog
%%Page: 1 1
%%PageBoundingBox: 0 0 420 315
%%BeginPageSetup
[1 0 0 -1 0 315] CT
%%EndPageSetup
GS
[0.6 0 0 0.6 0 0] CT
1 GC
N
0 0 700 525 re
f
GR
GS
[0.6 0 0 0.6 0 0] CT
1 GC
N
0 0 700 525 re
f
GR
GS
[0.6 0 0 0.6 0 0] CT
1 GC
N
106 467 M
634 467 L
634 64 L
106 64 L
cp
f
GR
GS
[0.6 0 0 0.6 0 0] CT
0.873 GC
1 LJ
0.833 LW
N
106 467 M
106 64 L
S
GR
GS
[0.6 0 0 0.6 0 0] CT
0.873 GC
1 LJ
0.833 LW
N
194 467 M
194 64 L
S
GR
GS
[0.6 0 0 0.6 0 0] CT
0.873 GC
1 LJ
0.833 LW
N
282 467 M
282 64 L
S
GR
GS
[0.6 0 0 0.6 0 0] CT
0.873 GC
1 LJ
0.833 LW
N
370 467 M
370 64 L
S
GR
GS
[0.6 0 0 0.6 0 0] CT
0.873 GC
1 LJ
0.833 LW
N
458 467 M
458 64 L
S
GR
GS
[0.6 0 0 0.6 0 0] CT
0.873 GC
1 LJ
0.833 LW
N
546 467 M
546 64 L
S
GR
GS
[0.6 0 0 0.6 0 0] CT
0.873 GC
1 LJ
0.833 LW
N
634 467 M
634 64 L
S
GR
GS
[0.6 0 0 0.6 0 0] CT
0.873 GC
1 LJ
0.833 LW
N
634 467 M
106 467 L
S
GR
GS
[0.6 0 0 0.6 0 0] CT
0.873 GC
1 LJ
0.833 LW
N
634 426.7 M
106 426.7 L
S
GR
GS
[0.6 0 0 0.6 0 0] CT
0.873 GC
1 LJ
0.833 LW
N
634 386.4 M
106 386.4 L
S
GR
GS
[0.6 0 0 0.6 0 0] CT
0.873 GC
1 LJ
0.833 LW
N
634 346.1 M
106 346.1 L
S
GR
GS
[0.6 0 0 0.6 0 0] CT
0.873 GC
1 LJ
0.833 LW
N
634 305.8 M
106 305.8 L
S
GR
GS
[0.6 0 0 0.6 0 0] CT
0.873 GC
1 LJ
0.833 LW
N
634 265.5 M
106 265.5 L
S
GR
GS
[0.6 0 0 0.6 0 0] CT
0.873 GC
1 LJ
0.833 LW
N
634 225.2 M
106 225.2 L
S
GR
GS
[0.6 0 0 0.6 0 0] CT
0.873 GC
1 LJ
0.833 LW
N
634 184.9 M
106 184.9 L
S
GR
GS
[0.6 0 0 0.6 0 0] CT
0.873 GC
1 LJ
0.833 LW
N
634 144.6 M
106 144.6 L
S
GR
GS
[0.6 0 0 0.6 0 0] CT
0.873 GC
1 LJ
0.833 LW
N
634 104.3 M
106 104.3 L
S
GR
GS
[0.6 0 0 0.6 0 0] CT
0.873 GC
1 LJ
0.833 LW
N
634 64 M
106 64 L
S
GR
GS
[0.6 0 0 0.6 0 0] CT
0.4 GC
2 setlinecap
1 LJ
0.833 LW
N
106 467 M
634 467 L
S
GR
GS
[0.6 0 0 0.6 0 0] CT
0.4 GC
2 setlinecap
1 LJ
0.833 LW
N
106 64 M
634 64 L
S
GR
GS
[0.6 0 0 0.6 0 0] CT
0.4 GC
2 setlinecap
1 LJ
0.833 LW
N
106 467 M
106 461.72 L
S
GR
GS
[0.6 0 0 0.6 0 0] CT
0.4 GC
2 setlinecap
1 LJ
0.833 LW
N
194 467 M
194 461.72 L
S
GR
GS
[0.6 0 0 0.6 0 0] CT
0.4 GC
2 setlinecap
1 LJ
0.833 LW
N
282 467 M
282 461.72 L
S
GR
GS
[0.6 0 0 0.6 0 0] CT
0.4 GC
2 setlinecap
1 LJ
0.833 LW
N
370 467 M
370 461.72 L
S
GR
GS
[0.6 0 0 0.6 0 0] CT
0.4 GC
2 setlinecap
1 LJ
0.833 LW
N
458 467 M
458 461.72 L
S
GR
GS
[0.6 0 0 0.6 0 0] CT
0.4 GC
2 setlinecap
1 LJ
0.833 LW
N
546 467 M
546 461.72 L
S
GR
GS
[0.6 0 0 0.6 0 0] CT
0.4 GC
2 setlinecap
1 LJ
0.833 LW
N
634 467 M
634 461.72 L
S
GR
GS
[0.6 0 0 0.6 0 0] CT
0.4 GC
2 setlinecap
1 LJ
0.833 LW
N
106 64 M
106 69.28 L
S
GR
GS
[0.6 0 0 0.6 0 0] CT
0.4 GC
2 setlinecap
1 LJ
0.833 LW
N
194 64 M
194 69.28 L
S
GR
GS
[0.6 0 0 0.6 0 0] CT
0.4 GC
2 setlinecap
1 LJ
0.833 LW
N
282 64 M
282 69.28 L
S
GR
GS
[0.6 0 0 0.6 0 0] CT
0.4 GC
2 setlinecap
1 LJ
0.833 LW
N
370 64 M
370 69.28 L
S
GR
GS
[0.6 0 0 0.6 0 0] CT
0.4 GC
2 setlinecap
1 LJ
0.833 LW
N
458 64 M
458 69.28 L
S
GR
GS
[0.6 0 0 0.6 0 0] CT
0.4 GC
2 setlinecap
1 LJ
0.833 LW
N
546 64 M
546 69.28 L
S
GR
GS
[0.6 0 0 0.6 0 0] CT
0.4 GC
2 setlinecap
1 LJ
0.833 LW
N
634 64 M
634 69.28 L
S
GR
GS
[0.6 0 0 0.6 63.6 284.19999] CT
0.4 GC
/Helvetica 16.667 F
GS
[1 0 0 1 0 0] CT
-5 18 moveto 
1 -1 scale
(0) t 
GR
GR
GS
[0.6 0 0 0.6 116.4 284.19999] CT
0.4 GC
/Helvetica 16.667 F
GS
[1 0 0 1 0 0] CT
-5 18 moveto 
1 -1 scale
(1) t 
GR
GR
GS
[0.6 0 0 0.6 169.2 284.19999] CT
0.4 GC
/Helvetica 16.667 F
GS
[1 0 0 1 0 0] CT
-5 18 moveto 
1 -1 scale
(2) t 
GR
GR
GS
[0.6 0 0 0.6 222 284.19999] CT
0.4 GC
/Helvetica 16.667 F
GS
[1 0 0 1 0 0] CT
-5 18 moveto 
1 -1 scale
(3) t 
GR
GR
GS
[0.6 0 0 0.6 274.8 284.19999] CT
0.4 GC
/Helvetica 16.667 F
GS
[1 0 0 1 0 0] CT
-5 18 moveto 
1 -1 scale
(4) t 
GR
GR
GS
[0.6 0 0 0.6 327.6 284.19999] CT
0.4 GC
/Helvetica 16.667 F
GS
[1 0 0 1 0 0] CT
-5 18 moveto 
1 -1 scale
(5) t 
GR
GR
GS
[0.6 0 0 0.6 380.4 284.19999] CT
0.4 GC
/Helvetica 16.667 F
GS
[1 0 0 1 0 0] CT
-5 18 moveto 
1 -1 scale
(6) t 
GR
GR
GS
[0.6 0 0 0.6 0 0] CT
0.4 GC
2 setlinecap
1 LJ
0.833 LW
N
106 467 M
106 64 L
S
GR
GS
[0.6 0 0 0.6 0 0] CT
0.4 GC
2 setlinecap
1 LJ
0.833 LW
N
634 467 M
634 64 L
S
GR
GS
[0.6 0 0 0.6 0 0] CT
0.4 GC
2 setlinecap
1 LJ
0.833 LW
N
106 467 M
111.28 467 L
S
GR
GS
[0.6 0 0 0.6 0 0] CT
0.4 GC
2 setlinecap
1 LJ
0.833 LW
N
106 426.7 M
111.28 426.7 L
S
GR
GS
[0.6 0 0 0.6 0 0] CT
0.4 GC
2 setlinecap
1 LJ
0.833 LW
N
106 386.4 M
111.28 386.4 L
S
GR
GS
[0.6 0 0 0.6 0 0] CT
0.4 GC
2 setlinecap
1 LJ
0.833 LW
N
106 346.1 M
111.28 346.1 L
S
GR
GS
[0.6 0 0 0.6 0 0] CT
0.4 GC
2 setlinecap
1 LJ
0.833 LW
N
106 305.8 M
111.28 305.8 L
S
GR
GS
[0.6 0 0 0.6 0 0] CT
0.4 GC
2 setlinecap
1 LJ
0.833 LW
N
106 265.5 M
111.28 265.5 L
S
GR
GS
[0.6 0 0 0.6 0 0] CT
0.4 GC
2 setlinecap
1 LJ
0.833 LW
N
106 225.2 M
111.28 225.2 L
S
GR
GS
[0.6 0 0 0.6 0 0] CT
0.4 GC
2 setlinecap
1 LJ
0.833 LW
N
106 184.9 M
111.28 184.9 L
S
GR
GS
[0.6 0 0 0.6 0 0] CT
0.4 GC
2 setlinecap
1 LJ
0.833 LW
N
106 144.6 M
111.28 144.6 L
S
GR
GS
[0.6 0 0 0.6 0 0] CT
0.4 GC
2 setlinecap
1 LJ
0.833 LW
N
106 104.3 M
111.28 104.3 L
S
GR
GS
[0.6 0 0 0.6 0 0] CT
0.4 GC
2 setlinecap
1 LJ
0.833 LW
N
106 64 M
111.28 64 L
S
GR
GS
[0.6 0 0 0.6 0 0] CT
0.4 GC
2 setlinecap
1 LJ
0.833 LW
N
634 467 M
628.72 467 L
S
GR
GS
[0.6 0 0 0.6 0 0] CT
0.4 GC
2 setlinecap
1 LJ
0.833 LW
N
634 426.7 M
628.72 426.7 L
S
GR
GS
[0.6 0 0 0.6 0 0] CT
0.4 GC
2 setlinecap
1 LJ
0.833 LW
N
634 386.4 M
628.72 386.4 L
S
GR
GS
[0.6 0 0 0.6 0 0] CT
0.4 GC
2 setlinecap
1 LJ
0.833 LW
N
634 346.1 M
628.72 346.1 L
S
GR
GS
[0.6 0 0 0.6 0 0] CT
0.4 GC
2 setlinecap
1 LJ
0.833 LW
N
634 305.8 M
628.72 305.8 L
S
GR
GS
[0.6 0 0 0.6 0 0] CT
0.4 GC
2 setlinecap
1 LJ
0.833 LW
N
634 265.5 M
628.72 265.5 L
S
GR
GS
[0.6 0 0 0.6 0 0] CT
0.4 GC
2 setlinecap
1 LJ
0.833 LW
N
634 225.2 M
628.72 225.2 L
S
GR
GS
[0.6 0 0 0.6 0 0] CT
0.4 GC
2 setlinecap
1 LJ
0.833 LW
N
634 184.9 M
628.72 184.9 L
S
GR
GS
[0.6 0 0 0.6 0 0] CT
0.4 GC
2 setlinecap
1 LJ
0.833 LW
N
634 144.6 M
628.72 144.6 L
S
GR
GS
[0.6 0 0 0.6 0 0] CT
0.4 GC
2 setlinecap
1 LJ
0.833 LW
N
634 104.3 M
628.72 104.3 L
S
GR
GS
[0.6 0 0 0.6 0 0] CT
0.4 GC
2 setlinecap
1 LJ
0.833 LW
N
634 64 M
628.72 64 L
S
GR
GS
[0.6 0 0 0.6 59.6 280.2] CT
0.4 GC
/Helvetica 16.667 F
GS
[1 0 0 1 0 0] CT
-10 7 moveto 
1 -1 scale
(0) t 
GR
GR
GS
[0.6 0 0 0.6 59.6 256.02001] CT
0.4 GC
/Helvetica 16.667 F
GS
[1 0 0 1 0 0] CT
-24 7 moveto 
1 -1 scale
(0.1) t 
GR
GR
GS
[0.6 0 0 0.6 59.6 231.84] CT
0.4 GC
/Helvetica 16.667 F
GS
[1 0 0 1 0 0] CT
-24 7 moveto 
1 -1 scale
(0.2) t 
GR
GR
GS
[0.6 0 0 0.6 59.6 207.66] CT
0.4 GC
/Helvetica 16.667 F
GS
[1 0 0 1 0 0] CT
-24 7 moveto 
1 -1 scale
(0.3) t 
GR
GR
GS
[0.6 0 0 0.6 59.6 183.47999] CT
0.4 GC
/Helvetica 16.667 F
GS
[1 0 0 1 0 0] CT
-24 7 moveto 
1 -1 scale
(0.4) t 
GR
GR
GS
[0.6 0 0 0.6 59.6 159.3] CT
0.4 GC
/Helvetica 16.667 F
GS
[1 0 0 1 0 0] CT
-24 7 moveto 
1 -1 scale
(0.5) t 
GR
GR
GS
[0.6 0 0 0.6 59.6 135.12] CT
0.4 GC
/Helvetica 16.667 F
GS
[1 0 0 1 0 0] CT
-24 7 moveto 
1 -1 scale
(0.6) t 
GR
GR
GS
[0.6 0 0 0.6 59.6 110.94001] CT
0.4 GC
/Helvetica 16.667 F
GS
[1 0 0 1 0 0] CT
-24 7 moveto 
1 -1 scale
(0.7) t 
GR
GR
GS
[0.6 0 0 0.6 59.6 86.75999] CT
0.4 GC
/Helvetica 16.667 F
GS
[1 0 0 1 0 0] CT
-24 7 moveto 
1 -1 scale
(0.8) t 
GR
GR
GS
[0.6 0 0 0.6 59.6 62.58001] CT
0.4 GC
/Helvetica 16.667 F
GS
[1 0 0 1 0 0] CT
-24 7 moveto 
1 -1 scale
(0.9) t 
GR
GR
GS
[0.6 0 0 0.6 59.6 38.4] CT
0.4 GC
/Helvetica 16.667 F
GS
[1 0 0 1 0 0] CT
-10 7 moveto 
1 -1 scale
(1) t 
GR
GR
GS
[0.6 0 0 0.6 0 0] CT
[1 3] 0 setdash
2 LJ
0.833 LW
N
105.937 64 M
106 64 L
S
GR
GS
[0.6 0 0 0.6 0 0] CT
[1 3] 0 setdash
2 LJ
0.833 LW
N
106 64 M
194 64 L
S
GR
GS
[0.6 0 0 0.6 0 0] CT
[1 3] 0 setdash
2 LJ
0.833 LW
N
194 64 M
634.063 64 L
S
GR
GS
[0.6 0 0 0.6 222.00022 36.89999] CT
0.4 GC
/Helvetica 16.667 F
GS
[1 0 0 1 0 0] CT
-51 -4 moveto 
1 -1 scale
(From: r  To: y) t 
GR
GR
GS
[0.6 0 0 0.6 0 0] CT
0 0.447 0.741 RC
1 setlinecap
1 LJ
0.833 LW
N
213.624 139.757 M
215.207 138.182 L
S
GR
GS
[0.6 0 0 0.6 0 0] CT
0 0.447 0.741 RC
1 setlinecap
1 LJ
0.833 LW
N
215.207 138.182 M
216.79 136.645 L
S
GR
GS
[0.6 0 0 0.6 0 0] CT
0 0.447 0.741 RC
1 setlinecap
1 LJ
0.833 LW
N
216.79 136.645 M
218.373 135.15 L
S
GR
GS
[0.6 0 0 0.6 0 0] CT
0 0.447 0.741 RC
1 setlinecap
1 LJ
0.833 LW
N
218.373 135.15 M
219.955 133.701 L
S
GR
GS
[0.6 0 0 0.6 0 0] CT
0 0.447 0.741 RC
1 setlinecap
1 LJ
0.833 LW
N
219.955 133.701 M
221.538 132.3 L
S
GR
GS
[0.6 0 0 0.6 0 0] CT
0 0.447 0.741 RC
1 setlinecap
1 LJ
0.833 LW
N
221.538 132.3 M
223.121 130.949 L
S
GR
GS
[0.6 0 0 0.6 0 0] CT
0 0.447 0.741 RC
1 setlinecap
1 LJ
0.833 LW
N
223.121 130.949 M
224.703 129.648 L
S
GR
GS
[0.6 0 0 0.6 0 0] CT
0 0.447 0.741 RC
1 setlinecap
1 LJ
0.833 LW
N
224.703 129.648 M
226.286 128.398 L
S
GR
GS
[0.6 0 0 0.6 0 0] CT
0 0.447 0.741 RC
1 setlinecap
1 LJ
0.833 LW
N
226.286 128.398 M
227.869 127.197 L
S
GR
GS
[0.6 0 0 0.6 0 0] CT
0 0.447 0.741 RC
1 setlinecap
1 LJ
0.833 LW
N
227.869 127.197 M
229.451 126.045 L
S
GR
GS
[0.6 0 0 0.6 0 0] CT
0 0.447 0.741 RC
1 setlinecap
1 LJ
0.833 LW
N
229.451 126.045 M
231.034 124.941 L
S
GR
GS
[0.6 0 0 0.6 0 0] CT
0 0.447 0.741 RC
1 setlinecap
1 LJ
0.833 LW
N
231.034 124.941 M
232.617 123.88 L
S
GR
GS
[0.6 0 0 0.6 0 0] CT
0 0.447 0.741 RC
1 setlinecap
1 LJ
0.833 LW
N
232.617 123.88 M
234.2 122.862 L
S
GR
GS
[0.6 0 0 0.6 0 0] CT
0 0.447 0.741 RC
1 setlinecap
1 LJ
0.833 LW
N
234.2 122.862 M
235.782 121.884 L
S
GR
GS
[0.6 0 0 0.6 0 0] CT
0 0.447 0.741 RC
1 setlinecap
1 LJ
0.833 LW
N
235.782 121.884 M
237.365 120.942 L
S
GR
GS
[0.6 0 0 0.6 0 0] CT
0 0.447 0.741 RC
1 setlinecap
1 LJ
0.833 LW
N
237.365 120.942 M
238.948 120.034 L
S
GR
GS
[0.6 0 0 0.6 0 0] CT
0 0.447 0.741 RC
1 setlinecap
1 LJ
0.833 LW
N
238.948 120.034 M
240.53 119.157 L
S
GR
GS
[0.6 0 0 0.6 0 0] CT
0 0.447 0.741 RC
1 setlinecap
1 LJ
0.833 LW
N
240.53 119.157 M
242.113 118.307 L
S
GR
GS
[0.6 0 0 0.6 0 0] CT
0 0.447 0.741 RC
1 setlinecap
1 LJ
0.833 LW
N
242.113 118.307 M
243.696 117.482 L
S
GR
GS
[0.6 0 0 0.6 0 0] CT
0 0.447 0.741 RC
1 setlinecap
1 LJ
0.833 LW
N
243.696 117.482 M
245.279 116.679 L
S
GR
GS
[0.6 0 0 0.6 0 0] CT
0 0.447 0.741 RC
1 setlinecap
1 LJ
0.833 LW
N
245.279 116.679 M
246.861 115.895 L
S
GR
GS
[0.6 0 0 0.6 0 0] CT
0 0.447 0.741 RC
1 setlinecap
1 LJ
0.833 LW
N
246.861 115.895 M
248.444 115.129 L
S
GR
GS
[0.6 0 0 0.6 0 0] CT
0 0.447 0.741 RC
1 setlinecap
1 LJ
0.833 LW
N
248.444 115.129 M
250.027 114.376 L
S
GR
GS
[0.6 0 0 0.6 0 0] CT
0 0.447 0.741 RC
1 setlinecap
1 LJ
0.833 LW
N
250.027 114.376 M
251.609 113.637 L
S
GR
GS
[0.6 0 0 0.6 0 0] CT
0 0.447 0.741 RC
1 setlinecap
1 LJ
0.833 LW
N
251.609 113.637 M
253.192 112.908 L
S
GR
GS
[0.6 0 0 0.6 0 0] CT
0 0.447 0.741 RC
1 setlinecap
1 LJ
0.833 LW
N
253.192 112.908 M
254.775 112.189 L
S
GR
GS
[0.6 0 0 0.6 0 0] CT
0 0.447 0.741 RC
1 setlinecap
1 LJ
0.833 LW
N
254.775 112.189 M
256.358 111.478 L
S
GR
GS
[0.6 0 0 0.6 0 0] CT
0 0.447 0.741 RC
1 setlinecap
1 LJ
0.833 LW
N
256.358 111.478 M
257.94 110.773 L
S
GR
GS
[0.6 0 0 0.6 0 0] CT
0 0.447 0.741 RC
1 setlinecap
1 LJ
0.833 LW
N
257.94 110.773 M
259.523 110.075 L
S
GR
GS
[0.6 0 0 0.6 0 0] CT
0 0.447 0.741 RC
1 setlinecap
1 LJ
0.833 LW
N
259.523 110.075 M
261.106 109.382 L
S
GR
GS
[0.6 0 0 0.6 0 0] CT
0 0.447 0.741 RC
1 setlinecap
1 LJ
0.833 LW
N
261.106 109.382 M
262.688 108.695 L
S
GR
GS
[0.6 0 0 0.6 0 0] CT
0 0.447 0.741 RC
1 setlinecap
1 LJ
0.833 LW
N
262.688 108.695 M
264.271 108.012 L
S
GR
GS
[0.6 0 0 0.6 0 0] CT
0 0.447 0.741 RC
1 setlinecap
1 LJ
0.833 LW
N
264.271 108.012 M
265.854 107.334 L
S
GR
GS
[0.6 0 0 0.6 0 0] CT
0 0.447 0.741 RC
1 setlinecap
1 LJ
0.833 LW
N
265.854 107.334 M
267.437 106.66 L
S
GR
GS
[0.6 0 0 0.6 0 0] CT
0 0.447 0.741 RC
1 setlinecap
1 LJ
0.833 LW
N
267.437 106.66 M
269.019 105.992 L
S
GR
GS
[0.6 0 0 0.6 0 0] CT
0 0.447 0.741 RC
1 setlinecap
1 LJ
0.833 LW
N
269.019 105.992 M
270.602 105.328 L
S
GR
GS
[0.6 0 0 0.6 0 0] CT
0 0.447 0.741 RC
1 setlinecap
1 LJ
0.833 LW
N
270.602 105.328 M
272.185 104.67 L
S
GR
GS
[0.6 0 0 0.6 0 0] CT
0 0.447 0.741 RC
1 setlinecap
1 LJ
0.833 LW
N
272.185 104.67 M
273.767 104.017 L
S
GR
GS
[0.6 0 0 0.6 0 0] CT
0 0.447 0.741 RC
1 setlinecap
1 LJ
0.833 LW
N
273.767 104.017 M
275.35 103.371 L
S
GR
GS
[0.6 0 0 0.6 0 0] CT
0 0.447 0.741 RC
1 setlinecap
1 LJ
0.833 LW
N
275.35 103.371 M
276.933 102.731 L
S
GR
GS
[0.6 0 0 0.6 0 0] CT
0 0.447 0.741 RC
1 setlinecap
1 LJ
0.833 LW
N
276.933 102.731 M
278.516 102.098 L
S
GR
GS
[0.6 0 0 0.6 0 0] CT
0 0.447 0.741 RC
1 setlinecap
1 LJ
0.833 LW
N
278.516 102.098 M
280.098 101.473 L
S
GR
GS
[0.6 0 0 0.6 0 0] CT
0 0.447 0.741 RC
1 setlinecap
1 LJ
0.833 LW
N
280.098 101.473 M
281.681 100.856 L
S
GR
GS
[0.6 0 0 0.6 0 0] CT
0 0.447 0.741 RC
1 setlinecap
1 LJ
0.833 LW
N
281.681 100.856 M
283.264 100.247 L
S
GR
GS
[0.6 0 0 0.6 0 0] CT
0 0.447 0.741 RC
1 setlinecap
1 LJ
0.833 LW
N
283.264 100.247 M
284.846 99.646 L
S
GR
GS
[0.6 0 0 0.6 0 0] CT
0 0.447 0.741 RC
1 setlinecap
1 LJ
0.833 LW
N
284.846 99.646 M
286.429 99.055 L
S
GR
GS
[0.6 0 0 0.6 0 0] CT
0 0.447 0.741 RC
1 setlinecap
1 LJ
0.833 LW
N
286.429 99.055 M
288.012 98.473 L
S
GR
GS
[0.6 0 0 0.6 0 0] CT
0 0.447 0.741 RC
1 setlinecap
1 LJ
0.833 LW
N
288.012 98.473 M
289.595 97.9 L
S
GR
GS
[0.6 0 0 0.6 0 0] CT
0 0.447 0.741 RC
1 setlinecap
1 LJ
0.833 LW
N
289.595 97.9 M
291.177 97.337 L
S
GR
GS
[0.6 0 0 0.6 0 0] CT
0 0.447 0.741 RC
1 setlinecap
1 LJ
0.833 LW
N
291.177 97.337 M
292.76 96.784 L
S
GR
GS
[0.6 0 0 0.6 0 0] CT
0 0.447 0.741 RC
1 setlinecap
1 LJ
0.833 LW
N
292.76 96.784 M
294.343 96.241 L
S
GR
GS
[0.6 0 0 0.6 0 0] CT
0 0.447 0.741 RC
1 setlinecap
1 LJ
0.833 LW
N
294.343 96.241 M
295.925 95.708 L
S
GR
GS
[0.6 0 0 0.6 0 0] CT
0 0.447 0.741 RC
1 setlinecap
1 LJ
0.833 LW
N
295.925 95.708 M
297.508 95.184 L
S
GR
GS
[0.6 0 0 0.6 0 0] CT
0 0.447 0.741 RC
1 setlinecap
1 LJ
0.833 LW
N
297.508 95.184 M
299.091 94.67 L
S
GR
GS
[0.6 0 0 0.6 0 0] CT
0 0.447 0.741 RC
1 setlinecap
1 LJ
0.833 LW
N
299.091 94.67 M
300.674 94.167 L
S
GR
GS
[0.6 0 0 0.6 0 0] CT
0 0.447 0.741 RC
1 setlinecap
1 LJ
0.833 LW
N
300.674 94.167 M
302.256 93.672 L
S
GR
GS
[0.6 0 0 0.6 0 0] CT
0 0.447 0.741 RC
1 setlinecap
1 LJ
0.833 LW
N
302.256 93.672 M
303.839 93.188 L
S
GR
GS
[0.6 0 0 0.6 0 0] CT
0 0.447 0.741 RC
1 setlinecap
1 LJ
0.833 LW
N
303.839 93.188 M
305.422 92.712 L
S
GR
GS
[0.6 0 0 0.6 0 0] CT
0 0.447 0.741 RC
1 setlinecap
1 LJ
0.833 LW
N
305.422 92.712 M
307.004 92.246 L
S
GR
GS
[0.6 0 0 0.6 0 0] CT
0 0.447 0.741 RC
1 setlinecap
1 LJ
0.833 LW
N
307.004 92.246 M
308.587 91.788 L
S
GR
GS
[0.6 0 0 0.6 0 0] CT
0 0.447 0.741 RC
1 setlinecap
1 LJ
0.833 LW
N
308.587 91.788 M
310.17 91.339 L
S
GR
GS
[0.6 0 0 0.6 0 0] CT
0 0.447 0.741 RC
1 setlinecap
1 LJ
0.833 LW
N
310.17 91.339 M
311.753 90.899 L
S
GR
GS
[0.6 0 0 0.6 0 0] CT
0 0.447 0.741 RC
1 setlinecap
1 LJ
0.833 LW
N
311.753 90.899 M
313.335 90.466 L
S
GR
GS
[0.6 0 0 0.6 0 0] CT
0 0.447 0.741 RC
1 setlinecap
1 LJ
0.833 LW
N
313.335 90.466 M
314.918 90.041 L
S
GR
GS
[0.6 0 0 0.6 0 0] CT
0 0.447 0.741 RC
1 setlinecap
1 LJ
0.833 LW
N
314.918 90.041 M
316.501 89.624 L
S
GR
GS
[0.6 0 0 0.6 0 0] CT
0 0.447 0.741 RC
1 setlinecap
1 LJ
0.833 LW
N
316.501 89.624 M
318.083 89.214 L
S
GR
GS
[0.6 0 0 0.6 0 0] CT
0 0.447 0.741 RC
1 setlinecap
1 LJ
0.833 LW
N
318.083 89.214 M
319.666 88.811 L
S
GR
GS
[0.6 0 0 0.6 0 0] CT
0 0.447 0.741 RC
1 setlinecap
1 LJ
0.833 LW
N
319.666 88.811 M
321.249 88.416 L
S
GR
GS
[0.6 0 0 0.6 0 0] CT
0 0.447 0.741 RC
1 setlinecap
1 LJ
0.833 LW
N
321.249 88.416 M
322.831 88.026 L
S
GR
GS
[0.6 0 0 0.6 0 0] CT
0 0.447 0.741 RC
1 setlinecap
1 LJ
0.833 LW
N
322.831 88.026 M
324.414 87.643 L
S
GR
GS
[0.6 0 0 0.6 0 0] CT
0 0.447 0.741 RC
1 setlinecap
1 LJ
0.833 LW
N
324.414 87.643 M
325.997 87.267 L
S
GR
GS
[0.6 0 0 0.6 0 0] CT
0 0.447 0.741 RC
1 setlinecap
1 LJ
0.833 LW
N
325.997 87.267 M
327.58 86.896 L
S
GR
GS
[0.6 0 0 0.6 0 0] CT
0 0.447 0.741 RC
1 setlinecap
1 LJ
0.833 LW
N
327.58 86.896 M
329.162 86.531 L
S
GR
GS
[0.6 0 0 0.6 0 0] CT
0 0.447 0.741 RC
1 setlinecap
1 LJ
0.833 LW
N
329.162 86.531 M
330.745 86.172 L
S
GR
GS
[0.6 0 0 0.6 0 0] CT
0 0.447 0.741 RC
1 setlinecap
1 LJ
0.833 LW
N
330.745 86.172 M
332.328 85.818 L
S
GR
GS
[0.6 0 0 0.6 0 0] CT
0 0.447 0.741 RC
1 setlinecap
1 LJ
0.833 LW
N
332.328 85.818 M
333.91 85.47 L
S
GR
GS
[0.6 0 0 0.6 0 0] CT
0 0.447 0.741 RC
1 setlinecap
1 LJ
0.833 LW
N
333.91 85.47 M
335.493 85.127 L
S
GR
GS
[0.6 0 0 0.6 0 0] CT
0 0.447 0.741 RC
1 setlinecap
1 LJ
0.833 LW
N
335.493 85.127 M
337.076 84.79 L
S
GR
GS
[0.6 0 0 0.6 0 0] CT
0 0.447 0.741 RC
1 setlinecap
1 LJ
0.833 LW
N
337.076 84.79 M
338.659 84.457 L
S
GR
GS
[0.6 0 0 0.6 0 0] CT
0 0.447 0.741 RC
1 setlinecap
1 LJ
0.833 LW
N
338.659 84.457 M
340.241 84.13 L
S
GR
GS
[0.6 0 0 0.6 0 0] CT
0 0.447 0.741 RC
1 setlinecap
1 LJ
0.833 LW
N
340.241 84.13 M
341.824 83.807 L
S
GR
GS
[0.6 0 0 0.6 0 0] CT
0 0.447 0.741 RC
1 setlinecap
1 LJ
0.833 LW
N
341.824 83.807 M
343.407 83.489 L
S
GR
GS
[0.6 0 0 0.6 0 0] CT
0 0.447 0.741 RC
1 setlinecap
1 LJ
0.833 LW
N
343.407 83.489 M
344.989 83.176 L
S
GR
GS
[0.6 0 0 0.6 0 0] CT
0 0.447 0.741 RC
1 setlinecap
1 LJ
0.833 LW
N
344.989 83.176 M
346.572 82.868 L
S
GR
GS
[0.6 0 0 0.6 0 0] CT
0 0.447 0.741 RC
1 setlinecap
1 LJ
0.833 LW
N
346.572 82.868 M
348.155 82.565 L
S
GR
GS
[0.6 0 0 0.6 0 0] CT
0 0.447 0.741 RC
1 setlinecap
1 LJ
0.833 LW
N
348.155 82.565 M
349.738 82.266 L
S
GR
GS
[0.6 0 0 0.6 0 0] CT
0 0.447 0.741 RC
1 setlinecap
1 LJ
0.833 LW
N
349.738 82.266 M
351.32 81.971 L
S
GR
GS
[0.6 0 0 0.6 0 0] CT
0 0.447 0.741 RC
1 setlinecap
1 LJ
0.833 LW
N
351.32 81.971 M
352.903 81.682 L
S
GR
GS
[0.6 0 0 0.6 0 0] CT
0 0.447 0.741 RC
1 setlinecap
1 LJ
0.833 LW
N
352.903 81.682 M
354.486 81.397 L
S
GR
GS
[0.6 0 0 0.6 0 0] CT
0 0.447 0.741 RC
1 setlinecap
1 LJ
0.833 LW
N
354.486 81.397 M
356.068 81.116 L
S
GR
GS
[0.6 0 0 0.6 0 0] CT
0 0.447 0.741 RC
1 setlinecap
1 LJ
0.833 LW
N
356.068 81.116 M
357.651 80.839 L
S
GR
GS
[0.6 0 0 0.6 0 0] CT
0 0.447 0.741 RC
1 setlinecap
1 LJ
0.833 LW
N
357.651 80.839 M
359.234 80.568 L
S
GR
GS
[0.6 0 0 0.6 0 0] CT
0 0.447 0.741 RC
1 setlinecap
1 LJ
0.833 LW
N
359.234 80.568 M
360.817 80.3 L
S
GR
GS
[0.6 0 0 0.6 0 0] CT
0 0.447 0.741 RC
1 setlinecap
1 LJ
0.833 LW
N
360.817 80.3 M
362.399 80.037 L
S
GR
GS
[0.6 0 0 0.6 0 0] CT
0 0.447 0.741 RC
1 setlinecap
1 LJ
0.833 LW
N
362.399 80.037 M
363.982 79.777 L
S
GR
GS
[0.6 0 0 0.6 0 0] CT
0 0.447 0.741 RC
1 setlinecap
1 LJ
0.833 LW
N
363.982 79.777 M
365.565 79.523 L
S
GR
GS
[0.6 0 0 0.6 0 0] CT
0 0.447 0.741 RC
1 setlinecap
1 LJ
0.833 LW
N
365.565 79.523 M
367.147 79.272 L
S
GR
GS
[0.6 0 0 0.6 0 0] CT
0 0.447 0.741 RC
1 setlinecap
1 LJ
0.833 LW
N
367.147 79.272 M
368.73 79.025 L
S
GR
GS
[0.6 0 0 0.6 0 0] CT
0 0.447 0.741 RC
1 setlinecap
1 LJ
0.833 LW
N
368.73 79.025 M
370.313 78.782 L
S
GR
GS
[0.6 0 0 0.6 0 0] CT
0 0.447 0.741 RC
1 setlinecap
1 LJ
0.833 LW
N
370.313 78.782 M
371.896 78.544 L
S
GR
GS
[0.6 0 0 0.6 0 0] CT
0 0.447 0.741 RC
1 setlinecap
1 LJ
0.833 LW
N
371.896 78.544 M
373.478 78.309 L
S
GR
GS
[0.6 0 0 0.6 0 0] CT
0 0.447 0.741 RC
1 setlinecap
1 LJ
0.833 LW
N
373.478 78.309 M
375.061 78.078 L
S
GR
GS
[0.6 0 0 0.6 0 0] CT
0 0.447 0.741 RC
1 setlinecap
1 LJ
0.833 LW
N
375.061 78.078 M
376.644 77.851 L
S
GR
GS
[0.6 0 0 0.6 0 0] CT
0 0.447 0.741 RC
1 setlinecap
1 LJ
0.833 LW
N
376.644 77.851 M
378.226 77.628 L
S
GR
GS
[0.6 0 0 0.6 0 0] CT
0 0.447 0.741 RC
1 setlinecap
1 LJ
0.833 LW
N
378.226 77.628 M
379.809 77.408 L
S
GR
GS
[0.6 0 0 0.6 0 0] CT
0 0.447 0.741 RC
1 setlinecap
1 LJ
0.833 LW
N
379.809 77.408 M
381.392 77.192 L
S
GR
GS
[0.6 0 0 0.6 0 0] CT
0 0.447 0.741 RC
1 setlinecap
1 LJ
0.833 LW
N
381.392 77.192 M
382.975 76.979 L
S
GR
GS
[0.6 0 0 0.6 0 0] CT
0 0.447 0.741 RC
1 setlinecap
1 LJ
0.833 LW
N
382.975 76.979 M
384.557 76.77 L
S
GR
GS
[0.6 0 0 0.6 0 0] CT
0 0.447 0.741 RC
1 setlinecap
1 LJ
0.833 LW
N
384.557 76.77 M
386.14 76.565 L
S
GR
GS
[0.6 0 0 0.6 0 0] CT
0 0.447 0.741 RC
1 setlinecap
1 LJ
0.833 LW
N
386.14 76.565 M
387.723 76.362 L
S
GR
GS
[0.6 0 0 0.6 0 0] CT
0 0.447 0.741 RC
1 setlinecap
1 LJ
0.833 LW
N
387.723 76.362 M
389.305 76.163 L
S
GR
GS
[0.6 0 0 0.6 0 0] CT
0 0.447 0.741 RC
1 setlinecap
1 LJ
0.833 LW
N
389.305 76.163 M
390.888 75.968 L
S
GR
GS
[0.6 0 0 0.6 0 0] CT
0 0.447 0.741 RC
1 setlinecap
1 LJ
0.833 LW
N
390.888 75.968 M
392.471 75.775 L
S
GR
GS
[0.6 0 0 0.6 0 0] CT
0 0.447 0.741 RC
1 setlinecap
1 LJ
0.833 LW
N
392.471 75.775 M
394.053 75.586 L
S
GR
GS
[0.6 0 0 0.6 0 0] CT
0 0.447 0.741 RC
1 setlinecap
1 LJ
0.833 LW
N
394.053 75.586 M
395.636 75.399 L
S
GR
GS
[0.6 0 0 0.6 0 0] CT
0 0.447 0.741 RC
1 setlinecap
1 LJ
0.833 LW
N
395.636 75.399 M
397.219 75.216 L
S
GR
GS
[0.6 0 0 0.6 0 0] CT
0 0.447 0.741 RC
1 setlinecap
1 LJ
0.833 LW
N
397.219 75.216 M
398.802 75.036 L
S
GR
GS
[0.6 0 0 0.6 0 0] CT
0 0.447 0.741 RC
1 setlinecap
1 LJ
0.833 LW
N
398.802 75.036 M
400.384 74.858 L
S
GR
GS
[0.6 0 0 0.6 0 0] CT
0 0.447 0.741 RC
1 setlinecap
1 LJ
0.833 LW
N
400.384 74.858 M
401.967 74.684 L
S
GR
GS
[0.6 0 0 0.6 0 0] CT
0 0.447 0.741 RC
1 setlinecap
1 LJ
0.833 LW
N
401.967 74.684 M
403.55 74.512 L
S
GR
GS
[0.6 0 0 0.6 0 0] CT
0 0.447 0.741 RC
1 setlinecap
1 LJ
0.833 LW
N
403.55 74.512 M
405.132 74.343 L
S
GR
GS
[0.6 0 0 0.6 0 0] CT
0 0.447 0.741 RC
1 setlinecap
1 LJ
0.833 LW
N
405.132 74.343 M
406.715 74.176 L
S
GR
GS
[0.6 0 0 0.6 0 0] CT
0 0.447 0.741 RC
1 setlinecap
1 LJ
0.833 LW
N
406.715 74.176 M
408.298 74.013 L
S
GR
GS
[0.6 0 0 0.6 0 0] CT
0 0.447 0.741 RC
1 setlinecap
1 LJ
0.833 LW
N
408.298 74.013 M
409.881 73.852 L
S
GR
GS
[0.6 0 0 0.6 0 0] CT
0 0.447 0.741 RC
1 setlinecap
1 LJ
0.833 LW
N
409.881 73.852 M
411.463 73.693 L
S
GR
GS
[0.6 0 0 0.6 0 0] CT
0 0.447 0.741 RC
1 setlinecap
1 LJ
0.833 LW
N
411.463 73.693 M
413.046 73.537 L
S
GR
GS
[0.6 0 0 0.6 0 0] CT
0 0.447 0.741 RC
1 setlinecap
1 LJ
0.833 LW
N
413.046 73.537 M
414.629 73.384 L
S
GR
GS
[0.6 0 0 0.6 0 0] CT
0 0.447 0.741 RC
1 setlinecap
1 LJ
0.833 LW
N
414.629 73.384 M
416.211 73.233 L
S
GR
GS
[0.6 0 0 0.6 0 0] CT
0 0.447 0.741 RC
1 setlinecap
1 LJ
0.833 LW
N
416.211 73.233 M
417.794 73.084 L
S
GR
GS
[0.6 0 0 0.6 0 0] CT
0 0.447 0.741 RC
1 setlinecap
1 LJ
0.833 LW
N
417.794 73.084 M
419.377 72.938 L
S
GR
GS
[0.6 0 0 0.6 0 0] CT
0 0.447 0.741 RC
1 setlinecap
1 LJ
0.833 LW
N
419.377 72.938 M
420.96 72.794 L
S
GR
GS
[0.6 0 0 0.6 0 0] CT
0 0.447 0.741 RC
1 setlinecap
1 LJ
0.833 LW
N
420.96 72.794 M
422.542 72.653 L
S
GR
GS
[0.6 0 0 0.6 0 0] CT
0 0.447 0.741 RC
1 setlinecap
1 LJ
0.833 LW
N
422.542 72.653 M
424.125 72.513 L
S
GR
GS
[0.6 0 0 0.6 0 0] CT
0 0.447 0.741 RC
1 setlinecap
1 LJ
0.833 LW
N
424.125 72.513 M
425.708 72.376 L
S
GR
GS
[0.6 0 0 0.6 0 0] CT
0 0.447 0.741 RC
1 setlinecap
1 LJ
0.833 LW
N
425.708 72.376 M
427.29 72.242 L
S
GR
GS
[0.6 0 0 0.6 0 0] CT
0 0.447 0.741 RC
1 setlinecap
1 LJ
0.833 LW
N
427.29 72.242 M
428.873 72.109 L
S
GR
GS
[0.6 0 0 0.6 0 0] CT
0 0.447 0.741 RC
1 setlinecap
1 LJ
0.833 LW
N
428.873 72.109 M
430.456 71.978 L
S
GR
GS
[0.6 0 0 0.6 0 0] CT
0 0.447 0.741 RC
1 setlinecap
1 LJ
0.833 LW
N
430.456 71.978 M
432.039 71.85 L
S
GR
GS
[0.6 0 0 0.6 0 0] CT
0 0.447 0.741 RC
1 setlinecap
1 LJ
0.833 LW
N
432.039 71.85 M
433.621 71.723 L
S
GR
GS
[0.6 0 0 0.6 0 0] CT
0 0.447 0.741 RC
1 setlinecap
1 LJ
0.833 LW
N
433.621 71.723 M
435.204 71.599 L
S
GR
GS
[0.6 0 0 0.6 0 0] CT
0 0.447 0.741 RC
1 setlinecap
1 LJ
0.833 LW
N
186.718 164.604 M
188.301 163.643 L
S
GR
GS
[0.6 0 0 0.6 0 0] CT
0 0.447 0.741 RC
1 setlinecap
1 LJ
0.833 LW
N
436.787 71.477 M
438.369 71.356 L
S
GR
GS
[0.6 0 0 0.6 0 0] CT
0 0.447 0.741 RC
1 setlinecap
1 LJ
0.833 LW
N
438.369 71.356 M
439.952 71.238 L
S
GR
GS
[0.6 0 0 0.6 0 0] CT
0 0.447 0.741 RC
1 setlinecap
1 LJ
0.833 LW
N
439.952 71.238 M
441.535 71.121 L
S
GR
GS
[0.6 0 0 0.6 0 0] CT
0 0.447 0.741 RC
1 setlinecap
1 LJ
0.833 LW
N
441.535 71.121 M
443.118 71.006 L
S
GR
GS
[0.6 0 0 0.6 0 0] CT
0 0.447 0.741 RC
1 setlinecap
1 LJ
0.833 LW
N
443.118 71.006 M
444.7 70.894 L
S
GR
GS
[0.6 0 0 0.6 0 0] CT
0 0.447 0.741 RC
1 setlinecap
1 LJ
0.833 LW
N
444.7 70.894 M
446.283 70.783 L
S
GR
GS
[0.6 0 0 0.6 0 0] CT
0 0.447 0.741 RC
1 setlinecap
1 LJ
0.833 LW
N
446.283 70.783 M
447.866 70.673 L
S
GR
GS
[0.6 0 0 0.6 0 0] CT
0 0.447 0.741 RC
1 setlinecap
1 LJ
0.833 LW
N
447.866 70.673 M
449.448 70.566 L
S
GR
GS
[0.6 0 0 0.6 0 0] CT
0 0.447 0.741 RC
1 setlinecap
1 LJ
0.833 LW
N
449.448 70.566 M
451.031 70.46 L
S
GR
GS
[0.6 0 0 0.6 0 0] CT
0 0.447 0.741 RC
1 setlinecap
1 LJ
0.833 LW
N
451.031 70.46 M
452.614 70.356 L
S
GR
GS
[0.6 0 0 0.6 0 0] CT
0 0.447 0.741 RC
1 setlinecap
1 LJ
0.833 LW
N
452.614 70.356 M
454.197 70.254 L
S
GR
GS
[0.6 0 0 0.6 0 0] CT
0 0.447 0.741 RC
1 setlinecap
1 LJ
0.833 LW
N
454.197 70.254 M
455.779 70.153 L
S
GR
GS
[0.6 0 0 0.6 0 0] CT
0 0.447 0.741 RC
1 setlinecap
1 LJ
0.833 LW
N
455.779 70.153 M
457.362 70.054 L
S
GR
GS
[0.6 0 0 0.6 0 0] CT
0 0.447 0.741 RC
1 setlinecap
1 LJ
0.833 LW
N
457.362 70.054 M
458.945 69.957 L
S
GR
GS
[0.6 0 0 0.6 0 0] CT
0 0.447 0.741 RC
1 setlinecap
1 LJ
0.833 LW
N
458.945 69.957 M
460.527 69.861 L
S
GR
GS
[0.6 0 0 0.6 0 0] CT
0 0.447 0.741 RC
1 setlinecap
1 LJ
0.833 LW
N
460.527 69.861 M
462.11 69.766 L
S
GR
GS
[0.6 0 0 0.6 0 0] CT
0 0.447 0.741 RC
1 setlinecap
1 LJ
0.833 LW
N
462.11 69.766 M
463.693 69.673 L
S
GR
GS
[0.6 0 0 0.6 0 0] CT
0 0.447 0.741 RC
1 setlinecap
1 LJ
0.833 LW
N
463.693 69.673 M
465.276 69.582 L
S
GR
GS
[0.6 0 0 0.6 0 0] CT
0 0.447 0.741 RC
1 setlinecap
1 LJ
0.833 LW
N
465.276 69.582 M
466.858 69.492 L
S
GR
GS
[0.6 0 0 0.6 0 0] CT
0 0.447 0.741 RC
1 setlinecap
1 LJ
0.833 LW
N
466.858 69.492 M
468.441 69.404 L
S
GR
GS
[0.6 0 0 0.6 0 0] CT
0 0.447 0.741 RC
1 setlinecap
1 LJ
0.833 LW
N
468.441 69.404 M
470.024 69.317 L
S
GR
GS
[0.6 0 0 0.6 0 0] CT
0 0.447 0.741 RC
1 setlinecap
1 LJ
0.833 LW
N
470.024 69.317 M
471.606 69.231 L
S
GR
GS
[0.6 0 0 0.6 0 0] CT
0 0.447 0.741 RC
1 setlinecap
1 LJ
0.833 LW
N
471.606 69.231 M
473.189 69.147 L
S
GR
GS
[0.6 0 0 0.6 0 0] CT
0 0.447 0.741 RC
1 setlinecap
1 LJ
0.833 LW
N
473.189 69.147 M
474.772 69.064 L
S
GR
GS
[0.6 0 0 0.6 0 0] CT
0 0.447 0.741 RC
1 setlinecap
1 LJ
0.833 LW
N
474.772 69.064 M
476.354 68.983 L
S
GR
GS
[0.6 0 0 0.6 0 0] CT
0 0.447 0.741 RC
1 setlinecap
1 LJ
0.833 LW
N
476.354 68.983 M
477.937 68.903 L
S
GR
GS
[0.6 0 0 0.6 0 0] CT
0 0.447 0.741 RC
1 setlinecap
1 LJ
0.833 LW
N
477.937 68.903 M
479.52 68.824 L
S
GR
GS
[0.6 0 0 0.6 0 0] CT
0 0.447 0.741 RC
1 setlinecap
1 LJ
0.833 LW
N
479.52 68.824 M
481.103 68.746 L
S
GR
GS
[0.6 0 0 0.6 0 0] CT
0 0.447 0.741 RC
1 setlinecap
1 LJ
0.833 LW
N
481.103 68.746 M
482.685 68.67 L
S
GR
GS
[0.6 0 0 0.6 0 0] CT
0 0.447 0.741 RC
1 setlinecap
1 LJ
0.833 LW
N
482.685 68.67 M
484.268 68.594 L
S
GR
GS
[0.6 0 0 0.6 0 0] CT
0 0.447 0.741 RC
1 setlinecap
1 LJ
0.833 LW
N
484.268 68.594 M
485.851 68.52 L
S
GR
GS
[0.6 0 0 0.6 0 0] CT
0 0.447 0.741 RC
1 setlinecap
1 LJ
0.833 LW
N
485.851 68.52 M
487.433 68.448 L
S
GR
GS
[0.6 0 0 0.6 0 0] CT
0 0.447 0.741 RC
1 setlinecap
1 LJ
0.833 LW
N
487.433 68.448 M
489.016 68.376 L
S
GR
GS
[0.6 0 0 0.6 0 0] CT
0 0.447 0.741 RC
1 setlinecap
1 LJ
0.833 LW
N
489.016 68.376 M
490.599 68.306 L
S
GR
GS
[0.6 0 0 0.6 0 0] CT
0 0.447 0.741 RC
1 setlinecap
1 LJ
0.833 LW
N
490.599 68.306 M
492.182 68.236 L
S
GR
GS
[0.6 0 0 0.6 0 0] CT
0 0.447 0.741 RC
1 setlinecap
1 LJ
0.833 LW
N
492.182 68.236 M
493.764 68.168 L
S
GR
GS
[0.6 0 0 0.6 0 0] CT
0 0.447 0.741 RC
1 setlinecap
1 LJ
0.833 LW
N
493.764 68.168 M
495.347 68.101 L
S
GR
GS
[0.6 0 0 0.6 0 0] CT
0 0.447 0.741 RC
1 setlinecap
1 LJ
0.833 LW
N
495.347 68.101 M
496.93 68.035 L
S
GR
GS
[0.6 0 0 0.6 0 0] CT
0 0.447 0.741 RC
1 setlinecap
1 LJ
0.833 LW
N
496.93 68.035 M
498.512 67.97 L
S
GR
GS
[0.6 0 0 0.6 0 0] CT
0 0.447 0.741 RC
1 setlinecap
1 LJ
0.833 LW
N
498.512 67.97 M
500.095 67.906 L
S
GR
GS
[0.6 0 0 0.6 0 0] CT
0 0.447 0.741 RC
1 setlinecap
1 LJ
0.833 LW
N
500.095 67.906 M
501.678 67.843 L
S
GR
GS
[0.6 0 0 0.6 0 0] CT
0 0.447 0.741 RC
1 setlinecap
1 LJ
0.833 LW
N
501.678 67.843 M
503.261 67.781 L
S
GR
GS
[0.6 0 0 0.6 0 0] CT
0 0.447 0.741 RC
1 setlinecap
1 LJ
0.833 LW
N
503.261 67.781 M
504.843 67.72 L
S
GR
GS
[0.6 0 0 0.6 0 0] CT
0 0.447 0.741 RC
1 setlinecap
1 LJ
0.833 LW
N
504.843 67.72 M
506.426 67.661 L
S
GR
GS
[0.6 0 0 0.6 0 0] CT
0 0.447 0.741 RC
1 setlinecap
1 LJ
0.833 LW
N
506.426 67.661 M
508.009 67.602 L
S
GR
GS
[0.6 0 0 0.6 0 0] CT
0 0.447 0.741 RC
1 setlinecap
1 LJ
0.833 LW
N
508.009 67.602 M
509.591 67.544 L
S
GR
GS
[0.6 0 0 0.6 0 0] CT
0 0.447 0.741 RC
1 setlinecap
1 LJ
0.833 LW
N
509.591 67.544 M
511.174 67.487 L
S
GR
GS
[0.6 0 0 0.6 0 0] CT
0 0.447 0.741 RC
1 setlinecap
1 LJ
0.833 LW
N
511.174 67.487 M
512.757 67.43 L
S
GR
GS
[0.6 0 0 0.6 0 0] CT
0 0.447 0.741 RC
1 setlinecap
1 LJ
0.833 LW
N
512.757 67.43 M
514.34 67.375 L
S
GR
GS
[0.6 0 0 0.6 0 0] CT
0 0.447 0.741 RC
1 setlinecap
1 LJ
0.833 LW
N
514.34 67.375 M
515.922 67.321 L
S
GR
GS
[0.6 0 0 0.6 0 0] CT
0 0.447 0.741 RC
1 setlinecap
1 LJ
0.833 LW
N
515.922 67.321 M
517.505 67.267 L
S
GR
GS
[0.6 0 0 0.6 0 0] CT
0 0.447 0.741 RC
1 setlinecap
1 LJ
0.833 LW
N
517.505 67.267 M
519.088 67.215 L
S
GR
GS
[0.6 0 0 0.6 0 0] CT
0 0.447 0.741 RC
1 setlinecap
1 LJ
0.833 LW
N
519.088 67.215 M
520.67 67.163 L
S
GR
GS
[0.6 0 0 0.6 0 0] CT
0 0.447 0.741 RC
1 setlinecap
1 LJ
0.833 LW
N
520.67 67.163 M
522.253 67.112 L
S
GR
GS
[0.6 0 0 0.6 0 0] CT
0 0.447 0.741 RC
1 setlinecap
1 LJ
0.833 LW
N
522.253 67.112 M
523.836 67.062 L
S
GR
GS
[0.6 0 0 0.6 0 0] CT
0 0.447 0.741 RC
1 setlinecap
1 LJ
0.833 LW
N
523.836 67.062 M
525.419 67.013 L
S
GR
GS
[0.6 0 0 0.6 0 0] CT
0 0.447 0.741 RC
1 setlinecap
1 LJ
0.833 LW
N
525.419 67.013 M
527.001 66.964 L
S
GR
GS
[0.6 0 0 0.6 0 0] CT
0 0.447 0.741 RC
1 setlinecap
1 LJ
0.833 LW
N
527.001 66.964 M
528.584 66.917 L
S
GR
GS
[0.6 0 0 0.6 0 0] CT
0 0.447 0.741 RC
1 setlinecap
1 LJ
0.833 LW
N
528.584 66.917 M
530.167 66.87 L
S
GR
GS
[0.6 0 0 0.6 0 0] CT
0 0.447 0.741 RC
1 setlinecap
1 LJ
0.833 LW
N
530.167 66.87 M
531.749 66.823 L
S
GR
GS
[0.6 0 0 0.6 0 0] CT
0 0.447 0.741 RC
1 setlinecap
1 LJ
0.833 LW
N
531.749 66.823 M
533.332 66.778 L
S
GR
GS
[0.6 0 0 0.6 0 0] CT
0 0.447 0.741 RC
1 setlinecap
1 LJ
0.833 LW
N
533.332 66.778 M
534.915 66.733 L
S
GR
GS
[0.6 0 0 0.6 0 0] CT
0 0.447 0.741 RC
1 setlinecap
1 LJ
0.833 LW
N
534.915 66.733 M
536.498 66.689 L
S
GR
GS
[0.6 0 0 0.6 0 0] CT
0 0.447 0.741 RC
1 setlinecap
1 LJ
0.833 LW
N
536.498 66.689 M
538.08 66.646 L
S
GR
GS
[0.6 0 0 0.6 0 0] CT
0 0.447 0.741 RC
1 setlinecap
1 LJ
0.833 LW
N
538.08 66.646 M
539.663 66.603 L
S
GR
GS
[0.6 0 0 0.6 0 0] CT
0 0.447 0.741 RC
1 setlinecap
1 LJ
0.833 LW
N
539.663 66.603 M
541.246 66.561 L
S
GR
GS
[0.6 0 0 0.6 0 0] CT
0 0.447 0.741 RC
1 setlinecap
1 LJ
0.833 LW
N
541.246 66.561 M
542.828 66.52 L
S
GR
GS
[0.6 0 0 0.6 0 0] CT
0 0.447 0.741 RC
1 setlinecap
1 LJ
0.833 LW
N
542.828 66.52 M
544.411 66.48 L
S
GR
GS
[0.6 0 0 0.6 0 0] CT
0 0.447 0.741 RC
1 setlinecap
1 LJ
0.833 LW
N
544.411 66.48 M
545.994 66.44 L
S
GR
GS
[0.6 0 0 0.6 0 0] CT
0 0.447 0.741 RC
1 setlinecap
1 LJ
0.833 LW
N
545.994 66.44 M
547.576 66.4 L
S
GR
GS
[0.6 0 0 0.6 0 0] CT
0 0.447 0.741 RC
1 setlinecap
1 LJ
0.833 LW
N
547.576 66.4 M
549.159 66.362 L
S
GR
GS
[0.6 0 0 0.6 0 0] CT
0 0.447 0.741 RC
1 setlinecap
1 LJ
0.833 LW
N
549.159 66.362 M
550.742 66.324 L
S
GR
GS
[0.6 0 0 0.6 0 0] CT
0 0.447 0.741 RC
1 setlinecap
1 LJ
0.833 LW
N
550.742 66.324 M
552.325 66.286 L
S
GR
GS
[0.6 0 0 0.6 0 0] CT
0 0.447 0.741 RC
1 setlinecap
1 LJ
0.833 LW
N
552.325 66.286 M
553.907 66.25 L
S
GR
GS
[0.6 0 0 0.6 0 0] CT
0 0.447 0.741 RC
1 setlinecap
1 LJ
0.833 LW
N
553.907 66.25 M
555.49 66.213 L
S
GR
GS
[0.6 0 0 0.6 0 0] CT
0 0.447 0.741 RC
1 setlinecap
1 LJ
0.833 LW
N
555.49 66.213 M
557.073 66.178 L
S
GR
GS
[0.6 0 0 0.6 0 0] CT
0 0.447 0.741 RC
1 setlinecap
1 LJ
0.833 LW
N
557.073 66.178 M
558.656 66.143 L
S
GR
GS
[0.6 0 0 0.6 0 0] CT
0 0.447 0.741 RC
1 setlinecap
1 LJ
0.833 LW
N
558.656 66.143 M
560.238 66.108 L
S
GR
GS
[0.6 0 0 0.6 0 0] CT
0 0.447 0.741 RC
1 setlinecap
1 LJ
0.833 LW
N
560.238 66.108 M
561.821 66.074 L
S
GR
GS
[0.6 0 0 0.6 0 0] CT
0 0.447 0.741 RC
1 setlinecap
1 LJ
0.833 LW
N
561.821 66.074 M
563.404 66.041 L
S
GR
GS
[0.6 0 0 0.6 0 0] CT
0 0.447 0.741 RC
1 setlinecap
1 LJ
0.833 LW
N
563.404 66.041 M
564.986 66.008 L
S
GR
GS
[0.6 0 0 0.6 0 0] CT
0 0.447 0.741 RC
1 setlinecap
1 LJ
0.833 LW
N
564.986 66.008 M
566.569 65.976 L
S
GR
GS
[0.6 0 0 0.6 0 0] CT
0 0.447 0.741 RC
1 setlinecap
1 LJ
0.833 LW
N
566.569 65.976 M
568.152 65.944 L
S
GR
GS
[0.6 0 0 0.6 0 0] CT
0 0.447 0.741 RC
1 setlinecap
1 LJ
0.833 LW
N
568.152 65.944 M
569.734 65.912 L
S
GR
GS
[0.6 0 0 0.6 0 0] CT
0 0.447 0.741 RC
1 setlinecap
1 LJ
0.833 LW
N
569.734 65.912 M
571.317 65.882 L
S
GR
GS
[0.6 0 0 0.6 0 0] CT
0 0.447 0.741 RC
1 setlinecap
1 LJ
0.833 LW
N
571.317 65.882 M
572.9 65.851 L
S
GR
GS
[0.6 0 0 0.6 0 0] CT
0 0.447 0.741 RC
1 setlinecap
1 LJ
0.833 LW
N
572.9 65.851 M
574.483 65.822 L
S
GR
GS
[0.6 0 0 0.6 0 0] CT
0 0.447 0.741 RC
1 setlinecap
1 LJ
0.833 LW
N
574.483 65.822 M
576.065 65.792 L
S
GR
GS
[0.6 0 0 0.6 0 0] CT
0 0.447 0.741 RC
1 setlinecap
1 LJ
0.833 LW
N
576.065 65.792 M
577.648 65.763 L
S
GR
GS
[0.6 0 0 0.6 0 0] CT
0 0.447 0.741 RC
1 setlinecap
1 LJ
0.833 LW
N
577.648 65.763 M
579.231 65.735 L
S
GR
GS
[0.6 0 0 0.6 0 0] CT
0 0.447 0.741 RC
1 setlinecap
1 LJ
0.833 LW
N
579.231 65.735 M
580.813 65.707 L
S
GR
GS
[0.6 0 0 0.6 0 0] CT
0 0.447 0.741 RC
1 setlinecap
1 LJ
0.833 LW
N
580.813 65.707 M
582.396 65.68 L
S
GR
GS
[0.6 0 0 0.6 0 0] CT
0 0.447 0.741 RC
1 setlinecap
1 LJ
0.833 LW
N
582.396 65.68 M
583.979 65.653 L
S
GR
GS
[0.6 0 0 0.6 0 0] CT
0 0.447 0.741 RC
1 setlinecap
1 LJ
0.833 LW
N
583.979 65.653 M
585.562 65.626 L
S
GR
GS
[0.6 0 0 0.6 0 0] CT
0 0.447 0.741 RC
1 setlinecap
1 LJ
0.833 LW
N
585.562 65.626 M
587.144 65.6 L
S
GR
GS
[0.6 0 0 0.6 0 0] CT
0 0.447 0.741 RC
1 setlinecap
1 LJ
0.833 LW
N
587.144 65.6 M
588.727 65.574 L
S
GR
GS
[0.6 0 0 0.6 0 0] CT
0 0.447 0.741 RC
1 setlinecap
1 LJ
0.833 LW
N
588.727 65.574 M
590.31 65.549 L
S
GR
GS
[0.6 0 0 0.6 0 0] CT
0 0.447 0.741 RC
1 setlinecap
1 LJ
0.833 LW
N
590.31 65.549 M
591.892 65.524 L
S
GR
GS
[0.6 0 0 0.6 0 0] CT
0 0.447 0.741 RC
1 setlinecap
1 LJ
0.833 LW
N
591.892 65.524 M
593.475 65.499 L
S
GR
GS
[0.6 0 0 0.6 0 0] CT
0 0.447 0.741 RC
1 setlinecap
1 LJ
0.833 LW
N
593.475 65.499 M
595.058 65.475 L
S
GR
GS
[0.6 0 0 0.6 0 0] CT
0 0.447 0.741 RC
1 setlinecap
1 LJ
0.833 LW
N
595.058 65.475 M
596.641 65.451 L
S
GR
GS
[0.6 0 0 0.6 0 0] CT
0 0.447 0.741 RC
1 setlinecap
1 LJ
0.833 LW
N
596.641 65.451 M
598.223 65.428 L
S
GR
GS
[0.6 0 0 0.6 0 0] CT
0 0.447 0.741 RC
1 setlinecap
1 LJ
0.833 LW
N
598.223 65.428 M
599.806 65.405 L
S
GR
GS
[0.6 0 0 0.6 0 0] CT
0 0.447 0.741 RC
1 setlinecap
1 LJ
0.833 LW
N
599.806 65.405 M
601.389 65.382 L
S
GR
GS
[0.6 0 0 0.6 0 0] CT
0 0.447 0.741 RC
1 LJ
0.833 LW
N
106 467 M
107.583 466.926 L
S
GR
GS
[0.6 0 0 0.6 0 0] CT
0 0.447 0.741 RC
1 setlinecap
1 LJ
0.833 LW
N
602.971 65.36 M
604.554 65.338 L
S
GR
GS
[0.6 0 0 0.6 0 0] CT
0 0.447 0.741 RC
1 setlinecap
1 LJ
0.833 LW
N
604.554 65.338 M
606.137 65.317 L
S
GR
GS
[0.6 0 0 0.6 0 0] CT
0 0.447 0.741 RC
1 setlinecap
1 LJ
0.833 LW
N
606.137 65.317 M
607.72 65.296 L
S
GR
GS
[0.6 0 0 0.6 0 0] CT
0 0.447 0.741 RC
1 setlinecap
1 LJ
0.833 LW
N
607.72 65.296 M
609.302 65.275 L
S
GR
GS
[0.6 0 0 0.6 0 0] CT
0 0.447 0.741 RC
1 setlinecap
1 LJ
0.833 LW
N
609.302 65.275 M
610.885 65.254 L
S
GR
GS
[0.6 0 0 0.6 0 0] CT
0 0.447 0.741 RC
1 setlinecap
1 LJ
0.833 LW
N
610.885 65.254 M
612.468 65.234 L
S
GR
GS
[0.6 0 0 0.6 0 0] CT
0 0.447 0.741 RC
1 setlinecap
1 LJ
0.833 LW
N
612.468 65.234 M
614.05 65.214 L
S
GR
GS
[0.6 0 0 0.6 0 0] CT
0 0.447 0.741 RC
1 setlinecap
1 LJ
0.833 LW
N
614.05 65.214 M
615.633 65.195 L
S
GR
GS
[0.6 0 0 0.6 0 0] CT
0 0.447 0.741 RC
1 setlinecap
1 LJ
0.833 LW
N
615.633 65.195 M
617.216 65.175 L
S
GR
GS
[0.6 0 0 0.6 0 0] CT
0 0.447 0.741 RC
1 setlinecap
1 LJ
0.833 LW
N
617.216 65.175 M
618.799 65.156 L
S
GR
GS
[0.6 0 0 0.6 0 0] CT
0 0.447 0.741 RC
1 setlinecap
1 LJ
0.833 LW
N
618.799 65.156 M
620.381 65.138 L
S
GR
GS
[0.6 0 0 0.6 0 0] CT
0 0.447 0.741 RC
1 setlinecap
1 LJ
0.833 LW
N
620.381 65.138 M
621.964 65.119 L
S
GR
GS
[0.6 0 0 0.6 0 0] CT
0 0.447 0.741 RC
1 setlinecap
1 LJ
0.833 LW
N
621.964 65.119 M
623.547 65.101 L
S
GR
GS
[0.6 0 0 0.6 0 0] CT
0 0.447 0.741 RC
1 setlinecap
1 LJ
0.833 LW
N
623.547 65.101 M
625.129 65.084 L
S
GR
GS
[0.6 0 0 0.6 0 0] CT
0 0.447 0.741 RC
1 setlinecap
1 LJ
0.833 LW
N
625.129 65.084 M
626.712 65.066 L
S
GR
GS
[0.6 0 0 0.6 0 0] CT
0 0.447 0.741 RC
1 setlinecap
1 LJ
0.833 LW
N
626.712 65.066 M
628.295 65.049 L
S
GR
GS
[0.6 0 0 0.6 0 0] CT
0 0.447 0.741 RC
1 setlinecap
1 LJ
0.833 LW
N
628.295 65.049 M
629.878 65.032 L
S
GR
GS
[0.6 0 0 0.6 0 0] CT
0 0.447 0.741 RC
1 setlinecap
1 LJ
0.833 LW
N
629.878 65.032 M
631.46 65.016 L
S
GR
GS
[0.6 0 0 0.6 0 0] CT
0 0.447 0.741 RC
1 setlinecap
1 LJ
0.833 LW
N
631.46 65.016 M
633.043 64.999 L
S
GR
GS
[0.6 0 0 0.6 0 0] CT
0 0.447 0.741 RC
1 setlinecap
1 LJ
0.833 LW
N
633.043 64.999 M
634.063 64.989 L
S
GR
GS
[0.6 0 0 0.6 0 0] CT
0 0.447 0.741 RC
1 setlinecap
1 LJ
0.833 LW
N
107.583 466.926 M
109.165 466.443 L
S
GR
GS
[0.6 0 0 0.6 0 0] CT
0 0.447 0.741 RC
1 setlinecap
1 LJ
0.833 LW
N
109.165 466.443 M
110.748 465.219 L
S
GR
GS
[0.6 0 0 0.6 0 0] CT
0 0.447 0.741 RC
1 setlinecap
1 LJ
0.833 LW
N
110.748 465.219 M
112.331 463.009 L
S
GR
GS
[0.6 0 0 0.6 0 0] CT
0 0.447 0.741 RC
1 setlinecap
1 LJ
0.833 LW
N
112.331 463.009 M
113.914 459.643 L
S
GR
GS
[0.6 0 0 0.6 0 0] CT
0 0.447 0.741 RC
1 setlinecap
1 LJ
0.833 LW
N
113.914 459.643 M
115.496 455.016 L
S
GR
GS
[0.6 0 0 0.6 0 0] CT
0 0.447 0.741 RC
1 setlinecap
1 LJ
0.833 LW
N
115.496 455.016 M
117.079 449.087 L
S
GR
GS
[0.6 0 0 0.6 0 0] CT
0 0.447 0.741 RC
1 setlinecap
1 LJ
0.833 LW
N
117.079 449.087 M
118.662 441.862 L
S
GR
GS
[0.6 0 0 0.6 0 0] CT
0 0.447 0.741 RC
1 setlinecap
1 LJ
0.833 LW
N
118.662 441.862 M
120.244 433.396 L
S
GR
GS
[0.6 0 0 0.6 0 0] CT
0 0.447 0.741 RC
1 setlinecap
1 LJ
0.833 LW
N
120.244 433.396 M
121.827 423.777 L
S
GR
GS
[0.6 0 0 0.6 0 0] CT
0 0.447 0.741 RC
1 setlinecap
1 LJ
0.833 LW
N
121.827 423.777 M
123.41 413.122 L
S
GR
GS
[0.6 0 0 0.6 0 0] CT
0 0.447 0.741 RC
1 setlinecap
1 LJ
0.833 LW
N
123.41 413.122 M
124.993 401.571 L
S
GR
GS
[0.6 0 0 0.6 0 0] CT
0 0.447 0.741 RC
1 setlinecap
1 LJ
0.833 LW
N
124.993 401.571 M
126.575 389.276 L
S
GR
GS
[0.6 0 0 0.6 0 0] CT
0 0.447 0.741 RC
1 setlinecap
1 LJ
0.833 LW
N
126.575 389.276 M
128.158 376.403 L
S
GR
GS
[0.6 0 0 0.6 0 0] CT
0 0.447 0.741 RC
1 setlinecap
1 LJ
0.833 LW
N
128.158 376.403 M
129.741 363.117 L
S
GR
GS
[0.6 0 0 0.6 0 0] CT
0 0.447 0.741 RC
1 setlinecap
1 LJ
0.833 LW
N
129.741 363.117 M
131.323 349.586 L
S
GR
GS
[0.6 0 0 0.6 0 0] CT
0 0.447 0.741 RC
1 setlinecap
1 LJ
0.833 LW
N
435.204 71.599 M
436.787 71.477 L
S
GR
GS
[0.6 0 0 0.6 0 0] CT
0 0.447 0.741 RC
1 setlinecap
1 LJ
0.833 LW
N
131.323 349.586 M
132.906 335.969 L
S
GR
GS
[0.6 0 0 0.6 0 0] CT
0 0.447 0.741 RC
1 setlinecap
1 LJ
0.833 LW
N
132.906 335.969 M
134.489 322.419 L
S
GR
GS
[0.6 0 0 0.6 0 0] CT
0 0.447 0.741 RC
1 setlinecap
1 LJ
0.833 LW
N
134.489 322.419 M
136.072 309.078 L
S
GR
GS
[0.6 0 0 0.6 0 0] CT
0 0.447 0.741 RC
1 setlinecap
1 LJ
0.833 LW
N
136.072 309.078 M
137.654 296.074 L
S
GR
GS
[0.6 0 0 0.6 0 0] CT
0 0.447 0.741 RC
1 setlinecap
1 LJ
0.833 LW
N
137.654 296.074 M
139.237 283.52 L
S
GR
GS
[0.6 0 0 0.6 0 0] CT
0 0.447 0.741 RC
1 setlinecap
1 LJ
0.833 LW
N
139.237 283.52 M
140.82 271.511 L
S
GR
GS
[0.6 0 0 0.6 0 0] CT
0 0.447 0.741 RC
1 setlinecap
1 LJ
0.833 LW
N
140.82 271.511 M
142.402 260.13 L
S
GR
GS
[0.6 0 0 0.6 0 0] CT
0 0.447 0.741 RC
1 setlinecap
1 LJ
0.833 LW
N
142.402 260.13 M
143.985 249.438 L
S
GR
GS
[0.6 0 0 0.6 0 0] CT
0 0.447 0.741 RC
1 setlinecap
1 LJ
0.833 LW
N
143.985 249.438 M
145.568 239.483 L
S
GR
GS
[0.6 0 0 0.6 0 0] CT
0 0.447 0.741 RC
1 setlinecap
1 LJ
0.833 LW
N
145.568 239.483 M
147.15 230.296 L
S
GR
GS
[0.6 0 0 0.6 0 0] CT
0 0.447 0.741 RC
1 setlinecap
1 LJ
0.833 LW
N
147.15 230.296 M
148.733 221.893 L
S
GR
GS
[0.6 0 0 0.6 0 0] CT
0 0.447 0.741 RC
1 setlinecap
1 LJ
0.833 LW
N
148.733 221.893 M
150.316 214.277 L
S
GR
GS
[0.6 0 0 0.6 0 0] CT
0 0.447 0.741 RC
1 setlinecap
1 LJ
0.833 LW
N
150.316 214.277 M
151.899 207.436 L
S
GR
GS
[0.6 0 0 0.6 0 0] CT
0 0.447 0.741 RC
1 setlinecap
1 LJ
0.833 LW
N
151.899 207.436 M
153.481 201.35 L
S
GR
GS
[0.6 0 0 0.6 0 0] CT
0 0.447 0.741 RC
1 setlinecap
1 LJ
0.833 LW
N
153.481 201.35 M
155.064 195.987 L
S
GR
GS
[0.6 0 0 0.6 0 0] CT
0 0.447 0.741 RC
1 setlinecap
1 LJ
0.833 LW
N
155.064 195.987 M
156.647 191.308 L
S
GR
GS
[0.6 0 0 0.6 0 0] CT
0 0.447 0.741 RC
1 setlinecap
1 LJ
0.833 LW
N
156.647 191.308 M
158.229 187.266 L
S
GR
GS
[0.6 0 0 0.6 0 0] CT
0 0.447 0.741 RC
1 setlinecap
1 LJ
0.833 LW
N
158.229 187.266 M
159.812 183.812 L
S
GR
GS
[0.6 0 0 0.6 0 0] CT
0 0.447 0.741 RC
1 setlinecap
1 LJ
0.833 LW
N
159.812 183.812 M
161.395 180.891 L
S
GR
GS
[0.6 0 0 0.6 0 0] CT
0 0.447 0.741 RC
1 setlinecap
1 LJ
0.833 LW
N
161.395 180.891 M
162.978 178.445 L
S
GR
GS
[0.6 0 0 0.6 0 0] CT
0 0.447 0.741 RC
1 setlinecap
1 LJ
0.833 LW
N
162.978 178.445 M
164.56 176.416 L
S
GR
GS
[0.6 0 0 0.6 0 0] CT
0 0.447 0.741 RC
1 setlinecap
1 LJ
0.833 LW
N
164.56 176.416 M
166.143 174.748 L
S
GR
GS
[0.6 0 0 0.6 0 0] CT
0 0.447 0.741 RC
1 setlinecap
1 LJ
0.833 LW
N
166.143 174.748 M
167.726 173.384 L
S
GR
GS
[0.6 0 0 0.6 0 0] CT
0 0.447 0.741 RC
1 setlinecap
1 LJ
0.833 LW
N
167.726 173.384 M
169.308 172.269 L
S
GR
GS
[0.6 0 0 0.6 0 0] CT
0 0.447 0.741 RC
1 setlinecap
1 LJ
0.833 LW
N
169.308 172.269 M
170.891 171.352 L
S
GR
GS
[0.6 0 0 0.6 0 0] CT
0 0.447 0.741 RC
1 setlinecap
1 LJ
0.833 LW
N
170.891 171.352 M
172.474 170.584 L
S
GR
GS
[0.6 0 0 0.6 0 0] CT
0 0.447 0.741 RC
1 setlinecap
1 LJ
0.833 LW
N
172.474 170.584 M
174.057 169.922 L
S
GR
GS
[0.6 0 0 0.6 0 0] CT
0 0.447 0.741 RC
1 setlinecap
1 LJ
0.833 LW
N
174.057 169.922 M
175.639 169.326 L
S
GR
GS
[0.6 0 0 0.6 0 0] CT
0 0.447 0.741 RC
1 setlinecap
1 LJ
0.833 LW
N
175.639 169.326 M
177.222 168.76 L
S
GR
GS
[0.6 0 0 0.6 0 0] CT
0 0.447 0.741 RC
1 setlinecap
1 LJ
0.833 LW
N
177.222 168.76 M
178.805 168.194 L
S
GR
GS
[0.6 0 0 0.6 0 0] CT
0 0.447 0.741 RC
1 setlinecap
1 LJ
0.833 LW
N
178.805 168.194 M
180.387 167.602 L
S
GR
GS
[0.6 0 0 0.6 0 0] CT
0 0.447 0.741 RC
1 setlinecap
1 LJ
0.833 LW
N
180.387 167.602 M
181.97 166.961 L
S
GR
GS
[0.6 0 0 0.6 0 0] CT
0 0.447 0.741 RC
1 setlinecap
1 LJ
0.833 LW
N
181.97 166.961 M
183.553 166.256 L
S
GR
GS
[0.6 0 0 0.6 0 0] CT
0 0.447 0.741 RC
1 setlinecap
1 LJ
0.833 LW
N
183.553 166.256 M
185.136 165.473 L
S
GR
GS
[0.6 0 0 0.6 0 0] CT
0 0.447 0.741 RC
1 setlinecap
1 LJ
0.833 LW
N
185.136 165.473 M
186.718 164.604 L
S
GR
GS
[0.6 0 0 0.6 0 0] CT
0 0.447 0.741 RC
1 setlinecap
1 LJ
0.833 LW
N
188.301 163.643 M
189.884 162.587 L
S
GR
GS
[0.6 0 0 0.6 0 0] CT
0 0.447 0.741 RC
1 setlinecap
1 LJ
0.833 LW
N
189.884 162.587 M
191.466 161.439 L
S
GR
GS
[0.6 0 0 0.6 0 0] CT
0 0.447 0.741 RC
1 setlinecap
1 LJ
0.833 LW
N
191.466 161.439 M
193.049 160.2 L
S
GR
GS
[0.6 0 0 0.6 0 0] CT
0 0.447 0.741 RC
1 setlinecap
1 LJ
0.833 LW
N
193.049 160.2 M
194.632 158.878 L
S
GR
GS
[0.6 0 0 0.6 0 0] CT
0 0.447 0.741 RC
1 setlinecap
1 LJ
0.833 LW
N
194.632 158.878 M
196.215 157.478 L
S
GR
GS
[0.6 0 0 0.6 0 0] CT
0 0.447 0.741 RC
1 setlinecap
1 LJ
0.833 LW
N
196.215 157.478 M
197.797 156.009 L
S
GR
GS
[0.6 0 0 0.6 0 0] CT
0 0.447 0.741 RC
1 setlinecap
1 LJ
0.833 LW
N
197.797 156.009 M
199.38 154.482 L
S
GR
GS
[0.6 0 0 0.6 0 0] CT
0 0.447 0.741 RC
1 setlinecap
1 LJ
0.833 LW
N
199.38 154.482 M
200.963 152.905 L
S
GR
GS
[0.6 0 0 0.6 0 0] CT
0 0.447 0.741 RC
1 setlinecap
1 LJ
0.833 LW
N
200.963 152.905 M
202.545 151.29 L
S
GR
GS
[0.6 0 0 0.6 0 0] CT
0 0.447 0.741 RC
1 setlinecap
1 LJ
0.833 LW
N
202.545 151.29 M
204.128 149.647 L
S
GR
GS
[0.6 0 0 0.6 0 0] CT
0 0.447 0.741 RC
1 setlinecap
1 LJ
0.833 LW
N
204.128 149.647 M
205.711 147.986 L
S
GR
GS
[0.6 0 0 0.6 0 0] CT
0 0.447 0.741 RC
1 setlinecap
1 LJ
0.833 LW
N
205.711 147.986 M
207.294 146.319 L
S
GR
GS
[0.6 0 0 0.6 0 0] CT
0 0.447 0.741 RC
1 setlinecap
1 LJ
0.833 LW
N
207.294 146.319 M
208.876 144.654 L
S
GR
GS
[0.6 0 0 0.6 0 0] CT
0 0.447 0.741 RC
1 setlinecap
1 LJ
0.833 LW
N
208.876 144.654 M
210.459 143 L
S
GR
GS
[0.6 0 0 0.6 0 0] CT
0 0.447 0.741 RC
1 setlinecap
1 LJ
0.833 LW
N
210.459 143 M
212.042 141.365 L
S
GR
GS
[0.6 0 0 0.6 0 0] CT
0 0.447 0.741 RC
1 setlinecap
1 LJ
0.833 LW
N
212.042 141.365 M
213.624 139.757 L
S
GR
GS
[0.6 0 0 0.6 0 0] CT
0 0.447 0.741 RC
1 setlinecap
1 LJ
0.833 LW
N
601.389 65.382 M
602.971 65.36 L
S
GR
GS
[0.6 0 0 0.6 221.1 20.025] CT
/Helvetica 18.333 F
GS
[1 0 0 1 0 0] CT
-62 -4 moveto 
1 -1 scale
(Step Response) t 
GR
GR
GS
[0.6 0 0 0.6 221.1 296.90001] CT
/Helvetica 18.333 F
GS
[1 0 0 1 0 0] CT
-62.5 19 moveto 
1 -1 scale
(Time \(seconds\)) t 
GR
GR
GS
[0 -0.6 0.6 0 42.2 160.0875] CT
/Helvetica 18.333 F
GS
[1 0 0 1 0 0] CT
-40.5 -4 moveto 
1 -1 scale
(Amplitude) t 
GR
GR
%%Trailer
%%Pages: 1
%%EOF
