%!PS-Adobe-3.0 EPSF-3.0
%%Creator: (MATLAB, The Mathworks, Inc. Version 9.1.0.441655 \(R2016b\). Operating System: Windows 8)
%%Title: D:/Users/Administrator/Desktop/flight-control-system-paper/report/fig/lat_before_bode.eps
%%CreationDate: 2019-05-03T16:36:57
%%Pages: (atend)
%%BoundingBox: 0 0 420 315
%%LanguageLevel: 3
%%EndComments
%%BeginProlog
%%BeginResource: procset (Apache XML Graphics Std ProcSet) 1.2 0
%%Version: 1.2 0
%%Copyright: (Copyright 2001-2003,2010 The Apache Software Foundation. License terms: http://www.apache.org/licenses/LICENSE-2.0)
/bd{bind def}bind def
/ld{load def}bd
/GR/grestore ld
/M/moveto ld
/LJ/setlinejoin ld
/C/curveto ld
/f/fill ld
/LW/setlinewidth ld
/GC/setgray ld
/t/show ld
/N/newpath ld
/CT/concat ld
/cp/closepath ld
/S/stroke ld
/L/lineto ld
/CC/setcmykcolor ld
/A/ashow ld
/GS/gsave ld
/RC/setrgbcolor ld
/RM/rmoveto ld
/ML/setmiterlimit ld
/re {4 2 roll M
1 index 0 rlineto
0 exch rlineto
neg 0 rlineto
cp } bd
/_ctm matrix def
/_tm matrix def
/BT { _ctm currentmatrix pop matrix _tm copy pop 0 0 moveto } bd
/ET { _ctm setmatrix } bd
/iTm { _ctm setmatrix _tm concat } bd
/Tm { _tm astore pop iTm 0 0 moveto } bd
/ux 0.0 def
/uy 0.0 def
/F {
  /Tp exch def
  /Tf exch def
  Tf findfont Tp scalefont setfont
  /cf Tf def  /cs Tp def
} bd
/ULS {currentpoint /uy exch def /ux exch def} bd
/ULE {
  /Tcx currentpoint pop def
  gsave
  newpath
  cf findfont cs scalefont dup
  /FontMatrix get 0 get /Ts exch def /FontInfo get dup
  /UnderlinePosition get Ts mul /To exch def
  /UnderlineThickness get Ts mul /Tt exch def
  ux uy To add moveto  Tcx uy To add lineto
  Tt setlinewidth stroke
  grestore
} bd
/OLE {
  /Tcx currentpoint pop def
  gsave
  newpath
  cf findfont cs scalefont dup
  /FontMatrix get 0 get /Ts exch def /FontInfo get dup
  /UnderlinePosition get Ts mul /To exch def
  /UnderlineThickness get Ts mul /Tt exch def
  ux uy To add cs add moveto Tcx uy To add cs add lineto
  Tt setlinewidth stroke
  grestore
} bd
/SOE {
  /Tcx currentpoint pop def
  gsave
  newpath
  cf findfont cs scalefont dup
  /FontMatrix get 0 get /Ts exch def /FontInfo get dup
  /UnderlinePosition get Ts mul /To exch def
  /UnderlineThickness get Ts mul /Tt exch def
  ux uy To add cs 10 mul 26 idiv add moveto Tcx uy To add cs 10 mul 26 idiv add lineto
  Tt setlinewidth stroke
  grestore
} bd
/QT {
/Y22 exch store
/X22 exch store
/Y21 exch store
/X21 exch store
currentpoint
/Y21 load 2 mul add 3 div exch
/X21 load 2 mul add 3 div exch
/X21 load 2 mul /X22 load add 3 div
/Y21 load 2 mul /Y22 load add 3 div
/X22 load /Y22 load curveto
} bd
/SSPD {
dup length /d exch dict def
{
/v exch def
/k exch def
currentpagedevice k known {
/cpdv currentpagedevice k get def
v cpdv ne {
/upd false def
/nullv v type /nulltype eq def
/nullcpdv cpdv type /nulltype eq def
nullv nullcpdv or
{
/upd true def
} {
/sametype v type cpdv type eq def
sametype {
v type /arraytype eq {
/vlen v length def
/cpdvlen cpdv length def
vlen cpdvlen eq {
0 1 vlen 1 sub {
/i exch def
/obj v i get def
/cpdobj cpdv i get def
obj cpdobj ne {
/upd true def
exit
} if
} for
} {
/upd true def
} ifelse
} {
v type /dicttype eq {
v {
/dv exch def
/dk exch def
/cpddv cpdv dk get def
dv cpddv ne {
/upd true def
exit
} if
} forall
} {
/upd true def
} ifelse
} ifelse
} if
} ifelse
upd true eq {
d k v put
} if
} if
} if
} forall
d length 0 gt {
d setpagedevice
} if
} bd
/RE { % /NewFontName [NewEncodingArray] /FontName RE -
  findfont dup length dict begin
  {
    1 index /FID ne
    {def} {pop pop} ifelse
  } forall
  /Encoding exch def
  /FontName 1 index def
  currentdict definefont pop
  end
} bind def
%%EndResource
%%BeginResource: procset (Apache XML Graphics EPS ProcSet) 1.0 0
%%Version: 1.0 0
%%Copyright: (Copyright 2002-2003 The Apache Software Foundation. License terms: http://www.apache.org/licenses/LICENSE-2.0)
/BeginEPSF { %def
/b4_Inc_state save def         % Save state for cleanup
/dict_count countdictstack def % Count objects on dict stack
/op_count count 1 sub def      % Count objects on operand stack
userdict begin                 % Push userdict on dict stack
/showpage { } def              % Redefine showpage, { } = null proc
0 setgray 0 setlinecap         % Prepare graphics state
1 setlinewidth 0 setlinejoin
10 setmiterlimit [ ] 0 setdash newpath
/languagelevel where           % If level not equal to 1 then
{pop languagelevel             % set strokeadjust and
1 ne                           % overprint to their defaults.
{false setstrokeadjust false setoverprint
} if
} if
} bd
/EndEPSF { %def
count op_count sub {pop} repeat            % Clean up stacks
countdictstack dict_count sub {end} repeat
b4_Inc_state restore
} bd
%%EndResource
%FOPBeginFontDict
%%IncludeResource: font Courier-Bold
%%IncludeResource: font Helvetica
%%IncludeResource: font Courier-BoldOblique
%%IncludeResource: font Courier-Oblique
%%IncludeResource: font Times-Roman
%%IncludeResource: font Helvetica-BoldOblique
%%IncludeResource: font Helvetica-Bold
%%IncludeResource: font Helvetica-Oblique
%%IncludeResource: font Times-BoldItalic
%%IncludeResource: font Courier
%%IncludeResource: font Times-Italic
%%IncludeResource: font Times-Bold
%%IncludeResource: font Symbol
%%IncludeResource: font ZapfDingbats
%FOPEndFontDict
%%BeginResource: encoding WinAnsiEncoding
/WinAnsiEncoding [
/.notdef /.notdef /.notdef /.notdef /.notdef
/.notdef /.notdef /.notdef /.notdef /.notdef
/.notdef /.notdef /.notdef /.notdef /.notdef
/.notdef /.notdef /.notdef /.notdef /.notdef
/.notdef /.notdef /.notdef /.notdef /.notdef
/.notdef /.notdef /.notdef /.notdef /.notdef
/.notdef /.notdef /space /exclam /quotedbl
/numbersign /dollar /percent /ampersand /quotesingle
/parenleft /parenright /asterisk /plus /comma
/hyphen /period /slash /zero /one
/two /three /four /five /six
/seven /eight /nine /colon /semicolon
/less /equal /greater /question /at
/A /B /C /D /E
/F /G /H /I /J
/K /L /M /N /O
/P /Q /R /S /T
/U /V /W /X /Y
/Z /bracketleft /backslash /bracketright /asciicircum
/underscore /quoteleft /a /b /c
/d /e /f /g /h
/i /j /k /l /m
/n /o /p /q /r
/s /t /u /v /w
/x /y /z /braceleft /bar
/braceright /asciitilde /bullet /Euro /bullet
/quotesinglbase /florin /quotedblbase /ellipsis /dagger
/daggerdbl /circumflex /perthousand /Scaron /guilsinglleft
/OE /bullet /Zcaron /bullet /bullet
/quoteleft /quoteright /quotedblleft /quotedblright /bullet
/endash /emdash /asciitilde /trademark /scaron
/guilsinglright /oe /bullet /zcaron /Ydieresis
/space /exclamdown /cent /sterling /currency
/yen /brokenbar /section /dieresis /copyright
/ordfeminine /guillemotleft /logicalnot /sfthyphen /registered
/macron /degree /plusminus /twosuperior /threesuperior
/acute /mu /paragraph /middot /cedilla
/onesuperior /ordmasculine /guillemotright /onequarter /onehalf
/threequarters /questiondown /Agrave /Aacute /Acircumflex
/Atilde /Adieresis /Aring /AE /Ccedilla
/Egrave /Eacute /Ecircumflex /Edieresis /Igrave
/Iacute /Icircumflex /Idieresis /Eth /Ntilde
/Ograve /Oacute /Ocircumflex /Otilde /Odieresis
/multiply /Oslash /Ugrave /Uacute /Ucircumflex
/Udieresis /Yacute /Thorn /germandbls /agrave
/aacute /acircumflex /atilde /adieresis /aring
/ae /ccedilla /egrave /eacute /ecircumflex
/edieresis /igrave /iacute /icircumflex /idieresis
/eth /ntilde /ograve /oacute /ocircumflex
/otilde /odieresis /divide /oslash /ugrave
/uacute /ucircumflex /udieresis /yacute /thorn
/ydieresis
] def
%%EndResource
%FOPBeginFontReencode
/Courier-Bold findfont
dup length dict begin
  {1 index /FID ne {def} {pop pop} ifelse} forall
  /Encoding WinAnsiEncoding def
  currentdict
end
/Courier-Bold exch definefont pop
/Helvetica findfont
dup length dict begin
  {1 index /FID ne {def} {pop pop} ifelse} forall
  /Encoding WinAnsiEncoding def
  currentdict
end
/Helvetica exch definefont pop
/Courier-BoldOblique findfont
dup length dict begin
  {1 index /FID ne {def} {pop pop} ifelse} forall
  /Encoding WinAnsiEncoding def
  currentdict
end
/Courier-BoldOblique exch definefont pop
/Courier-Oblique findfont
dup length dict begin
  {1 index /FID ne {def} {pop pop} ifelse} forall
  /Encoding WinAnsiEncoding def
  currentdict
end
/Courier-Oblique exch definefont pop
/Times-Roman findfont
dup length dict begin
  {1 index /FID ne {def} {pop pop} ifelse} forall
  /Encoding WinAnsiEncoding def
  currentdict
end
/Times-Roman exch definefont pop
/Helvetica-BoldOblique findfont
dup length dict begin
  {1 index /FID ne {def} {pop pop} ifelse} forall
  /Encoding WinAnsiEncoding def
  currentdict
end
/Helvetica-BoldOblique exch definefont pop
/Helvetica-Bold findfont
dup length dict begin
  {1 index /FID ne {def} {pop pop} ifelse} forall
  /Encoding WinAnsiEncoding def
  currentdict
end
/Helvetica-Bold exch definefont pop
/Helvetica-Oblique findfont
dup length dict begin
  {1 index /FID ne {def} {pop pop} ifelse} forall
  /Encoding WinAnsiEncoding def
  currentdict
end
/Helvetica-Oblique exch definefont pop
/Times-BoldItalic findfont
dup length dict begin
  {1 index /FID ne {def} {pop pop} ifelse} forall
  /Encoding WinAnsiEncoding def
  currentdict
end
/Times-BoldItalic exch definefont pop
/Courier findfont
dup length dict begin
  {1 index /FID ne {def} {pop pop} ifelse} forall
  /Encoding WinAnsiEncoding def
  currentdict
end
/Courier exch definefont pop
/Times-Italic findfont
dup length dict begin
  {1 index /FID ne {def} {pop pop} ifelse} forall
  /Encoding WinAnsiEncoding def
  currentdict
end
/Times-Italic exch definefont pop
/Times-Bold findfont
dup length dict begin
  {1 index /FID ne {def} {pop pop} ifelse} forall
  /Encoding WinAnsiEncoding def
  currentdict
end
/Times-Bold exch definefont pop
%FOPEndFontReencode
%%EndProlog
%%Page: 1 1
%%PageBoundingBox: 0 0 420 315
%%BeginPageSetup
[1 0 0 -1 0 315] CT
%%EndPageSetup
GS
[0.6 0 0 0.6 0 0] CT
1 GC
N
0 0 700 525 re
f
GR
GS
[0.6 0 0 0.6 0 0] CT
1 GC
N
0 0 700 525 re
f
GR
GS
[0.6 0 0 0.6 0 0] CT
1 GC
N
106 270 M
634 270 L
634 64 L
106 64 L
cp
f
GR
GS
[0.6 0 0 0.6 0 0] CT
0.849 GC
[1 3] 0 setdash
2 LJ
0.833 LW
N
145.736 270 M
145.736 64 L
S
GR
GS
[0.6 0 0 0.6 0 0] CT
0.849 GC
[1 3] 0 setdash
2 LJ
0.833 LW
N
168.98 270 M
168.98 64 L
S
GR
GS
[0.6 0 0 0.6 0 0] CT
0.849 GC
[1 3] 0 setdash
2 LJ
0.833 LW
N
185.472 270 M
185.472 64 L
S
GR
GS
[0.6 0 0 0.6 0 0] CT
0.849 GC
[1 3] 0 setdash
2 LJ
0.833 LW
N
198.264 270 M
198.264 64 L
S
GR
GS
[0.6 0 0 0.6 0 0] CT
0.849 GC
[1 3] 0 setdash
2 LJ
0.833 LW
N
208.716 270 M
208.716 64 L
S
GR
GS
[0.6 0 0 0.6 0 0] CT
0.849 GC
[1 3] 0 setdash
2 LJ
0.833 LW
N
217.553 270 M
217.553 64 L
S
GR
GS
[0.6 0 0 0.6 0 0] CT
0.849 GC
[1 3] 0 setdash
2 LJ
0.833 LW
N
225.208 270 M
225.208 64 L
S
GR
GS
[0.6 0 0 0.6 0 0] CT
0.849 GC
[1 3] 0 setdash
2 LJ
0.833 LW
N
231.96 270 M
231.96 64 L
S
GR
GS
[0.6 0 0 0.6 0 0] CT
0.849 GC
[1 3] 0 setdash
2 LJ
0.833 LW
N
277.736 270 M
277.736 64 L
S
GR
GS
[0.6 0 0 0.6 0 0] CT
0.849 GC
[1 3] 0 setdash
2 LJ
0.833 LW
N
300.98 270 M
300.98 64 L
S
GR
GS
[0.6 0 0 0.6 0 0] CT
0.849 GC
[1 3] 0 setdash
2 LJ
0.833 LW
N
317.472 270 M
317.472 64 L
S
GR
GS
[0.6 0 0 0.6 0 0] CT
0.849 GC
[1 3] 0 setdash
2 LJ
0.833 LW
N
330.264 270 M
330.264 64 L
S
GR
GS
[0.6 0 0 0.6 0 0] CT
0.849 GC
[1 3] 0 setdash
2 LJ
0.833 LW
N
340.716 270 M
340.716 64 L
S
GR
GS
[0.6 0 0 0.6 0 0] CT
0.849 GC
[1 3] 0 setdash
2 LJ
0.833 LW
N
349.553 270 M
349.553 64 L
S
GR
GS
[0.6 0 0 0.6 0 0] CT
0.849 GC
[1 3] 0 setdash
2 LJ
0.833 LW
N
357.208 270 M
357.208 64 L
S
GR
GS
[0.6 0 0 0.6 0 0] CT
0.849 GC
[1 3] 0 setdash
2 LJ
0.833 LW
N
363.96 270 M
363.96 64 L
S
GR
GS
[0.6 0 0 0.6 0 0] CT
0.849 GC
[1 3] 0 setdash
2 LJ
0.833 LW
N
409.736 270 M
409.736 64 L
S
GR
GS
[0.6 0 0 0.6 0 0] CT
0.849 GC
[1 3] 0 setdash
2 LJ
0.833 LW
N
432.98 270 M
432.98 64 L
S
GR
GS
[0.6 0 0 0.6 0 0] CT
0.849 GC
[1 3] 0 setdash
2 LJ
0.833 LW
N
449.472 270 M
449.472 64 L
S
GR
GS
[0.6 0 0 0.6 0 0] CT
0.849 GC
[1 3] 0 setdash
2 LJ
0.833 LW
N
462.264 270 M
462.264 64 L
S
GR
GS
[0.6 0 0 0.6 0 0] CT
0.849 GC
[1 3] 0 setdash
2 LJ
0.833 LW
N
472.716 270 M
472.716 64 L
S
GR
GS
[0.6 0 0 0.6 0 0] CT
0.849 GC
[1 3] 0 setdash
2 LJ
0.833 LW
N
481.553 270 M
481.553 64 L
S
GR
GS
[0.6 0 0 0.6 0 0] CT
0.849 GC
[1 3] 0 setdash
2 LJ
0.833 LW
N
489.208 270 M
489.208 64 L
S
GR
GS
[0.6 0 0 0.6 0 0] CT
0.849 GC
[1 3] 0 setdash
2 LJ
0.833 LW
N
495.96 270 M
495.96 64 L
S
GR
GS
[0.6 0 0 0.6 0 0] CT
0.849 GC
[1 3] 0 setdash
2 LJ
0.833 LW
N
541.736 270 M
541.736 64 L
S
GR
GS
[0.6 0 0 0.6 0 0] CT
0.849 GC
[1 3] 0 setdash
2 LJ
0.833 LW
N
564.98 270 M
564.98 64 L
S
GR
GS
[0.6 0 0 0.6 0 0] CT
0.849 GC
[1 3] 0 setdash
2 LJ
0.833 LW
N
581.472 270 M
581.472 64 L
S
GR
GS
[0.6 0 0 0.6 0 0] CT
0.849 GC
[1 3] 0 setdash
2 LJ
0.833 LW
N
594.264 270 M
594.264 64 L
S
GR
GS
[0.6 0 0 0.6 0 0] CT
0.849 GC
[1 3] 0 setdash
2 LJ
0.833 LW
N
604.716 270 M
604.716 64 L
S
GR
GS
[0.6 0 0 0.6 0 0] CT
0.849 GC
[1 3] 0 setdash
2 LJ
0.833 LW
N
613.553 270 M
613.553 64 L
S
GR
GS
[0.6 0 0 0.6 0 0] CT
0.849 GC
[1 3] 0 setdash
2 LJ
0.833 LW
N
621.208 270 M
621.208 64 L
S
GR
GS
[0.6 0 0 0.6 0 0] CT
0.849 GC
[1 3] 0 setdash
2 LJ
0.833 LW
N
627.96 270 M
627.96 64 L
S
GR
GS
[0.6 0 0 0.6 0 0] CT
0.873 GC
1 LJ
0.833 LW
N
106 270 M
106 64 L
S
GR
GS
[0.6 0 0 0.6 0 0] CT
0.873 GC
1 LJ
0.833 LW
N
238 270 M
238 64 L
S
GR
GS
[0.6 0 0 0.6 0 0] CT
0.873 GC
1 LJ
0.833 LW
N
370 270 M
370 64 L
S
GR
GS
[0.6 0 0 0.6 0 0] CT
0.873 GC
1 LJ
0.833 LW
N
502 270 M
502 64 L
S
GR
GS
[0.6 0 0 0.6 0 0] CT
0.873 GC
1 LJ
0.833 LW
N
634 270 M
634 64 L
S
GR
GS
[0.6 0 0 0.6 0 0] CT
0.873 GC
1 LJ
0.833 LW
N
634 270 M
106 270 L
S
GR
GS
[0.6 0 0 0.6 0 0] CT
0.873 GC
1 LJ
0.833 LW
N
634 228.8 M
106 228.8 L
S
GR
GS
[0.6 0 0 0.6 0 0] CT
0.873 GC
1 LJ
0.833 LW
N
634 187.6 M
106 187.6 L
S
GR
GS
[0.6 0 0 0.6 0 0] CT
0.873 GC
1 LJ
0.833 LW
N
634 146.4 M
106 146.4 L
S
GR
GS
[0.6 0 0 0.6 0 0] CT
0.873 GC
1 LJ
0.833 LW
N
634 105.2 M
106 105.2 L
S
GR
GS
[0.6 0 0 0.6 0 0] CT
0.873 GC
1 LJ
0.833 LW
N
634 64 M
106 64 L
S
GR
GS
[0.6 0 0 0.6 0 0] CT
0.4 GC
2 setlinecap
1 LJ
0.833 LW
N
106 270 M
634 270 L
S
GR
GS
[0.6 0 0 0.6 0 0] CT
0.4 GC
2 setlinecap
1 LJ
0.833 LW
N
106 64 M
634 64 L
S
GR
GS
[0.6 0 0 0.6 0 0] CT
0.4 GC
2 setlinecap
1 LJ
0.833 LW
N
106 270 M
106 264.72 L
S
GR
GS
[0.6 0 0 0.6 0 0] CT
0.4 GC
2 setlinecap
1 LJ
0.833 LW
N
238 270 M
238 264.72 L
S
GR
GS
[0.6 0 0 0.6 0 0] CT
0.4 GC
2 setlinecap
1 LJ
0.833 LW
N
370 270 M
370 264.72 L
S
GR
GS
[0.6 0 0 0.6 0 0] CT
0.4 GC
2 setlinecap
1 LJ
0.833 LW
N
502 270 M
502 264.72 L
S
GR
GS
[0.6 0 0 0.6 0 0] CT
0.4 GC
2 setlinecap
1 LJ
0.833 LW
N
634 270 M
634 264.72 L
S
GR
GS
[0.6 0 0 0.6 0 0] CT
0.4 GC
2 setlinecap
1 LJ
0.833 LW
N
106 64 M
106 69.28 L
S
GR
GS
[0.6 0 0 0.6 0 0] CT
0.4 GC
2 setlinecap
1 LJ
0.833 LW
N
238 64 M
238 69.28 L
S
GR
GS
[0.6 0 0 0.6 0 0] CT
0.4 GC
2 setlinecap
1 LJ
0.833 LW
N
370 64 M
370 69.28 L
S
GR
GS
[0.6 0 0 0.6 0 0] CT
0.4 GC
2 setlinecap
1 LJ
0.833 LW
N
502 64 M
502 69.28 L
S
GR
GS
[0.6 0 0 0.6 0 0] CT
0.4 GC
2 setlinecap
1 LJ
0.833 LW
N
634 64 M
634 69.28 L
S
GR
GS
[0.6 0 0 0.6 0 0] CT
0.4 GC
2 setlinecap
1 LJ
0.833 LW
N
106 270 M
106 267.36 L
S
GR
GS
[0.6 0 0 0.6 0 0] CT
0.4 GC
2 setlinecap
1 LJ
0.833 LW
N
145.736 270 M
145.736 267.36 L
S
GR
GS
[0.6 0 0 0.6 0 0] CT
0.4 GC
2 setlinecap
1 LJ
0.833 LW
N
168.98 270 M
168.98 267.36 L
S
GR
GS
[0.6 0 0 0.6 0 0] CT
0.4 GC
2 setlinecap
1 LJ
0.833 LW
N
185.472 270 M
185.472 267.36 L
S
GR
GS
[0.6 0 0 0.6 0 0] CT
0.4 GC
2 setlinecap
1 LJ
0.833 LW
N
198.264 270 M
198.264 267.36 L
S
GR
GS
[0.6 0 0 0.6 0 0] CT
0.4 GC
2 setlinecap
1 LJ
0.833 LW
N
208.716 270 M
208.716 267.36 L
S
GR
GS
[0.6 0 0 0.6 0 0] CT
0.4 GC
2 setlinecap
1 LJ
0.833 LW
N
217.553 270 M
217.553 267.36 L
S
GR
GS
[0.6 0 0 0.6 0 0] CT
0.4 GC
2 setlinecap
1 LJ
0.833 LW
N
225.208 270 M
225.208 267.36 L
S
GR
GS
[0.6 0 0 0.6 0 0] CT
0.4 GC
2 setlinecap
1 LJ
0.833 LW
N
231.96 270 M
231.96 267.36 L
S
GR
GS
[0.6 0 0 0.6 0 0] CT
0.4 GC
2 setlinecap
1 LJ
0.833 LW
N
238 270 M
238 267.36 L
S
GR
GS
[0.6 0 0 0.6 0 0] CT
0.4 GC
2 setlinecap
1 LJ
0.833 LW
N
277.736 270 M
277.736 267.36 L
S
GR
GS
[0.6 0 0 0.6 0 0] CT
0.4 GC
2 setlinecap
1 LJ
0.833 LW
N
300.98 270 M
300.98 267.36 L
S
GR
GS
[0.6 0 0 0.6 0 0] CT
0.4 GC
2 setlinecap
1 LJ
0.833 LW
N
317.472 270 M
317.472 267.36 L
S
GR
GS
[0.6 0 0 0.6 0 0] CT
0.4 GC
2 setlinecap
1 LJ
0.833 LW
N
330.264 270 M
330.264 267.36 L
S
GR
GS
[0.6 0 0 0.6 0 0] CT
0.4 GC
2 setlinecap
1 LJ
0.833 LW
N
340.716 270 M
340.716 267.36 L
S
GR
GS
[0.6 0 0 0.6 0 0] CT
0.4 GC
2 setlinecap
1 LJ
0.833 LW
N
349.553 270 M
349.553 267.36 L
S
GR
GS
[0.6 0 0 0.6 0 0] CT
0.4 GC
2 setlinecap
1 LJ
0.833 LW
N
357.208 270 M
357.208 267.36 L
S
GR
GS
[0.6 0 0 0.6 0 0] CT
0.4 GC
2 setlinecap
1 LJ
0.833 LW
N
363.96 270 M
363.96 267.36 L
S
GR
GS
[0.6 0 0 0.6 0 0] CT
0.4 GC
2 setlinecap
1 LJ
0.833 LW
N
370 270 M
370 267.36 L
S
GR
GS
[0.6 0 0 0.6 0 0] CT
0.4 GC
2 setlinecap
1 LJ
0.833 LW
N
409.736 270 M
409.736 267.36 L
S
GR
GS
[0.6 0 0 0.6 0 0] CT
0.4 GC
2 setlinecap
1 LJ
0.833 LW
N
432.98 270 M
432.98 267.36 L
S
GR
GS
[0.6 0 0 0.6 0 0] CT
0.4 GC
2 setlinecap
1 LJ
0.833 LW
N
449.472 270 M
449.472 267.36 L
S
GR
GS
[0.6 0 0 0.6 0 0] CT
0.4 GC
2 setlinecap
1 LJ
0.833 LW
N
462.264 270 M
462.264 267.36 L
S
GR
GS
[0.6 0 0 0.6 0 0] CT
0.4 GC
2 setlinecap
1 LJ
0.833 LW
N
472.716 270 M
472.716 267.36 L
S
GR
GS
[0.6 0 0 0.6 0 0] CT
0.4 GC
2 setlinecap
1 LJ
0.833 LW
N
481.553 270 M
481.553 267.36 L
S
GR
GS
[0.6 0 0 0.6 0 0] CT
0.4 GC
2 setlinecap
1 LJ
0.833 LW
N
489.208 270 M
489.208 267.36 L
S
GR
GS
[0.6 0 0 0.6 0 0] CT
0.4 GC
2 setlinecap
1 LJ
0.833 LW
N
495.96 270 M
495.96 267.36 L
S
GR
GS
[0.6 0 0 0.6 0 0] CT
0.4 GC
2 setlinecap
1 LJ
0.833 LW
N
502 270 M
502 267.36 L
S
GR
GS
[0.6 0 0 0.6 0 0] CT
0.4 GC
2 setlinecap
1 LJ
0.833 LW
N
541.736 270 M
541.736 267.36 L
S
GR
GS
[0.6 0 0 0.6 0 0] CT
0.4 GC
2 setlinecap
1 LJ
0.833 LW
N
564.98 270 M
564.98 267.36 L
S
GR
GS
[0.6 0 0 0.6 0 0] CT
0.4 GC
2 setlinecap
1 LJ
0.833 LW
N
581.472 270 M
581.472 267.36 L
S
GR
GS
[0.6 0 0 0.6 0 0] CT
0.4 GC
2 setlinecap
1 LJ
0.833 LW
N
594.264 270 M
594.264 267.36 L
S
GR
GS
[0.6 0 0 0.6 0 0] CT
0.4 GC
2 setlinecap
1 LJ
0.833 LW
N
604.716 270 M
604.716 267.36 L
S
GR
GS
[0.6 0 0 0.6 0 0] CT
0.4 GC
2 setlinecap
1 LJ
0.833 LW
N
613.553 270 M
613.553 267.36 L
S
GR
GS
[0.6 0 0 0.6 0 0] CT
0.4 GC
2 setlinecap
1 LJ
0.833 LW
N
621.208 270 M
621.208 267.36 L
S
GR
GS
[0.6 0 0 0.6 0 0] CT
0.4 GC
2 setlinecap
1 LJ
0.833 LW
N
627.96 270 M
627.96 267.36 L
S
GR
GS
[0.6 0 0 0.6 0 0] CT
0.4 GC
2 setlinecap
1 LJ
0.833 LW
N
634 270 M
634 267.36 L
S
GR
GS
[0.6 0 0 0.6 0 0] CT
0.4 GC
2 setlinecap
1 LJ
0.833 LW
N
106 64 M
106 66.64 L
S
GR
GS
[0.6 0 0 0.6 0 0] CT
0.4 GC
2 setlinecap
1 LJ
0.833 LW
N
145.736 64 M
145.736 66.64 L
S
GR
GS
[0.6 0 0 0.6 0 0] CT
0.4 GC
2 setlinecap
1 LJ
0.833 LW
N
168.98 64 M
168.98 66.64 L
S
GR
GS
[0.6 0 0 0.6 0 0] CT
0.4 GC
2 setlinecap
1 LJ
0.833 LW
N
185.472 64 M
185.472 66.64 L
S
GR
GS
[0.6 0 0 0.6 0 0] CT
0.4 GC
2 setlinecap
1 LJ
0.833 LW
N
198.264 64 M
198.264 66.64 L
S
GR
GS
[0.6 0 0 0.6 0 0] CT
0.4 GC
2 setlinecap
1 LJ
0.833 LW
N
208.716 64 M
208.716 66.64 L
S
GR
GS
[0.6 0 0 0.6 0 0] CT
0.4 GC
2 setlinecap
1 LJ
0.833 LW
N
217.553 64 M
217.553 66.64 L
S
GR
GS
[0.6 0 0 0.6 0 0] CT
0.4 GC
2 setlinecap
1 LJ
0.833 LW
N
225.208 64 M
225.208 66.64 L
S
GR
GS
[0.6 0 0 0.6 0 0] CT
0.4 GC
2 setlinecap
1 LJ
0.833 LW
N
231.96 64 M
231.96 66.64 L
S
GR
GS
[0.6 0 0 0.6 0 0] CT
0.4 GC
2 setlinecap
1 LJ
0.833 LW
N
238 64 M
238 66.64 L
S
GR
GS
[0.6 0 0 0.6 0 0] CT
0.4 GC
2 setlinecap
1 LJ
0.833 LW
N
277.736 64 M
277.736 66.64 L
S
GR
GS
[0.6 0 0 0.6 0 0] CT
0.4 GC
2 setlinecap
1 LJ
0.833 LW
N
300.98 64 M
300.98 66.64 L
S
GR
GS
[0.6 0 0 0.6 0 0] CT
0.4 GC
2 setlinecap
1 LJ
0.833 LW
N
317.472 64 M
317.472 66.64 L
S
GR
GS
[0.6 0 0 0.6 0 0] CT
0.4 GC
2 setlinecap
1 LJ
0.833 LW
N
330.264 64 M
330.264 66.64 L
S
GR
GS
[0.6 0 0 0.6 0 0] CT
0.4 GC
2 setlinecap
1 LJ
0.833 LW
N
340.716 64 M
340.716 66.64 L
S
GR
GS
[0.6 0 0 0.6 0 0] CT
0.4 GC
2 setlinecap
1 LJ
0.833 LW
N
349.553 64 M
349.553 66.64 L
S
GR
GS
[0.6 0 0 0.6 0 0] CT
0.4 GC
2 setlinecap
1 LJ
0.833 LW
N
357.208 64 M
357.208 66.64 L
S
GR
GS
[0.6 0 0 0.6 0 0] CT
0.4 GC
2 setlinecap
1 LJ
0.833 LW
N
363.96 64 M
363.96 66.64 L
S
GR
GS
[0.6 0 0 0.6 0 0] CT
0.4 GC
2 setlinecap
1 LJ
0.833 LW
N
370 64 M
370 66.64 L
S
GR
GS
[0.6 0 0 0.6 0 0] CT
0.4 GC
2 setlinecap
1 LJ
0.833 LW
N
409.736 64 M
409.736 66.64 L
S
GR
GS
[0.6 0 0 0.6 0 0] CT
0.4 GC
2 setlinecap
1 LJ
0.833 LW
N
432.98 64 M
432.98 66.64 L
S
GR
GS
[0.6 0 0 0.6 0 0] CT
0.4 GC
2 setlinecap
1 LJ
0.833 LW
N
449.472 64 M
449.472 66.64 L
S
GR
GS
[0.6 0 0 0.6 0 0] CT
0.4 GC
2 setlinecap
1 LJ
0.833 LW
N
462.264 64 M
462.264 66.64 L
S
GR
GS
[0.6 0 0 0.6 0 0] CT
0.4 GC
2 setlinecap
1 LJ
0.833 LW
N
472.716 64 M
472.716 66.64 L
S
GR
GS
[0.6 0 0 0.6 0 0] CT
0.4 GC
2 setlinecap
1 LJ
0.833 LW
N
481.553 64 M
481.553 66.64 L
S
GR
GS
[0.6 0 0 0.6 0 0] CT
0.4 GC
2 setlinecap
1 LJ
0.833 LW
N
489.208 64 M
489.208 66.64 L
S
GR
GS
[0.6 0 0 0.6 0 0] CT
0.4 GC
2 setlinecap
1 LJ
0.833 LW
N
495.96 64 M
495.96 66.64 L
S
GR
GS
[0.6 0 0 0.6 0 0] CT
0.4 GC
2 setlinecap
1 LJ
0.833 LW
N
502 64 M
502 66.64 L
S
GR
GS
[0.6 0 0 0.6 0 0] CT
0.4 GC
2 setlinecap
1 LJ
0.833 LW
N
541.736 64 M
541.736 66.64 L
S
GR
GS
[0.6 0 0 0.6 0 0] CT
0.4 GC
2 setlinecap
1 LJ
0.833 LW
N
564.98 64 M
564.98 66.64 L
S
GR
GS
[0.6 0 0 0.6 0 0] CT
0.4 GC
2 setlinecap
1 LJ
0.833 LW
N
581.472 64 M
581.472 66.64 L
S
GR
GS
[0.6 0 0 0.6 0 0] CT
0.4 GC
2 setlinecap
1 LJ
0.833 LW
N
594.264 64 M
594.264 66.64 L
S
GR
GS
[0.6 0 0 0.6 0 0] CT
0.4 GC
2 setlinecap
1 LJ
0.833 LW
N
604.716 64 M
604.716 66.64 L
S
GR
GS
[0.6 0 0 0.6 0 0] CT
0.4 GC
2 setlinecap
1 LJ
0.833 LW
N
613.553 64 M
613.553 66.64 L
S
GR
GS
[0.6 0 0 0.6 0 0] CT
0.4 GC
2 setlinecap
1 LJ
0.833 LW
N
621.208 64 M
621.208 66.64 L
S
GR
GS
[0.6 0 0 0.6 0 0] CT
0.4 GC
2 setlinecap
1 LJ
0.833 LW
N
627.96 64 M
627.96 66.64 L
S
GR
GS
[0.6 0 0 0.6 0 0] CT
0.4 GC
2 setlinecap
1 LJ
0.833 LW
N
634 64 M
634 66.64 L
S
GR
GS
[0.6 0 0 0.6 0 0] CT
0.4 GC
2 setlinecap
1 LJ
0.833 LW
N
106 270 M
106 64 L
S
GR
GS
[0.6 0 0 0.6 0 0] CT
0.4 GC
2 setlinecap
1 LJ
0.833 LW
N
634 270 M
634 64 L
S
GR
GS
[0.6 0 0 0.6 0 0] CT
0.4 GC
2 setlinecap
1 LJ
0.833 LW
N
106 270 M
111.28 270 L
S
GR
GS
[0.6 0 0 0.6 0 0] CT
0.4 GC
2 setlinecap
1 LJ
0.833 LW
N
106 228.8 M
111.28 228.8 L
S
GR
GS
[0.6 0 0 0.6 0 0] CT
0.4 GC
2 setlinecap
1 LJ
0.833 LW
N
106 187.6 M
111.28 187.6 L
S
GR
GS
[0.6 0 0 0.6 0 0] CT
0.4 GC
2 setlinecap
1 LJ
0.833 LW
N
106 146.4 M
111.28 146.4 L
S
GR
GS
[0.6 0 0 0.6 0 0] CT
0.4 GC
2 setlinecap
1 LJ
0.833 LW
N
106 105.2 M
111.28 105.2 L
S
GR
GS
[0.6 0 0 0.6 0 0] CT
0.4 GC
2 setlinecap
1 LJ
0.833 LW
N
106 64 M
111.28 64 L
S
GR
GS
[0.6 0 0 0.6 0 0] CT
0.4 GC
2 setlinecap
1 LJ
0.833 LW
N
634 270 M
628.72 270 L
S
GR
GS
[0.6 0 0 0.6 0 0] CT
0.4 GC
2 setlinecap
1 LJ
0.833 LW
N
634 228.8 M
628.72 228.8 L
S
GR
GS
[0.6 0 0 0.6 0 0] CT
0.4 GC
2 setlinecap
1 LJ
0.833 LW
N
634 187.6 M
628.72 187.6 L
S
GR
GS
[0.6 0 0 0.6 0 0] CT
0.4 GC
2 setlinecap
1 LJ
0.833 LW
N
634 146.4 M
628.72 146.4 L
S
GR
GS
[0.6 0 0 0.6 0 0] CT
0.4 GC
2 setlinecap
1 LJ
0.833 LW
N
634 105.2 M
628.72 105.2 L
S
GR
GS
[0.6 0 0 0.6 0 0] CT
0.4 GC
2 setlinecap
1 LJ
0.833 LW
N
634 64 M
628.72 64 L
S
GR
GS
[0.6 0 0 0.6 59.6 162] CT
0.4 GC
/Helvetica 16.667 F
GS
[1 0 0 1 0 0] CT
-25 7 moveto 
1 -1 scale
(-60) t 
GR
GR
GS
[0.6 0 0 0.6 59.6 137.28] CT
0.4 GC
/Helvetica 16.667 F
GS
[1 0 0 1 0 0] CT
-25 7 moveto 
1 -1 scale
(-40) t 
GR
GR
GS
[0.6 0 0 0.6 59.6 112.56] CT
0.4 GC
/Helvetica 16.667 F
GS
[1 0 0 1 0 0] CT
-25 7 moveto 
1 -1 scale
(-20) t 
GR
GR
GS
[0.6 0 0 0.6 59.6 87.84] CT
0.4 GC
/Helvetica 16.667 F
GS
[1 0 0 1 0 0] CT
-10 7 moveto 
1 -1 scale
(0) t 
GR
GR
GS
[0.6 0 0 0.6 59.6 63.12] CT
0.4 GC
/Helvetica 16.667 F
GS
[1 0 0 1 0 0] CT
-19 7 moveto 
1 -1 scale
(20) t 
GR
GR
GS
[0.6 0 0 0.6 59.6 38.4] CT
0.4 GC
/Helvetica 16.667 F
GS
[1 0 0 1 0 0] CT
-19 7 moveto 
1 -1 scale
(40) t 
GR
GR
GS
[0 -0.6 0.6 0 41.6 100.19995] CT
/Helvetica 18.333 F
GS
[1 0 0 1 0 0] CT
-62 -4 moveto 
1 -1 scale
(Magnitude \(dB\)) t 
GR
GR
GS
[0.6 0 0 0.6 0 0] CT
0.4 GC
[8 3 2 3] 0 setdash
2 LJ
0.833 LW
N
106 146.4 M
634 146.4 L
S
GR
GS
[0.6 0 0 0.6 0 0] CT
0.4 GC
[8 3 2 3] 0 setdash
2 LJ
0.833 LW
N
106 146.4 M
634 146.4 L
S
GR
GS
[0.6 0 0 0.6 0 0] CT
0 0.447 0.741 RC
1 setlinecap
1 LJ
0.833 LW
N
105.937 95.386 M
109.884 95.387 L
S
GR
GS
[0.6 0 0 0.6 0 0] CT
0 0.447 0.741 RC
1 setlinecap
1 LJ
0.833 LW
N
109.884 95.387 M
118.691 95.389 L
S
GR
GS
[0.6 0 0 0.6 0 0] CT
0 0.447 0.741 RC
1 setlinecap
1 LJ
0.833 LW
N
118.691 95.389 M
127.498 95.392 L
S
GR
GS
[0.6 0 0 0.6 0 0] CT
0 0.447 0.741 RC
1 setlinecap
1 LJ
0.833 LW
N
127.498 95.392 M
136.305 95.395 L
S
GR
GS
[0.6 0 0 0.6 0 0] CT
0 0.447 0.741 RC
1 setlinecap
1 LJ
0.833 LW
N
136.305 95.395 M
145.112 95.401 L
S
GR
GS
[0.6 0 0 0.6 0 0] CT
0 0.447 0.741 RC
1 setlinecap
1 LJ
0.833 LW
N
145.112 95.401 M
153.919 95.408 L
S
GR
GS
[0.6 0 0 0.6 0 0] CT
0 0.447 0.741 RC
1 setlinecap
1 LJ
0.833 LW
N
153.919 95.408 M
162.726 95.418 L
S
GR
GS
[0.6 0 0 0.6 0 0] CT
0 0.447 0.741 RC
1 setlinecap
1 LJ
0.833 LW
N
162.726 95.418 M
171.533 95.431 L
S
GR
GS
[0.6 0 0 0.6 0 0] CT
0 0.447 0.741 RC
1 setlinecap
1 LJ
0.833 LW
N
171.533 95.431 M
180.34 95.449 L
S
GR
GS
[0.6 0 0 0.6 0 0] CT
0 0.447 0.741 RC
1 setlinecap
1 LJ
0.833 LW
N
180.34 95.449 M
189.147 95.474 L
S
GR
GS
[0.6 0 0 0.6 0 0] CT
0 0.447 0.741 RC
1 setlinecap
1 LJ
0.833 LW
N
189.147 95.474 M
197.953 95.507 L
S
GR
GS
[0.6 0 0 0.6 0 0] CT
0 0.447 0.741 RC
1 setlinecap
1 LJ
0.833 LW
N
197.953 95.507 M
206.76 95.552 L
S
GR
GS
[0.6 0 0 0.6 0 0] CT
0 0.447 0.741 RC
1 setlinecap
1 LJ
0.833 LW
N
206.76 95.552 M
215.567 95.614 L
S
GR
GS
[0.6 0 0 0.6 0 0] CT
0 0.447 0.741 RC
1 setlinecap
1 LJ
0.833 LW
N
215.567 95.614 M
224.374 95.696 L
S
GR
GS
[0.6 0 0 0.6 0 0] CT
0 0.447 0.741 RC
1 setlinecap
1 LJ
0.833 LW
N
224.374 95.696 M
233.181 95.808 L
S
GR
GS
[0.6 0 0 0.6 0 0] CT
0 0.447 0.741 RC
1 setlinecap
1 LJ
0.833 LW
N
233.181 95.808 M
241.988 95.958 L
S
GR
GS
[0.6 0 0 0.6 0 0] CT
0 0.447 0.741 RC
1 setlinecap
1 LJ
0.833 LW
N
241.988 95.958 M
250.795 96.16 L
S
GR
GS
[0.6 0 0 0.6 0 0] CT
0 0.447 0.741 RC
1 setlinecap
1 LJ
0.833 LW
N
250.795 96.16 M
259.602 96.429 L
S
GR
GS
[0.6 0 0 0.6 0 0] CT
0 0.447 0.741 RC
1 setlinecap
1 LJ
0.833 LW
N
259.602 96.429 M
268.409 96.786 L
S
GR
GS
[0.6 0 0 0.6 0 0] CT
0 0.447 0.741 RC
1 setlinecap
1 LJ
0.833 LW
N
268.409 96.786 M
277.216 97.256 L
S
GR
GS
[0.6 0 0 0.6 0 0] CT
0 0.447 0.741 RC
1 setlinecap
1 LJ
0.833 LW
N
277.216 97.256 M
286.022 97.869 L
S
GR
GS
[0.6 0 0 0.6 0 0] CT
0 0.447 0.741 RC
1 setlinecap
1 LJ
0.833 LW
N
286.022 97.869 M
294.829 98.659 L
S
GR
GS
[0.6 0 0 0.6 0 0] CT
0 0.447 0.741 RC
1 setlinecap
1 LJ
0.833 LW
N
294.829 98.659 M
303.636 99.663 L
S
GR
GS
[0.6 0 0 0.6 0 0] CT
0 0.447 0.741 RC
1 setlinecap
1 LJ
0.833 LW
N
303.636 99.663 M
312.443 100.921 L
S
GR
GS
[0.6 0 0 0.6 0 0] CT
0 0.447 0.741 RC
1 setlinecap
1 LJ
0.833 LW
N
312.443 100.921 M
321.25 102.466 L
S
GR
GS
[0.6 0 0 0.6 0 0] CT
0 0.447 0.741 RC
1 setlinecap
1 LJ
0.833 LW
N
321.25 102.466 M
330.057 104.331 L
S
GR
GS
[0.6 0 0 0.6 0 0] CT
0 0.447 0.741 RC
1 setlinecap
1 LJ
0.833 LW
N
330.057 104.331 M
338.864 106.54 L
S
GR
GS
[0.6 0 0 0.6 0 0] CT
0 0.447 0.741 RC
1 setlinecap
1 LJ
0.833 LW
N
338.864 106.54 M
347.671 109.107 L
S
GR
GS
[0.6 0 0 0.6 0 0] CT
0 0.447 0.741 RC
1 setlinecap
1 LJ
0.833 LW
N
347.671 109.107 M
356.478 112.038 L
S
GR
GS
[0.6 0 0 0.6 0 0] CT
0 0.447 0.741 RC
1 setlinecap
1 LJ
0.833 LW
N
356.478 112.038 M
365.285 115.327 L
S
GR
GS
[0.6 0 0 0.6 0 0] CT
0 0.447 0.741 RC
1 setlinecap
1 LJ
0.833 LW
N
365.285 115.327 M
374.092 118.959 L
S
GR
GS
[0.6 0 0 0.6 0 0] CT
0 0.447 0.741 RC
1 setlinecap
1 LJ
0.833 LW
N
374.092 118.959 M
382.898 122.911 L
S
GR
GS
[0.6 0 0 0.6 0 0] CT
0 0.447 0.741 RC
1 setlinecap
1 LJ
0.833 LW
N
382.898 122.911 M
391.705 127.152 L
S
GR
GS
[0.6 0 0 0.6 0 0] CT
0 0.447 0.741 RC
1 setlinecap
1 LJ
0.833 LW
N
391.705 127.152 M
400.512 131.645 L
S
GR
GS
[0.6 0 0 0.6 0 0] CT
0 0.447 0.741 RC
1 setlinecap
1 LJ
0.833 LW
N
400.512 131.645 M
409.319 136.352 L
S
GR
GS
[0.6 0 0 0.6 0 0] CT
0 0.447 0.741 RC
1 setlinecap
1 LJ
0.833 LW
N
409.319 136.352 M
418.126 141.237 L
S
GR
GS
[0.6 0 0 0.6 0 0] CT
0 0.447 0.741 RC
1 setlinecap
1 LJ
0.833 LW
N
418.126 141.237 M
426.933 146.265 L
S
GR
GS
[0.6 0 0 0.6 0 0] CT
0 0.447 0.741 RC
1 setlinecap
1 LJ
0.833 LW
N
426.933 146.265 M
435.74 151.405 L
S
GR
GS
[0.6 0 0 0.6 0 0] CT
0 0.447 0.741 RC
1 setlinecap
1 LJ
0.833 LW
N
435.74 151.405 M
444.547 156.634 L
S
GR
GS
[0.6 0 0 0.6 0 0] CT
0 0.447 0.741 RC
1 setlinecap
1 LJ
0.833 LW
N
444.547 156.634 M
453.354 161.93 L
S
GR
GS
[0.6 0 0 0.6 0 0] CT
0 0.447 0.741 RC
1 setlinecap
1 LJ
0.833 LW
N
453.354 161.93 M
462.161 167.277 L
S
GR
GS
[0.6 0 0 0.6 0 0] CT
0 0.447 0.741 RC
1 setlinecap
1 LJ
0.833 LW
N
462.161 167.277 M
470.967 172.663 L
S
GR
GS
[0.6 0 0 0.6 0 0] CT
0 0.447 0.741 RC
1 setlinecap
1 LJ
0.833 LW
N
470.967 172.663 M
479.774 178.078 L
S
GR
GS
[0.6 0 0 0.6 0 0] CT
0 0.447 0.741 RC
1 setlinecap
1 LJ
0.833 LW
N
479.774 178.078 M
488.581 183.515 L
S
GR
GS
[0.6 0 0 0.6 0 0] CT
0 0.447 0.741 RC
1 setlinecap
1 LJ
0.833 LW
N
488.581 183.515 M
497.388 188.967 L
S
GR
GS
[0.6 0 0 0.6 0 0] CT
0 0.447 0.741 RC
1 setlinecap
1 LJ
0.833 LW
N
497.388 188.967 M
506.195 194.431 L
S
GR
GS
[0.6 0 0 0.6 222.0002 36.90001] CT
0.4 GC
/Helvetica 16.667 F
GS
[1 0 0 1 0 0] CT
-62 -4 moveto 
1 -1 scale
(From: uc  To: uc) t 
GR
GR
GS
[0.6 0 0 0.6 0 0] CT
0 0.447 0.741 RC
1 setlinecap
1 LJ
0.833 LW
N
515.002 199.905 M
523.809 205.384 L
S
GR
GS
[0.6 0 0 0.6 0 0] CT
0 0.447 0.741 RC
1 setlinecap
1 LJ
0.833 LW
N
523.809 205.384 M
532.616 210.868 L
S
GR
GS
[0.6 0 0 0.6 0 0] CT
0 0.447 0.741 RC
1 setlinecap
1 LJ
0.833 LW
N
532.616 210.868 M
541.423 216.356 L
S
GR
GS
[0.6 0 0 0.6 0 0] CT
0 0.447 0.741 RC
1 setlinecap
1 LJ
0.833 LW
N
541.423 216.356 M
550.23 221.847 L
S
GR
GS
[0.6 0 0 0.6 0 0] CT
0 0.447 0.741 RC
1 setlinecap
1 LJ
0.833 LW
N
550.23 221.847 M
559.036 227.339 L
S
GR
GS
[0.6 0 0 0.6 0 0] CT
0 0.447 0.741 RC
1 setlinecap
1 LJ
0.833 LW
N
559.036 227.339 M
567.843 232.833 L
S
GR
GS
[0.6 0 0 0.6 0 0] CT
0 0.447 0.741 RC
1 setlinecap
1 LJ
0.833 LW
N
567.843 232.833 M
576.65 238.327 L
S
GR
GS
[0.6 0 0 0.6 0 0] CT
0 0.447 0.741 RC
1 setlinecap
1 LJ
0.833 LW
N
576.65 238.327 M
585.457 243.823 L
S
GR
GS
[0.6 0 0 0.6 0 0] CT
0 0.447 0.741 RC
1 setlinecap
1 LJ
0.833 LW
N
506.195 194.431 M
515.002 199.905 L
S
GR
GS
[0.6 0 0 0.6 0 0] CT
0 0.447 0.741 RC
1 setlinecap
1 LJ
0.833 LW
N
594.264 249.319 M
627.435 270.025 L
S
GR
GS
[0.6 0 0 0.6 0 0] CT
0 0.447 0.741 RC
1 setlinecap
1 LJ
0.833 LW
N
585.457 243.823 M
594.264 249.319 L
S
GR
GS
[0.6 0 0 0.6 63.6 57.23154] CT
1 GC
N
4.5 -0.5 M
4.5 -3.261 2.261 -5.5 -0.5 -5.5 C
-3.261 -5.5 -5.5 -3.261 -5.5 -0.5 C
-5.5 2.261 -3.261 4.5 -0.5 4.5 C
2.261 4.5 4.5 2.261 4.5 -0.5 C
f
GR
GS
[0.6 0 0 0.6 63.6 57.23154] CT
0 0.447 0.741 RC
10.0 ML
0.833 LW
N
4.5 -0.5 M
4.5 -3.261 2.261 -5.5 -0.5 -5.5 C
-3.261 -5.5 -5.5 -3.261 -5.5 -0.5 C
-5.5 2.261 -3.261 4.5 -0.5 4.5 C
2.261 4.5 4.5 2.261 4.5 -0.5 C
S
GR
GS
[0.6 0 0 0.6 0 0] CT
1 GC
N
106 467 M
634 467 L
634 285 L
106 285 L
cp
f
GR
GS
[0.6 0 0 0.6 0 0] CT
0.849 GC
[1 3] 0 setdash
2 LJ
0.833 LW
N
145.736 467 M
145.736 285 L
S
GR
GS
[0.6 0 0 0.6 0 0] CT
0.849 GC
[1 3] 0 setdash
2 LJ
0.833 LW
N
168.98 467 M
168.98 285 L
S
GR
GS
[0.6 0 0 0.6 0 0] CT
0.849 GC
[1 3] 0 setdash
2 LJ
0.833 LW
N
185.472 467 M
185.472 285 L
S
GR
GS
[0.6 0 0 0.6 0 0] CT
0.849 GC
[1 3] 0 setdash
2 LJ
0.833 LW
N
198.264 467 M
198.264 285 L
S
GR
GS
[0.6 0 0 0.6 0 0] CT
0.849 GC
[1 3] 0 setdash
2 LJ
0.833 LW
N
208.716 467 M
208.716 285 L
S
GR
GS
[0.6 0 0 0.6 0 0] CT
0.849 GC
[1 3] 0 setdash
2 LJ
0.833 LW
N
217.553 467 M
217.553 285 L
S
GR
GS
[0.6 0 0 0.6 0 0] CT
0.849 GC
[1 3] 0 setdash
2 LJ
0.833 LW
N
225.208 467 M
225.208 285 L
S
GR
GS
[0.6 0 0 0.6 0 0] CT
0.849 GC
[1 3] 0 setdash
2 LJ
0.833 LW
N
231.96 467 M
231.96 285 L
S
GR
GS
[0.6 0 0 0.6 0 0] CT
0.849 GC
[1 3] 0 setdash
2 LJ
0.833 LW
N
277.736 467 M
277.736 285 L
S
GR
GS
[0.6 0 0 0.6 0 0] CT
0.849 GC
[1 3] 0 setdash
2 LJ
0.833 LW
N
300.98 467 M
300.98 285 L
S
GR
GS
[0.6 0 0 0.6 0 0] CT
0.849 GC
[1 3] 0 setdash
2 LJ
0.833 LW
N
317.472 467 M
317.472 285 L
S
GR
GS
[0.6 0 0 0.6 0 0] CT
0.849 GC
[1 3] 0 setdash
2 LJ
0.833 LW
N
330.264 467 M
330.264 285 L
S
GR
GS
[0.6 0 0 0.6 0 0] CT
0.849 GC
[1 3] 0 setdash
2 LJ
0.833 LW
N
340.716 467 M
340.716 285 L
S
GR
GS
[0.6 0 0 0.6 0 0] CT
0.849 GC
[1 3] 0 setdash
2 LJ
0.833 LW
N
349.553 467 M
349.553 285 L
S
GR
GS
[0.6 0 0 0.6 0 0] CT
0.849 GC
[1 3] 0 setdash
2 LJ
0.833 LW
N
357.208 467 M
357.208 285 L
S
GR
GS
[0.6 0 0 0.6 0 0] CT
0.849 GC
[1 3] 0 setdash
2 LJ
0.833 LW
N
363.96 467 M
363.96 285 L
S
GR
GS
[0.6 0 0 0.6 0 0] CT
0.849 GC
[1 3] 0 setdash
2 LJ
0.833 LW
N
409.736 467 M
409.736 285 L
S
GR
GS
[0.6 0 0 0.6 0 0] CT
0.849 GC
[1 3] 0 setdash
2 LJ
0.833 LW
N
432.98 467 M
432.98 285 L
S
GR
GS
[0.6 0 0 0.6 0 0] CT
0.849 GC
[1 3] 0 setdash
2 LJ
0.833 LW
N
449.472 467 M
449.472 285 L
S
GR
GS
[0.6 0 0 0.6 0 0] CT
0.849 GC
[1 3] 0 setdash
2 LJ
0.833 LW
N
462.264 467 M
462.264 285 L
S
GR
GS
[0.6 0 0 0.6 0 0] CT
0.849 GC
[1 3] 0 setdash
2 LJ
0.833 LW
N
472.716 467 M
472.716 285 L
S
GR
GS
[0.6 0 0 0.6 0 0] CT
0.849 GC
[1 3] 0 setdash
2 LJ
0.833 LW
N
481.553 467 M
481.553 285 L
S
GR
GS
[0.6 0 0 0.6 0 0] CT
0.849 GC
[1 3] 0 setdash
2 LJ
0.833 LW
N
489.208 467 M
489.208 285 L
S
GR
GS
[0.6 0 0 0.6 0 0] CT
0.849 GC
[1 3] 0 setdash
2 LJ
0.833 LW
N
495.96 467 M
495.96 285 L
S
GR
GS
[0.6 0 0 0.6 0 0] CT
0.849 GC
[1 3] 0 setdash
2 LJ
0.833 LW
N
541.736 467 M
541.736 285 L
S
GR
GS
[0.6 0 0 0.6 0 0] CT
0.849 GC
[1 3] 0 setdash
2 LJ
0.833 LW
N
564.98 467 M
564.98 285 L
S
GR
GS
[0.6 0 0 0.6 0 0] CT
0.849 GC
[1 3] 0 setdash
2 LJ
0.833 LW
N
581.472 467 M
581.472 285 L
S
GR
GS
[0.6 0 0 0.6 0 0] CT
0.849 GC
[1 3] 0 setdash
2 LJ
0.833 LW
N
594.264 467 M
594.264 285 L
S
GR
GS
[0.6 0 0 0.6 0 0] CT
0.849 GC
[1 3] 0 setdash
2 LJ
0.833 LW
N
604.716 467 M
604.716 285 L
S
GR
GS
[0.6 0 0 0.6 0 0] CT
0.849 GC
[1 3] 0 setdash
2 LJ
0.833 LW
N
613.553 467 M
613.553 285 L
S
GR
GS
[0.6 0 0 0.6 0 0] CT
0.849 GC
[1 3] 0 setdash
2 LJ
0.833 LW
N
621.208 467 M
621.208 285 L
S
GR
GS
[0.6 0 0 0.6 0 0] CT
0.849 GC
[1 3] 0 setdash
2 LJ
0.833 LW
N
627.96 467 M
627.96 285 L
S
GR
GS
[0.6 0 0 0.6 0 0] CT
0.873 GC
1 LJ
0.833 LW
N
106 467 M
106 285 L
S
GR
GS
[0.6 0 0 0.6 0 0] CT
0.873 GC
1 LJ
0.833 LW
N
238 467 M
238 285 L
S
GR
GS
[0.6 0 0 0.6 0 0] CT
0.873 GC
1 LJ
0.833 LW
N
370 467 M
370 285 L
S
GR
GS
[0.6 0 0 0.6 0 0] CT
0.873 GC
1 LJ
0.833 LW
N
502 467 M
502 285 L
S
GR
GS
[0.6 0 0 0.6 0 0] CT
0.873 GC
1 LJ
0.833 LW
N
634 467 M
634 285 L
S
GR
GS
[0.6 0 0 0.6 0 0] CT
0.873 GC
1 LJ
0.833 LW
N
634 465.216 M
106 465.216 L
S
GR
GS
[0.6 0 0 0.6 0 0] CT
0.873 GC
1 LJ
0.833 LW
N
634 420.608 M
106 420.608 L
S
GR
GS
[0.6 0 0 0.6 0 0] CT
0.873 GC
1 LJ
0.833 LW
N
634 376 M
106 376 L
S
GR
GS
[0.6 0 0 0.6 0 0] CT
0.873 GC
1 LJ
0.833 LW
N
634 331.392 M
106 331.392 L
S
GR
GS
[0.6 0 0 0.6 0 0] CT
0.873 GC
1 LJ
0.833 LW
N
634 286.784 M
106 286.784 L
S
GR
GS
[0.6 0 0 0.6 0 0] CT
0.4 GC
2 setlinecap
1 LJ
0.833 LW
N
106 467 M
634 467 L
S
GR
GS
[0.6 0 0 0.6 0 0] CT
0.4 GC
2 setlinecap
1 LJ
0.833 LW
N
106 285 M
634 285 L
S
GR
GS
[0.6 0 0 0.6 0 0] CT
0.4 GC
2 setlinecap
1 LJ
0.833 LW
N
106 467 M
106 461.72 L
S
GR
GS
[0.6 0 0 0.6 0 0] CT
0.4 GC
2 setlinecap
1 LJ
0.833 LW
N
238 467 M
238 461.72 L
S
GR
GS
[0.6 0 0 0.6 0 0] CT
0.4 GC
2 setlinecap
1 LJ
0.833 LW
N
370 467 M
370 461.72 L
S
GR
GS
[0.6 0 0 0.6 0 0] CT
0.4 GC
2 setlinecap
1 LJ
0.833 LW
N
502 467 M
502 461.72 L
S
GR
GS
[0.6 0 0 0.6 0 0] CT
0.4 GC
2 setlinecap
1 LJ
0.833 LW
N
634 467 M
634 461.72 L
S
GR
GS
[0.6 0 0 0.6 0 0] CT
0.4 GC
2 setlinecap
1 LJ
0.833 LW
N
106 285 M
106 290.28 L
S
GR
GS
[0.6 0 0 0.6 0 0] CT
0.4 GC
2 setlinecap
1 LJ
0.833 LW
N
238 285 M
238 290.28 L
S
GR
GS
[0.6 0 0 0.6 0 0] CT
0.4 GC
2 setlinecap
1 LJ
0.833 LW
N
370 285 M
370 290.28 L
S
GR
GS
[0.6 0 0 0.6 0 0] CT
0.4 GC
2 setlinecap
1 LJ
0.833 LW
N
502 285 M
502 290.28 L
S
GR
GS
[0.6 0 0 0.6 0 0] CT
0.4 GC
2 setlinecap
1 LJ
0.833 LW
N
634 285 M
634 290.28 L
S
GR
GS
[0.6 0 0 0.6 0 0] CT
0.4 GC
2 setlinecap
1 LJ
0.833 LW
N
106 467 M
106 464.36 L
S
GR
GS
[0.6 0 0 0.6 0 0] CT
0.4 GC
2 setlinecap
1 LJ
0.833 LW
N
145.736 467 M
145.736 464.36 L
S
GR
GS
[0.6 0 0 0.6 0 0] CT
0.4 GC
2 setlinecap
1 LJ
0.833 LW
N
168.98 467 M
168.98 464.36 L
S
GR
GS
[0.6 0 0 0.6 0 0] CT
0.4 GC
2 setlinecap
1 LJ
0.833 LW
N
185.472 467 M
185.472 464.36 L
S
GR
GS
[0.6 0 0 0.6 0 0] CT
0.4 GC
2 setlinecap
1 LJ
0.833 LW
N
198.264 467 M
198.264 464.36 L
S
GR
GS
[0.6 0 0 0.6 0 0] CT
0.4 GC
2 setlinecap
1 LJ
0.833 LW
N
208.716 467 M
208.716 464.36 L
S
GR
GS
[0.6 0 0 0.6 0 0] CT
0.4 GC
2 setlinecap
1 LJ
0.833 LW
N
217.553 467 M
217.553 464.36 L
S
GR
GS
[0.6 0 0 0.6 0 0] CT
0.4 GC
2 setlinecap
1 LJ
0.833 LW
N
225.208 467 M
225.208 464.36 L
S
GR
GS
[0.6 0 0 0.6 0 0] CT
0.4 GC
2 setlinecap
1 LJ
0.833 LW
N
231.96 467 M
231.96 464.36 L
S
GR
GS
[0.6 0 0 0.6 0 0] CT
0.4 GC
2 setlinecap
1 LJ
0.833 LW
N
238 467 M
238 464.36 L
S
GR
GS
[0.6 0 0 0.6 0 0] CT
0.4 GC
2 setlinecap
1 LJ
0.833 LW
N
277.736 467 M
277.736 464.36 L
S
GR
GS
[0.6 0 0 0.6 0 0] CT
0.4 GC
2 setlinecap
1 LJ
0.833 LW
N
300.98 467 M
300.98 464.36 L
S
GR
GS
[0.6 0 0 0.6 0 0] CT
0.4 GC
2 setlinecap
1 LJ
0.833 LW
N
317.472 467 M
317.472 464.36 L
S
GR
GS
[0.6 0 0 0.6 0 0] CT
0.4 GC
2 setlinecap
1 LJ
0.833 LW
N
330.264 467 M
330.264 464.36 L
S
GR
GS
[0.6 0 0 0.6 0 0] CT
0.4 GC
2 setlinecap
1 LJ
0.833 LW
N
340.716 467 M
340.716 464.36 L
S
GR
GS
[0.6 0 0 0.6 0 0] CT
0.4 GC
2 setlinecap
1 LJ
0.833 LW
N
349.553 467 M
349.553 464.36 L
S
GR
GS
[0.6 0 0 0.6 0 0] CT
0.4 GC
2 setlinecap
1 LJ
0.833 LW
N
357.208 467 M
357.208 464.36 L
S
GR
GS
[0.6 0 0 0.6 0 0] CT
0.4 GC
2 setlinecap
1 LJ
0.833 LW
N
363.96 467 M
363.96 464.36 L
S
GR
GS
[0.6 0 0 0.6 0 0] CT
0.4 GC
2 setlinecap
1 LJ
0.833 LW
N
370 467 M
370 464.36 L
S
GR
GS
[0.6 0 0 0.6 0 0] CT
0.4 GC
2 setlinecap
1 LJ
0.833 LW
N
409.736 467 M
409.736 464.36 L
S
GR
GS
[0.6 0 0 0.6 0 0] CT
0.4 GC
2 setlinecap
1 LJ
0.833 LW
N
432.98 467 M
432.98 464.36 L
S
GR
GS
[0.6 0 0 0.6 0 0] CT
0.4 GC
2 setlinecap
1 LJ
0.833 LW
N
449.472 467 M
449.472 464.36 L
S
GR
GS
[0.6 0 0 0.6 0 0] CT
0.4 GC
2 setlinecap
1 LJ
0.833 LW
N
462.264 467 M
462.264 464.36 L
S
GR
GS
[0.6 0 0 0.6 0 0] CT
0.4 GC
2 setlinecap
1 LJ
0.833 LW
N
472.716 467 M
472.716 464.36 L
S
GR
GS
[0.6 0 0 0.6 0 0] CT
0.4 GC
2 setlinecap
1 LJ
0.833 LW
N
481.553 467 M
481.553 464.36 L
S
GR
GS
[0.6 0 0 0.6 0 0] CT
0.4 GC
2 setlinecap
1 LJ
0.833 LW
N
489.208 467 M
489.208 464.36 L
S
GR
GS
[0.6 0 0 0.6 0 0] CT
0.4 GC
2 setlinecap
1 LJ
0.833 LW
N
495.96 467 M
495.96 464.36 L
S
GR
GS
[0.6 0 0 0.6 0 0] CT
0.4 GC
2 setlinecap
1 LJ
0.833 LW
N
502 467 M
502 464.36 L
S
GR
GS
[0.6 0 0 0.6 0 0] CT
0.4 GC
2 setlinecap
1 LJ
0.833 LW
N
541.736 467 M
541.736 464.36 L
S
GR
GS
[0.6 0 0 0.6 0 0] CT
0.4 GC
2 setlinecap
1 LJ
0.833 LW
N
564.98 467 M
564.98 464.36 L
S
GR
GS
[0.6 0 0 0.6 0 0] CT
0.4 GC
2 setlinecap
1 LJ
0.833 LW
N
581.472 467 M
581.472 464.36 L
S
GR
GS
[0.6 0 0 0.6 0 0] CT
0.4 GC
2 setlinecap
1 LJ
0.833 LW
N
594.264 467 M
594.264 464.36 L
S
GR
GS
[0.6 0 0 0.6 0 0] CT
0.4 GC
2 setlinecap
1 LJ
0.833 LW
N
604.716 467 M
604.716 464.36 L
S
GR
GS
[0.6 0 0 0.6 0 0] CT
0.4 GC
2 setlinecap
1 LJ
0.833 LW
N
613.553 467 M
613.553 464.36 L
S
GR
GS
[0.6 0 0 0.6 0 0] CT
0.4 GC
2 setlinecap
1 LJ
0.833 LW
N
621.208 467 M
621.208 464.36 L
S
GR
GS
[0.6 0 0 0.6 0 0] CT
0.4 GC
2 setlinecap
1 LJ
0.833 LW
N
627.96 467 M
627.96 464.36 L
S
GR
GS
[0.6 0 0 0.6 0 0] CT
0.4 GC
2 setlinecap
1 LJ
0.833 LW
N
634 467 M
634 464.36 L
S
GR
GS
[0.6 0 0 0.6 0 0] CT
0.4 GC
2 setlinecap
1 LJ
0.833 LW
N
106 285 M
106 287.64 L
S
GR
GS
[0.6 0 0 0.6 0 0] CT
0.4 GC
2 setlinecap
1 LJ
0.833 LW
N
145.736 285 M
145.736 287.64 L
S
GR
GS
[0.6 0 0 0.6 0 0] CT
0.4 GC
2 setlinecap
1 LJ
0.833 LW
N
168.98 285 M
168.98 287.64 L
S
GR
GS
[0.6 0 0 0.6 0 0] CT
0.4 GC
2 setlinecap
1 LJ
0.833 LW
N
185.472 285 M
185.472 287.64 L
S
GR
GS
[0.6 0 0 0.6 0 0] CT
0.4 GC
2 setlinecap
1 LJ
0.833 LW
N
198.264 285 M
198.264 287.64 L
S
GR
GS
[0.6 0 0 0.6 0 0] CT
0.4 GC
2 setlinecap
1 LJ
0.833 LW
N
208.716 285 M
208.716 287.64 L
S
GR
GS
[0.6 0 0 0.6 0 0] CT
0.4 GC
2 setlinecap
1 LJ
0.833 LW
N
217.553 285 M
217.553 287.64 L
S
GR
GS
[0.6 0 0 0.6 0 0] CT
0.4 GC
2 setlinecap
1 LJ
0.833 LW
N
225.208 285 M
225.208 287.64 L
S
GR
GS
[0.6 0 0 0.6 0 0] CT
0.4 GC
2 setlinecap
1 LJ
0.833 LW
N
231.96 285 M
231.96 287.64 L
S
GR
GS
[0.6 0 0 0.6 0 0] CT
0.4 GC
2 setlinecap
1 LJ
0.833 LW
N
238 285 M
238 287.64 L
S
GR
GS
[0.6 0 0 0.6 0 0] CT
0.4 GC
2 setlinecap
1 LJ
0.833 LW
N
277.736 285 M
277.736 287.64 L
S
GR
GS
[0.6 0 0 0.6 0 0] CT
0.4 GC
2 setlinecap
1 LJ
0.833 LW
N
300.98 285 M
300.98 287.64 L
S
GR
GS
[0.6 0 0 0.6 0 0] CT
0.4 GC
2 setlinecap
1 LJ
0.833 LW
N
317.472 285 M
317.472 287.64 L
S
GR
GS
[0.6 0 0 0.6 0 0] CT
0.4 GC
2 setlinecap
1 LJ
0.833 LW
N
330.264 285 M
330.264 287.64 L
S
GR
GS
[0.6 0 0 0.6 0 0] CT
0.4 GC
2 setlinecap
1 LJ
0.833 LW
N
340.716 285 M
340.716 287.64 L
S
GR
GS
[0.6 0 0 0.6 0 0] CT
0.4 GC
2 setlinecap
1 LJ
0.833 LW
N
349.553 285 M
349.553 287.64 L
S
GR
GS
[0.6 0 0 0.6 0 0] CT
0.4 GC
2 setlinecap
1 LJ
0.833 LW
N
357.208 285 M
357.208 287.64 L
S
GR
GS
[0.6 0 0 0.6 0 0] CT
0.4 GC
2 setlinecap
1 LJ
0.833 LW
N
363.96 285 M
363.96 287.64 L
S
GR
GS
[0.6 0 0 0.6 0 0] CT
0.4 GC
2 setlinecap
1 LJ
0.833 LW
N
370 285 M
370 287.64 L
S
GR
GS
[0.6 0 0 0.6 0 0] CT
0.4 GC
2 setlinecap
1 LJ
0.833 LW
N
409.736 285 M
409.736 287.64 L
S
GR
GS
[0.6 0 0 0.6 0 0] CT
0.4 GC
2 setlinecap
1 LJ
0.833 LW
N
432.98 285 M
432.98 287.64 L
S
GR
GS
[0.6 0 0 0.6 0 0] CT
0.4 GC
2 setlinecap
1 LJ
0.833 LW
N
449.472 285 M
449.472 287.64 L
S
GR
GS
[0.6 0 0 0.6 0 0] CT
0.4 GC
2 setlinecap
1 LJ
0.833 LW
N
462.264 285 M
462.264 287.64 L
S
GR
GS
[0.6 0 0 0.6 0 0] CT
0.4 GC
2 setlinecap
1 LJ
0.833 LW
N
472.716 285 M
472.716 287.64 L
S
GR
GS
[0.6 0 0 0.6 0 0] CT
0.4 GC
2 setlinecap
1 LJ
0.833 LW
N
481.553 285 M
481.553 287.64 L
S
GR
GS
[0.6 0 0 0.6 0 0] CT
0.4 GC
2 setlinecap
1 LJ
0.833 LW
N
489.208 285 M
489.208 287.64 L
S
GR
GS
[0.6 0 0 0.6 0 0] CT
0.4 GC
2 setlinecap
1 LJ
0.833 LW
N
495.96 285 M
495.96 287.64 L
S
GR
GS
[0.6 0 0 0.6 0 0] CT
0.4 GC
2 setlinecap
1 LJ
0.833 LW
N
502 285 M
502 287.64 L
S
GR
GS
[0.6 0 0 0.6 0 0] CT
0.4 GC
2 setlinecap
1 LJ
0.833 LW
N
541.736 285 M
541.736 287.64 L
S
GR
GS
[0.6 0 0 0.6 0 0] CT
0.4 GC
2 setlinecap
1 LJ
0.833 LW
N
564.98 285 M
564.98 287.64 L
S
GR
GS
[0.6 0 0 0.6 0 0] CT
0.4 GC
2 setlinecap
1 LJ
0.833 LW
N
581.472 285 M
581.472 287.64 L
S
GR
GS
[0.6 0 0 0.6 0 0] CT
0.4 GC
2 setlinecap
1 LJ
0.833 LW
N
594.264 285 M
594.264 287.64 L
S
GR
GS
[0.6 0 0 0.6 0 0] CT
0.4 GC
2 setlinecap
1 LJ
0.833 LW
N
604.716 285 M
604.716 287.64 L
S
GR
GS
[0.6 0 0 0.6 0 0] CT
0.4 GC
2 setlinecap
1 LJ
0.833 LW
N
613.553 285 M
613.553 287.64 L
S
GR
GS
[0.6 0 0 0.6 0 0] CT
0.4 GC
2 setlinecap
1 LJ
0.833 LW
N
621.208 285 M
621.208 287.64 L
S
GR
GS
[0.6 0 0 0.6 0 0] CT
0.4 GC
2 setlinecap
1 LJ
0.833 LW
N
627.96 285 M
627.96 287.64 L
S
GR
GS
[0.6 0 0 0.6 0 0] CT
0.4 GC
2 setlinecap
1 LJ
0.833 LW
N
634 285 M
634 287.64 L
S
GR
GS
[0.6 0 0 0.6 54 297.6] CT
0.4 GC
/Helvetica 16.667 F
GS
[1 0 0 1 0 0] CT
0 0 moveto 
1 -1 scale
(10) t 
GR
GR
GS
[0.6 0 0 0.6 65.4 292.8] CT
0.4 GC
/Helvetica 13.333 F
GS
[1 0 0 1 0 0] CT
0 0 moveto 
1 -1 scale
(-1) t 
GR
GR
GS
[0.6 0 0 0.6 134.4 297.6] CT
0.4 GC
/Helvetica 16.667 F
GS
[1 0 0 1 0 0] CT
0 0 moveto 
1 -1 scale
(10) t 
GR
GR
GS
[0.6 0 0 0.6 145.8 292.8] CT
0.4 GC
/Helvetica 13.333 F
GS
[1 0 0 1 0 0] CT
0 0 moveto 
1 -1 scale
(0) t 
GR
GR
GS
[0.6 0 0 0.6 213.6 297.6] CT
0.4 GC
/Helvetica 16.667 F
GS
[1 0 0 1 0 0] CT
0 0 moveto 
1 -1 scale
(10) t 
GR
GR
GS
[0.6 0 0 0.6 225 292.8] CT
0.4 GC
/Helvetica 13.333 F
GS
[1 0 0 1 0 0] CT
0 0 moveto 
1 -1 scale
(1) t 
GR
GR
GS
[0.6 0 0 0.6 292.8 297.6] CT
0.4 GC
/Helvetica 16.667 F
GS
[1 0 0 1 0 0] CT
0 0 moveto 
1 -1 scale
(10) t 
GR
GR
GS
[0.6 0 0 0.6 304.2 292.8] CT
0.4 GC
/Helvetica 13.333 F
GS
[1 0 0 1 0 0] CT
0 0 moveto 
1 -1 scale
(2) t 
GR
GR
GS
[0.6 0 0 0.6 372 297.6] CT
0.4 GC
/Helvetica 16.667 F
GS
[1 0 0 1 0 0] CT
0 0 moveto 
1 -1 scale
(10) t 
GR
GR
GS
[0.6 0 0 0.6 383.4 292.8] CT
0.4 GC
/Helvetica 13.333 F
GS
[1 0 0 1 0 0] CT
0 0 moveto 
1 -1 scale
(3) t 
GR
GR
GS
[0.6 0 0 0.6 0 0] CT
0.4 GC
2 setlinecap
1 LJ
0.833 LW
N
106 467 M
106 285 L
S
GR
GS
[0.6 0 0 0.6 0 0] CT
0.4 GC
2 setlinecap
1 LJ
0.833 LW
N
634 467 M
634 285 L
S
GR
GS
[0.6 0 0 0.6 0 0] CT
0.4 GC
2 setlinecap
1 LJ
0.833 LW
N
106 465.216 M
111.28 465.216 L
S
GR
GS
[0.6 0 0 0.6 0 0] CT
0.4 GC
2 setlinecap
1 LJ
0.833 LW
N
106 420.608 M
111.28 420.608 L
S
GR
GS
[0.6 0 0 0.6 0 0] CT
0.4 GC
2 setlinecap
1 LJ
0.833 LW
N
106 376 M
111.28 376 L
S
GR
GS
[0.6 0 0 0.6 0 0] CT
0.4 GC
2 setlinecap
1 LJ
0.833 LW
N
106 331.392 M
111.28 331.392 L
S
GR
GS
[0.6 0 0 0.6 0 0] CT
0.4 GC
2 setlinecap
1 LJ
0.833 LW
N
106 286.784 M
111.28 286.784 L
S
GR
GS
[0.6 0 0 0.6 0 0] CT
0.4 GC
2 setlinecap
1 LJ
0.833 LW
N
634 465.216 M
628.72 465.216 L
S
GR
GS
[0.6 0 0 0.6 0 0] CT
0.4 GC
2 setlinecap
1 LJ
0.833 LW
N
634 420.608 M
628.72 420.608 L
S
GR
GS
[0.6 0 0 0.6 0 0] CT
0.4 GC
2 setlinecap
1 LJ
0.833 LW
N
634 376 M
628.72 376 L
S
GR
GS
[0.6 0 0 0.6 0 0] CT
0.4 GC
2 setlinecap
1 LJ
0.833 LW
N
634 331.392 M
628.72 331.392 L
S
GR
GS
[0.6 0 0 0.6 0 0] CT
0.4 GC
2 setlinecap
1 LJ
0.833 LW
N
634 286.784 M
628.72 286.784 L
S
GR
GS
[0.6 0 0 0.6 59.6 279.12942] CT
0.4 GC
/Helvetica 16.667 F
GS
[1 0 0 1 0 0] CT
-35 7 moveto 
1 -1 scale
(-180) t 
GR
GR
GS
[0.6 0 0 0.6 59.6 252.36471] CT
0.4 GC
/Helvetica 16.667 F
GS
[1 0 0 1 0 0] CT
-35 7 moveto 
1 -1 scale
(-135) t 
GR
GR
GS
[0.6 0 0 0.6 59.6 225.6] CT
0.4 GC
/Helvetica 16.667 F
GS
[1 0 0 1 0 0] CT
-25 7 moveto 
1 -1 scale
(-90) t 
GR
GR
GS
[0.6 0 0 0.6 59.6 198.83529] CT
0.4 GC
/Helvetica 16.667 F
GS
[1 0 0 1 0 0] CT
-25 7 moveto 
1 -1 scale
(-45) t 
GR
GR
GS
[0.6 0 0 0.6 59.6 172.0706] CT
0.4 GC
/Helvetica 16.667 F
GS
[1 0 0 1 0 0] CT
-10 7 moveto 
1 -1 scale
(0) t 
GR
GR
GS
[0 -0.6 0.6 0 35.6 225.59995] CT
/Helvetica 18.333 F
GS
[1 0 0 1 0 0] CT
-49.5 -4 moveto 
1 -1 scale
(Phase \(deg\)) t 
GR
GR
GS
[0.6 0 0 0.6 0 0] CT
0.4 GC
[8 3 2 3] 0 setdash
2 LJ
0.833 LW
N
106 465.216 M
634 465.216 L
S
GR
GS
[0.6 0 0 0.6 0 0] CT
0.4 GC
1 LJ
0.833 LW
N
427.167 465.216 M
427.167 435.619 L
S
GR
GS
[0.6 0 0 0.6 0 0] CT
0.4 GC
[8 3 2 3] 0 setdash
2 LJ
0.833 LW
N
106 465.216 M
634 465.216 L
S
GR
GS
[0.6 0 0 0.6 0 0] CT
0.4 GC
1 LJ
0.833 LW
N
427.167 465.216 M
427.167 435.619 L
S
GR
GS
[0.6 0 0 0.6 0 0] CT
0 0.447 0.741 RC
1 setlinecap
1 LJ
0.833 LW
N
105.937 288.593 M
109.884 288.716 L
S
GR
GS
[0.6 0 0 0.6 0 0] CT
0 0.447 0.741 RC
1 setlinecap
1 LJ
0.833 LW
N
109.884 288.716 M
118.691 289.037 L
S
GR
GS
[0.6 0 0 0.6 0 0] CT
0 0.447 0.741 RC
1 setlinecap
1 LJ
0.833 LW
N
118.691 289.037 M
127.498 289.411 L
S
GR
GS
[0.6 0 0 0.6 0 0] CT
0 0.447 0.741 RC
1 setlinecap
1 LJ
0.833 LW
N
127.498 289.411 M
136.305 289.847 L
S
GR
GS
[0.6 0 0 0.6 0 0] CT
0 0.447 0.741 RC
1 setlinecap
1 LJ
0.833 LW
N
136.305 289.847 M
145.112 290.355 L
S
GR
GS
[0.6 0 0 0.6 0 0] CT
0 0.447 0.741 RC
1 setlinecap
1 LJ
0.833 LW
N
145.112 290.355 M
153.919 290.947 L
S
GR
GS
[0.6 0 0 0.6 0 0] CT
0 0.447 0.741 RC
1 setlinecap
1 LJ
0.833 LW
N
153.919 290.947 M
162.726 291.637 L
S
GR
GS
[0.6 0 0 0.6 0 0] CT
0 0.447 0.741 RC
1 setlinecap
1 LJ
0.833 LW
N
162.726 291.637 M
171.533 292.442 L
S
GR
GS
[0.6 0 0 0.6 0 0] CT
0 0.447 0.741 RC
1 setlinecap
1 LJ
0.833 LW
N
171.533 292.442 M
180.34 293.378 L
S
GR
GS
[0.6 0 0 0.6 0 0] CT
0 0.447 0.741 RC
1 setlinecap
1 LJ
0.833 LW
N
180.34 293.378 M
189.147 294.469 L
S
GR
GS
[0.6 0 0 0.6 0 0] CT
0 0.447 0.741 RC
1 setlinecap
1 LJ
0.833 LW
N
189.147 294.469 M
197.953 295.738 L
S
GR
GS
[0.6 0 0 0.6 0 0] CT
0 0.447 0.741 RC
1 setlinecap
1 LJ
0.833 LW
N
197.953 295.738 M
206.76 297.214 L
S
GR
GS
[0.6 0 0 0.6 0 0] CT
0 0.447 0.741 RC
1 setlinecap
1 LJ
0.833 LW
N
206.76 297.214 M
215.567 298.929 L
S
GR
GS
[0.6 0 0 0.6 0 0] CT
0 0.447 0.741 RC
1 setlinecap
1 LJ
0.833 LW
N
215.567 298.929 M
224.374 300.918 L
S
GR
GS
[0.6 0 0 0.6 0 0] CT
0 0.447 0.741 RC
1 setlinecap
1 LJ
0.833 LW
N
224.374 300.918 M
233.181 303.223 L
S
GR
GS
[0.6 0 0 0.6 0 0] CT
0 0.447 0.741 RC
1 setlinecap
1 LJ
0.833 LW
N
233.181 303.223 M
241.988 305.886 L
S
GR
GS
[0.6 0 0 0.6 0 0] CT
0 0.447 0.741 RC
1 setlinecap
1 LJ
0.833 LW
N
241.988 305.886 M
250.795 308.954 L
S
GR
GS
[0.6 0 0 0.6 0 0] CT
0 0.447 0.741 RC
1 setlinecap
1 LJ
0.833 LW
N
250.795 308.954 M
259.602 312.475 L
S
GR
GS
[0.6 0 0 0.6 0 0] CT
0 0.447 0.741 RC
1 setlinecap
1 LJ
0.833 LW
N
259.602 312.475 M
268.409 316.495 L
S
GR
GS
[0.6 0 0 0.6 0 0] CT
0 0.447 0.741 RC
1 setlinecap
1 LJ
0.833 LW
N
268.409 316.495 M
277.216 321.054 L
S
GR
GS
[0.6 0 0 0.6 0 0] CT
0 0.447 0.741 RC
1 setlinecap
1 LJ
0.833 LW
N
277.216 321.054 M
286.022 326.183 L
S
GR
GS
[0.6 0 0 0.6 0 0] CT
0 0.447 0.741 RC
1 setlinecap
1 LJ
0.833 LW
N
286.022 326.183 M
294.829 331.894 L
S
GR
GS
[0.6 0 0 0.6 0 0] CT
0 0.447 0.741 RC
1 setlinecap
1 LJ
0.833 LW
N
294.829 331.894 M
303.636 338.18 L
S
GR
GS
[0.6 0 0 0.6 0 0] CT
0 0.447 0.741 RC
1 setlinecap
1 LJ
0.833 LW
N
303.636 338.18 M
312.443 345.004 L
S
GR
GS
[0.6 0 0 0.6 0 0] CT
0 0.447 0.741 RC
1 setlinecap
1 LJ
0.833 LW
N
312.443 345.004 M
321.25 352.3 L
S
GR
GS
[0.6 0 0 0.6 0 0] CT
0 0.447 0.741 RC
1 setlinecap
1 LJ
0.833 LW
N
321.25 352.3 M
330.057 359.977 L
S
GR
GS
[0.6 0 0 0.6 0 0] CT
0 0.447 0.741 RC
1 setlinecap
1 LJ
0.833 LW
N
330.057 359.977 M
338.864 367.92 L
S
GR
GS
[0.6 0 0 0.6 0 0] CT
0 0.447 0.741 RC
1 setlinecap
1 LJ
0.833 LW
N
338.864 367.92 M
347.671 376 L
S
GR
GS
[0.6 0 0 0.6 0 0] CT
0 0.447 0.741 RC
1 setlinecap
1 LJ
0.833 LW
N
347.671 376 M
356.478 384.08 L
S
GR
GS
[0.6 0 0 0.6 0 0] CT
0 0.447 0.741 RC
1 setlinecap
1 LJ
0.833 LW
N
356.478 384.08 M
365.285 392.023 L
S
GR
GS
[0.6 0 0 0.6 0 0] CT
0 0.447 0.741 RC
1 setlinecap
1 LJ
0.833 LW
N
365.285 392.023 M
374.092 399.7 L
S
GR
GS
[0.6 0 0 0.6 0 0] CT
0 0.447 0.741 RC
1 setlinecap
1 LJ
0.833 LW
N
374.092 399.7 M
382.898 406.996 L
S
GR
GS
[0.6 0 0 0.6 0 0] CT
0 0.447 0.741 RC
1 setlinecap
1 LJ
0.833 LW
N
382.898 406.996 M
391.705 413.82 L
S
GR
GS
[0.6 0 0 0.6 0 0] CT
0 0.447 0.741 RC
1 setlinecap
1 LJ
0.833 LW
N
391.705 413.82 M
400.512 420.106 L
S
GR
GS
[0.6 0 0 0.6 0 0] CT
0 0.447 0.741 RC
1 setlinecap
1 LJ
0.833 LW
N
400.512 420.106 M
409.319 425.817 L
S
GR
GS
[0.6 0 0 0.6 0 0] CT
0 0.447 0.741 RC
1 setlinecap
1 LJ
0.833 LW
N
409.319 425.817 M
418.126 430.946 L
S
GR
GS
[0.6 0 0 0.6 0 0] CT
0 0.447 0.741 RC
1 setlinecap
1 LJ
0.833 LW
N
418.126 430.946 M
426.933 435.505 L
S
GR
GS
[0.6 0 0 0.6 0 0] CT
0 0.447 0.741 RC
1 setlinecap
1 LJ
0.833 LW
N
426.933 435.505 M
435.74 439.525 L
S
GR
GS
[0.6 0 0 0.6 0 0] CT
0 0.447 0.741 RC
1 setlinecap
1 LJ
0.833 LW
N
435.74 439.525 M
444.547 443.046 L
S
GR
GS
[0.6 0 0 0.6 0 0] CT
0 0.447 0.741 RC
1 setlinecap
1 LJ
0.833 LW
N
444.547 443.046 M
453.354 446.114 L
S
GR
GS
[0.6 0 0 0.6 0 0] CT
0 0.447 0.741 RC
1 setlinecap
1 LJ
0.833 LW
N
453.354 446.114 M
462.161 448.777 L
S
GR
GS
[0.6 0 0 0.6 0 0] CT
0 0.447 0.741 RC
1 setlinecap
1 LJ
0.833 LW
N
462.161 448.777 M
470.967 451.082 L
S
GR
GS
[0.6 0 0 0.6 0 0] CT
0 0.447 0.741 RC
1 setlinecap
1 LJ
0.833 LW
N
470.967 451.082 M
479.774 453.071 L
S
GR
GS
[0.6 0 0 0.6 0 0] CT
0 0.447 0.741 RC
1 setlinecap
1 LJ
0.833 LW
N
479.774 453.071 M
488.581 454.786 L
S
GR
GS
[0.6 0 0 0.6 0 0] CT
0 0.447 0.741 RC
1 setlinecap
1 LJ
0.833 LW
N
488.581 454.786 M
497.388 456.262 L
S
GR
GS
[0.6 0 0 0.6 0 0] CT
0 0.447 0.741 RC
1 setlinecap
1 LJ
0.833 LW
N
497.388 456.262 M
506.195 457.531 L
S
GR
GS
[0.6 0 0 0.6 0 0] CT
0 0.447 0.741 RC
1 setlinecap
1 LJ
0.833 LW
N
506.195 457.531 M
515.002 458.622 L
S
GR
GS
[0.6 0 0 0.6 0 0] CT
0 0.447 0.741 RC
1 setlinecap
1 LJ
0.833 LW
N
515.002 458.622 M
523.809 459.558 L
S
GR
GS
[0.6 0 0 0.6 0 0] CT
0 0.447 0.741 RC
1 setlinecap
1 LJ
0.833 LW
N
523.809 459.558 M
532.616 460.363 L
S
GR
GS
[0.6 0 0 0.6 0 0] CT
0 0.447 0.741 RC
1 setlinecap
1 LJ
0.833 LW
N
541.423 461.053 M
550.23 461.645 L
S
GR
GS
[0.6 0 0 0.6 0 0] CT
0 0.447 0.741 RC
1 setlinecap
1 LJ
0.833 LW
N
550.23 461.645 M
559.036 462.153 L
S
GR
GS
[0.6 0 0 0.6 0 0] CT
0 0.447 0.741 RC
1 setlinecap
1 LJ
0.833 LW
N
559.036 462.153 M
567.843 462.589 L
S
GR
GS
[0.6 0 0 0.6 0 0] CT
0 0.447 0.741 RC
1 setlinecap
1 LJ
0.833 LW
N
567.843 462.589 M
576.65 462.963 L
S
GR
GS
[0.6 0 0 0.6 0 0] CT
0 0.447 0.741 RC
1 setlinecap
1 LJ
0.833 LW
N
576.65 462.963 M
585.457 463.284 L
S
GR
GS
[0.6 0 0 0.6 0 0] CT
0 0.447 0.741 RC
1 setlinecap
1 LJ
0.833 LW
N
585.457 463.284 M
594.264 463.559 L
S
GR
GS
[0.6 0 0 0.6 0 0] CT
0 0.447 0.741 RC
1 setlinecap
1 LJ
0.833 LW
N
594.264 463.559 M
634.063 464.008 L
S
GR
GS
[0.6 0 0 0.6 0 0] CT
0 0.447 0.741 RC
1 setlinecap
1 LJ
0.833 LW
N
532.616 460.363 M
541.423 461.053 L
S
GR
GS
[0.6 0 0 0.6 256.30032 261.37134] CT
0 0.447 0.741 RC
N
/f929750868{4.5 -0.5 M
4.5 -3.261 2.261 -5.5 -0.5 -5.5 C
-3.261 -5.5 -5.5 -3.261 -5.5 -0.5 C
-5.5 2.261 -3.261 4.5 -0.5 4.5 C
2.261 4.5 4.5 2.261 4.5 -0.5 C}def
f929750868
f
GR
GS
[0.6 0 0 0.6 256.30032 261.37134] CT
0 0.447 0.741 RC
10.0 ML
0.833 LW
N
4.5 -0.5 M
4.5 -3.261 2.261 -5.5 -0.5 -5.5 C
-3.261 -5.5 -5.5 -3.261 -5.5 -0.5 C
-5.5 2.261 -3.261 4.5 -0.5 4.5 C
2.261 4.5 4.5 2.261 4.5 -0.5 C
S
GR
GS
[0.6 0 0 0.6 256.30032 261.37134] CT
0 0.447 0.741 RC
N
f929750868
f
GR
GS
[0.6 0 0 0.6 256.30032 261.37134] CT
0 0.447 0.741 RC
10.0 ML
0.833 LW
N
4.5 -0.5 M
4.5 -3.261 2.261 -5.5 -0.5 -5.5 C
-3.261 -5.5 -5.5 -3.261 -5.5 -0.5 C
-5.5 2.261 -3.261 4.5 -0.5 4.5 C
2.261 4.5 4.5 2.261 4.5 -0.5 C
S
GR
GS
[0.6 0 0 0.6 221.1 20.025] CT
/Helvetica 18.333 F
GS
[1 0 0 1 0 0] CT
-58 -4 moveto 
1 -1 scale
(Bode Diagram) t 
GR
GR
GS
[0.6 0 0 0.6 221.1 299.30001] CT
/Helvetica 18.333 F
GS
[1 0 0 1 0 0] CT
-74 19 moveto 
1 -1 scale
(Frequency  \(rad/s\)) t 
GR
GR
%%Trailer
%%Pages: 1
%%EOF
