%!PS-Adobe-3.0 EPSF-3.0
%%Creator: (MATLAB, The Mathworks, Inc. Version 9.1.0.441655 \(R2016b\). Operating System: Windows 8)
%%Title: D:/Users/Administrator/Desktop/flight-control-system-paper/report/fig/lat_before_rlocus.eps
%%CreationDate: 2019-05-03T16:37:53
%%Pages: (atend)
%%BoundingBox: 0 0 420 315
%%LanguageLevel: 3
%%EndComments
%%BeginProlog
%%BeginResource: procset (Apache XML Graphics Std ProcSet) 1.2 0
%%Version: 1.2 0
%%Copyright: (Copyright 2001-2003,2010 The Apache Software Foundation. License terms: http://www.apache.org/licenses/LICENSE-2.0)
/bd{bind def}bind def
/ld{load def}bd
/GR/grestore ld
/M/moveto ld
/LJ/setlinejoin ld
/C/curveto ld
/f/fill ld
/LW/setlinewidth ld
/GC/setgray ld
/t/show ld
/N/newpath ld
/CT/concat ld
/cp/closepath ld
/S/stroke ld
/L/lineto ld
/CC/setcmykcolor ld
/A/ashow ld
/GS/gsave ld
/RC/setrgbcolor ld
/RM/rmoveto ld
/ML/setmiterlimit ld
/re {4 2 roll M
1 index 0 rlineto
0 exch rlineto
neg 0 rlineto
cp } bd
/_ctm matrix def
/_tm matrix def
/BT { _ctm currentmatrix pop matrix _tm copy pop 0 0 moveto } bd
/ET { _ctm setmatrix } bd
/iTm { _ctm setmatrix _tm concat } bd
/Tm { _tm astore pop iTm 0 0 moveto } bd
/ux 0.0 def
/uy 0.0 def
/F {
  /Tp exch def
  /Tf exch def
  Tf findfont Tp scalefont setfont
  /cf Tf def  /cs Tp def
} bd
/ULS {currentpoint /uy exch def /ux exch def} bd
/ULE {
  /Tcx currentpoint pop def
  gsave
  newpath
  cf findfont cs scalefont dup
  /FontMatrix get 0 get /Ts exch def /FontInfo get dup
  /UnderlinePosition get Ts mul /To exch def
  /UnderlineThickness get Ts mul /Tt exch def
  ux uy To add moveto  Tcx uy To add lineto
  Tt setlinewidth stroke
  grestore
} bd
/OLE {
  /Tcx currentpoint pop def
  gsave
  newpath
  cf findfont cs scalefont dup
  /FontMatrix get 0 get /Ts exch def /FontInfo get dup
  /UnderlinePosition get Ts mul /To exch def
  /UnderlineThickness get Ts mul /Tt exch def
  ux uy To add cs add moveto Tcx uy To add cs add lineto
  Tt setlinewidth stroke
  grestore
} bd
/SOE {
  /Tcx currentpoint pop def
  gsave
  newpath
  cf findfont cs scalefont dup
  /FontMatrix get 0 get /Ts exch def /FontInfo get dup
  /UnderlinePosition get Ts mul /To exch def
  /UnderlineThickness get Ts mul /Tt exch def
  ux uy To add cs 10 mul 26 idiv add moveto Tcx uy To add cs 10 mul 26 idiv add lineto
  Tt setlinewidth stroke
  grestore
} bd
/QT {
/Y22 exch store
/X22 exch store
/Y21 exch store
/X21 exch store
currentpoint
/Y21 load 2 mul add 3 div exch
/X21 load 2 mul add 3 div exch
/X21 load 2 mul /X22 load add 3 div
/Y21 load 2 mul /Y22 load add 3 div
/X22 load /Y22 load curveto
} bd
/SSPD {
dup length /d exch dict def
{
/v exch def
/k exch def
currentpagedevice k known {
/cpdv currentpagedevice k get def
v cpdv ne {
/upd false def
/nullv v type /nulltype eq def
/nullcpdv cpdv type /nulltype eq def
nullv nullcpdv or
{
/upd true def
} {
/sametype v type cpdv type eq def
sametype {
v type /arraytype eq {
/vlen v length def
/cpdvlen cpdv length def
vlen cpdvlen eq {
0 1 vlen 1 sub {
/i exch def
/obj v i get def
/cpdobj cpdv i get def
obj cpdobj ne {
/upd true def
exit
} if
} for
} {
/upd true def
} ifelse
} {
v type /dicttype eq {
v {
/dv exch def
/dk exch def
/cpddv cpdv dk get def
dv cpddv ne {
/upd true def
exit
} if
} forall
} {
/upd true def
} ifelse
} ifelse
} if
} ifelse
upd true eq {
d k v put
} if
} if
} if
} forall
d length 0 gt {
d setpagedevice
} if
} bd
/RE { % /NewFontName [NewEncodingArray] /FontName RE -
  findfont dup length dict begin
  {
    1 index /FID ne
    {def} {pop pop} ifelse
  } forall
  /Encoding exch def
  /FontName 1 index def
  currentdict definefont pop
  end
} bind def
%%EndResource
%%BeginResource: procset (Apache XML Graphics EPS ProcSet) 1.0 0
%%Version: 1.0 0
%%Copyright: (Copyright 2002-2003 The Apache Software Foundation. License terms: http://www.apache.org/licenses/LICENSE-2.0)
/BeginEPSF { %def
/b4_Inc_state save def         % Save state for cleanup
/dict_count countdictstack def % Count objects on dict stack
/op_count count 1 sub def      % Count objects on operand stack
userdict begin                 % Push userdict on dict stack
/showpage { } def              % Redefine showpage, { } = null proc
0 setgray 0 setlinecap         % Prepare graphics state
1 setlinewidth 0 setlinejoin
10 setmiterlimit [ ] 0 setdash newpath
/languagelevel where           % If level not equal to 1 then
{pop languagelevel             % set strokeadjust and
1 ne                           % overprint to their defaults.
{false setstrokeadjust false setoverprint
} if
} if
} bd
/EndEPSF { %def
count op_count sub {pop} repeat            % Clean up stacks
countdictstack dict_count sub {end} repeat
b4_Inc_state restore
} bd
%%EndResource
%FOPBeginFontDict
%%IncludeResource: font Courier-Bold
%%IncludeResource: font Helvetica
%%IncludeResource: font Courier-BoldOblique
%%IncludeResource: font Courier-Oblique
%%IncludeResource: font Times-Roman
%%IncludeResource: font Helvetica-BoldOblique
%%IncludeResource: font Helvetica-Bold
%%IncludeResource: font Helvetica-Oblique
%%IncludeResource: font Times-BoldItalic
%%IncludeResource: font Courier
%%IncludeResource: font Times-Italic
%%IncludeResource: font Times-Bold
%%IncludeResource: font Symbol
%%IncludeResource: font ZapfDingbats
%FOPEndFontDict
%%BeginResource: encoding WinAnsiEncoding
/WinAnsiEncoding [
/.notdef /.notdef /.notdef /.notdef /.notdef
/.notdef /.notdef /.notdef /.notdef /.notdef
/.notdef /.notdef /.notdef /.notdef /.notdef
/.notdef /.notdef /.notdef /.notdef /.notdef
/.notdef /.notdef /.notdef /.notdef /.notdef
/.notdef /.notdef /.notdef /.notdef /.notdef
/.notdef /.notdef /space /exclam /quotedbl
/numbersign /dollar /percent /ampersand /quotesingle
/parenleft /parenright /asterisk /plus /comma
/hyphen /period /slash /zero /one
/two /three /four /five /six
/seven /eight /nine /colon /semicolon
/less /equal /greater /question /at
/A /B /C /D /E
/F /G /H /I /J
/K /L /M /N /O
/P /Q /R /S /T
/U /V /W /X /Y
/Z /bracketleft /backslash /bracketright /asciicircum
/underscore /quoteleft /a /b /c
/d /e /f /g /h
/i /j /k /l /m
/n /o /p /q /r
/s /t /u /v /w
/x /y /z /braceleft /bar
/braceright /asciitilde /bullet /Euro /bullet
/quotesinglbase /florin /quotedblbase /ellipsis /dagger
/daggerdbl /circumflex /perthousand /Scaron /guilsinglleft
/OE /bullet /Zcaron /bullet /bullet
/quoteleft /quoteright /quotedblleft /quotedblright /bullet
/endash /emdash /asciitilde /trademark /scaron
/guilsinglright /oe /bullet /zcaron /Ydieresis
/space /exclamdown /cent /sterling /currency
/yen /brokenbar /section /dieresis /copyright
/ordfeminine /guillemotleft /logicalnot /sfthyphen /registered
/macron /degree /plusminus /twosuperior /threesuperior
/acute /mu /paragraph /middot /cedilla
/onesuperior /ordmasculine /guillemotright /onequarter /onehalf
/threequarters /questiondown /Agrave /Aacute /Acircumflex
/Atilde /Adieresis /Aring /AE /Ccedilla
/Egrave /Eacute /Ecircumflex /Edieresis /Igrave
/Iacute /Icircumflex /Idieresis /Eth /Ntilde
/Ograve /Oacute /Ocircumflex /Otilde /Odieresis
/multiply /Oslash /Ugrave /Uacute /Ucircumflex
/Udieresis /Yacute /Thorn /germandbls /agrave
/aacute /acircumflex /atilde /adieresis /aring
/ae /ccedilla /egrave /eacute /ecircumflex
/edieresis /igrave /iacute /icircumflex /idieresis
/eth /ntilde /ograve /oacute /ocircumflex
/otilde /odieresis /divide /oslash /ugrave
/uacute /ucircumflex /udieresis /yacute /thorn
/ydieresis
] def
%%EndResource
%FOPBeginFontReencode
/Courier-Bold findfont
dup length dict begin
  {1 index /FID ne {def} {pop pop} ifelse} forall
  /Encoding WinAnsiEncoding def
  currentdict
end
/Courier-Bold exch definefont pop
/Helvetica findfont
dup length dict begin
  {1 index /FID ne {def} {pop pop} ifelse} forall
  /Encoding WinAnsiEncoding def
  currentdict
end
/Helvetica exch definefont pop
/Courier-BoldOblique findfont
dup length dict begin
  {1 index /FID ne {def} {pop pop} ifelse} forall
  /Encoding WinAnsiEncoding def
  currentdict
end
/Courier-BoldOblique exch definefont pop
/Courier-Oblique findfont
dup length dict begin
  {1 index /FID ne {def} {pop pop} ifelse} forall
  /Encoding WinAnsiEncoding def
  currentdict
end
/Courier-Oblique exch definefont pop
/Times-Roman findfont
dup length dict begin
  {1 index /FID ne {def} {pop pop} ifelse} forall
  /Encoding WinAnsiEncoding def
  currentdict
end
/Times-Roman exch definefont pop
/Helvetica-BoldOblique findfont
dup length dict begin
  {1 index /FID ne {def} {pop pop} ifelse} forall
  /Encoding WinAnsiEncoding def
  currentdict
end
/Helvetica-BoldOblique exch definefont pop
/Helvetica-Bold findfont
dup length dict begin
  {1 index /FID ne {def} {pop pop} ifelse} forall
  /Encoding WinAnsiEncoding def
  currentdict
end
/Helvetica-Bold exch definefont pop
/Helvetica-Oblique findfont
dup length dict begin
  {1 index /FID ne {def} {pop pop} ifelse} forall
  /Encoding WinAnsiEncoding def
  currentdict
end
/Helvetica-Oblique exch definefont pop
/Times-BoldItalic findfont
dup length dict begin
  {1 index /FID ne {def} {pop pop} ifelse} forall
  /Encoding WinAnsiEncoding def
  currentdict
end
/Times-BoldItalic exch definefont pop
/Courier findfont
dup length dict begin
  {1 index /FID ne {def} {pop pop} ifelse} forall
  /Encoding WinAnsiEncoding def
  currentdict
end
/Courier exch definefont pop
/Times-Italic findfont
dup length dict begin
  {1 index /FID ne {def} {pop pop} ifelse} forall
  /Encoding WinAnsiEncoding def
  currentdict
end
/Times-Italic exch definefont pop
/Times-Bold findfont
dup length dict begin
  {1 index /FID ne {def} {pop pop} ifelse} forall
  /Encoding WinAnsiEncoding def
  currentdict
end
/Times-Bold exch definefont pop
%FOPEndFontReencode
%%EndProlog
%%Page: 1 1
%%PageBoundingBox: 0 0 420 315
%%BeginPageSetup
[1 0 0 -1 0 315] CT
%%EndPageSetup
GS
[0.6 0 0 0.6 0 0] CT
1 GC
N
0 0 700 525 re
f
GR
GS
[0.6 0 0 0.6 0 0] CT
1 GC
N
0 0 700 525 re
f
GR
GS
[0.6 0 0 0.6 0 0] CT
1 GC
N
106 467 M
634 467 L
634 64 L
106 64 L
cp
f
GR
GS
[0.6 0 0 0.6 0 0] CT
0.4 GC
2 setlinecap
1 LJ
0.833 LW
N
106 467 M
634 467 L
S
GR
GS
[0.6 0 0 0.6 0 0] CT
0.4 GC
2 setlinecap
1 LJ
0.833 LW
N
106 64 M
634 64 L
S
GR
GS
[0.6 0 0 0.6 0 0] CT
0.4 GC
2 setlinecap
1 LJ
0.833 LW
N
106 467 M
106 461.72 L
S
GR
GS
[0.6 0 0 0.6 0 0] CT
0.4 GC
2 setlinecap
1 LJ
0.833 LW
N
181.429 467 M
181.429 461.72 L
S
GR
GS
[0.6 0 0 0.6 0 0] CT
0.4 GC
2 setlinecap
1 LJ
0.833 LW
N
256.857 467 M
256.857 461.72 L
S
GR
GS
[0.6 0 0 0.6 0 0] CT
0.4 GC
2 setlinecap
1 LJ
0.833 LW
N
332.286 467 M
332.286 461.72 L
S
GR
GS
[0.6 0 0 0.6 0 0] CT
0.4 GC
2 setlinecap
1 LJ
0.833 LW
N
407.714 467 M
407.714 461.72 L
S
GR
GS
[0.6 0 0 0.6 0 0] CT
0.4 GC
2 setlinecap
1 LJ
0.833 LW
N
483.143 467 M
483.143 461.72 L
S
GR
GS
[0.6 0 0 0.6 0 0] CT
0.4 GC
2 setlinecap
1 LJ
0.833 LW
N
558.571 467 M
558.571 461.72 L
S
GR
GS
[0.6 0 0 0.6 0 0] CT
0.4 GC
2 setlinecap
1 LJ
0.833 LW
N
634 467 M
634 461.72 L
S
GR
GS
[0.6 0 0 0.6 0 0] CT
0.4 GC
2 setlinecap
1 LJ
0.833 LW
N
106 64 M
106 69.28 L
S
GR
GS
[0.6 0 0 0.6 0 0] CT
0.4 GC
2 setlinecap
1 LJ
0.833 LW
N
181.429 64 M
181.429 69.28 L
S
GR
GS
[0.6 0 0 0.6 0 0] CT
0.4 GC
2 setlinecap
1 LJ
0.833 LW
N
256.857 64 M
256.857 69.28 L
S
GR
GS
[0.6 0 0 0.6 0 0] CT
0.4 GC
2 setlinecap
1 LJ
0.833 LW
N
332.286 64 M
332.286 69.28 L
S
GR
GS
[0.6 0 0 0.6 0 0] CT
0.4 GC
2 setlinecap
1 LJ
0.833 LW
N
407.714 64 M
407.714 69.28 L
S
GR
GS
[0.6 0 0 0.6 0 0] CT
0.4 GC
2 setlinecap
1 LJ
0.833 LW
N
483.143 64 M
483.143 69.28 L
S
GR
GS
[0.6 0 0 0.6 0 0] CT
0.4 GC
2 setlinecap
1 LJ
0.833 LW
N
558.571 64 M
558.571 69.28 L
S
GR
GS
[0.6 0 0 0.6 0 0] CT
0.4 GC
2 setlinecap
1 LJ
0.833 LW
N
634 64 M
634 69.28 L
S
GR
GS
[0.6 0 0 0.6 63.6 284.19999] CT
0.4 GC
/Helvetica 16.667 F
GS
[1 0 0 1 0 0] CT
-12.5 18 moveto 
1 -1 scale
(-12) t 
GR
GR
GS
[0.6 0 0 0.6 108.85714 284.19999] CT
0.4 GC
/Helvetica 16.667 F
GS
[1 0 0 1 0 0] CT
-12.5 18 moveto 
1 -1 scale
(-10) t 
GR
GR
GS
[0.6 0 0 0.6 154.11429 284.19999] CT
0.4 GC
/Helvetica 16.667 F
GS
[1 0 0 1 0 0] CT
-8 18 moveto 
1 -1 scale
(-8) t 
GR
GR
GS
[0.6 0 0 0.6 199.37142 284.19999] CT
0.4 GC
/Helvetica 16.667 F
GS
[1 0 0 1 0 0] CT
-8 18 moveto 
1 -1 scale
(-6) t 
GR
GR
GS
[0.6 0 0 0.6 244.62858 284.19999] CT
0.4 GC
/Helvetica 16.667 F
GS
[1 0 0 1 0 0] CT
-8 18 moveto 
1 -1 scale
(-4) t 
GR
GR
GS
[0.6 0 0 0.6 289.88571 284.19999] CT
0.4 GC
/Helvetica 16.667 F
GS
[1 0 0 1 0 0] CT
-8 18 moveto 
1 -1 scale
(-2) t 
GR
GR
GS
[0.6 0 0 0.6 335.14285 284.19999] CT
0.4 GC
/Helvetica 16.667 F
GS
[1 0 0 1 0 0] CT
-5 18 moveto 
1 -1 scale
(0) t 
GR
GR
GS
[0.6 0 0 0.6 380.4 284.19999] CT
0.4 GC
/Helvetica 16.667 F
GS
[1 0 0 1 0 0] CT
-5 18 moveto 
1 -1 scale
(2) t 
GR
GR
GS
[0.6 0 0 0.6 0 0] CT
0.4 GC
2 setlinecap
1 LJ
0.833 LW
N
106 467 M
106 64 L
S
GR
GS
[0.6 0 0 0.6 0 0] CT
0.4 GC
2 setlinecap
1 LJ
0.833 LW
N
634 467 M
634 64 L
S
GR
GS
[0.6 0 0 0.6 0 0] CT
0.4 GC
2 setlinecap
1 LJ
0.833 LW
N
106 467 M
111.28 467 L
S
GR
GS
[0.6 0 0 0.6 0 0] CT
0.4 GC
2 setlinecap
1 LJ
0.833 LW
N
106 399.833 M
111.28 399.833 L
S
GR
GS
[0.6 0 0 0.6 0 0] CT
0.4 GC
2 setlinecap
1 LJ
0.833 LW
N
106 332.667 M
111.28 332.667 L
S
GR
GS
[0.6 0 0 0.6 0 0] CT
0.4 GC
2 setlinecap
1 LJ
0.833 LW
N
106 265.5 M
111.28 265.5 L
S
GR
GS
[0.6 0 0 0.6 0 0] CT
0.4 GC
2 setlinecap
1 LJ
0.833 LW
N
106 198.333 M
111.28 198.333 L
S
GR
GS
[0.6 0 0 0.6 0 0] CT
0.4 GC
2 setlinecap
1 LJ
0.833 LW
N
106 131.167 M
111.28 131.167 L
S
GR
GS
[0.6 0 0 0.6 0 0] CT
0.4 GC
2 setlinecap
1 LJ
0.833 LW
N
106 64 M
111.28 64 L
S
GR
GS
[0.6 0 0 0.6 0 0] CT
0.4 GC
2 setlinecap
1 LJ
0.833 LW
N
634 467 M
628.72 467 L
S
GR
GS
[0.6 0 0 0.6 0 0] CT
0.4 GC
2 setlinecap
1 LJ
0.833 LW
N
634 399.833 M
628.72 399.833 L
S
GR
GS
[0.6 0 0 0.6 0 0] CT
0.4 GC
2 setlinecap
1 LJ
0.833 LW
N
634 332.667 M
628.72 332.667 L
S
GR
GS
[0.6 0 0 0.6 0 0] CT
0.4 GC
2 setlinecap
1 LJ
0.833 LW
N
634 265.5 M
628.72 265.5 L
S
GR
GS
[0.6 0 0 0.6 0 0] CT
0.4 GC
2 setlinecap
1 LJ
0.833 LW
N
634 198.333 M
628.72 198.333 L
S
GR
GS
[0.6 0 0 0.6 0 0] CT
0.4 GC
2 setlinecap
1 LJ
0.833 LW
N
634 131.167 M
628.72 131.167 L
S
GR
GS
[0.6 0 0 0.6 0 0] CT
0.4 GC
2 setlinecap
1 LJ
0.833 LW
N
634 64 M
628.72 64 L
S
GR
GS
[0.6 0 0 0.6 59.60001 280.2] CT
0.4 GC
/Helvetica 16.667 F
GS
[1 0 0 1 0 0] CT
-16 7 moveto 
1 -1 scale
(-3) t 
GR
GR
GS
[0.6 0 0 0.6 59.60001 239.90001] CT
0.4 GC
/Helvetica 16.667 F
GS
[1 0 0 1 0 0] CT
-16 7 moveto 
1 -1 scale
(-2) t 
GR
GR
GS
[0.6 0 0 0.6 59.60001 199.59999] CT
0.4 GC
/Helvetica 16.667 F
GS
[1 0 0 1 0 0] CT
-16 7 moveto 
1 -1 scale
(-1) t 
GR
GR
GS
[0.6 0 0 0.6 59.60001 159.3] CT
0.4 GC
/Helvetica 16.667 F
GS
[1 0 0 1 0 0] CT
-10 7 moveto 
1 -1 scale
(0) t 
GR
GR
GS
[0.6 0 0 0.6 59.60001 119] CT
0.4 GC
/Helvetica 16.667 F
GS
[1 0 0 1 0 0] CT
-10 7 moveto 
1 -1 scale
(1) t 
GR
GR
GS
[0.6 0 0 0.6 59.60001 78.7] CT
0.4 GC
/Helvetica 16.667 F
GS
[1 0 0 1 0 0] CT
-10 7 moveto 
1 -1 scale
(2) t 
GR
GR
GS
[0.6 0 0 0.6 59.60001 38.4] CT
0.4 GC
/Helvetica 16.667 F
GS
[1 0 0 1 0 0] CT
-10 7 moveto 
1 -1 scale
(3) t 
GR
GR
GS
[0.6 0 0 0.6 0 0] CT
0.4 GC
[1 3] 0 setdash
2 LJ
0.833 LW
N
105.937 265.5 M
520.857 265.5 L
S
GR
GS
[0.6 0 0 0.6 0 0] CT
0.4 GC
[1 3] 0 setdash
2 LJ
0.833 LW
N
520.857 265.5 M
558.571 265.5 L
S
GR
GS
[0.6 0 0 0.6 0 0] CT
0.4 GC
[1 3] 0 setdash
2 LJ
0.833 LW
N
558.571 265.5 M
596.286 265.5 L
S
GR
GS
[0.6 0 0 0.6 0 0] CT
0.4 GC
[1 3] 0 setdash
2 LJ
0.833 LW
N
596.286 265.5 M
634.063 265.5 L
S
GR
GS
[0.6 0 0 0.6 0 0] CT
0.4 GC
[1 3] 0 setdash
2 LJ
0.833 LW
N
278.91 467.048 M
278.068 463.409 L
S
GR
GS
[0.6 0 0 0.6 0 0] CT
0.4 GC
[1 3] 0 setdash
2 LJ
0.833 LW
N
278.068 463.409 M
275.241 450.198 L
S
GR
GS
[0.6 0 0 0.6 153.71605 276.57301] CT
0.2 GC
/Helvetica 16.667 F
GS
[1 0 0 1 0 0] CT
-17 -4 moveto 
1 -1 scale
(0.94) t 
GR
GR
GS
[0.6 0 0 0.6 0 0] CT
0.4 GC
[1 3] 0 setdash
2 LJ
0.833 LW
N
275.241 450.198 M
272.731 437.492 L
S
GR
GS
[0.6 0 0 0.6 0 0] CT
0.4 GC
[1 3] 0 setdash
2 LJ
0.833 LW
N
272.731 437.492 M
270.499 425.247 L
S
GR
GS
[0.6 0 0 0.6 0 0] CT
0.4 GC
[1 3] 0 setdash
2 LJ
0.833 LW
N
270.499 425.247 M
268.516 413.426 L
S
GR
GS
[0.6 0 0 0.6 0 0] CT
0.4 GC
[1 3] 0 setdash
2 LJ
0.833 LW
N
268.516 413.426 M
266.753 401.991 L
S
GR
GS
[0.6 0 0 0.6 0 0] CT
0.4 GC
[1 3] 0 setdash
2 LJ
0.833 LW
N
266.753 401.991 M
265.189 390.905 L
S
GR
GS
[0.6 0 0 0.6 0 0] CT
0.4 GC
[1 3] 0 setdash
2 LJ
0.833 LW
N
265.189 390.905 M
263.803 380.135 L
S
GR
GS
[0.6 0 0 0.6 0 0] CT
0.4 GC
[1 3] 0 setdash
2 LJ
0.833 LW
N
263.803 380.135 M
262.579 369.65 L
S
GR
GS
[0.6 0 0 0.6 0 0] CT
0.4 GC
[1 3] 0 setdash
2 LJ
0.833 LW
N
262.579 369.65 M
261.502 359.419 L
S
GR
GS
[0.6 0 0 0.6 0 0] CT
0.4 GC
[1 3] 0 setdash
2 LJ
0.833 LW
N
261.502 359.419 M
260.559 349.414 L
S
GR
GS
[0.6 0 0 0.6 0 0] CT
0.4 GC
[1 3] 0 setdash
2 LJ
0.833 LW
N
260.559 349.414 M
259.741 339.609 L
S
GR
GS
[0.6 0 0 0.6 0 0] CT
0.4 GC
[1 3] 0 setdash
2 LJ
0.833 LW
N
259.741 339.609 M
259.037 329.978 L
S
GR
GS
[0.6 0 0 0.6 0 0] CT
0.4 GC
[1 3] 0 setdash
2 LJ
0.833 LW
N
259.037 329.978 M
258.442 320.496 L
S
GR
GS
[0.6 0 0 0.6 0 0] CT
0.4 GC
[1 3] 0 setdash
2 LJ
0.833 LW
N
258.442 320.496 M
257.948 311.141 L
S
GR
GS
[0.6 0 0 0.6 0 0] CT
0.4 GC
[1 3] 0 setdash
2 LJ
0.833 LW
N
257.948 311.141 M
257.55 301.89 L
S
GR
GS
[0.6 0 0 0.6 0 0] CT
0.4 GC
[1 3] 0 setdash
2 LJ
0.833 LW
N
257.55 301.89 M
257.245 292.721 L
S
GR
GS
[0.6 0 0 0.6 0 0] CT
0.4 GC
[1 3] 0 setdash
2 LJ
0.833 LW
N
257.245 292.721 M
257.029 283.614 L
S
GR
GS
[0.6 0 0 0.6 0 0] CT
0.4 GC
[1 3] 0 setdash
2 LJ
0.833 LW
N
257.029 283.614 M
256.9 274.547 L
S
GR
GS
[0.6 0 0 0.6 0 0] CT
0.4 GC
[1 3] 0 setdash
2 LJ
0.833 LW
N
256.9 274.547 M
256.857 265.5 L
S
GR
GS
[0.6 0 0 0.6 0 0] CT
0.4 GC
[1 3] 0 setdash
2 LJ
0.833 LW
N
198.821 467.048 M
198.481 465.184 L
S
GR
GS
[0.6 0 0 0.6 0 0] CT
0.4 GC
[1 3] 0 setdash
2 LJ
0.833 LW
N
198.481 465.184 M
196.002 450.408 L
S
GR
GS
[0.6 0 0 0.6 0 0] CT
0.4 GC
[1 3] 0 setdash
2 LJ
0.833 LW
N
196.002 450.408 M
193.799 436.113 L
S
GR
GS
[0.6 0 0 0.6 0 0] CT
0.4 GC
[1 3] 0 setdash
2 LJ
0.833 LW
N
193.799 436.113 M
191.843 422.256 L
S
GR
GS
[0.6 0 0 0.6 0 0] CT
0.4 GC
[1 3] 0 setdash
2 LJ
0.833 LW
N
190.111 408.794 M
188.581 395.687 L
S
GR
GS
[0.6 0 0 0.6 0 0] CT
0.4 GC
[1 3] 0 setdash
2 LJ
0.833 LW
N
188.581 395.687 M
187.234 382.899 L
S
GR
GS
[0.6 0 0 0.6 0 0] CT
0.4 GC
[1 3] 0 setdash
2 LJ
0.833 LW
N
187.234 382.899 M
186.056 370.393 L
S
GR
GS
[0.6 0 0 0.6 0 0] CT
0.4 GC
[1 3] 0 setdash
2 LJ
0.833 LW
N
186.056 370.393 M
185.033 358.137 L
S
GR
GS
[0.6 0 0 0.6 0 0] CT
0.4 GC
[1 3] 0 setdash
2 LJ
0.833 LW
N
185.033 358.137 M
184.154 346.098 L
S
GR
GS
[0.6 0 0 0.6 0 0] CT
0.4 GC
[1 3] 0 setdash
2 LJ
0.833 LW
N
184.154 346.098 M
183.409 334.245 L
S
GR
GS
[0.6 0 0 0.6 0 0] CT
0.4 GC
[1 3] 0 setdash
2 LJ
0.833 LW
N
183.409 334.245 M
182.792 322.551 L
S
GR
GS
[0.6 0 0 0.6 0 0] CT
0.4 GC
[1 3] 0 setdash
2 LJ
0.833 LW
N
182.792 322.551 M
182.294 310.987 L
S
GR
GS
[0.6 0 0 0.6 0 0] CT
0.4 GC
[1 3] 0 setdash
2 LJ
0.833 LW
N
182.294 310.987 M
181.913 299.526 L
S
GR
GS
[0.6 0 0 0.6 0 0] CT
0.4 GC
[1 3] 0 setdash
2 LJ
0.833 LW
N
181.913 299.526 M
181.643 288.142 L
S
GR
GS
[0.6 0 0 0.6 0 0] CT
0.4 GC
[1 3] 0 setdash
2 LJ
0.833 LW
N
181.643 288.142 M
181.482 276.808 L
S
GR
GS
[0.6 0 0 0.6 0 0] CT
0.4 GC
[1 3] 0 setdash
2 LJ
0.833 LW
N
181.482 276.808 M
181.429 265.5 L
S
GR
GS
[0.6 0 0 0.6 72.40169 276.57301] CT
0.2 GC
/Helvetica 16.667 F
GS
[1 0 0 1 0 0] CT
-17 -4 moveto 
1 -1 scale
(0.97) t 
GR
GR
GS
[0.6 0 0 0.6 0 0] CT
0.4 GC
[1 3] 0 setdash
2 LJ
0.833 LW
N
120.394 467.048 M
118.498 453.607 L
S
GR
GS
[0.6 0 0 0.6 0 0] CT
0.4 GC
[1 3] 0 setdash
2 LJ
0.833 LW
N
118.498 453.607 M
116.419 437.453 L
S
GR
GS
[0.6 0 0 0.6 0 0] CT
0.4 GC
[1 3] 0 setdash
2 LJ
0.833 LW
N
116.419 437.453 M
114.583 421.725 L
S
GR
GS
[0.6 0 0 0.6 0 0] CT
0.4 GC
[1 3] 0 setdash
2 LJ
0.833 LW
N
114.583 421.725 M
112.967 406.379 L
S
GR
GS
[0.6 0 0 0.6 0 0] CT
0.4 GC
[1 3] 0 setdash
2 LJ
0.833 LW
N
112.967 406.379 M
111.553 391.372 L
S
GR
GS
[0.6 0 0 0.6 0 0] CT
0.4 GC
[1 3] 0 setdash
2 LJ
0.833 LW
N
111.553 391.372 M
110.325 376.664 L
S
GR
GS
[0.6 0 0 0.6 0 0] CT
0.4 GC
[1 3] 0 setdash
2 LJ
0.833 LW
N
110.325 376.664 M
109.27 362.217 L
S
GR
GS
[0.6 0 0 0.6 0 0] CT
0.4 GC
[1 3] 0 setdash
2 LJ
0.833 LW
N
109.27 362.217 M
108.377 347.995 L
S
GR
GS
[0.6 0 0 0.6 0 0] CT
0.4 GC
[1 3] 0 setdash
2 LJ
0.833 LW
N
108.377 347.995 M
107.636 333.962 L
S
GR
GS
[0.6 0 0 0.6 0 0] CT
0.4 GC
[1 3] 0 setdash
2 LJ
0.833 LW
N
107.636 333.962 M
107.039 320.085 L
S
GR
GS
[0.6 0 0 0.6 0 0] CT
0.4 GC
[1 3] 0 setdash
2 LJ
0.833 LW
N
107.039 320.085 M
106.581 306.332 L
S
GR
GS
[0.6 0 0 0.6 0 0] CT
0.4 GC
[1 3] 0 setdash
2 LJ
0.833 LW
N
106.581 306.332 M
106.257 292.67 L
S
GR
GS
[0.6 0 0 0.6 0 0] CT
0.4 GC
[1 3] 0 setdash
2 LJ
0.833 LW
N
106.257 292.67 M
106.064 279.07 L
S
GR
GS
[0.6 0 0 0.6 0 0] CT
0.4 GC
[1 3] 0 setdash
2 LJ
0.833 LW
N
106.064 279.07 M
106 265.5 L
S
GR
GS
[0.6 0 0 0.6 310.53948 42.02699] CT
0.2 GC
/Helvetica 16.667 F
GS
[1 0 0 1 0 0] CT
-17 18 moveto 
1 -1 scale
(0.35) t 
GR
GR
GS
[0.6 0 0 0.6 280.29534 42.02699] CT
0.2 GC
/Helvetica 16.667 F
GS
[1 0 0 1 0 0] CT
-17 18 moveto 
1 -1 scale
(0.64) t 
GR
GR
GS
[0.6 0 0 0.6 247.34399 42.02699] CT
0.2 GC
/Helvetica 16.667 F
GS
[1 0 0 1 0 0] CT
-12 18 moveto 
1 -1 scale
(0.8) t 
GR
GR
GS
[0.6 0 0 0.6 206.61037 42.02699] CT
0.2 GC
/Helvetica 16.667 F
GS
[1 0 0 1 0 0] CT
-17 18 moveto 
1 -1 scale
(0.89) t 
GR
GR
GS
[0.6 0 0 0.6 153.71605 42.02699] CT
0.2 GC
/Helvetica 16.667 F
GS
[1 0 0 1 0 0] CT
-17 18 moveto 
1 -1 scale
(0.94) t 
GR
GR
GS
[0.6 0 0 0.6 72.40169 42.02699] CT
0.2 GC
/Helvetica 16.667 F
GS
[1 0 0 1 0 0] CT
-17 18 moveto 
1 -1 scale
(0.97) t 
GR
GR
GS
[0.6 0 0 0.6 68.352 85.02191] CT
0.2 GC
/Helvetica 16.667 F
GS
[1 0 0 1 0 0] CT
0 7 moveto 
1 -1 scale
(0.988) t 
GR
GR
GS
[0.6 0 0 0.6 68.352 122.413] CT
0.2 GC
/Helvetica 16.667 F
GS
[1 0 0 1 0 0] CT
0 7 moveto 
1 -1 scale
(0.997) t 
GR
GR
GS
[0.6 0 0 0.6 310.53948 276.57301] CT
0.2 GC
/Helvetica 16.667 F
GS
[1 0 0 1 0 0] CT
-17 -4 moveto 
1 -1 scale
(0.35) t 
GR
GR
GS
[0.6 0 0 0.6 280.29534 276.57301] CT
0.2 GC
/Helvetica 16.667 F
GS
[1 0 0 1 0 0] CT
-17 -4 moveto 
1 -1 scale
(0.64) t 
GR
GR
GS
[0.6 0 0 0.6 247.34399 276.57301] CT
0.2 GC
/Helvetica 16.667 F
GS
[1 0 0 1 0 0] CT
-12 -4 moveto 
1 -1 scale
(0.8) t 
GR
GR
GS
[0.6 0 0 0.6 206.61037 276.57301] CT
0.2 GC
/Helvetica 16.667 F
GS
[1 0 0 1 0 0] CT
-17 -4 moveto 
1 -1 scale
(0.89) t 
GR
GR
GS
[0.6 0 0 0.6 68.352 233.57809] CT
0.2 GC
/Helvetica 16.667 F
GS
[1 0 0 1 0 0] CT
0 7 moveto 
1 -1 scale
(0.988) t 
GR
GR
GS
[0.6 0 0 0.6 68.352 196.187] CT
0.2 GC
/Helvetica 16.667 F
GS
[1 0 0 1 0 0] CT
0 7 moveto 
1 -1 scale
(0.997) t 
GR
GR
GS
[0.6 0 0 0.6 289.88571 159.3] CT
0.2 GC
/Helvetica 16.667 F
GS
[1 0 0 1 0 0] CT
-10 -4 moveto 
1 -1 scale
(2) t 
GR
GR
GS
[0.6 0 0 0.6 244.62858 159.3] CT
0.2 GC
/Helvetica 16.667 F
GS
[1 0 0 1 0 0] CT
-10 -4 moveto 
1 -1 scale
(4) t 
GR
GR
GS
[0.6 0 0 0.6 199.37142 159.3] CT
0.2 GC
/Helvetica 16.667 F
GS
[1 0 0 1 0 0] CT
-10 -4 moveto 
1 -1 scale
(6) t 
GR
GR
GS
[0.6 0 0 0.6 154.11429 159.3] CT
0.2 GC
/Helvetica 16.667 F
GS
[1 0 0 1 0 0] CT
-10 -4 moveto 
1 -1 scale
(8) t 
GR
GR
GS
[0.6 0 0 0.6 108.85714 159.3] CT
0.2 GC
/Helvetica 16.667 F
GS
[1 0 0 1 0 0] CT
-19 -4 moveto 
1 -1 scale
(10) t 
GR
GR
GS
[0.6 0 0 0.6 63.6 159.3] CT
0.2 GC
/Helvetica 16.667 F
GS
[1 0 0 1 0 0] CT
-19 -4 moveto 
1 -1 scale
(12) t 
GR
GR
GS
[0.6 0 0 0.6 0 0] CT
0.4 GC
[1 3] 0 setdash
2 LJ
0.833 LW
N
558.571 265.5 M
558.571 63.952 L
S
GR
GS
[0.6 0 0 0.6 0 0] CT
0.4 GC
[1 3] 0 setdash
2 LJ
0.833 LW
N
558.571 265.5 M
516.288 63.952 L
S
GR
GS
[0.6 0 0 0.6 0 0] CT
0.4 GC
[1 3] 0 setdash
2 LJ
0.833 LW
N
558.571 265.5 M
464.309 63.952 L
S
GR
GS
[0.6 0 0 0.6 0 0] CT
0.4 GC
[1 3] 0 setdash
2 LJ
0.833 LW
N
558.571 265.5 M
407.678 63.952 L
S
GR
GS
[0.6 0 0 0.6 0 0] CT
0.4 GC
[1 3] 0 setdash
2 LJ
0.833 LW
N
558.571 265.5 M
337.673 63.952 L
S
GR
GS
[0.6 0 0 0.6 0 0] CT
0.4 GC
[1 3] 0 setdash
2 LJ
0.833 LW
N
558.571 265.5 M
246.767 63.952 L
S
GR
GS
[0.6 0 0 0.6 0 0] CT
0.4 GC
[1 3] 0 setdash
2 LJ
0.833 LW
N
558.571 265.5 M
107.019 63.952 L
S
GR
GS
[0.6 0 0 0.6 0 0] CT
0.4 GC
[1 3] 0 setdash
2 LJ
0.833 LW
N
558.571 265.5 M
105.937 139.481 L
S
GR
GS
[0.6 0 0 0.6 0 0] CT
0.4 GC
[1 3] 0 setdash
2 LJ
0.833 LW
N
558.571 265.5 M
105.937 202.918 L
S
GR
GS
[0.6 0 0 0.6 0 0] CT
0.4 GC
[1 3] 0 setdash
2 LJ
0.833 LW
N
558.571 265.5 M
105.937 265.5 L
S
GR
GS
[0.6 0 0 0.6 0 0] CT
0.4 GC
[1 3] 0 setdash
2 LJ
0.833 LW
N
558.571 265.5 M
558.571 467.048 L
S
GR
GS
[0.6 0 0 0.6 0 0] CT
0.4 GC
[1 3] 0 setdash
2 LJ
0.833 LW
N
558.571 265.5 M
516.288 467.048 L
S
GR
GS
[0.6 0 0 0.6 0 0] CT
0.4 GC
[1 3] 0 setdash
2 LJ
0.833 LW
N
558.571 265.5 M
464.309 467.048 L
S
GR
GS
[0.6 0 0 0.6 0 0] CT
0.4 GC
[1 3] 0 setdash
2 LJ
0.833 LW
N
558.571 265.5 M
407.678 467.048 L
S
GR
GS
[0.6 0 0 0.6 0 0] CT
0.4 GC
[1 3] 0 setdash
2 LJ
0.833 LW
N
558.571 265.5 M
337.673 467.048 L
S
GR
GS
[0.6 0 0 0.6 0 0] CT
0.4 GC
[1 3] 0 setdash
2 LJ
0.833 LW
N
558.571 265.5 M
246.767 467.048 L
S
GR
GS
[0.6 0 0 0.6 0 0] CT
0.4 GC
[1 3] 0 setdash
2 LJ
0.833 LW
N
558.571 265.5 M
107.018 467.048 L
S
GR
GS
[0.6 0 0 0.6 0 0] CT
0.4 GC
[1 3] 0 setdash
2 LJ
0.833 LW
N
558.571 265.5 M
105.937 391.519 L
S
GR
GS
[0.6 0 0 0.6 0 0] CT
0.4 GC
[1 3] 0 setdash
2 LJ
0.833 LW
N
558.571 265.5 M
105.937 328.082 L
S
GR
GS
[0.6 0 0 0.6 0 0] CT
0.4 GC
[1 3] 0 setdash
2 LJ
0.833 LW
N
558.571 265.5 M
105.937 265.5 L
S
GR
GS
[0.6 0 0 0.6 0 0] CT
0.4 GC
[1 3] 0 setdash
2 LJ
0.833 LW
N
558.571 265.5 M
558.571 265.5 L
S
GR
GS
[0.6 0 0 0.6 0 0] CT
0.4 GC
[1 3] 0 setdash
2 LJ
0.833 LW
N
558.571 265.5 M
558.571 265.5 L
S
GR
GS
[0.6 0 0 0.6 0 0] CT
0.4 GC
[1 3] 0 setdash
2 LJ
0.833 LW
N
558.571 265.5 M
558.571 265.5 L
S
GR
GS
[0.6 0 0 0.6 0 0] CT
0.4 GC
[1 3] 0 setdash
2 LJ
0.833 LW
N
558.571 265.5 M
558.571 265.5 L
S
GR
GS
[0.6 0 0 0.6 0 0] CT
0.4 GC
[1 3] 0 setdash
2 LJ
0.833 LW
N
558.571 265.5 M
558.571 265.5 L
S
GR
GS
[0.6 0 0 0.6 0 0] CT
0.4 GC
[1 3] 0 setdash
2 LJ
0.833 LW
N
558.571 265.5 M
558.571 265.5 L
S
GR
GS
[0.6 0 0 0.6 0 0] CT
0.4 GC
[1 3] 0 setdash
2 LJ
0.833 LW
N
558.571 265.5 M
558.571 265.5 L
S
GR
GS
[0.6 0 0 0.6 0 0] CT
0.4 GC
[1 3] 0 setdash
2 LJ
0.833 LW
N
558.571 265.5 M
558.571 265.5 L
S
GR
GS
[0.6 0 0 0.6 0 0] CT
0.4 GC
[1 3] 0 setdash
2 LJ
0.833 LW
N
558.571 265.5 M
558.571 265.5 L
S
GR
GS
[0.6 0 0 0.6 0 0] CT
0.4 GC
[1 3] 0 setdash
2 LJ
0.833 LW
N
558.571 265.5 M
558.571 265.5 L
S
GR
GS
[0.6 0 0 0.6 0 0] CT
0.4 GC
[1 3] 0 setdash
2 LJ
0.833 LW
N
558.571 265.5 M
558.571 265.5 L
S
GR
GS
[0.6 0 0 0.6 0 0] CT
0.4 GC
[1 3] 0 setdash
2 LJ
0.833 LW
N
558.571 265.5 M
558.571 265.5 L
S
GR
GS
[0.6 0 0 0.6 0 0] CT
0.4 GC
[1 3] 0 setdash
2 LJ
0.833 LW
N
558.571 265.5 M
558.571 265.5 L
S
GR
GS
[0.6 0 0 0.6 0 0] CT
0.4 GC
[1 3] 0 setdash
2 LJ
0.833 LW
N
558.571 265.5 M
558.571 265.5 L
S
GR
GS
[0.6 0 0 0.6 0 0] CT
0.4 GC
[1 3] 0 setdash
2 LJ
0.833 LW
N
558.571 265.5 M
558.571 265.5 L
S
GR
GS
[0.6 0 0 0.6 0 0] CT
0.4 GC
[1 3] 0 setdash
2 LJ
0.833 LW
N
558.571 265.5 M
558.571 265.5 L
S
GR
GS
[0.6 0 0 0.6 0 0] CT
0.4 GC
[1 3] 0 setdash
2 LJ
0.833 LW
N
558.571 265.5 M
558.571 265.5 L
S
GR
GS
[0.6 0 0 0.6 0 0] CT
0.4 GC
[1 3] 0 setdash
2 LJ
0.833 LW
N
558.571 265.5 M
558.571 265.5 L
S
GR
GS
[0.6 0 0 0.6 0 0] CT
0.4 GC
[1 3] 0 setdash
2 LJ
0.833 LW
N
558.571 265.5 M
558.571 265.5 L
S
GR
GS
[0.6 0 0 0.6 0 0] CT
0.4 GC
[1 3] 0 setdash
2 LJ
0.833 LW
N
558.571 265.5 M
558.571 265.5 L
S
GR
GS
[0.6 0 0 0.6 0 0] CT
0.4 GC
[1 3] 0 setdash
2 LJ
0.833 LW
N
558.571 265.5 M
558.571 265.5 L
S
GR
GS
[0.6 0 0 0.6 0 0] CT
0.4 GC
[1 3] 0 setdash
2 LJ
0.833 LW
N
558.571 265.5 M
558.571 265.5 L
S
GR
GS
[0.6 0 0 0.6 0 0] CT
0.4 GC
[1 3] 0 setdash
2 LJ
0.833 LW
N
558.571 265.5 M
558.571 265.5 L
S
GR
GS
[0.6 0 0 0.6 0 0] CT
0.4 GC
[1 3] 0 setdash
2 LJ
0.833 LW
N
558.571 265.5 M
558.571 265.5 L
S
GR
GS
[0.6 0 0 0.6 0 0] CT
0.4 GC
[1 3] 0 setdash
2 LJ
0.833 LW
N
558.571 265.5 M
558.571 265.5 L
S
GR
GS
[0.6 0 0 0.6 0 0] CT
0.4 GC
[1 3] 0 setdash
2 LJ
0.833 LW
N
558.571 265.5 M
558.571 265.5 L
S
GR
GS
[0.6 0 0 0.6 0 0] CT
0.4 GC
[1 3] 0 setdash
2 LJ
0.833 LW
N
558.571 265.5 M
558.571 265.5 L
S
GR
GS
[0.6 0 0 0.6 0 0] CT
0.4 GC
[1 3] 0 setdash
2 LJ
0.833 LW
N
558.571 265.5 M
558.571 265.5 L
S
GR
GS
[0.6 0 0 0.6 0 0] CT
0.4 GC
[1 3] 0 setdash
2 LJ
0.833 LW
N
558.571 265.5 M
558.571 265.5 L
S
GR
GS
[0.6 0 0 0.6 0 0] CT
0.4 GC
[1 3] 0 setdash
2 LJ
0.833 LW
N
558.571 265.5 M
558.571 265.5 L
S
GR
GS
[0.6 0 0 0.6 0 0] CT
0.4 GC
[1 3] 0 setdash
2 LJ
0.833 LW
N
558.571 265.5 M
558.571 265.5 L
S
GR
GS
[0.6 0 0 0.6 0 0] CT
0.4 GC
[1 3] 0 setdash
2 LJ
0.833 LW
N
558.571 265.5 M
558.571 265.5 L
S
GR
GS
[0.6 0 0 0.6 0 0] CT
0.4 GC
[1 3] 0 setdash
2 LJ
0.833 LW
N
558.571 265.5 M
558.571 265.5 L
S
GR
GS
[0.6 0 0 0.6 0 0] CT
0.4 GC
[1 3] 0 setdash
2 LJ
0.833 LW
N
558.571 265.5 M
558.571 265.5 L
S
GR
GS
[0.6 0 0 0.6 0 0] CT
0.4 GC
[1 3] 0 setdash
2 LJ
0.833 LW
N
558.571 265.5 M
558.571 265.5 L
S
GR
GS
[0.6 0 0 0.6 0 0] CT
0.4 GC
[1 3] 0 setdash
2 LJ
0.833 LW
N
558.571 265.5 M
558.571 265.5 L
S
GR
GS
[0.6 0 0 0.6 0 0] CT
0.4 GC
[1 3] 0 setdash
2 LJ
0.833 LW
N
558.571 265.5 M
558.571 265.5 L
S
GR
GS
[0.6 0 0 0.6 0 0] CT
0.4 GC
[1 3] 0 setdash
2 LJ
0.833 LW
N
558.571 265.5 M
558.571 265.5 L
S
GR
GS
[0.6 0 0 0.6 0 0] CT
0.4 GC
[1 3] 0 setdash
2 LJ
0.833 LW
N
558.571 265.5 M
558.571 265.5 L
S
GR
GS
[0.6 0 0 0.6 0 0] CT
0.4 GC
[1 3] 0 setdash
2 LJ
0.833 LW
N
558.571 265.5 M
558.571 265.5 L
S
GR
GS
[0.6 0 0 0.6 0 0] CT
0.4 GC
[1 3] 0 setdash
2 LJ
0.833 LW
N
558.571 131.167 M
551.685 131.728 L
S
GR
GS
[0.6 0 0 0.6 0 0] CT
0.4 GC
[1 3] 0 setdash
2 LJ
0.833 LW
N
551.685 131.728 M
544.948 133.376 L
S
GR
GS
[0.6 0 0 0.6 0 0] CT
0.4 GC
[1 3] 0 setdash
2 LJ
0.833 LW
N
544.948 133.376 M
538.492 136.014 L
S
GR
GS
[0.6 0 0 0.6 0 0] CT
0.4 GC
[1 3] 0 setdash
2 LJ
0.833 LW
N
538.492 136.014 M
532.424 139.496 L
S
GR
GS
[0.6 0 0 0.6 0 0] CT
0.4 GC
[1 3] 0 setdash
2 LJ
0.833 LW
N
532.424 139.496 M
526.816 143.651 L
S
GR
GS
[0.6 0 0 0.6 0 0] CT
0.4 GC
[1 3] 0 setdash
2 LJ
0.833 LW
N
526.816 143.651 M
521.708 148.303 L
S
GR
GS
[0.6 0 0 0.6 0 0] CT
0.4 GC
[1 3] 0 setdash
2 LJ
0.833 LW
N
521.708 148.303 M
517.107 153.285 L
S
GR
GS
[0.6 0 0 0.6 0 0] CT
0.4 GC
[1 3] 0 setdash
2 LJ
0.833 LW
N
517.107 153.285 M
513.002 158.453 L
S
GR
GS
[0.6 0 0 0.6 0 0] CT
0.4 GC
[1 3] 0 setdash
2 LJ
0.833 LW
N
513.002 158.453 M
509.362 163.691 L
S
GR
GS
[0.6 0 0 0.6 0 0] CT
0.4 GC
[1 3] 0 setdash
2 LJ
0.833 LW
N
509.362 163.691 M
506.152 168.908 L
S
GR
GS
[0.6 0 0 0.6 0 0] CT
0.4 GC
[1 3] 0 setdash
2 LJ
0.833 LW
N
506.152 168.908 M
503.327 174.036 L
S
GR
GS
[0.6 0 0 0.6 0 0] CT
0.4 GC
[1 3] 0 setdash
2 LJ
0.833 LW
N
503.327 174.036 M
500.847 179.03 L
S
GR
GS
[0.6 0 0 0.6 0 0] CT
0.4 GC
[1 3] 0 setdash
2 LJ
0.833 LW
N
500.847 179.03 M
498.67 183.861 L
S
GR
GS
[0.6 0 0 0.6 0 0] CT
0.4 GC
[1 3] 0 setdash
2 LJ
0.833 LW
N
498.67 183.861 M
496.759 188.512 L
S
GR
GS
[0.6 0 0 0.6 0 0] CT
0.4 GC
[1 3] 0 setdash
2 LJ
0.833 LW
N
496.759 188.512 M
495.081 192.975 L
S
GR
GS
[0.6 0 0 0.6 0 0] CT
0.4 GC
[1 3] 0 setdash
2 LJ
0.833 LW
N
495.081 192.975 M
493.604 197.249 L
S
GR
GS
[0.6 0 0 0.6 0 0] CT
0.4 GC
[1 3] 0 setdash
2 LJ
0.833 LW
N
493.604 197.249 M
492.303 201.339 L
S
GR
GS
[0.6 0 0 0.6 0 0] CT
0.4 GC
[1 3] 0 setdash
2 LJ
0.833 LW
N
492.303 201.339 M
491.154 205.252 L
S
GR
GS
[0.6 0 0 0.6 0 0] CT
0.4 GC
[1 3] 0 setdash
2 LJ
0.833 LW
N
491.154 205.252 M
490.14 208.997 L
S
GR
GS
[0.6 0 0 0.6 0 0] CT
0.4 GC
[1 3] 0 setdash
2 LJ
0.833 LW
N
490.14 208.997 M
489.242 212.584 L
S
GR
GS
[0.6 0 0 0.6 0 0] CT
0.4 GC
[1 3] 0 setdash
2 LJ
0.833 LW
N
489.242 212.584 M
488.445 216.023 L
S
GR
GS
[0.6 0 0 0.6 0 0] CT
0.4 GC
[1 3] 0 setdash
2 LJ
0.833 LW
N
488.445 216.023 M
487.739 219.325 L
S
GR
GS
[0.6 0 0 0.6 0 0] CT
0.4 GC
[1 3] 0 setdash
2 LJ
0.833 LW
N
487.739 219.325 M
487.111 222.502 L
S
GR
GS
[0.6 0 0 0.6 0 0] CT
0.4 GC
[1 3] 0 setdash
2 LJ
0.833 LW
N
487.111 222.502 M
486.553 225.563 L
S
GR
GS
[0.6 0 0 0.6 0 0] CT
0.4 GC
[1 3] 0 setdash
2 LJ
0.833 LW
N
486.553 225.563 M
486.057 228.518 L
S
GR
GS
[0.6 0 0 0.6 0 0] CT
0.4 GC
[1 3] 0 setdash
2 LJ
0.833 LW
N
486.057 228.518 M
485.617 231.377 L
S
GR
GS
[0.6 0 0 0.6 0 0] CT
0.4 GC
[1 3] 0 setdash
2 LJ
0.833 LW
N
485.617 231.377 M
485.226 234.149 L
S
GR
GS
[0.6 0 0 0.6 0 0] CT
0.4 GC
[1 3] 0 setdash
2 LJ
0.833 LW
N
485.226 234.149 M
484.879 236.841 L
S
GR
GS
[0.6 0 0 0.6 0 0] CT
0.4 GC
[1 3] 0 setdash
2 LJ
0.833 LW
N
484.879 236.841 M
484.573 239.463 L
S
GR
GS
[0.6 0 0 0.6 0 0] CT
0.4 GC
[1 3] 0 setdash
2 LJ
0.833 LW
N
484.573 239.463 M
484.304 242.02 L
S
GR
GS
[0.6 0 0 0.6 0 0] CT
0.4 GC
[1 3] 0 setdash
2 LJ
0.833 LW
N
484.304 242.02 M
484.068 244.521 L
S
GR
GS
[0.6 0 0 0.6 0 0] CT
0.4 GC
[1 3] 0 setdash
2 LJ
0.833 LW
N
484.068 244.521 M
483.864 246.973 L
S
GR
GS
[0.6 0 0 0.6 0 0] CT
0.4 GC
[1 3] 0 setdash
2 LJ
0.833 LW
N
483.864 246.973 M
483.688 249.38 L
S
GR
GS
[0.6 0 0 0.6 0 0] CT
0.4 GC
[1 3] 0 setdash
2 LJ
0.833 LW
N
483.688 249.38 M
483.539 251.751 L
S
GR
GS
[0.6 0 0 0.6 0 0] CT
0.4 GC
[1 3] 0 setdash
2 LJ
0.833 LW
N
483.539 251.751 M
483.415 254.09 L
S
GR
GS
[0.6 0 0 0.6 0 0] CT
0.4 GC
[1 3] 0 setdash
2 LJ
0.833 LW
N
483.415 254.09 M
483.316 256.403 L
S
GR
GS
[0.6 0 0 0.6 0 0] CT
0.4 GC
[1 3] 0 setdash
2 LJ
0.833 LW
N
483.316 256.403 M
483.24 258.695 L
S
GR
GS
[0.6 0 0 0.6 0 0] CT
0.4 GC
[1 3] 0 setdash
2 LJ
0.833 LW
N
483.24 258.695 M
483.186 260.972 L
S
GR
GS
[0.6 0 0 0.6 0 0] CT
0.4 GC
[1 3] 0 setdash
2 LJ
0.833 LW
N
483.186 260.972 M
483.154 263.238 L
S
GR
GS
[0.6 0 0 0.6 0 0] CT
0.4 GC
[1 3] 0 setdash
2 LJ
0.833 LW
N
483.154 263.238 M
483.143 265.5 L
S
GR
GS
[0.6 0 0 0.6 0 0] CT
0.4 GC
[1 3] 0 setdash
2 LJ
0.833 LW
N
458.88 63.952 M
453.732 72.316 L
S
GR
GS
[0.6 0 0 0.6 0 0] CT
0.4 GC
[1 3] 0 setdash
2 LJ
0.833 LW
N
453.732 72.316 M
448.083 82.572 L
S
GR
GS
[0.6 0 0 0.6 0 0] CT
0.4 GC
[1 3] 0 setdash
2 LJ
0.833 LW
N
448.083 82.572 M
443.123 92.561 L
S
GR
GS
[0.6 0 0 0.6 0 0] CT
0.4 GC
[1 3] 0 setdash
2 LJ
0.833 LW
N
443.123 92.561 M
438.769 102.223 L
S
GR
GS
[0.6 0 0 0.6 0 0] CT
0.4 GC
[1 3] 0 setdash
2 LJ
0.833 LW
N
438.769 102.223 M
434.948 111.524 L
S
GR
GS
[0.6 0 0 0.6 0 0] CT
0.4 GC
[1 3] 0 setdash
2 LJ
0.833 LW
N
434.948 111.524 M
431.59 120.449 L
S
GR
GS
[0.6 0 0 0.6 0 0] CT
0.4 GC
[1 3] 0 setdash
2 LJ
0.833 LW
N
431.59 120.449 M
428.636 128.998 L
S
GR
GS
[0.6 0 0 0.6 0 0] CT
0.4 GC
[1 3] 0 setdash
2 LJ
0.833 LW
N
428.636 128.998 M
426.034 137.179 L
S
GR
GS
[0.6 0 0 0.6 0 0] CT
0.4 GC
[1 3] 0 setdash
2 LJ
0.833 LW
N
426.034 137.179 M
423.738 145.004 L
S
GR
GS
[0.6 0 0 0.6 0 0] CT
0.4 GC
[1 3] 0 setdash
2 LJ
0.833 LW
N
423.738 145.004 M
421.708 152.494 L
S
GR
GS
[0.6 0 0 0.6 0 0] CT
0.4 GC
[1 3] 0 setdash
2 LJ
0.833 LW
N
421.708 152.494 M
419.912 159.667 L
S
GR
GS
[0.6 0 0 0.6 0 0] CT
0.4 GC
[1 3] 0 setdash
2 LJ
0.833 LW
N
419.912 159.667 M
418.319 166.546 L
S
GR
GS
[0.6 0 0 0.6 0 0] CT
0.4 GC
[1 3] 0 setdash
2 LJ
0.833 LW
N
418.319 166.546 M
416.906 173.151 L
S
GR
GS
[0.6 0 0 0.6 0 0] CT
0.4 GC
[1 3] 0 setdash
2 LJ
0.833 LW
N
416.906 173.151 M
415.651 179.504 L
S
GR
GS
[0.6 0 0 0.6 0 0] CT
0.4 GC
[1 3] 0 setdash
2 LJ
0.833 LW
N
415.651 179.504 M
414.535 185.626 L
S
GR
GS
[0.6 0 0 0.6 0 0] CT
0.4 GC
[1 3] 0 setdash
2 LJ
0.833 LW
N
414.535 185.626 M
413.544 191.537 L
S
GR
GS
[0.6 0 0 0.6 0 0] CT
0.4 GC
[1 3] 0 setdash
2 LJ
0.833 LW
N
413.544 191.537 M
412.662 197.255 L
S
GR
GS
[0.6 0 0 0.6 0 0] CT
0.4 GC
[1 3] 0 setdash
2 LJ
0.833 LW
N
412.662 197.255 M
411.88 202.798 L
S
GR
GS
[0.6 0 0 0.6 0 0] CT
0.4 GC
[1 3] 0 setdash
2 LJ
0.833 LW
N
411.88 202.798 M
411.187 208.182 L
S
GR
GS
[0.6 0 0 0.6 0 0] CT
0.4 GC
[1 3] 0 setdash
2 LJ
0.833 LW
N
411.187 208.182 M
410.575 213.425 L
S
GR
GS
[0.6 0 0 0.6 0 0] CT
0.4 GC
[1 3] 0 setdash
2 LJ
0.833 LW
N
410.575 213.425 M
410.037 218.54 L
S
GR
GS
[0.6 0 0 0.6 0 0] CT
0.4 GC
[1 3] 0 setdash
2 LJ
0.833 LW
N
410.037 218.54 M
409.565 223.543 L
S
GR
GS
[0.6 0 0 0.6 0 0] CT
0.4 GC
[1 3] 0 setdash
2 LJ
0.833 LW
N
409.565 223.543 M
409.156 228.445 L
S
GR
GS
[0.6 0 0 0.6 0 0] CT
0.4 GC
[1 3] 0 setdash
2 LJ
0.833 LW
N
409.156 228.445 M
408.804 233.261 L
S
GR
GS
[0.6 0 0 0.6 0 0] CT
0.4 GC
[1 3] 0 setdash
2 LJ
0.833 LW
N
408.804 233.261 M
408.507 238.002 L
S
GR
GS
[0.6 0 0 0.6 0 0] CT
0.4 GC
[1 3] 0 setdash
2 LJ
0.833 LW
N
408.507 238.002 M
408.259 242.679 L
S
GR
GS
[0.6 0 0 0.6 0 0] CT
0.4 GC
[1 3] 0 setdash
2 LJ
0.833 LW
N
408.259 242.679 M
408.061 247.305 L
S
GR
GS
[0.6 0 0 0.6 0 0] CT
0.4 GC
[1 3] 0 setdash
2 LJ
0.833 LW
N
408.061 247.305 M
407.908 251.889 L
S
GR
GS
[0.6 0 0 0.6 0 0] CT
0.4 GC
[1 3] 0 setdash
2 LJ
0.833 LW
N
407.908 251.889 M
407.8 256.443 L
S
GR
GS
[0.6 0 0 0.6 0 0] CT
0.4 GC
[1 3] 0 setdash
2 LJ
0.833 LW
N
407.8 256.443 M
407.736 260.977 L
S
GR
GS
[0.6 0 0 0.6 0 0] CT
0.4 GC
[1 3] 0 setdash
2 LJ
0.833 LW
N
407.736 260.977 M
407.714 265.5 L
S
GR
GS
[0.6 0 0 0.6 0 0] CT
0.4 GC
[1 3] 0 setdash
2 LJ
0.833 LW
N
362.649 63.952 M
359.765 73.018 L
S
GR
GS
[0.6 0 0 0.6 0 0] CT
0.4 GC
[1 3] 0 setdash
2 LJ
0.833 LW
N
359.765 73.018 M
356.321 84.757 L
S
GR
GS
[0.6 0 0 0.6 0 0] CT
0.4 GC
[1 3] 0 setdash
2 LJ
0.833 LW
N
356.321 84.757 M
353.277 95.991 L
S
GR
GS
[0.6 0 0 0.6 0 0] CT
0.4 GC
[1 3] 0 setdash
2 LJ
0.833 LW
N
353.277 95.991 M
350.582 106.751 L
S
GR
GS
[0.6 0 0 0.6 0 0] CT
0.4 GC
[1 3] 0 setdash
2 LJ
0.833 LW
N
350.582 106.751 M
348.194 117.068 L
S
GR
GS
[0.6 0 0 0.6 0 0] CT
0.4 GC
[1 3] 0 setdash
2 LJ
0.833 LW
N
348.194 117.068 M
346.074 126.976 L
S
GR
GS
[0.6 0 0 0.6 0 0] CT
0.4 GC
[1 3] 0 setdash
2 LJ
0.833 LW
N
346.074 126.976 M
344.191 136.506 L
S
GR
GS
[0.6 0 0 0.6 0 0] CT
0.4 GC
[1 3] 0 setdash
2 LJ
0.833 LW
N
344.191 136.506 M
342.517 145.689 L
S
GR
GS
[0.6 0 0 0.6 0 0] CT
0.4 GC
[1 3] 0 setdash
2 LJ
0.833 LW
N
342.517 145.689 M
341.03 154.555 L
S
GR
GS
[0.6 0 0 0.6 0 0] CT
0.4 GC
[1 3] 0 setdash
2 LJ
0.833 LW
N
341.03 154.555 M
339.708 163.132 L
S
GR
GS
[0.6 0 0 0.6 0 0] CT
0.4 GC
[1 3] 0 setdash
2 LJ
0.833 LW
N
339.708 163.132 M
338.535 171.446 L
S
GR
GS
[0.6 0 0 0.6 0 0] CT
0.4 GC
[1 3] 0 setdash
2 LJ
0.833 LW
N
338.535 171.446 M
337.495 179.524 L
S
GR
GS
[0.6 0 0 0.6 0 0] CT
0.4 GC
[1 3] 0 setdash
2 LJ
0.833 LW
N
337.495 179.524 M
336.577 187.388 L
S
GR
GS
[0.6 0 0 0.6 0 0] CT
0.4 GC
[1 3] 0 setdash
2 LJ
0.833 LW
N
336.577 187.388 M
335.769 195.061 L
S
GR
GS
[0.6 0 0 0.6 0 0] CT
0.4 GC
[1 3] 0 setdash
2 LJ
0.833 LW
N
335.769 195.061 M
335.062 202.564 L
S
GR
GS
[0.6 0 0 0.6 0 0] CT
0.4 GC
[1 3] 0 setdash
2 LJ
0.833 LW
N
335.062 202.564 M
334.448 209.918 L
S
GR
GS
[0.6 0 0 0.6 0 0] CT
0.4 GC
[1 3] 0 setdash
2 LJ
0.833 LW
N
334.448 209.918 M
333.921 217.141 L
S
GR
GS
[0.6 0 0 0.6 0 0] CT
0.4 GC
[1 3] 0 setdash
2 LJ
0.833 LW
N
333.921 217.141 M
333.474 224.253 L
S
GR
GS
[0.6 0 0 0.6 0 0] CT
0.4 GC
[1 3] 0 setdash
2 LJ
0.833 LW
N
333.474 224.253 M
333.103 231.269 L
S
GR
GS
[0.6 0 0 0.6 0 0] CT
0.4 GC
[1 3] 0 setdash
2 LJ
0.833 LW
N
333.103 231.269 M
332.805 238.208 L
S
GR
GS
[0.6 0 0 0.6 0 0] CT
0.4 GC
[1 3] 0 setdash
2 LJ
0.833 LW
N
332.805 238.208 M
332.576 245.084 L
S
GR
GS
[0.6 0 0 0.6 0 0] CT
0.4 GC
[1 3] 0 setdash
2 LJ
0.833 LW
N
332.576 245.084 M
332.414 251.915 L
S
GR
GS
[0.6 0 0 0.6 0 0] CT
0.4 GC
[1 3] 0 setdash
2 LJ
0.833 LW
N
332.414 251.915 M
332.318 258.715 L
S
GR
GS
[0.6 0 0 0.6 0 0] CT
0.4 GC
[1 3] 0 setdash
2 LJ
0.833 LW
N
332.318 258.715 M
332.286 265.5 L
S
GR
GS
[0.6 0 0 0.6 0 0] CT
0.4 GC
[1 3] 0 setdash
2 LJ
0.833 LW
N
278.91 63.952 M
278.068 67.591 L
S
GR
GS
[0.6 0 0 0.6 0 0] CT
0.4 GC
[1 3] 0 setdash
2 LJ
0.833 LW
N
278.068 67.591 M
275.241 80.802 L
S
GR
GS
[0.6 0 0 0.6 0 0] CT
0.4 GC
[1 3] 0 setdash
2 LJ
0.833 LW
N
275.241 80.802 M
272.731 93.508 L
S
GR
GS
[0.6 0 0 0.6 0 0] CT
0.4 GC
[1 3] 0 setdash
2 LJ
0.833 LW
N
272.731 93.508 M
270.499 105.753 L
S
GR
GS
[0.6 0 0 0.6 0 0] CT
0.4 GC
[1 3] 0 setdash
2 LJ
0.833 LW
N
270.499 105.753 M
268.516 117.574 L
S
GR
GS
[0.6 0 0 0.6 0 0] CT
0.4 GC
[1 3] 0 setdash
2 LJ
0.833 LW
N
268.516 117.574 M
266.753 129.009 L
S
GR
GS
[0.6 0 0 0.6 0 0] CT
0.4 GC
[1 3] 0 setdash
2 LJ
0.833 LW
N
266.753 129.009 M
265.189 140.095 L
S
GR
GS
[0.6 0 0 0.6 0 0] CT
0.4 GC
[1 3] 0 setdash
2 LJ
0.833 LW
N
265.189 140.095 M
263.803 150.865 L
S
GR
GS
[0.6 0 0 0.6 0 0] CT
0.4 GC
[1 3] 0 setdash
2 LJ
0.833 LW
N
263.803 150.865 M
262.579 161.35 L
S
GR
GS
[0.6 0 0 0.6 0 0] CT
0.4 GC
[1 3] 0 setdash
2 LJ
0.833 LW
N
262.579 161.35 M
261.502 171.581 L
S
GR
GS
[0.6 0 0 0.6 0 0] CT
0.4 GC
[1 3] 0 setdash
2 LJ
0.833 LW
N
261.502 171.581 M
260.559 181.585 L
S
GR
GS
[0.6 0 0 0.6 0 0] CT
0.4 GC
[1 3] 0 setdash
2 LJ
0.833 LW
N
260.559 181.585 M
259.741 191.391 L
S
GR
GS
[0.6 0 0 0.6 0 0] CT
0.4 GC
[1 3] 0 setdash
2 LJ
0.833 LW
N
259.741 191.391 M
259.037 201.022 L
S
GR
GS
[0.6 0 0 0.6 0 0] CT
0.4 GC
[1 3] 0 setdash
2 LJ
0.833 LW
N
259.037 201.022 M
258.442 210.504 L
S
GR
GS
[0.6 0 0 0.6 0 0] CT
0.4 GC
[1 3] 0 setdash
2 LJ
0.833 LW
N
258.442 210.504 M
257.948 219.859 L
S
GR
GS
[0.6 0 0 0.6 0 0] CT
0.4 GC
[1 3] 0 setdash
2 LJ
0.833 LW
N
257.948 219.859 M
257.55 229.11 L
S
GR
GS
[0.6 0 0 0.6 0 0] CT
0.4 GC
[1 3] 0 setdash
2 LJ
0.833 LW
N
257.55 229.11 M
257.245 238.279 L
S
GR
GS
[0.6 0 0 0.6 0 0] CT
0.4 GC
[1 3] 0 setdash
2 LJ
0.833 LW
N
257.245 238.279 M
257.029 247.386 L
S
GR
GS
[0.6 0 0 0.6 0 0] CT
0.4 GC
[1 3] 0 setdash
2 LJ
0.833 LW
N
257.029 247.386 M
256.9 256.453 L
S
GR
GS
[0.6 0 0 0.6 0 0] CT
0.4 GC
[1 3] 0 setdash
2 LJ
0.833 LW
N
256.9 256.453 M
256.857 265.5 L
S
GR
GS
[0.6 0 0 0.6 0 0] CT
0.4 GC
[1 3] 0 setdash
2 LJ
0.833 LW
N
191.843 422.256 M
190.111 408.794 L
S
GR
GS
[0.6 0 0 0.6 0 0] CT
0.4 GC
[1 3] 0 setdash
2 LJ
0.833 LW
N
198.821 63.952 M
198.481 65.816 L
S
GR
GS
[0.6 0 0 0.6 0 0] CT
0.4 GC
[1 3] 0 setdash
2 LJ
0.833 LW
N
198.481 65.816 M
196.002 80.592 L
S
GR
GS
[0.6 0 0 0.6 0 0] CT
0.4 GC
[1 3] 0 setdash
2 LJ
0.833 LW
N
196.002 80.592 M
193.799 94.887 L
S
GR
GS
[0.6 0 0 0.6 0 0] CT
0.4 GC
[1 3] 0 setdash
2 LJ
0.833 LW
N
193.799 94.887 M
191.843 108.744 L
S
GR
GS
[0.6 0 0 0.6 0 0] CT
0.4 GC
[1 3] 0 setdash
2 LJ
0.833 LW
N
191.843 108.744 M
190.111 122.206 L
S
GR
GS
[0.6 0 0 0.6 0 0] CT
0.4 GC
[1 3] 0 setdash
2 LJ
0.833 LW
N
190.111 122.206 M
188.581 135.313 L
S
GR
GS
[0.6 0 0 0.6 0 0] CT
0.4 GC
[1 3] 0 setdash
2 LJ
0.833 LW
N
188.581 135.313 M
187.234 148.101 L
S
GR
GS
[0.6 0 0 0.6 0 0] CT
0.4 GC
[1 3] 0 setdash
2 LJ
0.833 LW
N
187.234 148.101 M
186.056 160.607 L
S
GR
GS
[0.6 0 0 0.6 0 0] CT
0.4 GC
[1 3] 0 setdash
2 LJ
0.833 LW
N
186.056 160.607 M
185.033 172.863 L
S
GR
GS
[0.6 0 0 0.6 0 0] CT
0.4 GC
[1 3] 0 setdash
2 LJ
0.833 LW
N
185.033 172.863 M
184.154 184.902 L
S
GR
GS
[0.6 0 0 0.6 0 0] CT
0.4 GC
[1 3] 0 setdash
2 LJ
0.833 LW
N
184.154 184.902 M
183.409 196.755 L
S
GR
GS
[0.6 0 0 0.6 0 0] CT
0.4 GC
[1 3] 0 setdash
2 LJ
0.833 LW
N
183.409 196.755 M
182.792 208.449 L
S
GR
GS
[0.6 0 0 0.6 0 0] CT
0.4 GC
[1 3] 0 setdash
2 LJ
0.833 LW
N
182.792 208.449 M
182.294 220.013 L
S
GR
GS
[0.6 0 0 0.6 0 0] CT
0.4 GC
[1 3] 0 setdash
2 LJ
0.833 LW
N
182.294 220.013 M
181.913 231.474 L
S
GR
GS
[0.6 0 0 0.6 0 0] CT
0.4 GC
[1 3] 0 setdash
2 LJ
0.833 LW
N
181.913 231.474 M
181.643 242.858 L
S
GR
GS
[0.6 0 0 0.6 0 0] CT
0.4 GC
[1 3] 0 setdash
2 LJ
0.833 LW
N
181.643 242.858 M
181.482 254.192 L
S
GR
GS
[0.6 0 0 0.6 0 0] CT
0.4 GC
[1 3] 0 setdash
2 LJ
0.833 LW
N
181.482 254.192 M
181.429 265.5 L
S
GR
GS
[0.6 0 0 0.6 0 0] CT
0.4 GC
[1 3] 0 setdash
2 LJ
0.833 LW
N
120.394 63.952 M
118.498 77.393 L
S
GR
GS
[0.6 0 0 0.6 0 0] CT
0.4 GC
[1 3] 0 setdash
2 LJ
0.833 LW
N
118.498 77.393 M
116.419 93.547 L
S
GR
GS
[0.6 0 0 0.6 0 0] CT
0.4 GC
[1 3] 0 setdash
2 LJ
0.833 LW
N
116.419 93.547 M
114.583 109.275 L
S
GR
GS
[0.6 0 0 0.6 0 0] CT
0.4 GC
[1 3] 0 setdash
2 LJ
0.833 LW
N
114.583 109.275 M
112.967 124.621 L
S
GR
GS
[0.6 0 0 0.6 0 0] CT
0.4 GC
[1 3] 0 setdash
2 LJ
0.833 LW
N
112.967 124.621 M
111.553 139.628 L
S
GR
GS
[0.6 0 0 0.6 0 0] CT
0.4 GC
[1 3] 0 setdash
2 LJ
0.833 LW
N
111.553 139.628 M
110.325 154.336 L
S
GR
GS
[0.6 0 0 0.6 0 0] CT
0.4 GC
[1 3] 0 setdash
2 LJ
0.833 LW
N
110.325 154.336 M
109.27 168.783 L
S
GR
GS
[0.6 0 0 0.6 0 0] CT
0.4 GC
[1 3] 0 setdash
2 LJ
0.833 LW
N
109.27 168.783 M
108.377 183.005 L
S
GR
GS
[0.6 0 0 0.6 0 0] CT
0.4 GC
[1 3] 0 setdash
2 LJ
0.833 LW
N
108.377 183.005 M
107.636 197.038 L
S
GR
GS
[0.6 0 0 0.6 0 0] CT
0.4 GC
[1 3] 0 setdash
2 LJ
0.833 LW
N
107.636 197.038 M
107.039 210.915 L
S
GR
GS
[0.6 0 0 0.6 0 0] CT
0.4 GC
[1 3] 0 setdash
2 LJ
0.833 LW
N
107.039 210.915 M
106.581 224.668 L
S
GR
GS
[0.6 0 0 0.6 0 0] CT
0.4 GC
[1 3] 0 setdash
2 LJ
0.833 LW
N
106.581 224.668 M
106.257 238.33 L
S
GR
GS
[0.6 0 0 0.6 0 0] CT
0.4 GC
[1 3] 0 setdash
2 LJ
0.833 LW
N
106.257 238.33 M
106.064 251.93 L
S
GR
GS
[0.6 0 0 0.6 0 0] CT
0.4 GC
[1 3] 0 setdash
2 LJ
0.833 LW
N
106.064 251.93 M
106 265.5 L
S
GR
GS
[0.6 0 0 0.6 0 0] CT
0.4 GC
[1 3] 0 setdash
2 LJ
0.833 LW
N
558.571 265.5 M
558.571 265.5 L
S
GR
GS
[0.6 0 0 0.6 0 0] CT
0.4 GC
[1 3] 0 setdash
2 LJ
0.833 LW
N
558.571 265.5 M
558.571 265.5 L
S
GR
GS
[0.6 0 0 0.6 0 0] CT
0.4 GC
[1 3] 0 setdash
2 LJ
0.833 LW
N
558.571 265.5 M
558.571 265.5 L
S
GR
GS
[0.6 0 0 0.6 0 0] CT
0.4 GC
[1 3] 0 setdash
2 LJ
0.833 LW
N
558.571 265.5 M
558.571 265.5 L
S
GR
GS
[0.6 0 0 0.6 0 0] CT
0.4 GC
[1 3] 0 setdash
2 LJ
0.833 LW
N
558.571 265.5 M
558.571 265.5 L
S
GR
GS
[0.6 0 0 0.6 0 0] CT
0.4 GC
[1 3] 0 setdash
2 LJ
0.833 LW
N
558.571 265.5 M
558.571 265.5 L
S
GR
GS
[0.6 0 0 0.6 0 0] CT
0.4 GC
[1 3] 0 setdash
2 LJ
0.833 LW
N
558.571 265.5 M
558.571 265.5 L
S
GR
GS
[0.6 0 0 0.6 0 0] CT
0.4 GC
[1 3] 0 setdash
2 LJ
0.833 LW
N
558.571 265.5 M
558.571 265.5 L
S
GR
GS
[0.6 0 0 0.6 0 0] CT
0.4 GC
[1 3] 0 setdash
2 LJ
0.833 LW
N
558.571 265.5 M
558.571 265.5 L
S
GR
GS
[0.6 0 0 0.6 0 0] CT
0.4 GC
[1 3] 0 setdash
2 LJ
0.833 LW
N
558.571 265.5 M
558.571 265.5 L
S
GR
GS
[0.6 0 0 0.6 0 0] CT
0.4 GC
[1 3] 0 setdash
2 LJ
0.833 LW
N
558.571 265.5 M
558.571 265.5 L
S
GR
GS
[0.6 0 0 0.6 0 0] CT
0.4 GC
[1 3] 0 setdash
2 LJ
0.833 LW
N
558.571 265.5 M
558.571 265.5 L
S
GR
GS
[0.6 0 0 0.6 0 0] CT
0.4 GC
[1 3] 0 setdash
2 LJ
0.833 LW
N
558.571 265.5 M
558.571 265.5 L
S
GR
GS
[0.6 0 0 0.6 0 0] CT
0.4 GC
[1 3] 0 setdash
2 LJ
0.833 LW
N
558.571 265.5 M
558.571 265.5 L
S
GR
GS
[0.6 0 0 0.6 0 0] CT
0.4 GC
[1 3] 0 setdash
2 LJ
0.833 LW
N
558.571 265.5 M
558.571 265.5 L
S
GR
GS
[0.6 0 0 0.6 0 0] CT
0.4 GC
[1 3] 0 setdash
2 LJ
0.833 LW
N
558.571 265.5 M
558.571 265.5 L
S
GR
GS
[0.6 0 0 0.6 0 0] CT
0.4 GC
[1 3] 0 setdash
2 LJ
0.833 LW
N
558.571 265.5 M
558.571 265.5 L
S
GR
GS
[0.6 0 0 0.6 0 0] CT
0.4 GC
[1 3] 0 setdash
2 LJ
0.833 LW
N
558.571 265.5 M
558.571 265.5 L
S
GR
GS
[0.6 0 0 0.6 0 0] CT
0.4 GC
[1 3] 0 setdash
2 LJ
0.833 LW
N
558.571 265.5 M
558.571 265.5 L
S
GR
GS
[0.6 0 0 0.6 0 0] CT
0.4 GC
[1 3] 0 setdash
2 LJ
0.833 LW
N
558.571 265.5 M
558.571 265.5 L
S
GR
GS
[0.6 0 0 0.6 0 0] CT
0.4 GC
[1 3] 0 setdash
2 LJ
0.833 LW
N
558.571 265.5 M
558.571 265.5 L
S
GR
GS
[0.6 0 0 0.6 0 0] CT
0.4 GC
[1 3] 0 setdash
2 LJ
0.833 LW
N
558.571 265.5 M
558.571 265.5 L
S
GR
GS
[0.6 0 0 0.6 0 0] CT
0.4 GC
[1 3] 0 setdash
2 LJ
0.833 LW
N
558.571 265.5 M
558.571 265.5 L
S
GR
GS
[0.6 0 0 0.6 0 0] CT
0.4 GC
[1 3] 0 setdash
2 LJ
0.833 LW
N
558.571 265.5 M
558.571 265.5 L
S
GR
GS
[0.6 0 0 0.6 0 0] CT
0.4 GC
[1 3] 0 setdash
2 LJ
0.833 LW
N
558.571 265.5 M
558.571 265.5 L
S
GR
GS
[0.6 0 0 0.6 0 0] CT
0.4 GC
[1 3] 0 setdash
2 LJ
0.833 LW
N
558.571 265.5 M
558.571 265.5 L
S
GR
GS
[0.6 0 0 0.6 0 0] CT
0.4 GC
[1 3] 0 setdash
2 LJ
0.833 LW
N
558.571 265.5 M
558.571 265.5 L
S
GR
GS
[0.6 0 0 0.6 0 0] CT
0.4 GC
[1 3] 0 setdash
2 LJ
0.833 LW
N
558.571 265.5 M
558.571 265.5 L
S
GR
GS
[0.6 0 0 0.6 0 0] CT
0.4 GC
[1 3] 0 setdash
2 LJ
0.833 LW
N
558.571 265.5 M
558.571 265.5 L
S
GR
GS
[0.6 0 0 0.6 0 0] CT
0.4 GC
[1 3] 0 setdash
2 LJ
0.833 LW
N
558.571 265.5 M
558.571 265.5 L
S
GR
GS
[0.6 0 0 0.6 0 0] CT
0.4 GC
[1 3] 0 setdash
2 LJ
0.833 LW
N
558.571 265.5 M
558.571 265.5 L
S
GR
GS
[0.6 0 0 0.6 0 0] CT
0.4 GC
[1 3] 0 setdash
2 LJ
0.833 LW
N
558.571 265.5 M
558.571 265.5 L
S
GR
GS
[0.6 0 0 0.6 0 0] CT
0.4 GC
[1 3] 0 setdash
2 LJ
0.833 LW
N
558.571 265.5 M
558.571 265.5 L
S
GR
GS
[0.6 0 0 0.6 0 0] CT
0.4 GC
[1 3] 0 setdash
2 LJ
0.833 LW
N
558.571 265.5 M
558.571 265.5 L
S
GR
GS
[0.6 0 0 0.6 0 0] CT
0.4 GC
[1 3] 0 setdash
2 LJ
0.833 LW
N
558.571 265.5 M
558.571 265.5 L
S
GR
GS
[0.6 0 0 0.6 0 0] CT
0.4 GC
[1 3] 0 setdash
2 LJ
0.833 LW
N
558.571 265.5 M
558.571 265.5 L
S
GR
GS
[0.6 0 0 0.6 0 0] CT
0.4 GC
[1 3] 0 setdash
2 LJ
0.833 LW
N
558.571 265.5 M
558.571 265.5 L
S
GR
GS
[0.6 0 0 0.6 0 0] CT
0.4 GC
[1 3] 0 setdash
2 LJ
0.833 LW
N
558.571 265.5 M
558.571 265.5 L
S
GR
GS
[0.6 0 0 0.6 0 0] CT
0.4 GC
[1 3] 0 setdash
2 LJ
0.833 LW
N
558.571 265.5 M
558.571 265.5 L
S
GR
GS
[0.6 0 0 0.6 0 0] CT
0.4 GC
[1 3] 0 setdash
2 LJ
0.833 LW
N
558.571 265.5 M
558.571 265.5 L
S
GR
GS
[0.6 0 0 0.6 0 0] CT
0.4 GC
[1 3] 0 setdash
2 LJ
0.833 LW
N
558.571 399.833 M
551.685 399.272 L
S
GR
GS
[0.6 0 0 0.6 0 0] CT
0.4 GC
[1 3] 0 setdash
2 LJ
0.833 LW
N
551.685 399.272 M
544.948 397.624 L
S
GR
GS
[0.6 0 0 0.6 0 0] CT
0.4 GC
[1 3] 0 setdash
2 LJ
0.833 LW
N
544.948 397.624 M
538.492 394.986 L
S
GR
GS
[0.6 0 0 0.6 0 0] CT
0.4 GC
[1 3] 0 setdash
2 LJ
0.833 LW
N
538.492 394.986 M
532.424 391.504 L
S
GR
GS
[0.6 0 0 0.6 0 0] CT
0.4 GC
[1 3] 0 setdash
2 LJ
0.833 LW
N
532.424 391.504 M
526.816 387.349 L
S
GR
GS
[0.6 0 0 0.6 0 0] CT
0.4 GC
[1 3] 0 setdash
2 LJ
0.833 LW
N
526.816 387.349 M
521.708 382.697 L
S
GR
GS
[0.6 0 0 0.6 0 0] CT
0.4 GC
[1 3] 0 setdash
2 LJ
0.833 LW
N
521.708 382.697 M
517.107 377.715 L
S
GR
GS
[0.6 0 0 0.6 0 0] CT
0.4 GC
[1 3] 0 setdash
2 LJ
0.833 LW
N
517.107 377.715 M
513.002 372.547 L
S
GR
GS
[0.6 0 0 0.6 0 0] CT
0.4 GC
[1 3] 0 setdash
2 LJ
0.833 LW
N
513.002 372.547 M
509.362 367.309 L
S
GR
GS
[0.6 0 0 0.6 0 0] CT
0.4 GC
[1 3] 0 setdash
2 LJ
0.833 LW
N
509.362 367.309 M
506.152 362.092 L
S
GR
GS
[0.6 0 0 0.6 0 0] CT
0.4 GC
[1 3] 0 setdash
2 LJ
0.833 LW
N
506.152 362.092 M
503.327 356.964 L
S
GR
GS
[0.6 0 0 0.6 0 0] CT
0.4 GC
[1 3] 0 setdash
2 LJ
0.833 LW
N
503.327 356.964 M
500.847 351.97 L
S
GR
GS
[0.6 0 0 0.6 0 0] CT
0.4 GC
[1 3] 0 setdash
2 LJ
0.833 LW
N
500.847 351.97 M
498.67 347.139 L
S
GR
GS
[0.6 0 0 0.6 0 0] CT
0.4 GC
[1 3] 0 setdash
2 LJ
0.833 LW
N
498.67 347.139 M
496.759 342.488 L
S
GR
GS
[0.6 0 0 0.6 0 0] CT
0.4 GC
[1 3] 0 setdash
2 LJ
0.833 LW
N
496.759 342.488 M
495.081 338.025 L
S
GR
GS
[0.6 0 0 0.6 0 0] CT
0.4 GC
[1 3] 0 setdash
2 LJ
0.833 LW
N
495.081 338.025 M
493.604 333.751 L
S
GR
GS
[0.6 0 0 0.6 0 0] CT
0.4 GC
[1 3] 0 setdash
2 LJ
0.833 LW
N
493.604 333.751 M
492.303 329.661 L
S
GR
GS
[0.6 0 0 0.6 0 0] CT
0.4 GC
[1 3] 0 setdash
2 LJ
0.833 LW
N
492.303 329.661 M
491.154 325.748 L
S
GR
GS
[0.6 0 0 0.6 0 0] CT
0.4 GC
[1 3] 0 setdash
2 LJ
0.833 LW
N
491.154 325.748 M
490.14 322.003 L
S
GR
GS
[0.6 0 0 0.6 0 0] CT
0.4 GC
[1 3] 0 setdash
2 LJ
0.833 LW
N
490.14 322.003 M
489.242 318.417 L
S
GR
GS
[0.6 0 0 0.6 0 0] CT
0.4 GC
[1 3] 0 setdash
2 LJ
0.833 LW
N
489.242 318.417 M
488.445 314.977 L
S
GR
GS
[0.6 0 0 0.6 0 0] CT
0.4 GC
[1 3] 0 setdash
2 LJ
0.833 LW
N
488.445 314.977 M
487.739 311.675 L
S
GR
GS
[0.6 0 0 0.6 0 0] CT
0.4 GC
[1 3] 0 setdash
2 LJ
0.833 LW
N
487.739 311.675 M
487.111 308.498 L
S
GR
GS
[0.6 0 0 0.6 0 0] CT
0.4 GC
[1 3] 0 setdash
2 LJ
0.833 LW
N
487.111 308.498 M
486.553 305.437 L
S
GR
GS
[0.6 0 0 0.6 0 0] CT
0.4 GC
[1 3] 0 setdash
2 LJ
0.833 LW
N
486.553 305.437 M
486.057 302.482 L
S
GR
GS
[0.6 0 0 0.6 0 0] CT
0.4 GC
[1 3] 0 setdash
2 LJ
0.833 LW
N
486.057 302.482 M
485.617 299.623 L
S
GR
GS
[0.6 0 0 0.6 0 0] CT
0.4 GC
[1 3] 0 setdash
2 LJ
0.833 LW
N
485.617 299.623 M
485.226 296.851 L
S
GR
GS
[0.6 0 0 0.6 0 0] CT
0.4 GC
[1 3] 0 setdash
2 LJ
0.833 LW
N
485.226 296.851 M
484.879 294.159 L
S
GR
GS
[0.6 0 0 0.6 0 0] CT
0.4 GC
[1 3] 0 setdash
2 LJ
0.833 LW
N
484.879 294.159 M
484.573 291.537 L
S
GR
GS
[0.6 0 0 0.6 0 0] CT
0.4 GC
[1 3] 0 setdash
2 LJ
0.833 LW
N
484.573 291.537 M
484.304 288.98 L
S
GR
GS
[0.6 0 0 0.6 0 0] CT
0.4 GC
[1 3] 0 setdash
2 LJ
0.833 LW
N
484.304 288.98 M
484.068 286.479 L
S
GR
GS
[0.6 0 0 0.6 0 0] CT
0.4 GC
[1 3] 0 setdash
2 LJ
0.833 LW
N
484.068 286.479 M
483.864 284.027 L
S
GR
GS
[0.6 0 0 0.6 0 0] CT
0.4 GC
[1 3] 0 setdash
2 LJ
0.833 LW
N
483.864 284.027 M
483.688 281.62 L
S
GR
GS
[0.6 0 0 0.6 0 0] CT
0.4 GC
[1 3] 0 setdash
2 LJ
0.833 LW
N
483.688 281.62 M
483.539 279.249 L
S
GR
GS
[0.6 0 0 0.6 0 0] CT
0.4 GC
[1 3] 0 setdash
2 LJ
0.833 LW
N
483.539 279.249 M
483.415 276.91 L
S
GR
GS
[0.6 0 0 0.6 0 0] CT
0.4 GC
[1 3] 0 setdash
2 LJ
0.833 LW
N
483.415 276.91 M
483.316 274.597 L
S
GR
GS
[0.6 0 0 0.6 0 0] CT
0.4 GC
[1 3] 0 setdash
2 LJ
0.833 LW
N
483.316 274.597 M
483.24 272.305 L
S
GR
GS
[0.6 0 0 0.6 0 0] CT
0.4 GC
[1 3] 0 setdash
2 LJ
0.833 LW
N
483.24 272.305 M
483.186 270.028 L
S
GR
GS
[0.6 0 0 0.6 0 0] CT
0.4 GC
[1 3] 0 setdash
2 LJ
0.833 LW
N
483.186 270.028 M
483.154 267.762 L
S
GR
GS
[0.6 0 0 0.6 0 0] CT
0.4 GC
[1 3] 0 setdash
2 LJ
0.833 LW
N
483.154 267.762 M
483.143 265.5 L
S
GR
GS
[0.6 0 0 0.6 0 0] CT
0.4 GC
[1 3] 0 setdash
2 LJ
0.833 LW
N
458.88 467.048 M
453.732 458.684 L
S
GR
GS
[0.6 0 0 0.6 0 0] CT
0.4 GC
[1 3] 0 setdash
2 LJ
0.833 LW
N
453.732 458.684 M
448.083 448.428 L
S
GR
GS
[0.6 0 0 0.6 0 0] CT
0.4 GC
[1 3] 0 setdash
2 LJ
0.833 LW
N
448.083 448.428 M
443.123 438.439 L
S
GR
GS
[0.6 0 0 0.6 0 0] CT
0.4 GC
[1 3] 0 setdash
2 LJ
0.833 LW
N
443.123 438.439 M
438.769 428.777 L
S
GR
GS
[0.6 0 0 0.6 0 0] CT
0.4 GC
[1 3] 0 setdash
2 LJ
0.833 LW
N
438.769 428.777 M
434.948 419.476 L
S
GR
GS
[0.6 0 0 0.6 0 0] CT
0.4 GC
[1 3] 0 setdash
2 LJ
0.833 LW
N
434.948 419.476 M
431.59 410.551 L
S
GR
GS
[0.6 0 0 0.6 0 0] CT
0.4 GC
[1 3] 0 setdash
2 LJ
0.833 LW
N
431.59 410.551 M
428.636 402.002 L
S
GR
GS
[0.6 0 0 0.6 0 0] CT
0.4 GC
[1 3] 0 setdash
2 LJ
0.833 LW
N
428.636 402.002 M
426.034 393.821 L
S
GR
GS
[0.6 0 0 0.6 0 0] CT
0.4 GC
[1 3] 0 setdash
2 LJ
0.833 LW
N
426.034 393.821 M
423.738 385.996 L
S
GR
GS
[0.6 0 0 0.6 0 0] CT
0.4 GC
[1 3] 0 setdash
2 LJ
0.833 LW
N
423.738 385.996 M
421.708 378.506 L
S
GR
GS
[0.6 0 0 0.6 0 0] CT
0.4 GC
[1 3] 0 setdash
2 LJ
0.833 LW
N
421.708 378.506 M
419.912 371.333 L
S
GR
GS
[0.6 0 0 0.6 0 0] CT
0.4 GC
[1 3] 0 setdash
2 LJ
0.833 LW
N
419.912 371.333 M
418.319 364.454 L
S
GR
GS
[0.6 0 0 0.6 0 0] CT
0.4 GC
[1 3] 0 setdash
2 LJ
0.833 LW
N
418.319 364.454 M
416.906 357.849 L
S
GR
GS
[0.6 0 0 0.6 0 0] CT
0.4 GC
[1 3] 0 setdash
2 LJ
0.833 LW
N
416.906 357.849 M
415.651 351.496 L
S
GR
GS
[0.6 0 0 0.6 0 0] CT
0.4 GC
[1 3] 0 setdash
2 LJ
0.833 LW
N
415.651 351.496 M
414.535 345.374 L
S
GR
GS
[0.6 0 0 0.6 0 0] CT
0.4 GC
[1 3] 0 setdash
2 LJ
0.833 LW
N
414.535 345.374 M
413.544 339.463 L
S
GR
GS
[0.6 0 0 0.6 0 0] CT
0.4 GC
[1 3] 0 setdash
2 LJ
0.833 LW
N
413.544 339.463 M
412.662 333.745 L
S
GR
GS
[0.6 0 0 0.6 0 0] CT
0.4 GC
[1 3] 0 setdash
2 LJ
0.833 LW
N
412.662 333.745 M
411.88 328.202 L
S
GR
GS
[0.6 0 0 0.6 0 0] CT
0.4 GC
[1 3] 0 setdash
2 LJ
0.833 LW
N
411.88 328.202 M
411.187 322.818 L
S
GR
GS
[0.6 0 0 0.6 0 0] CT
0.4 GC
[1 3] 0 setdash
2 LJ
0.833 LW
N
411.187 322.818 M
410.575 317.575 L
S
GR
GS
[0.6 0 0 0.6 0 0] CT
0.4 GC
[1 3] 0 setdash
2 LJ
0.833 LW
N
410.575 317.575 M
410.037 312.46 L
S
GR
GS
[0.6 0 0 0.6 0 0] CT
0.4 GC
[1 3] 0 setdash
2 LJ
0.833 LW
N
410.037 312.46 M
409.565 307.457 L
S
GR
GS
[0.6 0 0 0.6 0 0] CT
0.4 GC
[1 3] 0 setdash
2 LJ
0.833 LW
N
409.565 307.457 M
409.156 302.555 L
S
GR
GS
[0.6 0 0 0.6 0 0] CT
0.4 GC
[1 3] 0 setdash
2 LJ
0.833 LW
N
409.156 302.555 M
408.804 297.739 L
S
GR
GS
[0.6 0 0 0.6 0 0] CT
0.4 GC
[1 3] 0 setdash
2 LJ
0.833 LW
N
408.804 297.739 M
408.507 292.998 L
S
GR
GS
[0.6 0 0 0.6 0 0] CT
0.4 GC
[1 3] 0 setdash
2 LJ
0.833 LW
N
408.507 292.998 M
408.259 288.321 L
S
GR
GS
[0.6 0 0 0.6 0 0] CT
0.4 GC
[1 3] 0 setdash
2 LJ
0.833 LW
N
408.259 288.321 M
408.061 283.695 L
S
GR
GS
[0.6 0 0 0.6 0 0] CT
0.4 GC
[1 3] 0 setdash
2 LJ
0.833 LW
N
408.061 283.695 M
407.908 279.111 L
S
GR
GS
[0.6 0 0 0.6 0 0] CT
0.4 GC
[1 3] 0 setdash
2 LJ
0.833 LW
N
407.908 279.111 M
407.8 274.557 L
S
GR
GS
[0.6 0 0 0.6 0 0] CT
0.4 GC
[1 3] 0 setdash
2 LJ
0.833 LW
N
407.8 274.557 M
407.736 270.023 L
S
GR
GS
[0.6 0 0 0.6 0 0] CT
0.4 GC
[1 3] 0 setdash
2 LJ
0.833 LW
N
407.736 270.023 M
407.714 265.5 L
S
GR
GS
[0.6 0 0 0.6 0 0] CT
0.4 GC
[1 3] 0 setdash
2 LJ
0.833 LW
N
362.649 467.048 M
359.765 457.982 L
S
GR
GS
[0.6 0 0 0.6 0 0] CT
0.4 GC
[1 3] 0 setdash
2 LJ
0.833 LW
N
359.765 457.982 M
356.321 446.243 L
S
GR
GS
[0.6 0 0 0.6 0 0] CT
0.4 GC
[1 3] 0 setdash
2 LJ
0.833 LW
N
356.321 446.243 M
353.277 435.009 L
S
GR
GS
[0.6 0 0 0.6 0 0] CT
0.4 GC
[1 3] 0 setdash
2 LJ
0.833 LW
N
353.277 435.009 M
350.582 424.249 L
S
GR
GS
[0.6 0 0 0.6 0 0] CT
0.4 GC
[1 3] 0 setdash
2 LJ
0.833 LW
N
350.582 424.249 M
348.194 413.932 L
S
GR
GS
[0.6 0 0 0.6 0 0] CT
0.4 GC
[1 3] 0 setdash
2 LJ
0.833 LW
N
348.194 413.932 M
346.074 404.024 L
S
GR
GS
[0.6 0 0 0.6 0 0] CT
0.4 GC
[1 3] 0 setdash
2 LJ
0.833 LW
N
346.074 404.024 M
344.191 394.494 L
S
GR
GS
[0.6 0 0 0.6 0 0] CT
0.4 GC
[1 3] 0 setdash
2 LJ
0.833 LW
N
344.191 394.494 M
342.517 385.311 L
S
GR
GS
[0.6 0 0 0.6 0 0] CT
0.4 GC
[1 3] 0 setdash
2 LJ
0.833 LW
N
342.517 385.311 M
341.03 376.445 L
S
GR
GS
[0.6 0 0 0.6 0 0] CT
0.4 GC
[1 3] 0 setdash
2 LJ
0.833 LW
N
341.03 376.445 M
339.708 367.868 L
S
GR
GS
[0.6 0 0 0.6 0 0] CT
0.4 GC
[1 3] 0 setdash
2 LJ
0.833 LW
N
339.708 367.868 M
338.535 359.554 L
S
GR
GS
[0.6 0 0 0.6 0 0] CT
0.4 GC
[1 3] 0 setdash
2 LJ
0.833 LW
N
338.535 359.554 M
337.495 351.476 L
S
GR
GS
[0.6 0 0 0.6 0 0] CT
0.4 GC
[1 3] 0 setdash
2 LJ
0.833 LW
N
337.495 351.476 M
336.577 343.612 L
S
GR
GS
[0.6 0 0 0.6 0 0] CT
0.4 GC
[1 3] 0 setdash
2 LJ
0.833 LW
N
336.577 343.612 M
335.769 335.939 L
S
GR
GS
[0.6 0 0 0.6 0 0] CT
0.4 GC
[1 3] 0 setdash
2 LJ
0.833 LW
N
335.769 335.939 M
335.062 328.436 L
S
GR
GS
[0.6 0 0 0.6 0 0] CT
0.4 GC
[1 3] 0 setdash
2 LJ
0.833 LW
N
335.062 328.436 M
334.448 321.082 L
S
GR
GS
[0.6 0 0 0.6 0 0] CT
0.4 GC
[1 3] 0 setdash
2 LJ
0.833 LW
N
334.448 321.082 M
333.921 313.858 L
S
GR
GS
[0.6 0 0 0.6 0 0] CT
0.4 GC
[1 3] 0 setdash
2 LJ
0.833 LW
N
333.921 313.858 M
333.474 306.747 L
S
GR
GS
[0.6 0 0 0.6 0 0] CT
0.4 GC
[1 3] 0 setdash
2 LJ
0.833 LW
N
333.474 306.747 M
333.103 299.731 L
S
GR
GS
[0.6 0 0 0.6 0 0] CT
0.4 GC
[1 3] 0 setdash
2 LJ
0.833 LW
N
333.103 299.731 M
332.805 292.792 L
S
GR
GS
[0.6 0 0 0.6 0 0] CT
0.4 GC
[1 3] 0 setdash
2 LJ
0.833 LW
N
332.805 292.792 M
332.576 285.916 L
S
GR
GS
[0.6 0 0 0.6 0 0] CT
0.4 GC
[1 3] 0 setdash
2 LJ
0.833 LW
N
332.576 285.916 M
332.414 279.085 L
S
GR
GS
[0.6 0 0 0.6 0 0] CT
0.4 GC
[1 3] 0 setdash
2 LJ
0.833 LW
N
332.414 279.085 M
332.318 272.285 L
S
GR
GS
[0.6 0 0 0.6 0 0] CT
0.4 GC
[1 3] 0 setdash
2 LJ
0.833 LW
N
332.318 272.285 M
332.286 265.5 L
S
GR
GS
[0.6 0 0 0.6 335.14285 159.3] CT
0 0.447 0.741 RC
10.0 ML
0.833 LW
N
4.5 -0.5 M
4.5 -3.261 2.261 -5.5 -0.5 -5.5 C
-3.261 -5.5 -5.5 -3.261 -5.5 -0.5 C
-5.5 2.261 -3.261 4.5 -0.5 4.5 C
2.261 4.5 4.5 2.261 4.5 -0.5 C
S
GR
GS
[0.6 0 0 0.6 108.85714 159.3] CT
0 0.447 0.741 RC
10.0 ML
0.833 LW
N
-3.536 -3.536 M
3.536 3.536 L
-3.536 3.536 M
3.536 -3.536 L
S
GR
GS
[0.6 0 0 0.6 231.30974 159.3] CT
0 0.447 0.741 RC
10.0 ML
0.833 LW
N
-3.536 -3.536 M
3.536 3.536 L
-3.536 3.536 M
3.536 -3.536 L
S
GR
GS
[0.6 0 0 0.6 335.14285 159.3] CT
0 0.447 0.741 RC
10.0 ML
0.833 LW
N
-3.536 -3.536 M
3.536 3.536 L
-3.536 3.536 M
3.536 -3.536 L
S
GR
GS
[0.6 0 0 0.6 0 0] CT
0 0 1 RC
1 LJ
0.833 LW
N
181.429 265.5 M
202.345 265.5 L
S
GR
GS
[0.6 0 0 0.6 0 0] CT
0 0 1 RC
1 setlinecap
1 LJ
0.833 LW
N
202.345 265.5 M
205.375 265.5 L
S
GR
GS
[0.6 0 0 0.6 0 0] CT
0 0 1 RC
1 setlinecap
1 LJ
0.833 LW
N
205.375 265.5 M
208.934 265.5 L
S
GR
GS
[0.6 0 0 0.6 0 0] CT
0 0 1 RC
1 setlinecap
1 LJ
0.833 LW
N
208.934 265.5 M
213.156 265.5 L
S
GR
GS
[0.6 0 0 0.6 0 0] CT
0 0 1 RC
1 setlinecap
1 LJ
0.833 LW
N
213.156 265.5 M
218.236 265.5 L
S
GR
GS
[0.6 0 0 0.6 0 0] CT
0 0 1 RC
1 setlinecap
1 LJ
0.833 LW
N
218.236 265.5 M
224.477 265.5 L
S
GR
GS
[0.6 0 0 0.6 0 0] CT
0 0 1 RC
1 setlinecap
1 LJ
0.833 LW
N
224.477 265.5 M
232.409 265.5 L
S
GR
GS
[0.6 0 0 0.6 0 0] CT
0 0 1 RC
1 setlinecap
1 LJ
0.833 LW
N
232.409 265.5 M
243.166 265.5 L
S
GR
GS
[0.6 0 0 0.6 0 0] CT
0 0 1 RC
1 setlinecap
1 LJ
0.833 LW
N
243.166 265.5 M
260.714 265.5 L
S
GR
GS
[0.6 0 0 0.6 0 0] CT
0 0 1 RC
1 setlinecap
1 LJ
0.833 LW
N
260.714 265.5 M
280.245 265.5 L
S
GR
GS
[0.6 0 0 0.6 0 0] CT
0 0 1 RC
1 setlinecap
1 LJ
0.833 LW
N
280.245 265.5 M
283.472 265.5 L
S
GR
GS
[0.6 0 0 0.6 0 0] CT
0 0 1 RC
1 setlinecap
1 LJ
0.833 LW
N
283.472 265.5 M
283.472 271.247 L
S
GR
GS
[0.6 0 0 0.6 0 0] CT
0 0 1 RC
1 setlinecap
1 LJ
0.833 LW
N
283.472 271.247 M
283.472 313.553 L
S
GR
GS
[0.6 0 0 0.6 0 0] CT
0 0 1 RC
1 setlinecap
1 LJ
0.833 LW
N
283.472 313.553 M
283.472 347.711 L
S
GR
GS
[0.6 0 0 0.6 0 0] CT
0 0 1 RC
1 setlinecap
1 LJ
0.833 LW
N
283.472 347.711 M
283.472 373.983 L
S
GR
GS
[0.6 0 0 0.6 0 0] CT
0 0 1 RC
1 setlinecap
1 LJ
0.833 LW
N
283.472 373.983 M
283.472 397.445 L
S
GR
GS
[0.6 0 0 0.6 0 0] CT
0 0 1 RC
1 setlinecap
1 LJ
0.833 LW
N
283.472 397.445 M
283.472 419.644 L
S
GR
GS
[0.6 0 0 0.6 0 0] CT
0 0 1 RC
1 setlinecap
1 LJ
0.833 LW
N
283.472 419.644 M
283.472 441.316 L
S
GR
GS
[0.6 0 0 0.6 0 0] CT
0 0 1 RC
1 setlinecap
1 LJ
0.833 LW
N
283.472 441.316 M
283.472 462.889 L
S
GR
GS
[0.6 0 0 0.6 0 0] CT
0 0 1 RC
1 setlinecap
1 LJ
0.833 LW
N
283.472 462.889 M
283.472 467.048 L
S
GR
GS
[0.6 0 0 0.6 0 0] CT
1 0 0 RC
1 LJ
0.833 LW
N
558.571 265.5 M
558.571 265.5 L
S
GR
GS
[0.6 0 0 0.6 0 0] CT
1 0 0 RC
1 setlinecap
1 LJ
0.833 LW
N
558.571 265.5 M
558.571 265.5 L
S
GR
GS
[0.6 0 0 0.6 0 0] CT
1 0 0 RC
1 setlinecap
1 LJ
0.833 LW
N
558.571 265.5 M
558.571 265.5 L
S
GR
GS
[0.6 0 0 0.6 0 0] CT
1 0 0 RC
1 setlinecap
1 LJ
0.833 LW
N
558.571 265.5 M
558.571 265.5 L
S
GR
GS
[0.6 0 0 0.6 0 0] CT
1 0 0 RC
1 setlinecap
1 LJ
0.833 LW
N
558.571 265.5 M
558.571 265.5 L
S
GR
GS
[0.6 0 0 0.6 0 0] CT
1 0 0 RC
1 setlinecap
1 LJ
0.833 LW
N
558.571 265.5 M
558.571 265.5 L
S
GR
GS
[0.6 0 0 0.6 0 0] CT
1 0 0 RC
1 setlinecap
1 LJ
0.833 LW
N
558.571 265.5 M
558.571 265.5 L
S
GR
GS
[0.6 0 0 0.6 0 0] CT
1 0 0 RC
1 setlinecap
1 LJ
0.833 LW
N
558.571 265.5 M
558.571 265.5 L
S
GR
GS
[0.6 0 0 0.6 0 0] CT
1 0 0 RC
1 setlinecap
1 LJ
0.833 LW
N
558.571 265.5 M
558.571 265.5 L
S
GR
GS
[0.6 0 0 0.6 0 0] CT
1 0 0 RC
1 setlinecap
1 LJ
0.833 LW
N
558.571 265.5 M
558.571 265.5 L
S
GR
GS
[0.6 0 0 0.6 0 0] CT
1 0 0 RC
1 setlinecap
1 LJ
0.833 LW
N
558.571 265.5 M
558.571 265.5 L
S
GR
GS
[0.6 0 0 0.6 0 0] CT
1 0 0 RC
1 setlinecap
1 LJ
0.833 LW
N
558.571 265.5 M
558.571 265.5 L
S
GR
GS
[0.6 0 0 0.6 0 0] CT
1 0 0 RC
1 setlinecap
1 LJ
0.833 LW
N
558.571 265.5 M
558.571 265.5 L
S
GR
GS
[0.6 0 0 0.6 0 0] CT
1 0 0 RC
1 setlinecap
1 LJ
0.833 LW
N
558.571 265.5 M
558.571 265.5 L
S
GR
GS
[0.6 0 0 0.6 0 0] CT
1 0 0 RC
1 setlinecap
1 LJ
0.833 LW
N
558.571 265.5 M
558.571 265.5 L
S
GR
GS
[0.6 0 0 0.6 0 0] CT
1 0 0 RC
1 setlinecap
1 LJ
0.833 LW
N
558.571 265.5 M
558.571 265.5 L
S
GR
GS
[0.6 0 0 0.6 0 0] CT
1 0 0 RC
1 setlinecap
1 LJ
0.833 LW
N
558.571 265.5 M
558.571 265.5 L
S
GR
GS
[0.6 0 0 0.6 0 0] CT
1 0 0 RC
1 setlinecap
1 LJ
0.833 LW
N
558.571 265.5 M
558.571 265.5 L
S
GR
GS
[0.6 0 0 0.6 0 0] CT
1 0 0 RC
1 setlinecap
1 LJ
0.833 LW
N
558.571 265.5 M
558.571 265.5 L
S
GR
GS
[0.6 0 0 0.6 0 0] CT
1 0 0 RC
1 setlinecap
1 LJ
0.833 LW
N
558.571 265.5 M
558.571 265.5 L
S
GR
GS
[0.6 0 0 0.6 0 0] CT
1 0 0 RC
1 setlinecap
1 LJ
0.833 LW
N
558.571 265.5 M
558.571 265.5 L
S
GR
GS
[0.6 0 0 0.6 0 0] CT
1 0 0 RC
1 setlinecap
1 LJ
0.833 LW
N
558.571 265.5 M
558.571 265.5 L
S
GR
GS
[0.6 0 0 0.6 0 0] CT
1 0 0 RC
1 setlinecap
1 LJ
0.833 LW
N
558.571 265.5 M
558.571 265.5 L
S
GR
GS
[0.6 0 0 0.6 0 0] CT
1 0 0 RC
1 setlinecap
1 LJ
0.833 LW
N
558.571 265.5 M
558.571 265.5 L
S
GR
GS
[0.6 0 0 0.6 0 0] CT
1 0 0 RC
1 setlinecap
1 LJ
0.833 LW
N
558.571 265.5 M
558.571 265.5 L
S
GR
GS
[0.6 0 0 0.6 0 0] CT
1 0 0 RC
1 setlinecap
1 LJ
0.833 LW
N
558.571 265.5 M
558.571 265.5 L
S
GR
GS
[0.6 0 0 0.6 0 0] CT
1 0 0 RC
1 setlinecap
1 LJ
0.833 LW
N
558.571 265.5 M
558.571 265.5 L
S
GR
GS
[0.6 0 0 0.6 0 0] CT
1 0 0 RC
1 setlinecap
1 LJ
0.833 LW
N
558.571 265.5 M
558.571 265.5 L
S
GR
GS
[0.6 0 0 0.6 0 0] CT
1 0 0 RC
1 setlinecap
1 LJ
0.833 LW
N
558.571 265.5 M
558.571 265.5 L
S
GR
GS
[0.6 0 0 0.6 0 0] CT
1 0 0 RC
1 setlinecap
1 LJ
0.833 LW
N
558.571 265.5 M
558.571 265.5 L
S
GR
GS
[0.6 0 0 0.6 0 0] CT
1 0 0 RC
1 setlinecap
1 LJ
0.833 LW
N
558.571 265.5 M
558.571 265.5 L
S
GR
GS
[0.6 0 0 0.6 0 0] CT
1 0 0 RC
1 setlinecap
1 LJ
0.833 LW
N
558.571 265.5 M
558.571 265.5 L
S
GR
GS
[0.6 0 0 0.6 0 0] CT
1 0 0 RC
1 setlinecap
1 LJ
0.833 LW
N
558.571 265.5 M
558.571 265.5 L
S
GR
GS
[0.6 0 0 0.6 0 0] CT
1 0 0 RC
1 setlinecap
1 LJ
0.833 LW
N
558.571 265.5 M
558.571 265.5 L
S
GR
GS
[0.6 0 0 0.6 0 0] CT
1 0 0 RC
1 setlinecap
1 LJ
0.833 LW
N
558.571 265.5 M
558.571 265.5 L
S
GR
GS
[0.6 0 0 0.6 0 0] CT
1 0 0 RC
1 setlinecap
1 LJ
0.833 LW
N
558.571 265.5 M
558.571 265.5 L
S
GR
GS
[0.6 0 0 0.6 0 0] CT
1 0 0 RC
1 setlinecap
1 LJ
0.833 LW
N
558.571 265.5 M
558.571 265.5 L
S
GR
GS
[0.6 0 0 0.6 0 0] CT
1 0 0 RC
1 setlinecap
1 LJ
0.833 LW
N
558.571 265.5 M
558.571 265.5 L
S
GR
GS
[0.6 0 0 0.6 0 0] CT
1 0 0 RC
1 setlinecap
1 LJ
0.833 LW
N
558.571 265.5 M
558.571 265.5 L
S
GR
GS
[0.6 0 0 0.6 0 0] CT
1 0 0 RC
1 setlinecap
1 LJ
0.833 LW
N
558.571 265.5 M
558.571 265.5 L
S
GR
GS
[0.6 0 0 0.6 0 0] CT
1 0 0 RC
1 setlinecap
1 LJ
0.833 LW
N
558.571 265.5 M
558.571 265.5 L
S
GR
GS
[0.6 0 0 0.6 0 0] CT
1 0 0 RC
1 setlinecap
1 LJ
0.833 LW
N
558.571 265.5 M
558.571 265.5 L
S
GR
GS
[0.6 0 0 0.6 0 0] CT
1 0 0 RC
1 setlinecap
1 LJ
0.833 LW
N
558.571 265.5 M
558.571 265.5 L
S
GR
GS
[0.6 0 0 0.6 0 0] CT
1 0 0 RC
1 setlinecap
1 LJ
0.833 LW
N
558.571 265.5 M
558.571 265.5 L
S
GR
GS
[0.6 0 0 0.6 0 0] CT
1 0 0 RC
1 setlinecap
1 LJ
0.833 LW
N
558.571 265.5 M
558.571 265.5 L
S
GR
GS
[0.6 0 0 0.6 0 0] CT
1 0 0 RC
1 setlinecap
1 LJ
0.833 LW
N
558.571 265.5 M
558.571 265.5 L
S
GR
GS
[0.6 0 0 0.6 0 0] CT
1 0 0 RC
1 setlinecap
1 LJ
0.833 LW
N
558.571 265.5 M
558.571 265.5 L
S
GR
GS
[0.6 0 0 0.6 0 0] CT
1 0 0 RC
1 setlinecap
1 LJ
0.833 LW
N
558.571 265.5 M
558.571 265.5 L
S
GR
GS
[0.6 0 0 0.6 0 0] CT
1 0 0 RC
1 setlinecap
1 LJ
0.833 LW
N
558.571 265.5 M
558.571 265.5 L
S
GR
GS
[0.6 0 0 0.6 0 0] CT
1 0 0 RC
1 setlinecap
1 LJ
0.833 LW
N
558.571 265.5 M
558.571 265.5 L
S
GR
GS
[0.6 0 0 0.6 0 0] CT
1 0 0 RC
1 setlinecap
1 LJ
0.833 LW
N
558.571 265.5 M
558.571 265.5 L
S
GR
GS
[0.6 0 0 0.6 0 0] CT
1 0 0 RC
1 setlinecap
1 LJ
0.833 LW
N
558.571 265.5 M
558.571 265.5 L
S
GR
GS
[0.6 0 0 0.6 0 0] CT
1 0 0 RC
1 setlinecap
1 LJ
0.833 LW
N
558.571 265.5 M
558.571 265.5 L
S
GR
GS
[0.6 0 0 0.6 0 0] CT
1 0 0 RC
1 setlinecap
1 LJ
0.833 LW
N
558.571 265.5 M
558.571 265.5 L
S
GR
GS
[0.6 0 0 0.6 0 0] CT
1 0 0 RC
1 LJ
0.833 LW
N
558.571 265.5 M
558.571 265.5 L
S
GR
GS
[0.6 0 0 0.6 0 0] CT
0 0.502 0 RC
1 LJ
0.833 LW
N
385.516 265.5 M
364.6 265.5 L
S
GR
GS
[0.6 0 0 0.6 0 0] CT
0 0.502 0 RC
1 setlinecap
1 LJ
0.833 LW
N
364.6 265.5 M
361.57 265.5 L
S
GR
GS
[0.6 0 0 0.6 0 0] CT
0 0.502 0 RC
1 setlinecap
1 LJ
0.833 LW
N
361.57 265.5 M
358.011 265.5 L
S
GR
GS
[0.6 0 0 0.6 0 0] CT
0 0.502 0 RC
1 setlinecap
1 LJ
0.833 LW
N
358.011 265.5 M
353.789 265.5 L
S
GR
GS
[0.6 0 0 0.6 0 0] CT
0 0.502 0 RC
1 setlinecap
1 LJ
0.833 LW
N
353.789 265.5 M
348.709 265.5 L
S
GR
GS
[0.6 0 0 0.6 0 0] CT
0 0.502 0 RC
1 setlinecap
1 LJ
0.833 LW
N
348.709 265.5 M
342.468 265.5 L
S
GR
GS
[0.6 0 0 0.6 0 0] CT
0 0.502 0 RC
1 setlinecap
1 LJ
0.833 LW
N
342.468 265.5 M
334.536 265.5 L
S
GR
GS
[0.6 0 0 0.6 0 0] CT
0 0.502 0 RC
1 setlinecap
1 LJ
0.833 LW
N
334.536 265.5 M
323.779 265.5 L
S
GR
GS
[0.6 0 0 0.6 0 0] CT
0 0.502 0 RC
1 setlinecap
1 LJ
0.833 LW
N
323.779 265.5 M
306.231 265.5 L
S
GR
GS
[0.6 0 0 0.6 0 0] CT
0 0.502 0 RC
1 setlinecap
1 LJ
0.833 LW
N
306.231 265.5 M
286.699 265.5 L
S
GR
GS
[0.6 0 0 0.6 0 0] CT
0 0.502 0 RC
1 setlinecap
1 LJ
0.833 LW
N
286.699 265.5 M
283.472 265.5 L
S
GR
GS
[0.6 0 0 0.6 0 0] CT
0 0.502 0 RC
1 setlinecap
1 LJ
0.833 LW
N
283.472 265.5 M
283.472 259.753 L
S
GR
GS
[0.6 0 0 0.6 0 0] CT
0 0.502 0 RC
1 setlinecap
1 LJ
0.833 LW
N
283.472 259.753 M
283.472 217.447 L
S
GR
GS
[0.6 0 0 0.6 0 0] CT
0 0.502 0 RC
1 setlinecap
1 LJ
0.833 LW
N
283.472 217.447 M
283.472 183.289 L
S
GR
GS
[0.6 0 0 0.6 0 0] CT
0 0.502 0 RC
1 setlinecap
1 LJ
0.833 LW
N
283.472 183.289 M
283.472 157.017 L
S
GR
GS
[0.6 0 0 0.6 0 0] CT
0 0.502 0 RC
1 setlinecap
1 LJ
0.833 LW
N
283.472 157.017 M
283.472 133.555 L
S
GR
GS
[0.6 0 0 0.6 0 0] CT
0 0.502 0 RC
1 setlinecap
1 LJ
0.833 LW
N
283.472 133.555 M
283.472 111.356 L
S
GR
GS
[0.6 0 0 0.6 0 0] CT
0 0.502 0 RC
1 setlinecap
1 LJ
0.833 LW
N
283.472 111.356 M
283.472 89.684 L
S
GR
GS
[0.6 0 0 0.6 0 0] CT
0 0.502 0 RC
1 setlinecap
1 LJ
0.833 LW
N
283.472 89.684 M
283.472 68.111 L
S
GR
GS
[0.6 0 0 0.6 0 0] CT
0 0.502 0 RC
1 setlinecap
1 LJ
0.833 LW
N
283.472 68.111 M
283.472 63.952 L
S
GR
GS
[0.6 0 0 0.6 221.1 33.225] CT
/Helvetica 18.333 F
GS
[1 0 0 1 0 0] CT
-46 -4 moveto 
1 -1 scale
(Root Locus) t 
GR
GR
GS
[0.6 0 0 0.6 168.6 312] CT
/Helvetica 18.333 F
GS
[1 0 0 1 0 0] CT
0 0 moveto 
1 -1 scale
(Real Axis \(seconds) t 
GR
GR
GS
[0.6 0 0 0.6 261.6 306.6] CT
/Helvetica 14.667 F
GS
[1 0 0 1 0 0] CT
0 0 moveto 
1 -1 scale
(-1) t 
GR
GR
GS
[0.6 0 0 0.6 270 312] CT
/Helvetica 18.333 F
GS
[1 0 0 1 0 0] CT
0 0 moveto 
1 -1 scale
(\)) t 
GR
GR
GS
[0 -0.6 0.6 0 44.4 225.6] CT
/Helvetica 18.333 F
GS
[1 0 0 1 0 0] CT
0 0 moveto 
1 -1 scale
(Imaginary Axis \(seconds) t 
GR
GR
GS
[0 -0.6 0.6 0 39 107.4] CT
/Helvetica 14.667 F
GS
[1 0 0 1 0 0] CT
0 0 moveto 
1 -1 scale
(-1) t 
GR
GR
GS
[0 -0.6 0.6 0 44.4 99] CT
/Helvetica 18.333 F
GS
[1 0 0 1 0 0] CT
0 0 moveto 
1 -1 scale
(\)) t 
GR
GR
%%Trailer
%%Pages: 1
%%EOF
