%!PS-Adobe-3.0 EPSF-3.0
%%Creator: (MATLAB, The Mathworks, Inc. Version 9.1.0.441655 \(R2016b\). Operating System: Windows 8)
%%Title: D:/Users/Administrator/Desktop/flight-control-system-paper/report/fig/rudder.eps
%%CreationDate: 2019-05-03T16:05:32
%%Pages: (atend)
%%BoundingBox: 0 0 420 315
%%LanguageLevel: 3
%%EndComments
%%BeginProlog
%%BeginResource: procset (Apache XML Graphics Std ProcSet) 1.2 0
%%Version: 1.2 0
%%Copyright: (Copyright 2001-2003,2010 The Apache Software Foundation. License terms: http://www.apache.org/licenses/LICENSE-2.0)
/bd{bind def}bind def
/ld{load def}bd
/GR/grestore ld
/M/moveto ld
/LJ/setlinejoin ld
/C/curveto ld
/f/fill ld
/LW/setlinewidth ld
/GC/setgray ld
/t/show ld
/N/newpath ld
/CT/concat ld
/cp/closepath ld
/S/stroke ld
/L/lineto ld
/CC/setcmykcolor ld
/A/ashow ld
/GS/gsave ld
/RC/setrgbcolor ld
/RM/rmoveto ld
/ML/setmiterlimit ld
/re {4 2 roll M
1 index 0 rlineto
0 exch rlineto
neg 0 rlineto
cp } bd
/_ctm matrix def
/_tm matrix def
/BT { _ctm currentmatrix pop matrix _tm copy pop 0 0 moveto } bd
/ET { _ctm setmatrix } bd
/iTm { _ctm setmatrix _tm concat } bd
/Tm { _tm astore pop iTm 0 0 moveto } bd
/ux 0.0 def
/uy 0.0 def
/F {
  /Tp exch def
  /Tf exch def
  Tf findfont Tp scalefont setfont
  /cf Tf def  /cs Tp def
} bd
/ULS {currentpoint /uy exch def /ux exch def} bd
/ULE {
  /Tcx currentpoint pop def
  gsave
  newpath
  cf findfont cs scalefont dup
  /FontMatrix get 0 get /Ts exch def /FontInfo get dup
  /UnderlinePosition get Ts mul /To exch def
  /UnderlineThickness get Ts mul /Tt exch def
  ux uy To add moveto  Tcx uy To add lineto
  Tt setlinewidth stroke
  grestore
} bd
/OLE {
  /Tcx currentpoint pop def
  gsave
  newpath
  cf findfont cs scalefont dup
  /FontMatrix get 0 get /Ts exch def /FontInfo get dup
  /UnderlinePosition get Ts mul /To exch def
  /UnderlineThickness get Ts mul /Tt exch def
  ux uy To add cs add moveto Tcx uy To add cs add lineto
  Tt setlinewidth stroke
  grestore
} bd
/SOE {
  /Tcx currentpoint pop def
  gsave
  newpath
  cf findfont cs scalefont dup
  /FontMatrix get 0 get /Ts exch def /FontInfo get dup
  /UnderlinePosition get Ts mul /To exch def
  /UnderlineThickness get Ts mul /Tt exch def
  ux uy To add cs 10 mul 26 idiv add moveto Tcx uy To add cs 10 mul 26 idiv add lineto
  Tt setlinewidth stroke
  grestore
} bd
/QT {
/Y22 exch store
/X22 exch store
/Y21 exch store
/X21 exch store
currentpoint
/Y21 load 2 mul add 3 div exch
/X21 load 2 mul add 3 div exch
/X21 load 2 mul /X22 load add 3 div
/Y21 load 2 mul /Y22 load add 3 div
/X22 load /Y22 load curveto
} bd
/SSPD {
dup length /d exch dict def
{
/v exch def
/k exch def
currentpagedevice k known {
/cpdv currentpagedevice k get def
v cpdv ne {
/upd false def
/nullv v type /nulltype eq def
/nullcpdv cpdv type /nulltype eq def
nullv nullcpdv or
{
/upd true def
} {
/sametype v type cpdv type eq def
sametype {
v type /arraytype eq {
/vlen v length def
/cpdvlen cpdv length def
vlen cpdvlen eq {
0 1 vlen 1 sub {
/i exch def
/obj v i get def
/cpdobj cpdv i get def
obj cpdobj ne {
/upd true def
exit
} if
} for
} {
/upd true def
} ifelse
} {
v type /dicttype eq {
v {
/dv exch def
/dk exch def
/cpddv cpdv dk get def
dv cpddv ne {
/upd true def
exit
} if
} forall
} {
/upd true def
} ifelse
} ifelse
} if
} ifelse
upd true eq {
d k v put
} if
} if
} if
} forall
d length 0 gt {
d setpagedevice
} if
} bd
/RE { % /NewFontName [NewEncodingArray] /FontName RE -
  findfont dup length dict begin
  {
    1 index /FID ne
    {def} {pop pop} ifelse
  } forall
  /Encoding exch def
  /FontName 1 index def
  currentdict definefont pop
  end
} bind def
%%EndResource
%%BeginResource: procset (Apache XML Graphics EPS ProcSet) 1.0 0
%%Version: 1.0 0
%%Copyright: (Copyright 2002-2003 The Apache Software Foundation. License terms: http://www.apache.org/licenses/LICENSE-2.0)
/BeginEPSF { %def
/b4_Inc_state save def         % Save state for cleanup
/dict_count countdictstack def % Count objects on dict stack
/op_count count 1 sub def      % Count objects on operand stack
userdict begin                 % Push userdict on dict stack
/showpage { } def              % Redefine showpage, { } = null proc
0 setgray 0 setlinecap         % Prepare graphics state
1 setlinewidth 0 setlinejoin
10 setmiterlimit [ ] 0 setdash newpath
/languagelevel where           % If level not equal to 1 then
{pop languagelevel             % set strokeadjust and
1 ne                           % overprint to their defaults.
{false setstrokeadjust false setoverprint
} if
} if
} bd
/EndEPSF { %def
count op_count sub {pop} repeat            % Clean up stacks
countdictstack dict_count sub {end} repeat
b4_Inc_state restore
} bd
%%EndResource
%FOPBeginFontDict
%%IncludeResource: font Courier-Bold
%%IncludeResource: font Helvetica
%%IncludeResource: font Courier-BoldOblique
%%IncludeResource: font Courier-Oblique
%%IncludeResource: font Times-Roman
%%IncludeResource: font Helvetica-BoldOblique
%%IncludeResource: font Helvetica-Bold
%%IncludeResource: font Helvetica-Oblique
%%IncludeResource: font Times-BoldItalic
%%IncludeResource: font Courier
%%IncludeResource: font Times-Italic
%%IncludeResource: font Times-Bold
%%IncludeResource: font Symbol
%%IncludeResource: font ZapfDingbats
%FOPEndFontDict
%%BeginResource: encoding WinAnsiEncoding
/WinAnsiEncoding [
/.notdef /.notdef /.notdef /.notdef /.notdef
/.notdef /.notdef /.notdef /.notdef /.notdef
/.notdef /.notdef /.notdef /.notdef /.notdef
/.notdef /.notdef /.notdef /.notdef /.notdef
/.notdef /.notdef /.notdef /.notdef /.notdef
/.notdef /.notdef /.notdef /.notdef /.notdef
/.notdef /.notdef /space /exclam /quotedbl
/numbersign /dollar /percent /ampersand /quotesingle
/parenleft /parenright /asterisk /plus /comma
/hyphen /period /slash /zero /one
/two /three /four /five /six
/seven /eight /nine /colon /semicolon
/less /equal /greater /question /at
/A /B /C /D /E
/F /G /H /I /J
/K /L /M /N /O
/P /Q /R /S /T
/U /V /W /X /Y
/Z /bracketleft /backslash /bracketright /asciicircum
/underscore /quoteleft /a /b /c
/d /e /f /g /h
/i /j /k /l /m
/n /o /p /q /r
/s /t /u /v /w
/x /y /z /braceleft /bar
/braceright /asciitilde /bullet /Euro /bullet
/quotesinglbase /florin /quotedblbase /ellipsis /dagger
/daggerdbl /circumflex /perthousand /Scaron /guilsinglleft
/OE /bullet /Zcaron /bullet /bullet
/quoteleft /quoteright /quotedblleft /quotedblright /bullet
/endash /emdash /asciitilde /trademark /scaron
/guilsinglright /oe /bullet /zcaron /Ydieresis
/space /exclamdown /cent /sterling /currency
/yen /brokenbar /section /dieresis /copyright
/ordfeminine /guillemotleft /logicalnot /sfthyphen /registered
/macron /degree /plusminus /twosuperior /threesuperior
/acute /mu /paragraph /middot /cedilla
/onesuperior /ordmasculine /guillemotright /onequarter /onehalf
/threequarters /questiondown /Agrave /Aacute /Acircumflex
/Atilde /Adieresis /Aring /AE /Ccedilla
/Egrave /Eacute /Ecircumflex /Edieresis /Igrave
/Iacute /Icircumflex /Idieresis /Eth /Ntilde
/Ograve /Oacute /Ocircumflex /Otilde /Odieresis
/multiply /Oslash /Ugrave /Uacute /Ucircumflex
/Udieresis /Yacute /Thorn /germandbls /agrave
/aacute /acircumflex /atilde /adieresis /aring
/ae /ccedilla /egrave /eacute /ecircumflex
/edieresis /igrave /iacute /icircumflex /idieresis
/eth /ntilde /ograve /oacute /ocircumflex
/otilde /odieresis /divide /oslash /ugrave
/uacute /ucircumflex /udieresis /yacute /thorn
/ydieresis
] def
%%EndResource
%FOPBeginFontReencode
/Courier-Bold findfont
dup length dict begin
  {1 index /FID ne {def} {pop pop} ifelse} forall
  /Encoding WinAnsiEncoding def
  currentdict
end
/Courier-Bold exch definefont pop
/Helvetica findfont
dup length dict begin
  {1 index /FID ne {def} {pop pop} ifelse} forall
  /Encoding WinAnsiEncoding def
  currentdict
end
/Helvetica exch definefont pop
/Courier-BoldOblique findfont
dup length dict begin
  {1 index /FID ne {def} {pop pop} ifelse} forall
  /Encoding WinAnsiEncoding def
  currentdict
end
/Courier-BoldOblique exch definefont pop
/Courier-Oblique findfont
dup length dict begin
  {1 index /FID ne {def} {pop pop} ifelse} forall
  /Encoding WinAnsiEncoding def
  currentdict
end
/Courier-Oblique exch definefont pop
/Times-Roman findfont
dup length dict begin
  {1 index /FID ne {def} {pop pop} ifelse} forall
  /Encoding WinAnsiEncoding def
  currentdict
end
/Times-Roman exch definefont pop
/Helvetica-BoldOblique findfont
dup length dict begin
  {1 index /FID ne {def} {pop pop} ifelse} forall
  /Encoding WinAnsiEncoding def
  currentdict
end
/Helvetica-BoldOblique exch definefont pop
/Helvetica-Bold findfont
dup length dict begin
  {1 index /FID ne {def} {pop pop} ifelse} forall
  /Encoding WinAnsiEncoding def
  currentdict
end
/Helvetica-Bold exch definefont pop
/Helvetica-Oblique findfont
dup length dict begin
  {1 index /FID ne {def} {pop pop} ifelse} forall
  /Encoding WinAnsiEncoding def
  currentdict
end
/Helvetica-Oblique exch definefont pop
/Times-BoldItalic findfont
dup length dict begin
  {1 index /FID ne {def} {pop pop} ifelse} forall
  /Encoding WinAnsiEncoding def
  currentdict
end
/Times-BoldItalic exch definefont pop
/Courier findfont
dup length dict begin
  {1 index /FID ne {def} {pop pop} ifelse} forall
  /Encoding WinAnsiEncoding def
  currentdict
end
/Courier exch definefont pop
/Times-Italic findfont
dup length dict begin
  {1 index /FID ne {def} {pop pop} ifelse} forall
  /Encoding WinAnsiEncoding def
  currentdict
end
/Times-Italic exch definefont pop
/Times-Bold findfont
dup length dict begin
  {1 index /FID ne {def} {pop pop} ifelse} forall
  /Encoding WinAnsiEncoding def
  currentdict
end
/Times-Bold exch definefont pop
%FOPEndFontReencode
%%EndProlog
%%Page: 1 1
%%PageBoundingBox: 0 0 420 315
%%BeginPageSetup
[1 0 0 -1 0 315] CT
%%EndPageSetup
GS
[0.6 0 0 0.6 0 0] CT
1 GC
N
0 0 700 525 re
f
GR
GS
[0.6 0 0 0.6 0 0] CT
1 GC
N
0 0 700 525 re
f
GR
GS
[0.6 0 0 0.6 0 0] CT
1 GC
N
108 128 M
323 128 L
323 50 L
108 50 L
cp
f
GR
GS
[0.6 0 0 0.6 0 0] CT
0.873 GC
1 LJ
0.833 LW
N
108 128 M
108 50 L
S
GR
GS
[0.6 0 0 0.6 0 0] CT
0.873 GC
1 LJ
0.833 LW
N
215.5 128 M
215.5 50 L
S
GR
GS
[0.6 0 0 0.6 0 0] CT
0.873 GC
1 LJ
0.833 LW
N
323 128 M
323 50 L
S
GR
GS
[0.6 0 0 0.6 0 0] CT
0.873 GC
1 LJ
0.833 LW
N
323 128 M
108 128 L
S
GR
GS
[0.6 0 0 0.6 0 0] CT
0.873 GC
1 LJ
0.833 LW
N
323 89 M
108 89 L
S
GR
GS
[0.6 0 0 0.6 0 0] CT
0.873 GC
1 LJ
0.833 LW
N
323 50 M
108 50 L
S
GR
GS
[0.6 0 0 0.6 0 0] CT
0.149 GC
2 setlinecap
1 LJ
0.833 LW
N
108 128 M
323 128 L
S
GR
GS
[0.6 0 0 0.6 0 0] CT
0.149 GC
2 setlinecap
1 LJ
0.833 LW
N
108 50 M
323 50 L
S
GR
GS
[0.6 0 0 0.6 0 0] CT
0.149 GC
2 setlinecap
1 LJ
0.833 LW
N
108 128 M
108 125.85 L
S
GR
GS
[0.6 0 0 0.6 0 0] CT
0.149 GC
2 setlinecap
1 LJ
0.833 LW
N
215.5 128 M
215.5 125.85 L
S
GR
GS
[0.6 0 0 0.6 0 0] CT
0.149 GC
2 setlinecap
1 LJ
0.833 LW
N
323 128 M
323 125.85 L
S
GR
GS
[0.6 0 0 0.6 0 0] CT
0.149 GC
2 setlinecap
1 LJ
0.833 LW
N
108 50 M
108 52.15 L
S
GR
GS
[0.6 0 0 0.6 0 0] CT
0.149 GC
2 setlinecap
1 LJ
0.833 LW
N
215.5 50 M
215.5 52.15 L
S
GR
GS
[0.6 0 0 0.6 0 0] CT
0.149 GC
2 setlinecap
1 LJ
0.833 LW
N
323 50 M
323 52.15 L
S
GR
GS
[0.6 0 0 0.6 64.8 80.8] CT
0.149 GC
/Helvetica 16.667 F
GS
[1 0 0 1 0 0] CT
-5 18 moveto 
1 -1 scale
(0) t 
GR
GR
GS
[0.6 0 0 0.6 129.3 80.8] CT
0.149 GC
/Helvetica 16.667 F
GS
[1 0 0 1 0 0] CT
-14.5 18 moveto 
1 -1 scale
(200) t 
GR
GR
GS
[0.6 0 0 0.6 193.8 80.8] CT
0.149 GC
/Helvetica 16.667 F
GS
[1 0 0 1 0 0] CT
-14.5 18 moveto 
1 -1 scale
(400) t 
GR
GR
GS
[0.6 0 0 0.6 129.30006 95] CT
0.149 GC
/Helvetica 18.333 F
GS
[1 0 0 1 0 0] CT
-13 19 moveto 
1 -1 scale
(t\(s\)) t 
GR
GR
GS
[0.6 0 0 0.6 0 0] CT
0.149 GC
2 setlinecap
1 LJ
0.833 LW
N
108 128 M
108 50 L
S
GR
GS
[0.6 0 0 0.6 0 0] CT
0.149 GC
2 setlinecap
1 LJ
0.833 LW
N
323 128 M
323 50 L
S
GR
GS
[0.6 0 0 0.6 0 0] CT
0.149 GC
2 setlinecap
1 LJ
0.833 LW
N
108 128 M
110.15 128 L
S
GR
GS
[0.6 0 0 0.6 0 0] CT
0.149 GC
2 setlinecap
1 LJ
0.833 LW
N
108 89 M
110.15 89 L
S
GR
GS
[0.6 0 0 0.6 0 0] CT
0.149 GC
2 setlinecap
1 LJ
0.833 LW
N
108 50 M
110.15 50 L
S
GR
GS
[0.6 0 0 0.6 0 0] CT
0.149 GC
2 setlinecap
1 LJ
0.833 LW
N
323 128 M
320.85 128 L
S
GR
GS
[0.6 0 0 0.6 0 0] CT
0.149 GC
2 setlinecap
1 LJ
0.833 LW
N
323 89 M
320.85 89 L
S
GR
GS
[0.6 0 0 0.6 0 0] CT
0.149 GC
2 setlinecap
1 LJ
0.833 LW
N
323 50 M
320.85 50 L
S
GR
GS
[0.6 0 0 0.6 60.8 76.8] CT
0.149 GC
/Helvetica 16.667 F
GS
[1 0 0 1 0 0] CT
-16 7 moveto 
1 -1 scale
(-2) t 
GR
GR
GS
[0.6 0 0 0.6 60.8 53.4] CT
0.149 GC
/Helvetica 16.667 F
GS
[1 0 0 1 0 0] CT
-10 7 moveto 
1 -1 scale
(0) t 
GR
GR
GS
[0.6 0 0 0.6 60.8 30] CT
0.149 GC
/Helvetica 16.667 F
GS
[1 0 0 1 0 0] CT
-10 7 moveto 
1 -1 scale
(2) t 
GR
GR
GS
[0 -0.6 0.6 0 45.6 82.8] CT
0.149 GC
/Helvetica 18.333 F
GS
[1 0 0 1 0 0] CT
0 0 moveto 
1 -1 scale
(Delta) t 
GR
GR
GS
[0 -0.6 0.6 0 45.6 57] CT
0.149 GC
N
0.484 3.484 M
0.438 3.484 0.391 3.422 QT
0.344 3.359 0.344 3.313 QT
3.109 -7.813 L
3.344 -8.703 3.805 -9.547 QT
4.266 -10.391 4.953 -11.117 QT
5.641 -11.844 6.469 -12.266 QT
7.297 -12.688 8.234 -12.688 QT
8.891 -12.688 9.43 -12.398 QT
9.969 -12.109 10.281 -11.578 QT
10.594 -11.047 10.594 -10.375 QT
10.594 -9.734 10.352 -9.148 QT
10.109 -8.563 9.672 -8.055 QT
9.234 -7.547 8.734 -7.234 QT
9.016 -7.047 9.242 -6.766 QT
9.469 -6.484 9.609 -6.172 QT
9.75 -5.859 9.836 -5.477 QT
9.922 -5.094 9.922 -4.75 QT
9.922 -3.828 9.523 -2.938 QT
9.125 -2.047 8.445 -1.313 QT
7.766 -0.578 6.883 -0.156 QT
6 0.266 5.078 0.266 QT
4.063 0.266 3.258 -0.281 QT
2.453 -0.828 2.141 -1.781 QT
0.844 3.391 L
0.844 3.484 0.703 3.484 QT
0.484 3.484 L
cp
5.109 -0.219 M
5.922 -0.219 6.578 -0.75 QT
7.234 -1.281 7.664 -2.086 QT
8.094 -2.891 8.313 -3.789 QT
8.531 -4.688 8.531 -5.438 QT
8.531 -6.344 8 -6.875 QT
7.391 -6.641 6.797 -6.641 QT
5.375 -6.641 5.375 -7.125 QT
5.375 -7.766 7 -7.766 QT
7.578 -7.766 8.063 -7.578 QT
8.453 -7.875 8.773 -8.453 QT
9.094 -9.031 9.25 -9.664 QT
9.406 -10.297 9.406 -10.859 QT
9.406 -11.438 9.102 -11.828 QT
8.797 -12.219 8.188 -12.219 QT
7.094 -12.219 6.148 -11.547 QT
5.203 -10.875 4.555 -9.844 QT
3.906 -8.813 3.625 -7.703 QT
2.625 -3.734 L
2.531 -3.313 2.5 -2.797 QT
2.5 -1.672 3.242 -0.945 QT
3.984 -0.219 5.109 -0.219 QT
cp
5.922 -7.188 M
6.203 -7.109 6.828 -7.109 QT
7.125 -7.109 7.438 -7.219 QT
7.422 -7.234 7.359 -7.234 QT
7.172 -7.281 6.953 -7.281 QT
6.141 -7.281 5.922 -7.188 QT
cp
f
GR
GS
[0 -0.6 0.6 0 45.6 50.4] CT
0.149 GC
/Helvetica 18.333 F
GS
[1 0 0 1 0 0] CT
0 0 moveto 
1 -1 scale
(\(deg\)) t 
GR
GR
GS
[0.6 0 0 0.6 0 0] CT
0 0.447 0.741 RC
1 LJ
0.833 LW
N
108 89 M
110.15 67.383 L
112.3 70.835 L
114.45 72.609 L
116.6 74.37 L
118.75 76.026 L
120.9 77.589 L
123.05 79.063 L
125.2 80.454 L
127.35 81.766 L
129.5 83.003 L
131.65 84.171 L
133.8 85.272 L
135.95 86.311 L
138.1 87.291 L
140.25 88.215 L
142.4 89.087 L
144.55 89.91 L
146.7 90.686 L
148.85 91.418 L
151 92.109 L
153.15 92.76 L
155.3 93.375 L
157.45 93.955 L
159.6 94.501 L
161.75 95.017 L
163.9 95.504 L
166.05 95.963 L
168.2 96.396 L
170.35 96.805 L
172.5 97.19 L
174.65 97.554 L
176.8 97.897 L
178.95 98.22 L
181.1 98.525 L
183.25 98.813 L
185.4 99.085 L
187.55 99.341 L
189.7 99.583 L
191.85 99.811 L
194 100.026 L
196.15 100.229 L
198.3 100.42 L
200.45 100.601 L
202.6 100.771 L
204.75 100.932 L
206.9 101.083 L
209.05 101.226 L
211.2 101.361 L
213.35 101.488 L
215.5 101.608 L
217.65 101.721 L
219.8 101.828 L
221.95 101.929 L
224.1 102.024 L
226.25 102.114 L
228.4 102.198 L
230.55 102.278 L
232.7 102.353 L
234.85 102.424 L
237 102.491 L
239.15 102.554 L
241.3 102.614 L
243.45 102.67 L
245.6 102.723 L
247.75 102.773 L
249.9 102.821 L
252.05 102.865 L
254.2 102.907 L
256.35 102.947 L
258.5 102.984 L
260.65 103.019 L
262.8 103.053 L
264.95 103.084 L
267.1 103.114 L
269.25 103.142 L
271.4 103.168 L
273.55 103.193 L
275.7 103.216 L
277.85 103.238 L
280 103.259 L
282.15 103.279 L
284.3 103.297 L
286.45 103.315 L
288.6 103.331 L
290.75 103.347 L
292.9 103.362 L
295.05 103.376 L
297.2 103.389 L
299.35 103.401 L
301.5 103.413 L
303.65 103.424 L
305.8 103.434 L
307.95 103.444 L
310.1 103.453 L
312.25 103.462 L
314.4 103.47 L
316.55 103.478 L
318.7 103.485 L
320.85 103.492 L
323 103.498 L
S
GR
GS
[0.6 0 0 0.6 0 0] CT
1 GC
N
416 128 M
631 128 L
631 50 L
416 50 L
cp
f
GR
GS
[0.6 0 0 0.6 0 0] CT
0.873 GC
1 LJ
0.833 LW
N
416 128 M
416 50 L
S
GR
GS
[0.6 0 0 0.6 0 0] CT
0.873 GC
1 LJ
0.833 LW
N
523.5 128 M
523.5 50 L
S
GR
GS
[0.6 0 0 0.6 0 0] CT
0.873 GC
1 LJ
0.833 LW
N
631 128 M
631 50 L
S
GR
GS
[0.6 0 0 0.6 0 0] CT
0.873 GC
1 LJ
0.833 LW
N
631 128 M
416 128 L
S
GR
GS
[0.6 0 0 0.6 0 0] CT
0.873 GC
1 LJ
0.833 LW
N
631 89 M
416 89 L
S
GR
GS
[0.6 0 0 0.6 0 0] CT
0.873 GC
1 LJ
0.833 LW
N
631 50 M
416 50 L
S
GR
GS
[0.6 0 0 0.6 0 0] CT
0.149 GC
2 setlinecap
1 LJ
0.833 LW
N
416 128 M
631 128 L
S
GR
GS
[0.6 0 0 0.6 0 0] CT
0.149 GC
2 setlinecap
1 LJ
0.833 LW
N
416 50 M
631 50 L
S
GR
GS
[0.6 0 0 0.6 0 0] CT
0.149 GC
2 setlinecap
1 LJ
0.833 LW
N
416 128 M
416 125.85 L
S
GR
GS
[0.6 0 0 0.6 0 0] CT
0.149 GC
2 setlinecap
1 LJ
0.833 LW
N
523.5 128 M
523.5 125.85 L
S
GR
GS
[0.6 0 0 0.6 0 0] CT
0.149 GC
2 setlinecap
1 LJ
0.833 LW
N
631 128 M
631 125.85 L
S
GR
GS
[0.6 0 0 0.6 0 0] CT
0.149 GC
2 setlinecap
1 LJ
0.833 LW
N
416 50 M
416 52.15 L
S
GR
GS
[0.6 0 0 0.6 0 0] CT
0.149 GC
2 setlinecap
1 LJ
0.833 LW
N
523.5 50 M
523.5 52.15 L
S
GR
GS
[0.6 0 0 0.6 0 0] CT
0.149 GC
2 setlinecap
1 LJ
0.833 LW
N
631 50 M
631 52.15 L
S
GR
GS
[0.6 0 0 0.6 249.6 80.8] CT
0.149 GC
/Helvetica 16.667 F
GS
[1 0 0 1 0 0] CT
-5 18 moveto 
1 -1 scale
(0) t 
GR
GR
GS
[0.6 0 0 0.6 314.1 80.8] CT
0.149 GC
/Helvetica 16.667 F
GS
[1 0 0 1 0 0] CT
-14.5 18 moveto 
1 -1 scale
(200) t 
GR
GR
GS
[0.6 0 0 0.6 378.6 80.8] CT
0.149 GC
/Helvetica 16.667 F
GS
[1 0 0 1 0 0] CT
-14.5 18 moveto 
1 -1 scale
(400) t 
GR
GR
GS
[0.6 0 0 0.6 314.10007 95.00001] CT
0.149 GC
/Helvetica 18.333 F
GS
[1 0 0 1 0 0] CT
-13 19 moveto 
1 -1 scale
(t\(s\)) t 
GR
GR
GS
[0.6 0 0 0.6 0 0] CT
0.149 GC
2 setlinecap
1 LJ
0.833 LW
N
416 128 M
416 50 L
S
GR
GS
[0.6 0 0 0.6 0 0] CT
0.149 GC
2 setlinecap
1 LJ
0.833 LW
N
631 128 M
631 50 L
S
GR
GS
[0.6 0 0 0.6 0 0] CT
0.149 GC
2 setlinecap
1 LJ
0.833 LW
N
416 128 M
418.15 128 L
S
GR
GS
[0.6 0 0 0.6 0 0] CT
0.149 GC
2 setlinecap
1 LJ
0.833 LW
N
416 89 M
418.15 89 L
S
GR
GS
[0.6 0 0 0.6 0 0] CT
0.149 GC
2 setlinecap
1 LJ
0.833 LW
N
416 50 M
418.15 50 L
S
GR
GS
[0.6 0 0 0.6 0 0] CT
0.149 GC
2 setlinecap
1 LJ
0.833 LW
N
631 128 M
628.85 128 L
S
GR
GS
[0.6 0 0 0.6 0 0] CT
0.149 GC
2 setlinecap
1 LJ
0.833 LW
N
631 89 M
628.85 89 L
S
GR
GS
[0.6 0 0 0.6 0 0] CT
0.149 GC
2 setlinecap
1 LJ
0.833 LW
N
631 50 M
628.85 50 L
S
GR
GS
[0.6 0 0 0.6 245.60001 76.8] CT
0.149 GC
/Helvetica 16.667 F
GS
[1 0 0 1 0 0] CT
-25 7 moveto 
1 -1 scale
(-20) t 
GR
GR
GS
[0.6 0 0 0.6 245.60001 53.4] CT
0.149 GC
/Helvetica 16.667 F
GS
[1 0 0 1 0 0] CT
-10 7 moveto 
1 -1 scale
(0) t 
GR
GR
GS
[0.6 0 0 0.6 245.60001 30] CT
0.149 GC
/Helvetica 16.667 F
GS
[1 0 0 1 0 0] CT
-19 7 moveto 
1 -1 scale
(20) t 
GR
GR
GS
[0 -0.6 0.6 0 227.60001 53.39998] CT
0.149 GC
/Helvetica 18.333 F
GS
[1 0 0 1 0 0] CT
-54.5 -4 moveto 
1 -1 scale
(Deltap\(deg/s\)) t 
GR
GR
GS
[0.6 0 0 0.6 0 0] CT
0 0.447 0.741 RC
1 LJ
0.833 LW
N
416 89 M
418.15 110.106 L
420.3 107.721 L
422.45 106.682 L
424.6 105.615 L
426.75 104.614 L
428.9 103.67 L
431.05 102.779 L
433.2 101.939 L
435.35 101.146 L
437.5 100.398 L
439.65 99.693 L
441.8 99.027 L
443.95 98.399 L
446.1 97.807 L
448.25 97.249 L
450.4 96.722 L
452.55 96.224 L
454.7 95.756 L
456.85 95.313 L
459 94.896 L
461.15 94.502 L
463.3 94.131 L
465.45 93.78 L
467.6 93.45 L
469.75 93.138 L
471.9 92.844 L
474.05 92.567 L
476.2 92.305 L
478.35 92.058 L
480.5 91.825 L
482.65 91.606 L
484.8 91.398 L
486.95 91.203 L
489.1 91.018 L
491.25 90.844 L
493.4 90.68 L
495.55 90.526 L
497.7 90.379 L
499.85 90.242 L
502 90.112 L
504.15 89.989 L
506.3 89.874 L
508.45 89.764 L
510.6 89.661 L
512.75 89.564 L
514.9 89.473 L
517.05 89.386 L
519.2 89.305 L
521.35 89.228 L
523.5 89.156 L
525.65 89.087 L
527.8 89.023 L
529.95 88.962 L
532.1 88.904 L
534.25 88.85 L
536.4 88.799 L
538.55 88.751 L
540.7 88.705 L
542.85 88.662 L
545 88.622 L
547.15 88.584 L
549.3 88.548 L
551.45 88.514 L
553.6 88.482 L
555.75 88.451 L
557.9 88.423 L
560.05 88.396 L
562.2 88.371 L
564.35 88.347 L
566.5 88.324 L
568.65 88.303 L
570.8 88.283 L
572.95 88.264 L
575.1 88.246 L
577.25 88.229 L
579.4 88.213 L
581.55 88.198 L
583.7 88.184 L
585.85 88.171 L
588 88.158 L
590.15 88.146 L
592.3 88.135 L
594.45 88.124 L
596.6 88.114 L
598.75 88.105 L
600.9 88.096 L
603.05 88.088 L
605.2 88.08 L
607.35 88.072 L
609.5 88.065 L
611.65 88.059 L
613.8 88.052 L
615.95 88.046 L
618.1 88.041 L
620.25 88.036 L
622.4 88.031 L
624.55 88.026 L
626.7 88.022 L
628.85 88.017 L
631 88.013 L
S
GR
GS
[0.6 0 0 0.6 0 0] CT
1 GC
N
108 285 M
323 285 L
323 207 L
108 207 L
cp
f
GR
GS
[0.6 0 0 0.6 0 0] CT
0.873 GC
1 LJ
0.833 LW
N
108 285 M
108 207 L
S
GR
GS
[0.6 0 0 0.6 0 0] CT
0.873 GC
1 LJ
0.833 LW
N
215.5 285 M
215.5 207 L
S
GR
GS
[0.6 0 0 0.6 0 0] CT
0.873 GC
1 LJ
0.833 LW
N
323 285 M
323 207 L
S
GR
GS
[0.6 0 0 0.6 0 0] CT
0.873 GC
1 LJ
0.833 LW
N
323 269.4 M
108 269.4 L
S
GR
GS
[0.6 0 0 0.6 0 0] CT
0.873 GC
1 LJ
0.833 LW
N
323 238.2 M
108 238.2 L
S
GR
GS
[0.6 0 0 0.6 0 0] CT
0.873 GC
1 LJ
0.833 LW
N
323 207 M
108 207 L
S
GR
GS
[0.6 0 0 0.6 0 0] CT
0.149 GC
2 setlinecap
1 LJ
0.833 LW
N
108 285 M
323 285 L
S
GR
GS
[0.6 0 0 0.6 0 0] CT
0.149 GC
2 setlinecap
1 LJ
0.833 LW
N
108 207 M
323 207 L
S
GR
GS
[0.6 0 0 0.6 0 0] CT
0.149 GC
2 setlinecap
1 LJ
0.833 LW
N
108 285 M
108 282.85 L
S
GR
GS
[0.6 0 0 0.6 0 0] CT
0.149 GC
2 setlinecap
1 LJ
0.833 LW
N
215.5 285 M
215.5 282.85 L
S
GR
GS
[0.6 0 0 0.6 0 0] CT
0.149 GC
2 setlinecap
1 LJ
0.833 LW
N
323 285 M
323 282.85 L
S
GR
GS
[0.6 0 0 0.6 0 0] CT
0.149 GC
2 setlinecap
1 LJ
0.833 LW
N
108 207 M
108 209.15 L
S
GR
GS
[0.6 0 0 0.6 0 0] CT
0.149 GC
2 setlinecap
1 LJ
0.833 LW
N
215.5 207 M
215.5 209.15 L
S
GR
GS
[0.6 0 0 0.6 0 0] CT
0.149 GC
2 setlinecap
1 LJ
0.833 LW
N
323 207 M
323 209.15 L
S
GR
GS
[0.6 0 0 0.6 64.8 174.99999] CT
0.149 GC
/Helvetica 16.667 F
GS
[1 0 0 1 0 0] CT
-5 18 moveto 
1 -1 scale
(0) t 
GR
GR
GS
[0.6 0 0 0.6 129.3 174.99999] CT
0.149 GC
/Helvetica 16.667 F
GS
[1 0 0 1 0 0] CT
-14.5 18 moveto 
1 -1 scale
(200) t 
GR
GR
GS
[0.6 0 0 0.6 193.8 174.99999] CT
0.149 GC
/Helvetica 16.667 F
GS
[1 0 0 1 0 0] CT
-14.5 18 moveto 
1 -1 scale
(400) t 
GR
GR
GS
[0.6 0 0 0.6 129.30006 189.20001] CT
0.149 GC
/Helvetica 18.333 F
GS
[1 0 0 1 0 0] CT
-13 19 moveto 
1 -1 scale
(t\(s\)) t 
GR
GR
GS
[0.6 0 0 0.6 0 0] CT
0.149 GC
2 setlinecap
1 LJ
0.833 LW
N
108 285 M
108 207 L
S
GR
GS
[0.6 0 0 0.6 0 0] CT
0.149 GC
2 setlinecap
1 LJ
0.833 LW
N
323 285 M
323 207 L
S
GR
GS
[0.6 0 0 0.6 0 0] CT
0.149 GC
2 setlinecap
1 LJ
0.833 LW
N
108 269.4 M
110.15 269.4 L
S
GR
GS
[0.6 0 0 0.6 0 0] CT
0.149 GC
2 setlinecap
1 LJ
0.833 LW
N
108 238.2 M
110.15 238.2 L
S
GR
GS
[0.6 0 0 0.6 0 0] CT
0.149 GC
2 setlinecap
1 LJ
0.833 LW
N
108 207 M
110.15 207 L
S
GR
GS
[0.6 0 0 0.6 0 0] CT
0.149 GC
2 setlinecap
1 LJ
0.833 LW
N
323 269.4 M
320.85 269.4 L
S
GR
GS
[0.6 0 0 0.6 0 0] CT
0.149 GC
2 setlinecap
1 LJ
0.833 LW
N
323 238.2 M
320.85 238.2 L
S
GR
GS
[0.6 0 0 0.6 0 0] CT
0.149 GC
2 setlinecap
1 LJ
0.833 LW
N
323 207 M
320.85 207 L
S
GR
GS
[0.6 0 0 0.6 60.8 161.64] CT
0.149 GC
/Helvetica 16.667 F
GS
[1 0 0 1 0 0] CT
-25 7 moveto 
1 -1 scale
(-40) t 
GR
GR
GS
[0.6 0 0 0.6 60.8 142.92] CT
0.149 GC
/Helvetica 16.667 F
GS
[1 0 0 1 0 0] CT
-25 7 moveto 
1 -1 scale
(-20) t 
GR
GR
GS
[0.6 0 0 0.6 60.8 124.2] CT
0.149 GC
/Helvetica 16.667 F
GS
[1 0 0 1 0 0] CT
-10 7 moveto 
1 -1 scale
(0) t 
GR
GR
GS
[0 -0.6 0.6 0 42.8 147.59998] CT
0.149 GC
/Helvetica 18.333 F
GS
[1 0 0 1 0 0] CT
-52.5 -4 moveto 
1 -1 scale
(Deltar\(deg/s\)) t 
GR
GR
GS
[0.6 0 0 0.6 0 0] CT
0 0.447 0.741 RC
1 LJ
0.833 LW
N
108 207 M
110.15 210.931 L
112.3 214.336 L
114.45 217.458 L
116.6 220.416 L
118.75 223.205 L
120.9 225.837 L
123.05 228.319 L
125.2 230.66 L
127.35 232.869 L
129.5 234.953 L
131.65 236.919 L
133.8 238.773 L
135.95 240.522 L
138.1 242.172 L
140.25 243.729 L
142.4 245.197 L
144.55 246.582 L
146.7 247.889 L
148.85 249.122 L
151 250.285 L
153.15 251.382 L
155.3 252.416 L
157.45 253.392 L
159.6 254.313 L
161.75 255.182 L
163.9 256.001 L
166.05 256.774 L
168.2 257.504 L
170.35 258.192 L
172.5 258.84 L
174.65 259.453 L
176.8 260.03 L
178.95 260.575 L
181.1 261.089 L
183.25 261.573 L
185.4 262.031 L
187.55 262.462 L
189.7 262.869 L
191.85 263.253 L
194 263.615 L
196.15 263.957 L
198.3 264.279 L
200.45 264.583 L
202.6 264.87 L
204.75 265.14 L
206.9 265.395 L
209.05 265.636 L
211.2 265.863 L
213.35 266.077 L
215.5 266.28 L
217.65 266.47 L
219.8 266.65 L
221.95 266.82 L
224.1 266.98 L
226.25 267.131 L
228.4 267.273 L
230.55 267.407 L
232.7 267.534 L
234.85 267.654 L
237 267.767 L
239.15 267.873 L
241.3 267.973 L
243.45 268.068 L
245.6 268.157 L
247.75 268.241 L
249.9 268.321 L
252.05 268.396 L
254.2 268.467 L
256.35 268.533 L
258.5 268.596 L
260.65 268.656 L
262.8 268.712 L
264.95 268.765 L
267.1 268.814 L
269.25 268.861 L
271.4 268.906 L
273.55 268.948 L
275.7 268.987 L
277.85 269.024 L
280 269.059 L
282.15 269.092 L
284.3 269.124 L
286.45 269.153 L
288.6 269.181 L
290.75 269.207 L
292.9 269.232 L
295.05 269.255 L
297.2 269.277 L
299.35 269.298 L
301.5 269.318 L
303.65 269.336 L
305.8 269.354 L
307.95 269.37 L
310.1 269.386 L
312.25 269.4 L
314.4 269.414 L
316.55 269.427 L
318.7 269.439 L
320.85 269.451 L
323 269.462 L
S
GR
GS
[0.6 0 0 0.6 0 0] CT
1 GC
N
416 285 M
631 285 L
631 207 L
416 207 L
cp
f
GR
GS
[0.6 0 0 0.6 0 0] CT
0.873 GC
1 LJ
0.833 LW
N
416 285 M
416 207 L
S
GR
GS
[0.6 0 0 0.6 0 0] CT
0.873 GC
1 LJ
0.833 LW
N
523.5 285 M
523.5 207 L
S
GR
GS
[0.6 0 0 0.6 0 0] CT
0.873 GC
1 LJ
0.833 LW
N
631 285 M
631 207 L
S
GR
GS
[0.6 0 0 0.6 0 0] CT
0.873 GC
1 LJ
0.833 LW
N
631 285 M
416 285 L
S
GR
GS
[0.6 0 0 0.6 0 0] CT
0.873 GC
1 LJ
0.833 LW
N
631 246 M
416 246 L
S
GR
GS
[0.6 0 0 0.6 0 0] CT
0.873 GC
1 LJ
0.833 LW
N
631 207 M
416 207 L
S
GR
GS
[0.6 0 0 0.6 0 0] CT
0.149 GC
2 setlinecap
1 LJ
0.833 LW
N
416 285 M
631 285 L
S
GR
GS
[0.6 0 0 0.6 0 0] CT
0.149 GC
2 setlinecap
1 LJ
0.833 LW
N
416 207 M
631 207 L
S
GR
GS
[0.6 0 0 0.6 0 0] CT
0.149 GC
2 setlinecap
1 LJ
0.833 LW
N
416 285 M
416 282.85 L
S
GR
GS
[0.6 0 0 0.6 0 0] CT
0.149 GC
2 setlinecap
1 LJ
0.833 LW
N
523.5 285 M
523.5 282.85 L
S
GR
GS
[0.6 0 0 0.6 0 0] CT
0.149 GC
2 setlinecap
1 LJ
0.833 LW
N
631 285 M
631 282.85 L
S
GR
GS
[0.6 0 0 0.6 0 0] CT
0.149 GC
2 setlinecap
1 LJ
0.833 LW
N
416 207 M
416 209.15 L
S
GR
GS
[0.6 0 0 0.6 0 0] CT
0.149 GC
2 setlinecap
1 LJ
0.833 LW
N
523.5 207 M
523.5 209.15 L
S
GR
GS
[0.6 0 0 0.6 0 0] CT
0.149 GC
2 setlinecap
1 LJ
0.833 LW
N
631 207 M
631 209.15 L
S
GR
GS
[0.6 0 0 0.6 249.6 174.99999] CT
0.149 GC
/Helvetica 16.667 F
GS
[1 0 0 1 0 0] CT
-5 18 moveto 
1 -1 scale
(0) t 
GR
GR
GS
[0.6 0 0 0.6 314.1 174.99999] CT
0.149 GC
/Helvetica 16.667 F
GS
[1 0 0 1 0 0] CT
-14.5 18 moveto 
1 -1 scale
(200) t 
GR
GR
GS
[0.6 0 0 0.6 378.6 174.99999] CT
0.149 GC
/Helvetica 16.667 F
GS
[1 0 0 1 0 0] CT
-14.5 18 moveto 
1 -1 scale
(400) t 
GR
GR
GS
[0.6 0 0 0.6 314.10007 189.20001] CT
0.149 GC
/Helvetica 18.333 F
GS
[1 0 0 1 0 0] CT
-13 19 moveto 
1 -1 scale
(t\(s\)) t 
GR
GR
GS
[0.6 0 0 0.6 0 0] CT
0.149 GC
2 setlinecap
1 LJ
0.833 LW
N
416 285 M
416 207 L
S
GR
GS
[0.6 0 0 0.6 0 0] CT
0.149 GC
2 setlinecap
1 LJ
0.833 LW
N
631 285 M
631 207 L
S
GR
GS
[0.6 0 0 0.6 0 0] CT
0.149 GC
2 setlinecap
1 LJ
0.833 LW
N
416 285 M
418.15 285 L
S
GR
GS
[0.6 0 0 0.6 0 0] CT
0.149 GC
2 setlinecap
1 LJ
0.833 LW
N
416 246 M
418.15 246 L
S
GR
GS
[0.6 0 0 0.6 0 0] CT
0.149 GC
2 setlinecap
1 LJ
0.833 LW
N
416 207 M
418.15 207 L
S
GR
GS
[0.6 0 0 0.6 0 0] CT
0.149 GC
2 setlinecap
1 LJ
0.833 LW
N
631 285 M
628.85 285 L
S
GR
GS
[0.6 0 0 0.6 0 0] CT
0.149 GC
2 setlinecap
1 LJ
0.833 LW
N
631 246 M
628.85 246 L
S
GR
GS
[0.6 0 0 0.6 0 0] CT
0.149 GC
2 setlinecap
1 LJ
0.833 LW
N
631 207 M
628.85 207 L
S
GR
GS
[0.6 0 0 0.6 245.60001 171] CT
0.149 GC
/Helvetica 16.667 F
GS
[1 0 0 1 0 0] CT
-44 7 moveto 
1 -1 scale
(-1000) t 
GR
GR
GS
[0.6 0 0 0.6 245.60001 147.6] CT
0.149 GC
/Helvetica 16.667 F
GS
[1 0 0 1 0 0] CT
-35 7 moveto 
1 -1 scale
(-500) t 
GR
GR
GS
[0.6 0 0 0.6 245.60001 124.2] CT
0.149 GC
/Helvetica 16.667 F
GS
[1 0 0 1 0 0] CT
-10 7 moveto 
1 -1 scale
(0) t 
GR
GR
GS
[0 -0.6 0.6 0 213.6 177] CT
0.149 GC
/Helvetica 18.333 F
GS
[1 0 0 1 0 0] CT
0 0 moveto 
1 -1 scale
(Delta) t 
GR
GR
GS
[0 -0.6 0.6 0 213.6 151.2] CT
0.149 GC
N
3.484 3.5 M
4.297 0.25 L
3.391 0.25 2.594 -0.172 QT
1.797 -0.594 1.32 -1.359 QT
0.844 -2.125 0.844 -3.031 QT
0.844 -4 1.328 -4.891 QT
1.813 -5.781 2.648 -6.5 QT
3.484 -7.219 4.453 -7.609 QT
5.422 -8 6.375 -8 QT
7.453 -12.391 L
7.484 -12.484 7.594 -12.484 QT
7.813 -12.484 L
7.891 -12.484 7.93 -12.422 QT
7.969 -12.359 7.969 -12.313 QT
6.891 -8 L
7.563 -8 8.195 -7.758 QT
8.828 -7.516 9.32 -7.07 QT
9.813 -6.625 10.086 -6.023 QT
10.359 -5.422 10.359 -4.734 QT
10.359 -3.766 9.875 -2.875 QT
9.391 -1.984 8.57 -1.273 QT
7.75 -0.563 6.742 -0.156 QT
5.734 0.25 4.828 0.25 QT
4 3.594 L
3.969 3.688 3.844 3.688 QT
3.641 3.688 L
3.563 3.688 3.523 3.625 QT
3.484 3.563 3.484 3.5 QT
cp
4.406 -0.219 M
6.25 -7.547 L
5.797 -7.547 5.297 -7.359 QT
4.797 -7.172 4.352 -6.891 QT
3.906 -6.609 3.547 -6.25 QT
3.109 -5.813 2.773 -5.211 QT
2.438 -4.609 2.266 -3.945 QT
2.094 -3.281 2.094 -2.641 QT
2.094 -1.969 2.383 -1.414 QT
2.672 -0.859 3.203 -0.539 QT
3.734 -0.219 4.406 -0.219 QT
cp
4.953 -0.219 M
5.625 -0.219 6.391 -0.609 QT
7.156 -1 7.641 -1.516 QT
8.328 -2.188 8.719 -3.156 QT
9.109 -4.125 9.109 -5.109 QT
9.109 -5.781 8.82 -6.344 QT
8.531 -6.906 8 -7.227 QT
7.469 -7.547 6.781 -7.547 QT
4.953 -0.219 L
cp
f
GR
GS
[0 -0.6 0.6 0 213.6 144.6] CT
0.149 GC
/Helvetica 18.333 F
GS
[1 0 0 1 0 0] CT
0 0 moveto 
1 -1 scale
(\(deg\)) t 
GR
GR
GS
[0.6 0 0 0.6 0 0] CT
0 0.447 0.741 RC
1 LJ
0.833 LW
N
416 207 M
418.15 210.044 L
420.3 213.172 L
422.45 216.113 L
424.6 218.887 L
426.75 221.505 L
428.9 223.974 L
431.05 226.303 L
433.2 228.5 L
435.35 230.573 L
437.5 232.528 L
439.65 234.372 L
441.8 236.112 L
443.95 237.754 L
446.1 239.302 L
448.25 240.763 L
450.4 242.141 L
452.55 243.44 L
454.7 244.667 L
456.85 245.823 L
459 246.914 L
461.15 247.944 L
463.3 248.915 L
465.45 249.831 L
467.6 250.695 L
469.75 251.51 L
471.9 252.279 L
474.05 253.004 L
476.2 253.688 L
478.35 254.334 L
480.5 254.943 L
482.65 255.517 L
484.8 256.059 L
486.95 256.57 L
489.1 257.052 L
491.25 257.507 L
493.4 257.936 L
495.55 258.341 L
497.7 258.723 L
499.85 259.083 L
502 259.423 L
504.15 259.744 L
506.3 260.046 L
508.45 260.331 L
510.6 260.6 L
512.75 260.854 L
514.9 261.094 L
517.05 261.32 L
519.2 261.533 L
521.35 261.734 L
523.5 261.923 L
525.65 262.102 L
527.8 262.271 L
529.95 262.43 L
532.1 262.58 L
534.25 262.722 L
536.4 262.856 L
538.55 262.982 L
540.7 263.101 L
542.85 263.213 L
545 263.319 L
547.15 263.418 L
549.3 263.513 L
551.45 263.601 L
553.6 263.685 L
555.75 263.764 L
557.9 263.839 L
560.05 263.909 L
562.2 263.976 L
564.35 264.038 L
566.5 264.097 L
568.65 264.153 L
570.8 264.206 L
572.95 264.255 L
575.1 264.302 L
577.25 264.346 L
579.4 264.388 L
581.55 264.427 L
583.7 264.464 L
585.85 264.499 L
588 264.532 L
590.15 264.563 L
592.3 264.592 L
594.45 264.62 L
596.6 264.646 L
598.75 264.671 L
600.9 264.694 L
603.05 264.716 L
605.2 264.736 L
607.35 264.756 L
609.5 264.774 L
611.65 264.792 L
613.8 264.808 L
615.95 264.823 L
618.1 264.838 L
620.25 264.852 L
622.4 264.865 L
624.55 264.877 L
626.7 264.888 L
628.85 264.899 L
631 264.91 L
S
GR
GS
[0.6 0 0 0.6 0 0] CT
1 GC
N
108 442 M
323 442 L
323 364 L
108 364 L
cp
f
GR
GS
[0.6 0 0 0.6 0 0] CT
0.873 GC
1 LJ
0.833 LW
N
108 442 M
108 364 L
S
GR
GS
[0.6 0 0 0.6 0 0] CT
0.873 GC
1 LJ
0.833 LW
N
215.5 442 M
215.5 364 L
S
GR
GS
[0.6 0 0 0.6 0 0] CT
0.873 GC
1 LJ
0.833 LW
N
323 442 M
323 364 L
S
GR
GS
[0.6 0 0 0.6 0 0] CT
0.873 GC
1 LJ
0.833 LW
N
323 442 M
108 442 L
S
GR
GS
[0.6 0 0 0.6 0 0] CT
0.873 GC
1 LJ
0.833 LW
N
323 403 M
108 403 L
S
GR
GS
[0.6 0 0 0.6 0 0] CT
0.873 GC
1 LJ
0.833 LW
N
323 364 M
108 364 L
S
GR
GS
[0.6 0 0 0.6 0 0] CT
0.149 GC
2 setlinecap
1 LJ
0.833 LW
N
108 442 M
323 442 L
S
GR
GS
[0.6 0 0 0.6 0 0] CT
0.149 GC
2 setlinecap
1 LJ
0.833 LW
N
108 364 M
323 364 L
S
GR
GS
[0.6 0 0 0.6 0 0] CT
0.149 GC
2 setlinecap
1 LJ
0.833 LW
N
108 442 M
108 439.85 L
S
GR
GS
[0.6 0 0 0.6 0 0] CT
0.149 GC
2 setlinecap
1 LJ
0.833 LW
N
215.5 442 M
215.5 439.85 L
S
GR
GS
[0.6 0 0 0.6 0 0] CT
0.149 GC
2 setlinecap
1 LJ
0.833 LW
N
323 442 M
323 439.85 L
S
GR
GS
[0.6 0 0 0.6 0 0] CT
0.149 GC
2 setlinecap
1 LJ
0.833 LW
N
108 364 M
108 366.15 L
S
GR
GS
[0.6 0 0 0.6 0 0] CT
0.149 GC
2 setlinecap
1 LJ
0.833 LW
N
215.5 364 M
215.5 366.15 L
S
GR
GS
[0.6 0 0 0.6 0 0] CT
0.149 GC
2 setlinecap
1 LJ
0.833 LW
N
323 364 M
323 366.15 L
S
GR
GS
[0.6 0 0 0.6 64.8 269.19999] CT
0.149 GC
/Helvetica 16.667 F
GS
[1 0 0 1 0 0] CT
-5 18 moveto 
1 -1 scale
(0) t 
GR
GR
GS
[0.6 0 0 0.6 129.3 269.19999] CT
0.149 GC
/Helvetica 16.667 F
GS
[1 0 0 1 0 0] CT
-14.5 18 moveto 
1 -1 scale
(200) t 
GR
GR
GS
[0.6 0 0 0.6 193.8 269.19999] CT
0.149 GC
/Helvetica 16.667 F
GS
[1 0 0 1 0 0] CT
-14.5 18 moveto 
1 -1 scale
(400) t 
GR
GR
GS
[0.6 0 0 0.6 129.30006 283.40001] CT
0.149 GC
/Helvetica 18.333 F
GS
[1 0 0 1 0 0] CT
-13 19 moveto 
1 -1 scale
(t\(s\)) t 
GR
GR
GS
[0.6 0 0 0.6 0 0] CT
0.149 GC
2 setlinecap
1 LJ
0.833 LW
N
108 442 M
108 364 L
S
GR
GS
[0.6 0 0 0.6 0 0] CT
0.149 GC
2 setlinecap
1 LJ
0.833 LW
N
323 442 M
323 364 L
S
GR
GS
[0.6 0 0 0.6 0 0] CT
0.149 GC
2 setlinecap
1 LJ
0.833 LW
N
108 442 M
110.15 442 L
S
GR
GS
[0.6 0 0 0.6 0 0] CT
0.149 GC
2 setlinecap
1 LJ
0.833 LW
N
108 403 M
110.15 403 L
S
GR
GS
[0.6 0 0 0.6 0 0] CT
0.149 GC
2 setlinecap
1 LJ
0.833 LW
N
108 364 M
110.15 364 L
S
GR
GS
[0.6 0 0 0.6 0 0] CT
0.149 GC
2 setlinecap
1 LJ
0.833 LW
N
323 442 M
320.85 442 L
S
GR
GS
[0.6 0 0 0.6 0 0] CT
0.149 GC
2 setlinecap
1 LJ
0.833 LW
N
323 403 M
320.85 403 L
S
GR
GS
[0.6 0 0 0.6 0 0] CT
0.149 GC
2 setlinecap
1 LJ
0.833 LW
N
323 364 M
320.85 364 L
S
GR
GS
[0.6 0 0 0.6 60.8 265.2] CT
0.149 GC
/Helvetica 16.667 F
GS
[1 0 0 1 0 0] CT
-16 7 moveto 
1 -1 scale
(-2) t 
GR
GR
GS
[0.6 0 0 0.6 60.8 241.8] CT
0.149 GC
/Helvetica 16.667 F
GS
[1 0 0 1 0 0] CT
-16 7 moveto 
1 -1 scale
(-1) t 
GR
GR
GS
[0.6 0 0 0.6 60.8 218.4] CT
0.149 GC
/Helvetica 16.667 F
GS
[1 0 0 1 0 0] CT
-10 7 moveto 
1 -1 scale
(0) t 
GR
GR
GS
[0 -0.6 0.6 0 45.6 274.2] CT
0.149 GC
/Helvetica 18.333 F
GS
[1 0 0 1 0 0] CT
0 0 moveto 
1 -1 scale
(Deltap) t 
GR
GR
GS
[0 -0.6 0.6 0 45.6 242.4] CT
0.149 GC
N
4.281 3.5 M
5.141 0.156 L
4.344 0.156 3.617 -0.141 QT
2.891 -0.438 2.438 -1.008 QT
1.984 -1.578 1.984 -2.391 QT
1.984 -2.859 2.148 -3.453 QT
2.313 -4.047 2.5 -4.547 QT
2.688 -5.047 3 -5.875 QT
3.25 -6.531 3.25 -6.953 QT
3.25 -7.484 2.844 -7.484 QT
2.141 -7.484 1.68 -6.75 QT
1.219 -6.016 1 -5.109 QT
0.953 -5 0.844 -5 QT
0.641 -5 L
0.484 -5 0.484 -5.172 QT
0.484 -5.219 L
0.781 -6.297 1.375 -7.125 QT
1.969 -7.953 2.891 -7.953 QT
3.531 -7.953 3.969 -7.531 QT
4.406 -7.109 4.406 -6.453 QT
4.406 -6.125 4.266 -5.75 QT
3.953 -4.938 3.766 -4.453 QT
3.578 -3.969 3.414 -3.359 QT
3.25 -2.75 3.25 -2.266 QT
3.25 -1.391 3.797 -0.906 QT
4.344 -0.422 5.234 -0.313 QT
8.266 -12.391 L
8.297 -12.484 8.406 -12.484 QT
8.625 -12.484 L
8.766 -12.484 8.766 -12.313 QT
5.75 -0.266 L
5.953 -0.266 L
6.719 -0.266 7.555 -0.719 QT
8.391 -1.172 9.086 -1.898 QT
9.781 -2.625 10.18 -3.469 QT
10.578 -4.313 10.578 -5.031 QT
10.578 -5.578 10.406 -5.883 QT
10.234 -6.188 9.953 -6.516 QT
9.672 -6.844 9.672 -7.047 QT
9.672 -7.391 9.961 -7.68 QT
10.25 -7.969 10.594 -7.969 QT
11.031 -7.969 11.219 -7.578 QT
11.406 -7.188 11.406 -6.688 QT
11.406 -6.156 11.305 -5.625 QT
11.203 -5.094 11.016 -4.375 QT
10.594 -2.734 9.297 -1.422 QT
8.844 -0.969 8.305 -0.602 QT
7.766 -0.234 7.164 -0.016 QT
6.563 0.203 5.938 0.203 QT
5.656 0.203 L
4.813 3.594 L
4.766 3.688 4.656 3.688 QT
4.453 3.688 L
4.375 3.688 4.328 3.633 QT
4.281 3.578 4.281 3.5 QT
cp
f
GR
GS
[0 -0.6 0.6 0 45.6 235.2] CT
0.149 GC
/Helvetica 18.333 F
GS
[1 0 0 1 0 0] CT
0 0 moveto 
1 -1 scale
(\(deg\)) t 
GR
GR
GS
[0.6 0 0 0.6 64.8 216] CT
0.149 GC
N
2.5 -0.484 M
2.5 -0.625 2.578 -0.734 QT
6.125 -4.25 L
2.578 -7.781 L
2.5 -7.875 2.5 -8.016 QT
2.5 -8.141 2.602 -8.242 QT
2.703 -8.344 2.844 -8.344 QT
2.953 -8.344 3.094 -8.25 QT
6.609 -4.719 L
10.125 -8.25 L
10.266 -8.344 10.375 -8.344 QT
10.516 -8.344 10.609 -8.25 QT
10.703 -8.156 10.703 -8.016 QT
10.703 -7.875 10.625 -7.781 QT
7.094 -4.25 L
10.625 -0.734 L
10.703 -0.625 10.703 -0.484 QT
10.703 -0.344 10.609 -0.25 QT
10.516 -0.156 10.375 -0.156 QT
10.25 -0.156 10.125 -0.281 QT
6.609 -3.781 L
3.094 -0.281 L
2.969 -0.156 2.844 -0.156 QT
2.703 -0.156 2.602 -0.258 QT
2.5 -0.359 2.5 -0.484 QT
cp
f
GR
GS
[0.6 0 0 0.6 73.2 216] CT
0.149 GC
/Helvetica 16.667 F
GS
[1 0 0 1 0 0] CT
0 0 moveto 
1 -1 scale
(10) t 
GR
GR
GS
[0.6 0 0 0.6 84.6 211.2] CT
0.149 GC
/Helvetica 13.333 F
GS
[1 0 0 1 0 0] CT
0 0 moveto 
1 -1 scale
(4) t 
GR
GR
GS
[0.6 0 0 0.6 0 0] CT
0 0.447 0.741 RC
1 LJ
0.833 LW
N
108 364 M
110.15 364.027 L
112.3 364.083 L
114.45 364.173 L
116.6 364.292 L
118.75 364.44 L
120.9 364.616 L
123.05 364.817 L
125.2 365.042 L
127.35 365.289 L
129.5 365.559 L
131.65 365.848 L
133.8 366.157 L
135.95 366.483 L
138.1 366.827 L
140.25 367.187 L
142.4 367.561 L
144.55 367.95 L
146.7 368.353 L
148.85 368.768 L
151 369.195 L
153.15 369.633 L
155.3 370.083 L
157.45 370.542 L
159.6 371.01 L
161.75 371.488 L
163.9 371.974 L
166.05 372.468 L
168.2 372.969 L
170.35 373.478 L
172.5 373.993 L
174.65 374.515 L
176.8 375.042 L
178.95 375.575 L
181.1 376.114 L
183.25 376.657 L
185.4 377.205 L
187.55 377.758 L
189.7 378.314 L
191.85 378.875 L
194 379.439 L
196.15 380.007 L
198.3 380.579 L
200.45 381.153 L
202.6 381.73 L
204.75 382.31 L
206.9 382.893 L
209.05 383.478 L
211.2 384.066 L
213.35 384.656 L
215.5 385.248 L
217.65 385.841 L
219.8 386.437 L
221.95 387.034 L
224.1 387.633 L
226.25 388.234 L
228.4 388.836 L
230.55 389.44 L
232.7 390.044 L
234.85 390.65 L
237 391.258 L
239.15 391.866 L
241.3 392.475 L
243.45 393.085 L
245.6 393.697 L
247.75 394.309 L
249.9 394.922 L
252.05 395.535 L
254.2 396.15 L
256.35 396.765 L
258.5 397.38 L
260.65 397.997 L
262.8 398.613 L
264.95 399.231 L
267.1 399.849 L
269.25 400.467 L
271.4 401.086 L
273.55 401.706 L
275.7 402.325 L
277.85 402.945 L
280 403.566 L
282.15 404.187 L
284.3 404.808 L
286.45 405.429 L
288.6 406.051 L
290.75 406.673 L
292.9 407.295 L
295.05 407.918 L
297.2 408.54 L
299.35 409.163 L
301.5 409.787 L
303.65 410.41 L
305.8 411.033 L
307.95 411.657 L
310.1 412.281 L
312.25 412.905 L
314.4 413.529 L
316.55 414.153 L
318.7 414.778 L
320.85 415.402 L
323 416.027 L
S
GR
%%Trailer
%%Pages: 1
%%EOF
