%!PS-Adobe-3.0 EPSF-3.0
%%Creator: (MATLAB, The Mathworks, Inc. Version 9.1.0.441655 \(R2016b\). Operating System: Windows 8)
%%Title: D:/Users/Administrator/Desktop/flight-control-system-paper/report/fig/yaw_coord_step.eps
%%CreationDate: 2019-05-06T11:37:51
%%Pages: (atend)
%%BoundingBox: 0 0 596 442
%%LanguageLevel: 3
%%EndComments
%%BeginProlog
%%BeginResource: procset (Apache XML Graphics Std ProcSet) 1.2 0
%%Version: 1.2 0
%%Copyright: (Copyright 2001-2003,2010 The Apache Software Foundation. License terms: http://www.apache.org/licenses/LICENSE-2.0)
/bd{bind def}bind def
/ld{load def}bd
/GR/grestore ld
/M/moveto ld
/LJ/setlinejoin ld
/C/curveto ld
/f/fill ld
/LW/setlinewidth ld
/GC/setgray ld
/t/show ld
/N/newpath ld
/CT/concat ld
/cp/closepath ld
/S/stroke ld
/L/lineto ld
/CC/setcmykcolor ld
/A/ashow ld
/GS/gsave ld
/RC/setrgbcolor ld
/RM/rmoveto ld
/ML/setmiterlimit ld
/re {4 2 roll M
1 index 0 rlineto
0 exch rlineto
neg 0 rlineto
cp } bd
/_ctm matrix def
/_tm matrix def
/BT { _ctm currentmatrix pop matrix _tm copy pop 0 0 moveto } bd
/ET { _ctm setmatrix } bd
/iTm { _ctm setmatrix _tm concat } bd
/Tm { _tm astore pop iTm 0 0 moveto } bd
/ux 0.0 def
/uy 0.0 def
/F {
  /Tp exch def
  /Tf exch def
  Tf findfont Tp scalefont setfont
  /cf Tf def  /cs Tp def
} bd
/ULS {currentpoint /uy exch def /ux exch def} bd
/ULE {
  /Tcx currentpoint pop def
  gsave
  newpath
  cf findfont cs scalefont dup
  /FontMatrix get 0 get /Ts exch def /FontInfo get dup
  /UnderlinePosition get Ts mul /To exch def
  /UnderlineThickness get Ts mul /Tt exch def
  ux uy To add moveto  Tcx uy To add lineto
  Tt setlinewidth stroke
  grestore
} bd
/OLE {
  /Tcx currentpoint pop def
  gsave
  newpath
  cf findfont cs scalefont dup
  /FontMatrix get 0 get /Ts exch def /FontInfo get dup
  /UnderlinePosition get Ts mul /To exch def
  /UnderlineThickness get Ts mul /Tt exch def
  ux uy To add cs add moveto Tcx uy To add cs add lineto
  Tt setlinewidth stroke
  grestore
} bd
/SOE {
  /Tcx currentpoint pop def
  gsave
  newpath
  cf findfont cs scalefont dup
  /FontMatrix get 0 get /Ts exch def /FontInfo get dup
  /UnderlinePosition get Ts mul /To exch def
  /UnderlineThickness get Ts mul /Tt exch def
  ux uy To add cs 10 mul 26 idiv add moveto Tcx uy To add cs 10 mul 26 idiv add lineto
  Tt setlinewidth stroke
  grestore
} bd
/QT {
/Y22 exch store
/X22 exch store
/Y21 exch store
/X21 exch store
currentpoint
/Y21 load 2 mul add 3 div exch
/X21 load 2 mul add 3 div exch
/X21 load 2 mul /X22 load add 3 div
/Y21 load 2 mul /Y22 load add 3 div
/X22 load /Y22 load curveto
} bd
/SSPD {
dup length /d exch dict def
{
/v exch def
/k exch def
currentpagedevice k known {
/cpdv currentpagedevice k get def
v cpdv ne {
/upd false def
/nullv v type /nulltype eq def
/nullcpdv cpdv type /nulltype eq def
nullv nullcpdv or
{
/upd true def
} {
/sametype v type cpdv type eq def
sametype {
v type /arraytype eq {
/vlen v length def
/cpdvlen cpdv length def
vlen cpdvlen eq {
0 1 vlen 1 sub {
/i exch def
/obj v i get def
/cpdobj cpdv i get def
obj cpdobj ne {
/upd true def
exit
} if
} for
} {
/upd true def
} ifelse
} {
v type /dicttype eq {
v {
/dv exch def
/dk exch def
/cpddv cpdv dk get def
dv cpddv ne {
/upd true def
exit
} if
} forall
} {
/upd true def
} ifelse
} ifelse
} if
} ifelse
upd true eq {
d k v put
} if
} if
} if
} forall
d length 0 gt {
d setpagedevice
} if
} bd
/RE { % /NewFontName [NewEncodingArray] /FontName RE -
  findfont dup length dict begin
  {
    1 index /FID ne
    {def} {pop pop} ifelse
  } forall
  /Encoding exch def
  /FontName 1 index def
  currentdict definefont pop
  end
} bind def
%%EndResource
%%BeginResource: procset (Apache XML Graphics EPS ProcSet) 1.0 0
%%Version: 1.0 0
%%Copyright: (Copyright 2002-2003 The Apache Software Foundation. License terms: http://www.apache.org/licenses/LICENSE-2.0)
/BeginEPSF { %def
/b4_Inc_state save def         % Save state for cleanup
/dict_count countdictstack def % Count objects on dict stack
/op_count count 1 sub def      % Count objects on operand stack
userdict begin                 % Push userdict on dict stack
/showpage { } def              % Redefine showpage, { } = null proc
0 setgray 0 setlinecap         % Prepare graphics state
1 setlinewidth 0 setlinejoin
10 setmiterlimit [ ] 0 setdash newpath
/languagelevel where           % If level not equal to 1 then
{pop languagelevel             % set strokeadjust and
1 ne                           % overprint to their defaults.
{false setstrokeadjust false setoverprint
} if
} if
} bd
/EndEPSF { %def
count op_count sub {pop} repeat            % Clean up stacks
countdictstack dict_count sub {end} repeat
b4_Inc_state restore
} bd
%%EndResource
%FOPBeginFontDict
%%IncludeResource: font Courier-Bold
%%IncludeResource: font Helvetica
%%IncludeResource: font Courier-BoldOblique
%%IncludeResource: font Courier-Oblique
%%IncludeResource: font Times-Roman
%%IncludeResource: font Helvetica-BoldOblique
%%IncludeResource: font Helvetica-Bold
%%IncludeResource: font Helvetica-Oblique
%%IncludeResource: font Times-BoldItalic
%%IncludeResource: font Courier
%%IncludeResource: font Times-Italic
%%IncludeResource: font Times-Bold
%%IncludeResource: font Symbol
%%IncludeResource: font ZapfDingbats
%FOPEndFontDict
%%BeginResource: encoding WinAnsiEncoding
/WinAnsiEncoding [
/.notdef /.notdef /.notdef /.notdef /.notdef
/.notdef /.notdef /.notdef /.notdef /.notdef
/.notdef /.notdef /.notdef /.notdef /.notdef
/.notdef /.notdef /.notdef /.notdef /.notdef
/.notdef /.notdef /.notdef /.notdef /.notdef
/.notdef /.notdef /.notdef /.notdef /.notdef
/.notdef /.notdef /space /exclam /quotedbl
/numbersign /dollar /percent /ampersand /quotesingle
/parenleft /parenright /asterisk /plus /comma
/hyphen /period /slash /zero /one
/two /three /four /five /six
/seven /eight /nine /colon /semicolon
/less /equal /greater /question /at
/A /B /C /D /E
/F /G /H /I /J
/K /L /M /N /O
/P /Q /R /S /T
/U /V /W /X /Y
/Z /bracketleft /backslash /bracketright /asciicircum
/underscore /quoteleft /a /b /c
/d /e /f /g /h
/i /j /k /l /m
/n /o /p /q /r
/s /t /u /v /w
/x /y /z /braceleft /bar
/braceright /asciitilde /bullet /Euro /bullet
/quotesinglbase /florin /quotedblbase /ellipsis /dagger
/daggerdbl /circumflex /perthousand /Scaron /guilsinglleft
/OE /bullet /Zcaron /bullet /bullet
/quoteleft /quoteright /quotedblleft /quotedblright /bullet
/endash /emdash /asciitilde /trademark /scaron
/guilsinglright /oe /bullet /zcaron /Ydieresis
/space /exclamdown /cent /sterling /currency
/yen /brokenbar /section /dieresis /copyright
/ordfeminine /guillemotleft /logicalnot /sfthyphen /registered
/macron /degree /plusminus /twosuperior /threesuperior
/acute /mu /paragraph /middot /cedilla
/onesuperior /ordmasculine /guillemotright /onequarter /onehalf
/threequarters /questiondown /Agrave /Aacute /Acircumflex
/Atilde /Adieresis /Aring /AE /Ccedilla
/Egrave /Eacute /Ecircumflex /Edieresis /Igrave
/Iacute /Icircumflex /Idieresis /Eth /Ntilde
/Ograve /Oacute /Ocircumflex /Otilde /Odieresis
/multiply /Oslash /Ugrave /Uacute /Ucircumflex
/Udieresis /Yacute /Thorn /germandbls /agrave
/aacute /acircumflex /atilde /adieresis /aring
/ae /ccedilla /egrave /eacute /ecircumflex
/edieresis /igrave /iacute /icircumflex /idieresis
/eth /ntilde /ograve /oacute /ocircumflex
/otilde /odieresis /divide /oslash /ugrave
/uacute /ucircumflex /udieresis /yacute /thorn
/ydieresis
] def
%%EndResource
%FOPBeginFontReencode
/Courier-Bold findfont
dup length dict begin
  {1 index /FID ne {def} {pop pop} ifelse} forall
  /Encoding WinAnsiEncoding def
  currentdict
end
/Courier-Bold exch definefont pop
/Helvetica findfont
dup length dict begin
  {1 index /FID ne {def} {pop pop} ifelse} forall
  /Encoding WinAnsiEncoding def
  currentdict
end
/Helvetica exch definefont pop
/Courier-BoldOblique findfont
dup length dict begin
  {1 index /FID ne {def} {pop pop} ifelse} forall
  /Encoding WinAnsiEncoding def
  currentdict
end
/Courier-BoldOblique exch definefont pop
/Courier-Oblique findfont
dup length dict begin
  {1 index /FID ne {def} {pop pop} ifelse} forall
  /Encoding WinAnsiEncoding def
  currentdict
end
/Courier-Oblique exch definefont pop
/Times-Roman findfont
dup length dict begin
  {1 index /FID ne {def} {pop pop} ifelse} forall
  /Encoding WinAnsiEncoding def
  currentdict
end
/Times-Roman exch definefont pop
/Helvetica-BoldOblique findfont
dup length dict begin
  {1 index /FID ne {def} {pop pop} ifelse} forall
  /Encoding WinAnsiEncoding def
  currentdict
end
/Helvetica-BoldOblique exch definefont pop
/Helvetica-Bold findfont
dup length dict begin
  {1 index /FID ne {def} {pop pop} ifelse} forall
  /Encoding WinAnsiEncoding def
  currentdict
end
/Helvetica-Bold exch definefont pop
/Helvetica-Oblique findfont
dup length dict begin
  {1 index /FID ne {def} {pop pop} ifelse} forall
  /Encoding WinAnsiEncoding def
  currentdict
end
/Helvetica-Oblique exch definefont pop
/Times-BoldItalic findfont
dup length dict begin
  {1 index /FID ne {def} {pop pop} ifelse} forall
  /Encoding WinAnsiEncoding def
  currentdict
end
/Times-BoldItalic exch definefont pop
/Courier findfont
dup length dict begin
  {1 index /FID ne {def} {pop pop} ifelse} forall
  /Encoding WinAnsiEncoding def
  currentdict
end
/Courier exch definefont pop
/Times-Italic findfont
dup length dict begin
  {1 index /FID ne {def} {pop pop} ifelse} forall
  /Encoding WinAnsiEncoding def
  currentdict
end
/Times-Italic exch definefont pop
/Times-Bold findfont
dup length dict begin
  {1 index /FID ne {def} {pop pop} ifelse} forall
  /Encoding WinAnsiEncoding def
  currentdict
end
/Times-Bold exch definefont pop
%FOPEndFontReencode
%%EndProlog
%%Page: 1 1
%%PageBoundingBox: 0 0 596 442
%%BeginPageSetup
[1 0 0 -1 0 442] CT
%%EndPageSetup
GS
[0.6006 0 0 0.6 0 0.40002] CT
N
0 0 M
992 0 L
992 736 L
0 736 L
0 0 L
cp
clip
1 GC
N
0 0 992 736 re
f
GR
GS
[0.6006 0 0 0.6 0 0.40002] CT
1 GC
N
0 0 992 736 re
f
GR
GS
[0.6006 0 0 0.6 0 0.40002] CT
1 GC
N
129 200 M
461 200 L
461 55 L
129 55 L
cp
f
GR
GS
[0.6006 0 0 0.6 0 0.40002] CT
0.149 GC
2 setlinecap
1 LJ
0.833 LW
N
129 200 M
461 200 L
S
GR
GS
[0.6006 0 0 0.6 0 0.40002] CT
0.149 GC
2 setlinecap
1 LJ
0.833 LW
N
129 55 M
461 55 L
S
GR
GS
[0.6006 0 0 0.6 0 0.40002] CT
0.149 GC
2 setlinecap
1 LJ
0.833 LW
N
129 200 M
129 196.68 L
S
GR
GS
[0.6006 0 0 0.6 0 0.40002] CT
0.149 GC
2 setlinecap
1 LJ
0.833 LW
N
212 200 M
212 196.68 L
S
GR
GS
[0.6006 0 0 0.6 0 0.40002] CT
0.149 GC
2 setlinecap
1 LJ
0.833 LW
N
295 200 M
295 196.68 L
S
GR
GS
[0.6006 0 0 0.6 0 0.40002] CT
0.149 GC
2 setlinecap
1 LJ
0.833 LW
N
378 200 M
378 196.68 L
S
GR
GS
[0.6006 0 0 0.6 0 0.40002] CT
0.149 GC
2 setlinecap
1 LJ
0.833 LW
N
461 200 M
461 196.68 L
S
GR
GS
[0.6006 0 0 0.6 0 0.40002] CT
0.149 GC
2 setlinecap
1 LJ
0.833 LW
N
129 55 M
129 58.32 L
S
GR
GS
[0.6006 0 0 0.6 0 0.40002] CT
0.149 GC
2 setlinecap
1 LJ
0.833 LW
N
212 55 M
212 58.32 L
S
GR
GS
[0.6006 0 0 0.6 0 0.40002] CT
0.149 GC
2 setlinecap
1 LJ
0.833 LW
N
295 55 M
295 58.32 L
S
GR
GS
[0.6006 0 0 0.6 0 0.40002] CT
0.149 GC
2 setlinecap
1 LJ
0.833 LW
N
378 55 M
378 58.32 L
S
GR
GS
[0.6006 0 0 0.6 0 0.40002] CT
0.149 GC
2 setlinecap
1 LJ
0.833 LW
N
461 55 M
461 58.32 L
S
GR
GS
[0.6006 0 0 0.6 77.47802 124.40002] CT
0.149 GC
/Helvetica 16.667 F
GS
[1 0 0 1 0 0] CT
-5 18 moveto 
1 -1 scale
(0) t 
GR
GR
GS
[0.6006 0 0 0.6 127.32822 124.40002] CT
0.149 GC
/Helvetica 16.667 F
GS
[1 0 0 1 0 0] CT
-12 18 moveto 
1 -1 scale
(0.5) t 
GR
GR
GS
[0.6006 0 0 0.6 177.17842 124.40002] CT
0.149 GC
/Helvetica 16.667 F
GS
[1 0 0 1 0 0] CT
-5 18 moveto 
1 -1 scale
(1) t 
GR
GR
GS
[0.6006 0 0 0.6 227.02862 124.40002] CT
0.149 GC
/Helvetica 16.667 F
GS
[1 0 0 1 0 0] CT
-12 18 moveto 
1 -1 scale
(1.5) t 
GR
GR
GS
[0.6006 0 0 0.6 276.87882 124.40002] CT
0.149 GC
/Helvetica 16.667 F
GS
[1 0 0 1 0 0] CT
-5 18 moveto 
1 -1 scale
(2) t 
GR
GR
GS
[0.6006 0 0 0.6 177.17852 138.60001] CT
0.149 GC
/Helvetica 18.333 F
GS
[1 0 0 1 0 0] CT
-13 19 moveto 
1 -1 scale
(t\(s\)) t 
GR
GR
GS
[0.6006 0 0 0.6 0 0.40002] CT
0.149 GC
2 setlinecap
1 LJ
0.833 LW
N
129 200 M
129 55 L
S
GR
GS
[0.6006 0 0 0.6 0 0.40002] CT
0.149 GC
2 setlinecap
1 LJ
0.833 LW
N
461 200 M
461 55 L
S
GR
GS
[0.6006 0 0 0.6 0 0.40002] CT
0.149 GC
2 setlinecap
1 LJ
0.833 LW
N
129 200 M
132.32 200 L
S
GR
GS
[0.6006 0 0 0.6 0 0.40002] CT
0.149 GC
2 setlinecap
1 LJ
0.833 LW
N
129 151.667 M
132.32 151.667 L
S
GR
GS
[0.6006 0 0 0.6 0 0.40002] CT
0.149 GC
2 setlinecap
1 LJ
0.833 LW
N
129 103.333 M
132.32 103.333 L
S
GR
GS
[0.6006 0 0 0.6 0 0.40002] CT
0.149 GC
2 setlinecap
1 LJ
0.833 LW
N
129 55 M
132.32 55 L
S
GR
GS
[0.6006 0 0 0.6 0 0.40002] CT
0.149 GC
2 setlinecap
1 LJ
0.833 LW
N
461 200 M
457.68 200 L
S
GR
GS
[0.6006 0 0 0.6 0 0.40002] CT
0.149 GC
2 setlinecap
1 LJ
0.833 LW
N
461 151.667 M
457.68 151.667 L
S
GR
GS
[0.6006 0 0 0.6 0 0.40002] CT
0.149 GC
2 setlinecap
1 LJ
0.833 LW
N
461 103.333 M
457.68 103.333 L
S
GR
GS
[0.6006 0 0 0.6 0 0.40002] CT
0.149 GC
2 setlinecap
1 LJ
0.833 LW
N
461 55 M
457.68 55 L
S
GR
GS
[0.6006 0 0 0.6 73.47399 120.40002] CT
0.149 GC
/Helvetica 16.667 F
GS
[1 0 0 1 0 0] CT
-16 7 moveto 
1 -1 scale
(-5) t 
GR
GR
GS
[0.6006 0 0 0.6 73.47399 91.40002] CT
0.149 GC
/Helvetica 16.667 F
GS
[1 0 0 1 0 0] CT
-10 7 moveto 
1 -1 scale
(0) t 
GR
GR
GS
[0.6006 0 0 0.6 73.47399 62.40002] CT
0.149 GC
/Helvetica 16.667 F
GS
[1 0 0 1 0 0] CT
-10 7 moveto 
1 -1 scale
(5) t 
GR
GR
GS
[0.6006 0 0 0.6 73.47399 33.40002] CT
0.149 GC
/Helvetica 16.667 F
GS
[1 0 0 1 0 0] CT
-19 7 moveto 
1 -1 scale
(10) t 
GR
GR
GS
[0 -0.6 0.6006 0 56.45685 96.40002] CT
0.149 GC
N
0.969 0 M
0.828 0 0.828 -0.141 QT
0.828 -0.156 0.836 -0.164 QT
0.844 -0.172 0.844 -0.203 QT
7.047 -12.688 L
7.125 -12.891 7.359 -12.891 QT
7.609 -12.891 L
7.859 -12.891 7.938 -12.688 QT
14.141 -0.203 L
14.141 -0.188 14.148 -0.172 QT
14.156 -0.156 14.156 -0.141 QT
14.156 0 14 0 QT
0.969 0 L
cp
2.156 -1.438 M
11.641 -1.438 L
6.906 -11 L
2.156 -1.438 L
cp
f
GR
GS
[0 -0.6 0.6006 0 56.45685 87.40002] CT
0.149 GC
/Helvetica 18.333 F
GS
[1 0 0 1 0 0] CT
0 0 moveto 
1 -1 scale
(u\(m/s\)) t 
GR
GR
GS
[0.6006 0 0 0.6 77.47802 31.00002] CT
0.149 GC
N
2.5 -0.484 M
2.5 -0.625 2.578 -0.734 QT
6.125 -4.25 L
2.578 -7.781 L
2.5 -7.875 2.5 -8.016 QT
2.5 -8.141 2.602 -8.242 QT
2.703 -8.344 2.844 -8.344 QT
2.953 -8.344 3.094 -8.25 QT
6.609 -4.719 L
10.125 -8.25 L
10.266 -8.344 10.375 -8.344 QT
10.516 -8.344 10.609 -8.25 QT
10.703 -8.156 10.703 -8.016 QT
10.703 -7.875 10.625 -7.781 QT
7.094 -4.25 L
10.625 -0.734 L
10.703 -0.625 10.703 -0.484 QT
10.703 -0.344 10.609 -0.25 QT
10.516 -0.156 10.375 -0.156 QT
10.25 -0.156 10.125 -0.281 QT
6.609 -3.781 L
3.094 -0.281 L
2.969 -0.156 2.844 -0.156 QT
2.703 -0.156 2.602 -0.258 QT
2.5 -0.359 2.5 -0.484 QT
cp
f
GR
GS
[0.6006 0 0 0.6 85.88649 31.00002] CT
0.149 GC
/Helvetica 16.667 F
GS
[1 0 0 1 0 0] CT
0 0 moveto 
1 -1 scale
(10) t 
GR
GR
GS
[0.6006 0 0 0.6 97.29798 26.20002] CT
0.149 GC
/Helvetica 13.333 F
GS
[1 0 0 1 0 0] CT
0 0 moveto 
1 -1 scale
(-4) t 
GR
GR
GS
[0.6006 0 0 0.6 0 0.40002] CT
0 0.447 0.741 RC
1 LJ
0.833 LW
N
129 185.48 M
129 178.643 L
129.011 162.518 L
129.065 144.052 L
129.334 130.842 L
130.679 117.251 L
132.475 107.387 L
134.263 97.536 L
136.111 90.257 L
138.249 85.109 L
140.584 80.198 L
142.5 78.133 L
144.779 75.333 L
147.126 74.642 L
149.124 75.485 L
151.714 75.313 L
154.022 77.767 L
156.154 80.282 L
158.403 82.5 L
160.652 86.354 L
162.959 88.466 L
165.232 92.55 L
167.504 96.525 L
170.103 100.429 L
172.797 104.852 L
175.185 108.26 L
177.681 110.891 L
180.177 112.582 L
183.009 114.241 L
185.836 115.288 L
188.498 116.081 L
191.69 116.596 L
194.373 116.547 L
197.152 116.626 L
199.931 116.21 L
202.887 115.643 L
205.843 115.178 L
209.446 114.225 L
212.557 113.579 L
215.716 112.466 L
218.875 111.486 L
222.146 110.797 L
225.418 109.813 L
228.934 109.147 L
232.449 108.445 L
236.349 107.775 L
240.25 107.551 L
244.608 107.193 L
249.852 106.61 L
254.26 106.493 L
258.742 106.607 L
263.968 106.278 L
269.57 105.856 L
274.334 106.084 L
278.902 106.486 L
283.428 106.124 L
288.516 105.816 L
293.199 106.349 L
297.883 107.095 L
302.533 107.025 L
307.391 106.427 L
312.467 106.912 L
317.542 108.288 L
322.421 108.787 L
327.38 108.14 L
332.772 107.935 L
339.389 109.215 L
346.029 111.309 L
352.231 111.798 L
357.687 110.964 L
362.742 110.804 L
367.284 112.737 L
371.572 115.733 L
375.933 117.488 L
381.651 117.093 L
386.248 116.242 L
390.674 118.418 L
394.988 122.651 L
399.856 127.34 L
405.26 128.628 L
409.762 127.876 L
414.154 128.823 L
418.733 134.368 L
423.881 141.668 L
429.029 147.937 L
434.305 151.165 L
439.676 151.662 L
445.341 151.667 L
451.656 151.667 L
458.296 151.667 L
461 151.667 L
S
GR
GS
[0.6006 0 0 0.6 0 0.40002] CT
1 GC
N
566 200 M
899 200 L
899 55 L
566 55 L
cp
f
GR
GS
[0.6006 0 0 0.6 0 0.40002] CT
0.149 GC
2 setlinecap
1 LJ
0.833 LW
N
566 200 M
899 200 L
S
GR
GS
[0.6006 0 0 0.6 0 0.40002] CT
0.149 GC
2 setlinecap
1 LJ
0.833 LW
N
566 55 M
899 55 L
S
GR
GS
[0.6006 0 0 0.6 0 0.40002] CT
0.149 GC
2 setlinecap
1 LJ
0.833 LW
N
566 200 M
566 196.67 L
S
GR
GS
[0.6006 0 0 0.6 0 0.40002] CT
0.149 GC
2 setlinecap
1 LJ
0.833 LW
N
649.25 200 M
649.25 196.67 L
S
GR
GS
[0.6006 0 0 0.6 0 0.40002] CT
0.149 GC
2 setlinecap
1 LJ
0.833 LW
N
732.5 200 M
732.5 196.67 L
S
GR
GS
[0.6006 0 0 0.6 0 0.40002] CT
0.149 GC
2 setlinecap
1 LJ
0.833 LW
N
815.75 200 M
815.75 196.67 L
S
GR
GS
[0.6006 0 0 0.6 0 0.40002] CT
0.149 GC
2 setlinecap
1 LJ
0.833 LW
N
899 200 M
899 196.67 L
S
GR
GS
[0.6006 0 0 0.6 0 0.40002] CT
0.149 GC
2 setlinecap
1 LJ
0.833 LW
N
566 55 M
566 58.33 L
S
GR
GS
[0.6006 0 0 0.6 0 0.40002] CT
0.149 GC
2 setlinecap
1 LJ
0.833 LW
N
649.25 55 M
649.25 58.33 L
S
GR
GS
[0.6006 0 0 0.6 0 0.40002] CT
0.149 GC
2 setlinecap
1 LJ
0.833 LW
N
732.5 55 M
732.5 58.33 L
S
GR
GS
[0.6006 0 0 0.6 0 0.40002] CT
0.149 GC
2 setlinecap
1 LJ
0.833 LW
N
815.75 55 M
815.75 58.33 L
S
GR
GS
[0.6006 0 0 0.6 0 0.40002] CT
0.149 GC
2 setlinecap
1 LJ
0.833 LW
N
899 55 M
899 58.33 L
S
GR
GS
[0.6006 0 0 0.6 339.94233 124.40002] CT
0.149 GC
/Helvetica 16.667 F
GS
[1 0 0 1 0 0] CT
-5 18 moveto 
1 -1 scale
(0) t 
GR
GR
GS
[0.6006 0 0 0.6 389.94268 124.40002] CT
0.149 GC
/Helvetica 16.667 F
GS
[1 0 0 1 0 0] CT
-12 18 moveto 
1 -1 scale
(0.5) t 
GR
GR
GS
[0.6006 0 0 0.6 439.94304 124.40002] CT
0.149 GC
/Helvetica 16.667 F
GS
[1 0 0 1 0 0] CT
-5 18 moveto 
1 -1 scale
(1) t 
GR
GR
GS
[0.6006 0 0 0.6 489.94339 124.40002] CT
0.149 GC
/Helvetica 16.667 F
GS
[1 0 0 1 0 0] CT
-12 18 moveto 
1 -1 scale
(1.5) t 
GR
GR
GS
[0.6006 0 0 0.6 539.94374 124.40002] CT
0.149 GC
/Helvetica 16.667 F
GS
[1 0 0 1 0 0] CT
-5 18 moveto 
1 -1 scale
(2) t 
GR
GR
GS
[0.6006 0 0 0.6 439.94315 138.60001] CT
0.149 GC
/Helvetica 18.333 F
GS
[1 0 0 1 0 0] CT
-13 19 moveto 
1 -1 scale
(t\(s\)) t 
GR
GR
GS
[0.6006 0 0 0.6 0 0.40002] CT
0.149 GC
2 setlinecap
1 LJ
0.833 LW
N
566 200 M
566 55 L
S
GR
GS
[0.6006 0 0 0.6 0 0.40002] CT
0.149 GC
2 setlinecap
1 LJ
0.833 LW
N
899 200 M
899 55 L
S
GR
GS
[0.6006 0 0 0.6 0 0.40002] CT
0.149 GC
2 setlinecap
1 LJ
0.833 LW
N
566 200 M
569.33 200 L
S
GR
GS
[0.6006 0 0 0.6 0 0.40002] CT
0.149 GC
2 setlinecap
1 LJ
0.833 LW
N
566 151.667 M
569.33 151.667 L
S
GR
GS
[0.6006 0 0 0.6 0 0.40002] CT
0.149 GC
2 setlinecap
1 LJ
0.833 LW
N
566 103.333 M
569.33 103.333 L
S
GR
GS
[0.6006 0 0 0.6 0 0.40002] CT
0.149 GC
2 setlinecap
1 LJ
0.833 LW
N
566 55 M
569.33 55 L
S
GR
GS
[0.6006 0 0 0.6 0 0.40002] CT
0.149 GC
2 setlinecap
1 LJ
0.833 LW
N
899 200 M
895.67 200 L
S
GR
GS
[0.6006 0 0 0.6 0 0.40002] CT
0.149 GC
2 setlinecap
1 LJ
0.833 LW
N
899 151.667 M
895.67 151.667 L
S
GR
GS
[0.6006 0 0 0.6 0 0.40002] CT
0.149 GC
2 setlinecap
1 LJ
0.833 LW
N
899 103.333 M
895.67 103.333 L
S
GR
GS
[0.6006 0 0 0.6 0 0.40002] CT
0.149 GC
2 setlinecap
1 LJ
0.833 LW
N
899 55 M
895.67 55 L
S
GR
GS
[0.6006 0 0 0.6 335.93829 120.40002] CT
0.149 GC
/Helvetica 16.667 F
GS
[1 0 0 1 0 0] CT
-25 7 moveto 
1 -1 scale
(-40) t 
GR
GR
GS
[0.6006 0 0 0.6 335.93829 91.40002] CT
0.149 GC
/Helvetica 16.667 F
GS
[1 0 0 1 0 0] CT
-25 7 moveto 
1 -1 scale
(-20) t 
GR
GR
GS
[0.6006 0 0 0.6 335.93829 62.40002] CT
0.149 GC
/Helvetica 16.667 F
GS
[1 0 0 1 0 0] CT
-10 7 moveto 
1 -1 scale
(0) t 
GR
GR
GS
[0.6006 0 0 0.6 335.93829 33.40002] CT
0.149 GC
/Helvetica 16.667 F
GS
[1 0 0 1 0 0] CT
-19 7 moveto 
1 -1 scale
(20) t 
GR
GR
GS
[0 -0.6 0.6006 0 315.31753 97.60002] CT
0.149 GC
N
/f-1732591168{0.969 0 M
0.828 0 0.828 -0.141 QT
0.828 -0.156 0.836 -0.164 QT
0.844 -0.172 0.844 -0.203 QT
7.047 -12.688 L
7.125 -12.891 7.359 -12.891 QT
7.609 -12.891 L
7.859 -12.891 7.938 -12.688 QT
14.141 -0.203 L
14.141 -0.188 14.148 -0.172 QT
14.156 -0.156 14.156 -0.141 QT
14.156 0 14 0 QT
0.969 0 L
cp
2.156 -1.438 M
11.641 -1.438 L
6.906 -11 L
2.156 -1.438 L
cp}def
f-1732591168
f
GR
GS
[0 -0.6 0.6006 0 315.31753 88.60002] CT
0.149 GC
N
/f552039163{3.625 0.203 M
2.766 0.203 2.102 -0.203 QT
1.438 -0.609 1.078 -1.297 QT
0.719 -1.984 0.719 -2.844 QT
0.719 -4.063 1.398 -5.258 QT
2.078 -6.453 3.211 -7.203 QT
4.344 -7.953 5.578 -7.953 QT
6.5 -7.953 7.195 -7.477 QT
7.891 -7 8.25 -6.203 QT
8.609 -5.406 8.609 -4.5 QT
8.625 -3.297 L
9.234 -4.156 9.664 -5.07 QT
10.094 -5.984 10.313 -6.969 QT
10.359 -7.078 10.453 -7.078 QT
10.672 -7.078 L
10.844 -7.078 10.844 -6.906 QT
10.844 -6.891 10.813 -6.859 QT
10.609 -6.031 10.289 -5.273 QT
9.969 -4.516 9.547 -3.797 QT
9.125 -3.078 8.625 -2.5 QT
8.625 -0.266 9.141 -0.266 QT
9.469 -0.266 9.688 -0.469 QT
9.906 -0.672 10.07 -0.961 QT
10.234 -1.25 10.281 -1.25 QT
10.5 -1.25 L
10.641 -1.25 10.641 -1.078 QT
10.641 -0.641 10.125 -0.219 QT
9.609 0.203 9.109 0.203 QT
8.453 0.203 8.023 -0.219 QT
7.594 -0.641 7.438 -1.313 QT
6.594 -0.594 5.609 -0.195 QT
4.625 0.203 3.625 0.203 QT
cp
3.656 -0.266 M
5.578 -0.266 7.344 -1.859 QT
7.344 -1.953 7.32 -2.109 QT
7.297 -2.266 7.297 -2.281 QT
7.297 -4.234 L
7.297 -7.484 5.547 -7.484 QT
4.484 -7.484 3.695 -6.586 QT
2.906 -5.688 2.508 -4.438 QT
2.109 -3.188 2.109 -2.141 QT
2.109 -1.359 2.508 -0.813 QT
2.906 -0.266 3.656 -0.266 QT
cp}def
f552039163
f
GR
GS
[0 -0.6 0.6006 0 315.31753 81.40002] CT
0.149 GC
/Helvetica 18.333 F
GS
[1 0 0 1 0 0] CT
0 0 moveto 
1 -1 scale
(\(deg\)) t 
GR
GR
GS
[0.6006 0 0 0.6 0 0.40002] CT
0 0.447 0.741 RC
1 LJ
0.833 LW
N
566 162.004 M
566 161.37 L
566.011 159.205 L
566.065 154.325 L
566.335 148.87 L
567.684 142.746 L
569.485 136.253 L
571.279 129.875 L
573.132 123.307 L
575.277 117.917 L
577.619 112.84 L
579.54 108.017 L
581.827 103.039 L
584.181 98.898 L
586.185 96.011 L
588.782 93.453 L
591.098 91.218 L
593.235 89.556 L
595.491 88.545 L
597.747 88.169 L
600.061 88.226 L
602.341 88.432 L
604.62 89.487 L
607.227 90.758 L
609.929 92.719 L
612.325 94.767 L
614.828 96.554 L
617.331 98.157 L
620.172 99.672 L
623.007 101.186 L
625.677 102.514 L
628.879 103.693 L
631.57 104.64 L
634.358 105.443 L
637.145 106.13 L
640.11 106.637 L
643.075 106.998 L
646.688 107.207 L
649.808 107.272 L
652.977 107.264 L
656.146 107.067 L
659.427 106.872 L
662.708 106.599 L
666.235 106.2 L
669.761 105.885 L
673.673 105.534 L
677.585 105.191 L
681.956 104.932 L
687.216 104.627 L
691.637 104.317 L
696.133 104.087 L
701.374 103.9 L
706.994 103.641 L
711.772 103.382 L
716.354 103.23 L
720.893 103.121 L
725.996 102.908 L
730.694 102.714 L
735.392 102.664 L
740.056 102.679 L
744.929 102.542 L
750.019 102.345 L
755.11 102.303 L
760.004 102.439 L
764.977 102.461 L
770.386 102.285 L
777.023 102.12 L
783.683 102.209 L
789.903 102.467 L
795.376 102.521 L
800.446 102.313 L
805.001 102.086 L
809.303 102.157 L
813.677 102.505 L
819.412 102.757 L
824.023 102.625 L
828.463 102.173 L
832.789 102.062 L
837.672 102.449 L
843.093 102.974 L
847.608 103.047 L
852.013 102.527 L
856.606 101.972 L
861.769 101.949 L
866.933 102.426 L
872.225 103.061 L
877.612 103.321 L
883.293 103.333 L
889.628 103.333 L
896.288 103.333 L
899 103.333 L
S
GR
GS
[0.6006 0 0 0.6 0 0.40002] CT
1 GC
N
129 421 M
461 421 L
461 276 L
129 276 L
cp
f
GR
GS
[0.6006 0 0 0.6 0 0.40002] CT
0.149 GC
2 setlinecap
1 LJ
0.833 LW
N
129 421 M
461 421 L
S
GR
GS
[0.6006 0 0 0.6 0 0.40002] CT
0.149 GC
2 setlinecap
1 LJ
0.833 LW
N
129 276 M
461 276 L
S
GR
GS
[0.6006 0 0 0.6 0 0.40002] CT
0.149 GC
2 setlinecap
1 LJ
0.833 LW
N
129 421 M
129 417.68 L
S
GR
GS
[0.6006 0 0 0.6 0 0.40002] CT
0.149 GC
2 setlinecap
1 LJ
0.833 LW
N
212 421 M
212 417.68 L
S
GR
GS
[0.6006 0 0 0.6 0 0.40002] CT
0.149 GC
2 setlinecap
1 LJ
0.833 LW
N
295 421 M
295 417.68 L
S
GR
GS
[0.6006 0 0 0.6 0 0.40002] CT
0.149 GC
2 setlinecap
1 LJ
0.833 LW
N
378 421 M
378 417.68 L
S
GR
GS
[0.6006 0 0 0.6 0 0.40002] CT
0.149 GC
2 setlinecap
1 LJ
0.833 LW
N
461 421 M
461 417.68 L
S
GR
GS
[0.6006 0 0 0.6 0 0.40002] CT
0.149 GC
2 setlinecap
1 LJ
0.833 LW
N
129 276 M
129 279.32 L
S
GR
GS
[0.6006 0 0 0.6 0 0.40002] CT
0.149 GC
2 setlinecap
1 LJ
0.833 LW
N
212 276 M
212 279.32 L
S
GR
GS
[0.6006 0 0 0.6 0 0.40002] CT
0.149 GC
2 setlinecap
1 LJ
0.833 LW
N
295 276 M
295 279.32 L
S
GR
GS
[0.6006 0 0 0.6 0 0.40002] CT
0.149 GC
2 setlinecap
1 LJ
0.833 LW
N
378 276 M
378 279.32 L
S
GR
GS
[0.6006 0 0 0.6 0 0.40002] CT
0.149 GC
2 setlinecap
1 LJ
0.833 LW
N
461 276 M
461 279.32 L
S
GR
GS
[0.6006 0 0 0.6 77.47802 257] CT
0.149 GC
/Helvetica 16.667 F
GS
[1 0 0 1 0 0] CT
-5 18 moveto 
1 -1 scale
(0) t 
GR
GR
GS
[0.6006 0 0 0.6 127.32822 257] CT
0.149 GC
/Helvetica 16.667 F
GS
[1 0 0 1 0 0] CT
-12 18 moveto 
1 -1 scale
(0.5) t 
GR
GR
GS
[0.6006 0 0 0.6 177.17842 257] CT
0.149 GC
/Helvetica 16.667 F
GS
[1 0 0 1 0 0] CT
-5 18 moveto 
1 -1 scale
(1) t 
GR
GR
GS
[0.6006 0 0 0.6 227.02862 257] CT
0.149 GC
/Helvetica 16.667 F
GS
[1 0 0 1 0 0] CT
-12 18 moveto 
1 -1 scale
(1.5) t 
GR
GR
GS
[0.6006 0 0 0.6 276.87882 257] CT
0.149 GC
/Helvetica 16.667 F
GS
[1 0 0 1 0 0] CT
-5 18 moveto 
1 -1 scale
(2) t 
GR
GR
GS
[0.6006 0 0 0.6 177.17852 271.20002] CT
0.149 GC
/Helvetica 18.333 F
GS
[1 0 0 1 0 0] CT
-13 19 moveto 
1 -1 scale
(t\(s\)) t 
GR
GR
GS
[0.6006 0 0 0.6 0 0.40002] CT
0.149 GC
2 setlinecap
1 LJ
0.833 LW
N
129 421 M
129 276 L
S
GR
GS
[0.6006 0 0 0.6 0 0.40002] CT
0.149 GC
2 setlinecap
1 LJ
0.833 LW
N
461 421 M
461 276 L
S
GR
GS
[0.6006 0 0 0.6 0 0.40002] CT
0.149 GC
2 setlinecap
1 LJ
0.833 LW
N
129 421 M
132.32 421 L
S
GR
GS
[0.6006 0 0 0.6 0 0.40002] CT
0.149 GC
2 setlinecap
1 LJ
0.833 LW
N
129 372.667 M
132.32 372.667 L
S
GR
GS
[0.6006 0 0 0.6 0 0.40002] CT
0.149 GC
2 setlinecap
1 LJ
0.833 LW
N
129 324.333 M
132.32 324.333 L
S
GR
GS
[0.6006 0 0 0.6 0 0.40002] CT
0.149 GC
2 setlinecap
1 LJ
0.833 LW
N
129 276 M
132.32 276 L
S
GR
GS
[0.6006 0 0 0.6 0 0.40002] CT
0.149 GC
2 setlinecap
1 LJ
0.833 LW
N
461 421 M
457.68 421 L
S
GR
GS
[0.6006 0 0 0.6 0 0.40002] CT
0.149 GC
2 setlinecap
1 LJ
0.833 LW
N
461 372.667 M
457.68 372.667 L
S
GR
GS
[0.6006 0 0 0.6 0 0.40002] CT
0.149 GC
2 setlinecap
1 LJ
0.833 LW
N
461 324.333 M
457.68 324.333 L
S
GR
GS
[0.6006 0 0 0.6 0 0.40002] CT
0.149 GC
2 setlinecap
1 LJ
0.833 LW
N
461 276 M
457.68 276 L
S
GR
GS
[0.6006 0 0 0.6 73.47399 253.00001] CT
0.149 GC
/Helvetica 16.667 F
GS
[1 0 0 1 0 0] CT
-16 7 moveto 
1 -1 scale
(-1) t 
GR
GR
GS
[0.6006 0 0 0.6 73.47399 224.00001] CT
0.149 GC
/Helvetica 16.667 F
GS
[1 0 0 1 0 0] CT
-30 7 moveto 
1 -1 scale
(-0.5) t 
GR
GR
GS
[0.6006 0 0 0.6 73.47399 195.00002] CT
0.149 GC
/Helvetica 16.667 F
GS
[1 0 0 1 0 0] CT
-10 7 moveto 
1 -1 scale
(0) t 
GR
GR
GS
[0.6006 0 0 0.6 73.47399 166.00002] CT
0.149 GC
/Helvetica 16.667 F
GS
[1 0 0 1 0 0] CT
-24 7 moveto 
1 -1 scale
(0.5) t 
GR
GR
GS
[0 -0.6 0.6006 0 49.8502 233.80001] CT
0.149 GC
N
f-1732591168
f
GR
GS
[0 -0.6 0.6006 0 49.8502 224.80001] CT
0.149 GC
/Helvetica 18.333 F
GS
[1 0 0 1 0 0] CT
0 0 moveto 
1 -1 scale
(q\(deg/s\)) t 
GR
GR
GS
[0.6006 0 0 0.6 0 0.40002] CT
0 0.447 0.741 RC
1 LJ
0.833 LW
N
129 373.169 M
129 370.896 L
129.011 364.342 L
129.065 357.212 L
129.334 350.518 L
130.679 344.14 L
132.475 338.105 L
134.263 332.557 L
136.111 327.503 L
138.249 323.486 L
140.584 320.089 L
142.5 317.132 L
144.779 314.245 L
147.126 312.288 L
149.124 311.045 L
151.714 310.197 L
154.022 309.784 L
156.154 309.819 L
158.403 310.212 L
160.652 310.875 L
162.959 311.786 L
165.232 313.042 L
167.504 314.576 L
170.103 316.452 L
172.797 318.508 L
175.185 320.487 L
177.681 321.994 L
180.177 323.254 L
183.009 324.362 L
185.836 325.354 L
188.498 326.178 L
191.69 326.807 L
194.373 327.261 L
197.152 327.585 L
199.931 327.775 L
202.887 327.85 L
205.843 327.814 L
209.446 327.687 L
212.557 327.481 L
215.716 327.155 L
218.875 326.793 L
222.146 326.454 L
225.418 326.102 L
228.934 325.683 L
232.449 325.336 L
236.349 325.035 L
240.25 324.752 L
244.608 324.51 L
249.852 324.282 L
254.26 324.091 L
258.742 323.919 L
263.968 323.764 L
269.57 323.625 L
274.334 323.513 L
278.902 323.403 L
283.428 323.322 L
288.516 323.256 L
293.199 323.216 L
297.883 323.189 L
302.533 323.164 L
307.391 323.143 L
312.467 323.147 L
317.542 323.168 L
322.421 323.187 L
327.38 323.198 L
332.772 323.222 L
339.389 323.265 L
346.029 323.324 L
352.231 323.366 L
357.687 323.392 L
362.742 323.429 L
367.284 323.492 L
371.572 323.566 L
375.933 323.623 L
381.651 323.655 L
386.248 323.686 L
390.674 323.758 L
394.988 323.84 L
399.856 323.926 L
405.26 323.97 L
409.762 323.985 L
414.154 324.026 L
418.733 324.113 L
423.881 324.21 L
429.029 324.289 L
434.305 324.327 L
439.676 324.333 L
445.341 324.333 L
451.656 324.333 L
458.296 324.333 L
461 324.333 L
S
GR
GS
[0.6006 0 0 0.6 0 0.40002] CT
1 GC
N
566 421 M
899 421 L
899 276 L
566 276 L
cp
f
GR
GS
[0.6006 0 0 0.6 0 0.40002] CT
0.149 GC
2 setlinecap
1 LJ
0.833 LW
N
566 421 M
899 421 L
S
GR
GS
[0.6006 0 0 0.6 0 0.40002] CT
0.149 GC
2 setlinecap
1 LJ
0.833 LW
N
566 276 M
899 276 L
S
GR
GS
[0.6006 0 0 0.6 0 0.40002] CT
0.149 GC
2 setlinecap
1 LJ
0.833 LW
N
566 421 M
566 417.67 L
S
GR
GS
[0.6006 0 0 0.6 0 0.40002] CT
0.149 GC
2 setlinecap
1 LJ
0.833 LW
N
649.25 421 M
649.25 417.67 L
S
GR
GS
[0.6006 0 0 0.6 0 0.40002] CT
0.149 GC
2 setlinecap
1 LJ
0.833 LW
N
732.5 421 M
732.5 417.67 L
S
GR
GS
[0.6006 0 0 0.6 0 0.40002] CT
0.149 GC
2 setlinecap
1 LJ
0.833 LW
N
815.75 421 M
815.75 417.67 L
S
GR
GS
[0.6006 0 0 0.6 0 0.40002] CT
0.149 GC
2 setlinecap
1 LJ
0.833 LW
N
899 421 M
899 417.67 L
S
GR
GS
[0.6006 0 0 0.6 0 0.40002] CT
0.149 GC
2 setlinecap
1 LJ
0.833 LW
N
566 276 M
566 279.33 L
S
GR
GS
[0.6006 0 0 0.6 0 0.40002] CT
0.149 GC
2 setlinecap
1 LJ
0.833 LW
N
649.25 276 M
649.25 279.33 L
S
GR
GS
[0.6006 0 0 0.6 0 0.40002] CT
0.149 GC
2 setlinecap
1 LJ
0.833 LW
N
732.5 276 M
732.5 279.33 L
S
GR
GS
[0.6006 0 0 0.6 0 0.40002] CT
0.149 GC
2 setlinecap
1 LJ
0.833 LW
N
815.75 276 M
815.75 279.33 L
S
GR
GS
[0.6006 0 0 0.6 0 0.40002] CT
0.149 GC
2 setlinecap
1 LJ
0.833 LW
N
899 276 M
899 279.33 L
S
GR
GS
[0.6006 0 0 0.6 339.94233 257] CT
0.149 GC
/Helvetica 16.667 F
GS
[1 0 0 1 0 0] CT
-5 18 moveto 
1 -1 scale
(0) t 
GR
GR
GS
[0.6006 0 0 0.6 389.94268 257] CT
0.149 GC
/Helvetica 16.667 F
GS
[1 0 0 1 0 0] CT
-12 18 moveto 
1 -1 scale
(0.5) t 
GR
GR
GS
[0.6006 0 0 0.6 439.94304 257] CT
0.149 GC
/Helvetica 16.667 F
GS
[1 0 0 1 0 0] CT
-5 18 moveto 
1 -1 scale
(1) t 
GR
GR
GS
[0.6006 0 0 0.6 489.94339 257] CT
0.149 GC
/Helvetica 16.667 F
GS
[1 0 0 1 0 0] CT
-12 18 moveto 
1 -1 scale
(1.5) t 
GR
GR
GS
[0.6006 0 0 0.6 539.94374 257] CT
0.149 GC
/Helvetica 16.667 F
GS
[1 0 0 1 0 0] CT
-5 18 moveto 
1 -1 scale
(2) t 
GR
GR
GS
[0.6006 0 0 0.6 439.94315 271.20002] CT
0.149 GC
/Helvetica 18.333 F
GS
[1 0 0 1 0 0] CT
-13 19 moveto 
1 -1 scale
(t\(s\)) t 
GR
GR
GS
[0.6006 0 0 0.6 0 0.40002] CT
0.149 GC
2 setlinecap
1 LJ
0.833 LW
N
566 421 M
566 276 L
S
GR
GS
[0.6006 0 0 0.6 0 0.40002] CT
0.149 GC
2 setlinecap
1 LJ
0.833 LW
N
899 421 M
899 276 L
S
GR
GS
[0.6006 0 0 0.6 0 0.40002] CT
0.149 GC
2 setlinecap
1 LJ
0.833 LW
N
566 421 M
569.33 421 L
S
GR
GS
[0.6006 0 0 0.6 0 0.40002] CT
0.149 GC
2 setlinecap
1 LJ
0.833 LW
N
566 372.667 M
569.33 372.667 L
S
GR
GS
[0.6006 0 0 0.6 0 0.40002] CT
0.149 GC
2 setlinecap
1 LJ
0.833 LW
N
566 324.333 M
569.33 324.333 L
S
GR
GS
[0.6006 0 0 0.6 0 0.40002] CT
0.149 GC
2 setlinecap
1 LJ
0.833 LW
N
566 276 M
569.33 276 L
S
GR
GS
[0.6006 0 0 0.6 0 0.40002] CT
0.149 GC
2 setlinecap
1 LJ
0.833 LW
N
899 421 M
895.67 421 L
S
GR
GS
[0.6006 0 0 0.6 0 0.40002] CT
0.149 GC
2 setlinecap
1 LJ
0.833 LW
N
899 372.667 M
895.67 372.667 L
S
GR
GS
[0.6006 0 0 0.6 0 0.40002] CT
0.149 GC
2 setlinecap
1 LJ
0.833 LW
N
899 324.333 M
895.67 324.333 L
S
GR
GS
[0.6006 0 0 0.6 0 0.40002] CT
0.149 GC
2 setlinecap
1 LJ
0.833 LW
N
899 276 M
895.67 276 L
S
GR
GS
[0.6006 0 0 0.6 335.93829 253.00001] CT
0.149 GC
/Helvetica 16.667 F
GS
[1 0 0 1 0 0] CT
-16 7 moveto 
1 -1 scale
(-4) t 
GR
GR
GS
[0.6006 0 0 0.6 335.93829 224.00001] CT
0.149 GC
/Helvetica 16.667 F
GS
[1 0 0 1 0 0] CT
-16 7 moveto 
1 -1 scale
(-2) t 
GR
GR
GS
[0.6006 0 0 0.6 335.93829 195.00002] CT
0.149 GC
/Helvetica 16.667 F
GS
[1 0 0 1 0 0] CT
-10 7 moveto 
1 -1 scale
(0) t 
GR
GR
GS
[0.6006 0 0 0.6 335.93829 166.00002] CT
0.149 GC
/Helvetica 16.667 F
GS
[1 0 0 1 0 0] CT
-10 7 moveto 
1 -1 scale
(2) t 
GR
GR
GS
[0 -0.6 0.6006 0 320.72298 229.60001] CT
0.149 GC
N
f-1732591168
f
GR
GS
[0 -0.6 0.6006 0 320.72298 220.60001] CT
0.149 GC
N
/f732561895{2.906 0.203 M
2.078 0.203 1.586 -0.398 QT
1.094 -1 0.906 -1.844 QT
0.719 -2.688 0.719 -3.5 QT
0.719 -3.531 L
0.719 -4.422 0.891 -5.391 QT
1.063 -6.359 1.391 -7.32 QT
1.719 -8.281 2.094 -9.031 QT
2.359 -9.563 2.773 -10.211 QT
3.188 -10.859 3.703 -11.43 QT
4.219 -12 4.813 -12.344 QT
5.406 -12.688 6.016 -12.688 QT
6.031 -12.688 L
6.688 -12.688 7.117 -12.328 QT
7.547 -11.969 7.789 -11.406 QT
8.031 -10.844 8.133 -10.203 QT
8.234 -9.563 8.234 -8.984 QT
8.234 -7.625 7.859 -6.203 QT
7.484 -4.781 6.844 -3.453 QT
6.594 -2.953 6.156 -2.273 QT
5.719 -1.594 5.234 -1.063 QT
4.75 -0.531 4.141 -0.164 QT
3.531 0.203 2.922 0.203 QT
2.906 0.203 L
cp
2.938 -0.266 M
3.531 -0.266 4.078 -0.906 QT
4.625 -1.547 5.039 -2.453 QT
5.453 -3.359 5.766 -4.32 QT
6.078 -5.281 6.234 -5.938 QT
2.563 -5.938 L
2.281 -4.813 2.117 -3.992 QT
1.953 -3.172 1.953 -2.375 QT
1.953 -0.266 2.938 -0.266 QT
cp
2.703 -6.578 M
6.391 -6.578 L
6.578 -7.359 6.695 -7.891 QT
6.813 -8.422 6.891 -9.016 QT
6.969 -9.609 6.969 -10.109 QT
6.969 -12.219 6.016 -12.219 QT
4.875 -12.219 4.039 -10.383 QT
3.203 -8.547 2.703 -6.578 QT
cp}def
f732561895
f
GR
GS
[0 -0.6 0.6006 0 320.72298 215.20001] CT
0.149 GC
/Helvetica 18.333 F
GS
[1 0 0 1 0 0] CT
0 0 moveto 
1 -1 scale
(\(deg\)) t 
GR
GR
GS
[0.6006 0 0 0.6 0 0.40002] CT
0 0.447 0.741 RC
1 LJ
0.833 LW
N
566 402.379 M
566 392.864 L
566.011 369.993 L
566.065 349.59 L
566.335 333.102 L
567.684 319.325 L
569.485 307.833 L
571.279 298.6 L
573.132 291.396 L
575.277 286.638 L
577.619 283.451 L
579.54 281.546 L
581.827 280.841 L
584.181 281.552 L
586.185 283.097 L
588.782 285.394 L
591.098 288.462 L
593.235 292.938 L
595.491 296.698 L
597.747 300.586 L
600.061 304.727 L
602.341 309.316 L
604.62 314.05 L
607.227 319.001 L
609.929 323.648 L
612.325 327.476 L
614.828 329.971 L
617.331 331.754 L
620.172 333.053 L
623.007 333.936 L
625.677 334.386 L
628.879 334.45 L
631.57 334.212 L
634.358 333.728 L
637.145 333.03 L
640.11 332.091 L
643.075 331.139 L
646.688 330.096 L
649.808 328.974 L
652.977 327.64 L
656.146 326.43 L
659.427 325.448 L
662.708 324.542 L
666.235 323.574 L
669.761 322.862 L
673.673 322.302 L
677.585 321.827 L
681.956 321.461 L
687.216 321.153 L
691.637 320.929 L
696.133 320.76 L
701.374 320.634 L
706.994 320.549 L
711.772 320.517 L
716.354 320.526 L
720.893 320.553 L
725.996 320.608 L
730.694 320.697 L
735.392 320.807 L
740.056 320.914 L
744.929 321.049 L
750.019 321.193 L
755.11 321.368 L
760.004 321.533 L
764.977 321.663 L
770.386 321.806 L
777.023 321.97 L
783.683 322.165 L
789.903 322.32 L
795.376 322.432 L
800.446 322.555 L
805.001 322.715 L
809.303 322.883 L
813.677 323.021 L
819.412 323.108 L
824.023 323.192 L
828.463 323.338 L
832.789 323.488 L
837.672 323.647 L
843.093 323.73 L
847.608 323.762 L
852.013 323.833 L
856.606 323.976 L
861.769 324.134 L
866.933 324.261 L
872.225 324.324 L
877.612 324.333 L
883.293 324.333 L
889.628 324.333 L
896.288 324.333 L
899 324.333 L
S
GR
GS
[0.6006 0 0 0.6 0 0.40002] CT
1 GC
N
129 641 M
461 641 L
461 496 L
129 496 L
cp
f
GR
GS
[0.6006 0 0 0.6 0 0.40002] CT
0.149 GC
2 setlinecap
1 LJ
0.833 LW
N
129 641 M
461 641 L
S
GR
GS
[0.6006 0 0 0.6 0 0.40002] CT
0.149 GC
2 setlinecap
1 LJ
0.833 LW
N
129 496 M
461 496 L
S
GR
GS
[0.6006 0 0 0.6 0 0.40002] CT
0.149 GC
2 setlinecap
1 LJ
0.833 LW
N
129 641 M
129 637.68 L
S
GR
GS
[0.6006 0 0 0.6 0 0.40002] CT
0.149 GC
2 setlinecap
1 LJ
0.833 LW
N
212 641 M
212 637.68 L
S
GR
GS
[0.6006 0 0 0.6 0 0.40002] CT
0.149 GC
2 setlinecap
1 LJ
0.833 LW
N
295 641 M
295 637.68 L
S
GR
GS
[0.6006 0 0 0.6 0 0.40002] CT
0.149 GC
2 setlinecap
1 LJ
0.833 LW
N
378 641 M
378 637.68 L
S
GR
GS
[0.6006 0 0 0.6 0 0.40002] CT
0.149 GC
2 setlinecap
1 LJ
0.833 LW
N
461 641 M
461 637.68 L
S
GR
GS
[0.6006 0 0 0.6 0 0.40002] CT
0.149 GC
2 setlinecap
1 LJ
0.833 LW
N
129 496 M
129 499.32 L
S
GR
GS
[0.6006 0 0 0.6 0 0.40002] CT
0.149 GC
2 setlinecap
1 LJ
0.833 LW
N
212 496 M
212 499.32 L
S
GR
GS
[0.6006 0 0 0.6 0 0.40002] CT
0.149 GC
2 setlinecap
1 LJ
0.833 LW
N
295 496 M
295 499.32 L
S
GR
GS
[0.6006 0 0 0.6 0 0.40002] CT
0.149 GC
2 setlinecap
1 LJ
0.833 LW
N
378 496 M
378 499.32 L
S
GR
GS
[0.6006 0 0 0.6 0 0.40002] CT
0.149 GC
2 setlinecap
1 LJ
0.833 LW
N
461 496 M
461 499.32 L
S
GR
GS
[0.6006 0 0 0.6 77.47802 389.00002] CT
0.149 GC
/Helvetica 16.667 F
GS
[1 0 0 1 0 0] CT
-5 18 moveto 
1 -1 scale
(0) t 
GR
GR
GS
[0.6006 0 0 0.6 127.32822 389.00002] CT
0.149 GC
/Helvetica 16.667 F
GS
[1 0 0 1 0 0] CT
-12 18 moveto 
1 -1 scale
(0.5) t 
GR
GR
GS
[0.6006 0 0 0.6 177.17842 389.00002] CT
0.149 GC
/Helvetica 16.667 F
GS
[1 0 0 1 0 0] CT
-5 18 moveto 
1 -1 scale
(1) t 
GR
GR
GS
[0.6006 0 0 0.6 227.02862 389.00002] CT
0.149 GC
/Helvetica 16.667 F
GS
[1 0 0 1 0 0] CT
-12 18 moveto 
1 -1 scale
(1.5) t 
GR
GR
GS
[0.6006 0 0 0.6 276.87882 389.00002] CT
0.149 GC
/Helvetica 16.667 F
GS
[1 0 0 1 0 0] CT
-5 18 moveto 
1 -1 scale
(2) t 
GR
GR
GS
[0.6006 0 0 0.6 177.17852 403.19999] CT
0.149 GC
/Helvetica 18.333 F
GS
[1 0 0 1 0 0] CT
-13 19 moveto 
1 -1 scale
(t\(s\)) t 
GR
GR
GS
[0.6006 0 0 0.6 0 0.40002] CT
0.149 GC
2 setlinecap
1 LJ
0.833 LW
N
129 641 M
129 496 L
S
GR
GS
[0.6006 0 0 0.6 0 0.40002] CT
0.149 GC
2 setlinecap
1 LJ
0.833 LW
N
461 641 M
461 496 L
S
GR
GS
[0.6006 0 0 0.6 0 0.40002] CT
0.149 GC
2 setlinecap
1 LJ
0.833 LW
N
129 641 M
132.32 641 L
S
GR
GS
[0.6006 0 0 0.6 0 0.40002] CT
0.149 GC
2 setlinecap
1 LJ
0.833 LW
N
129 568.5 M
132.32 568.5 L
S
GR
GS
[0.6006 0 0 0.6 0 0.40002] CT
0.149 GC
2 setlinecap
1 LJ
0.833 LW
N
129 496 M
132.32 496 L
S
GR
GS
[0.6006 0 0 0.6 0 0.40002] CT
0.149 GC
2 setlinecap
1 LJ
0.833 LW
N
461 641 M
457.68 641 L
S
GR
GS
[0.6006 0 0 0.6 0 0.40002] CT
0.149 GC
2 setlinecap
1 LJ
0.833 LW
N
461 568.5 M
457.68 568.5 L
S
GR
GS
[0.6006 0 0 0.6 0 0.40002] CT
0.149 GC
2 setlinecap
1 LJ
0.833 LW
N
461 496 M
457.68 496 L
S
GR
GS
[0.6006 0 0 0.6 73.47399 385] CT
0.149 GC
/Helvetica 16.667 F
GS
[1 0 0 1 0 0] CT
-39 7 moveto 
1 -1 scale
(-0.05) t 
GR
GR
GS
[0.6006 0 0 0.6 73.47399 341.50001] CT
0.149 GC
/Helvetica 16.667 F
GS
[1 0 0 1 0 0] CT
-10 7 moveto 
1 -1 scale
(0) t 
GR
GR
GS
[0.6006 0 0 0.6 73.47399 298.00001] CT
0.149 GC
/Helvetica 16.667 F
GS
[1 0 0 1 0 0] CT
-34 7 moveto 
1 -1 scale
(0.05) t 
GR
GR
GS
[0 -0.6 0.6006 0 44.44476 356.8] CT
0.149 GC
N
f-1732591168
f
GR
GS
[0 -0.6 0.6006 0 44.44476 347.80001] CT
0.149 GC
/Helvetica 18.333 F
GS
[1 0 0 1 0 0] CT
0 0 moveto 
1 -1 scale
(h\(m\)) t 
GR
GR
GS
[0.6006 0 0 0.6 0 0.40002] CT
0 0.447 0.741 RC
1 LJ
0.833 LW
N
129 602.864 M
129 591.202 L
129.011 565.16 L
129.065 544.338 L
129.334 529.213 L
130.679 518.057 L
132.475 510.063 L
134.263 504.963 L
136.111 502.334 L
138.249 501.869 L
140.584 502.896 L
142.5 505.242 L
144.779 509.493 L
147.126 514.385 L
149.124 519.336 L
151.714 524.836 L
154.022 530.81 L
156.154 538.343 L
158.403 543.996 L
160.652 549.348 L
162.959 554.691 L
165.232 560.145 L
167.504 565.339 L
170.103 570.288 L
172.797 574.398 L
175.185 577.285 L
177.681 578.787 L
180.177 579.548 L
183.009 579.775 L
185.836 579.528 L
188.498 578.865 L
191.69 577.911 L
194.373 576.771 L
197.152 575.459 L
199.931 574.038 L
202.887 572.433 L
205.843 570.999 L
209.446 569.585 L
212.557 568.183 L
215.716 566.669 L
218.875 565.42 L
222.146 564.492 L
225.418 563.716 L
228.934 562.978 L
232.449 562.515 L
236.349 562.215 L
240.25 562.018 L
244.608 561.923 L
249.852 561.904 L
254.26 561.948 L
258.742 562.045 L
263.968 562.186 L
269.57 562.369 L
274.334 562.584 L
278.902 562.87 L
283.428 563.129 L
288.516 563.409 L
293.199 563.685 L
297.883 563.969 L
302.533 564.249 L
307.391 564.59 L
312.467 564.876 L
317.542 565.177 L
322.421 565.472 L
327.38 565.73 L
332.772 565.983 L
339.389 566.219 L
346.029 566.472 L
352.231 566.704 L
357.687 566.9 L
362.742 567.09 L
367.284 567.272 L
371.572 567.435 L
375.933 567.585 L
381.651 567.719 L
386.248 567.857 L
390.674 568.001 L
394.988 568.098 L
399.856 568.193 L
405.26 568.271 L
409.762 568.333 L
414.154 568.403 L
418.733 568.454 L
423.881 568.483 L
429.029 568.496 L
434.305 568.5 L
439.676 568.5 L
445.341 568.5 L
451.656 568.5 L
458.296 568.5 L
461 568.5 L
S
GR
%%Trailer
%%Pages: 1
%%EOF
