\relax 
\@writefile{toc}{\contentsline {section}{\numberline {0}实验目标及准备内容}{1}\protected@file@percent }
\@writefile{toc}{\contentsline {paragraph}{实验目标}{1}\protected@file@percent }
\@writefile{toc}{\contentsline {paragraph}{准备内容}{1}\protected@file@percent }
\@writefile{toc}{\contentsline {section}{\numberline {1}飞机纵向飞行控制系统的设计和仿真}{2}\protected@file@percent }
\@writefile{toc}{\contentsline {subsection}{\numberline {1.1}飞机纵向自然特性的分析}{2}\protected@file@percent }
\@writefile{toc}{\contentsline {paragraph}{问题}{2}\protected@file@percent }
\@writefile{toc}{\contentsline {subsection}{\numberline {1.2}飞机纵向自然特性的仿真}{2}\protected@file@percent }
\@writefile{toc}{\contentsline {paragraph}{问题}{2}\protected@file@percent }
\@writefile{toc}{\contentsline {subsubsection}{\numberline {1.2.1}升降舵}{2}\protected@file@percent }
\@writefile{lof}{\contentsline {figure}{\numberline {1}{\ignorespaces 升降舵单位阶跃输入下的飞机自然特性}}{3}\protected@file@percent }
\@writefile{toc}{\contentsline {subsubsection}{\numberline {1.2.2}油门}{3}\protected@file@percent }
\@writefile{lof}{\contentsline {figure}{\numberline {2}{\ignorespaces 油门单位阶跃输入下的飞机自然特性}}{5}\protected@file@percent }
\@writefile{toc}{\contentsline {subsection}{\numberline {1.3}飞机俯仰角控制系统的设计}{5}\protected@file@percent }
\@writefile{toc}{\contentsline {paragraph}{问题}{5}\protected@file@percent }
\@writefile{lof}{\contentsline {figure}{\numberline {3}{\ignorespaces 校正前系统根轨迹图}}{6}\protected@file@percent }
\@writefile{lof}{\contentsline {figure}{\numberline {4}{\ignorespaces 校正前系统Bode图}}{7}\protected@file@percent }
\@writefile{lof}{\contentsline {figure}{\numberline {5}{\ignorespaces 校正后系统根轨迹图和Bode图}}{8}\protected@file@percent }
\@writefile{lof}{\contentsline {figure}{\numberline {6}{\ignorespaces 校正后系统阶跃响应}}{8}\protected@file@percent }
\@writefile{toc}{\contentsline {subsection}{\numberline {1.4}飞机速度控制系统的设计}{9}\protected@file@percent }
\@writefile{toc}{\contentsline {paragraph}{问题}{9}\protected@file@percent }
\@writefile{lof}{\contentsline {figure}{\numberline {7}{\ignorespaces 速度控制系统仿真框图}}{9}\protected@file@percent }
\@writefile{lof}{\contentsline {figure}{\numberline {8}{\ignorespaces 速度控制系统阶跃响应}}{10}\protected@file@percent }
\@writefile{toc}{\contentsline {subsection}{\numberline {1.5}飞机纵向运动的仿真与分析}{10}\protected@file@percent }
\@writefile{toc}{\contentsline {paragraph}{问题}{10}\protected@file@percent }
\@writefile{lof}{\contentsline {figure}{\numberline {9}{\ignorespaces 纵向运动控制仿真框图}}{11}\protected@file@percent }
\@writefile{lof}{\contentsline {figure}{\numberline {10}{\ignorespaces 状态方程速度控制响应}}{12}\protected@file@percent }
\@writefile{lof}{\contentsline {figure}{\numberline {11}{\ignorespaces 状态方程俯仰角控制响应}}{13}\protected@file@percent }
\@writefile{toc}{\contentsline {section}{\numberline {2}飞机侧向飞行控制系统的设计和仿真}{14}\protected@file@percent }
\@writefile{toc}{\contentsline {subsection}{\numberline {2.1}飞机侧向自然特性的分析与仿真}{14}\protected@file@percent }
\@writefile{toc}{\contentsline {paragraph}{问题}{14}\protected@file@percent }
\@writefile{toc}{\contentsline {paragraph}{}{14}\protected@file@percent }
\@writefile{toc}{\contentsline {paragraph}{问题}{14}\protected@file@percent }
\@writefile{toc}{\contentsline {subsubsection}{\numberline {2.1.1}副翼}{14}\protected@file@percent }
\@writefile{lof}{\contentsline {figure}{\numberline {12}{\ignorespaces 副翼单位阶跃输入下的飞机自然特性}}{15}\protected@file@percent }
\@writefile{toc}{\contentsline {subsubsection}{\numberline {2.1.2}方向舵}{15}\protected@file@percent }
\@writefile{lof}{\contentsline {figure}{\numberline {13}{\ignorespaces 方向舵单位阶跃输入下的飞机自然特性}}{17}\protected@file@percent }
\@writefile{toc}{\contentsline {subsection}{\numberline {2.2}飞机滚转角控制系统的设计}{17}\protected@file@percent }
\@writefile{toc}{\contentsline {paragraph}{问题}{17}\protected@file@percent }
\@writefile{lof}{\contentsline {figure}{\numberline {14}{\ignorespaces 校正前系统Bode图和根轨迹图}}{18}\protected@file@percent }
\@writefile{lof}{\contentsline {figure}{\numberline {15}{\ignorespaces 滚转角控制系统仿真框图}}{19}\protected@file@percent }
\@writefile{lof}{\contentsline {figure}{\numberline {16}{\ignorespaces 校正后系统阶跃响应}}{20}\protected@file@percent }
\@writefile{toc}{\contentsline {subsection}{\numberline {2.3}飞机航向控制系统的设计}{20}\protected@file@percent }
\@writefile{toc}{\contentsline {paragraph}{问题}{20}\protected@file@percent }
\@writefile{lof}{\contentsline {figure}{\numberline {17}{\ignorespaces 航向控制系统仿真框图}}{21}\protected@file@percent }
\@writefile{lof}{\contentsline {figure}{\numberline {18}{\ignorespaces 航向控制系统阶跃响应曲线}}{22}\protected@file@percent }
\@writefile{toc}{\contentsline {subsection}{\numberline {2.4}飞机侧向航向协调控制仿真与分析}{22}\protected@file@percent }
\@writefile{toc}{\contentsline {paragraph}{问题}{22}\protected@file@percent }
\@writefile{lof}{\contentsline {figure}{\numberline {19}{\ignorespaces 方向舵协调控制律根轨迹与Bode图}}{23}\protected@file@percent }
\@writefile{lof}{\contentsline {figure}{\numberline {20}{\ignorespaces 方向舵协调控制律设计仿真框图}}{24}\protected@file@percent }
\@writefile{lof}{\contentsline {figure}{\numberline {21}{\ignorespaces 方向舵协调控制律仿真阶跃响应}}{25}\protected@file@percent }
\@writefile{toc}{\contentsline {section}{\numberline {3}对提高飞行控制系统课程教学效果提出的建议与意见}{25}\protected@file@percent }
\@writefile{toc}{\contentsline {subsection}{\numberline {3.1}建议}{25}\protected@file@percent }
\@writefile{toc}{\contentsline {subsection}{\numberline {3.2}意见}{26}\protected@file@percent }
\@writefile{toc}{\contentsline {paragraph}{}{26}\protected@file@percent }
